__BEGIN__	__EPS__
m	m
a	a
r	r
i	i
a	a

__BEGIN__	__EPS__
s	s
e	e
l	l
b	be

__BEGIN__	__EPS__
y	ih
m	m

__BEGIN__	__EPS__
c	k
r	r
u	__EPS__
i	e
t	u
z	z
e	e

__BEGIN__	__EPS__
a	a
l	l
l	l

__BEGIN__	__EPS__
o	o
w	w
e	eh

__BEGIN__	__EPS__
m	m
e	e
i	i
n	n

__BEGIN__	__EPS__
s	s
a	a
c	c
h	he

__BEGIN__	__EPS__
d	d
a	a
z	s

__BEGIN__	__EPS__
h	h
e	e
r	rr

__BEGIN__	__EPS__
k	c
i	h
r	ri
s	s
t	t
e	e
n	n
d	t
u	u
m	m

__BEGIN__	__EPS__
e	e
r	r

__BEGIN__	__EPS__
g	g
r	r
o	o
s	s
z	s

__BEGIN__	__EPS__
d	d
i	i
e	e

__BEGIN__	__EPS__
v	u
n	n
d	d

__BEGIN__	__EPS__
m	m
a	a
n	n
n	n
i	i
g	g
u	f
a	a
l	l
d	t
i	i
g	g

__BEGIN__	__EPS__
v	u
n	n
d	d

__BEGIN__	__EPS__
i	ih
m	m

__BEGIN__	__EPS__
v	u
n	n
d	d

__BEGIN__	__EPS__
t	te
p	m
r	p
o	e
l	l

__BEGIN__	__EPS__
v	u
n	n
d	d

__BEGIN__	__EPS__
s	s
t	t
ü	u
m	m
p	p
p	f
e	e
n	n

__BEGIN__	__EPS__
s	s
a	a
n	n
d	kt

__BEGIN__	__EPS__
a	a
n	n

__BEGIN__	__EPS__
i	i
n	n

__BEGIN__	__EPS__
d	d
e	e
n	n

__BEGIN__	__EPS__
s	se
i	i
n	n
e	e
r	r

__BEGIN__	__EPS__
a	a
n	n

__BEGIN__	__EPS__
w	w
a	e
i	i
n	n
t	t

__BEGIN__	__EPS__
w	w
i	i
l	lls
d	t

__BEGIN__	__EPS__
s	s
i	i
e	e

__BEGIN__	__EPS__
i	ih
n	n

__BEGIN__	__EPS__
l	l
i	i
e	e
s	ss

__BEGIN__	__EPS__
a	a
u	u
f	f

__BEGIN__	d
u	u

__BEGIN__	__EPS__
g	g
e	e
g	g
e	e
u	b
e	e
n	n

__BEGIN__	__EPS__
s	s
c	c
h	h
u	üt
t	te
t	t

__BEGIN__	__EPS__
m	m
i	i
r	r

__BEGIN__	__EPS__
v	u
n	n
n	d

__BEGIN__	__EPS__
s	s
y	ie

__BEGIN__	__EPS__
d	d
i	i
c	c
h	h

__BEGIN__	__EPS__
v	ü
b	b
e	e
r	r

__BEGIN__	__EPS__
w	w
a	a
z	s

__BEGIN__	__EPS__
d	d
i	i
r	r

__BEGIN__	__EPS__
c	k
h	__EPS__
r	r
a	e
w	u
c	__EPS__
z	z
e	e

__BEGIN__	__EPS__
d	d
e	e
m	m

__BEGIN__	__EPS__
h	h
a	a
b	b
e	e
n	n

__BEGIN__	__EPS__
a	a
l	l
s	s
o	o

__BEGIN__	__EPS__
i	i
c	c
h	h

__BEGIN__	__EPS__
s	s
o	o
l	ll
t	t

__BEGIN__	__EPS__
d	d
o	a

__BEGIN__	__EPS__
o	o
w	w
e	eh

__BEGIN__	__EPS__
d	d
u	u

__BEGIN__	__EPS__
t	t
r	r
o	o
s	s
t	t

__BEGIN__	__EPS__
b	b
e	e
f	f
a	a
l	__EPS__
c	h
h	l

__BEGIN__	__EPS__
i	i
c	c
h	h

__BEGIN__	__EPS__
j	j
a	a
c	k
o	o
b	b

__BEGIN__	__EPS__
s	s
i	ie

__BEGIN__	__EPS__
a	e
i	i
n	n

__BEGIN__	__EPS__
p	b
e	e
y	i

__BEGIN__	__EPS__
d	d
o	a

__BEGIN__	__EPS__
m	m
i	i
t	t

__BEGIN__	__EPS__
n	n
a	a
c	c
h	h

__BEGIN__	__EPS__
c	__EPS__
z	z
w	w
u	a
n	n
g	g
e	e
n	n

__BEGIN__	__EPS__
m	m
u	u
o	t
t	t
e	e
r	r

__BEGIN__	__EPS__
d	d
i	i
c	c
h	h

__BEGIN__	__EPS__
e	e
i	i
n	n
e	e
r	r

__BEGIN__	__EPS__
y	ih
n	n

__BEGIN__	__EPS__
f	f
u	u
s	s
s	s
z	__EPS__

__BEGIN__	__EPS__
e	e
y	i
n	n

__BEGIN__	__EPS__
s	s
p	p
r	r
a	a
c	c
h	h

__BEGIN__	__EPS__
d	d
i	i
r	r

__BEGIN__	__EPS__
s	s
y	i
m	m
e	e
o	o
n	n
i	__EPS__
s	s

__BEGIN__	__EPS__
l	f
e	äss
g	ch
e	e
l	n

__BEGIN__	__EPS__
v	u
n	n
d	d

__BEGIN__	__EPS__
s	s
e	e
l	l
b	b
i	e
n	n

__BEGIN__	__EPS__
s	s
a	a
g	g

__BEGIN__	__EPS__
a	a
l	l
l	__EPS__
s	s
o	o

__BEGIN__	__EPS__
m	m
a	a
n	n

__BEGIN__	__EPS__
i	i
c	c
h	h

__BEGIN__	__EPS__
a	a
l	l
s	s
o	o

__BEGIN__	__EPS__
d	d
o	a

__BEGIN__	__EPS__
m	me
y	i
n	n

__BEGIN__	__EPS__
d	d
e	e
m	m

__BEGIN__	__EPS__
d	d
o	a

__BEGIN__	__EPS__
v	v
o	o
n	n

__BEGIN__	__EPS__
a	a
l	l
z	s

__BEGIN__	__EPS__
v	v
o	o
r	r

__BEGIN__	__EPS__
d	d
a	a
s	ss

__BEGIN__	__EPS__
a	a
n	n

__BEGIN__	__EPS__
s	s
p	p
r	r
a	a
c	c
h	h

__BEGIN__	__EPS__
d	d
c	as

__BEGIN__	__EPS__
d	d
o	a

__BEGIN__	__EPS__
n	n
i	i
c	c
h	h
t	t

__BEGIN__	__EPS__
c	k
r	r
e	e
u	u
c	__EPS__
z	z

__BEGIN__	__EPS__
v	an
e	g
r	e
s	s
p	p
i	i
b	__EPS__
e	e
n	n

__BEGIN__	__EPS__
m	me
i	i
n	n

__BEGIN__	__EPS__
s	s
o	o

__BEGIN__	__EPS__
v	v
i	ie
l	l

__BEGIN__	__EPS__
v	u
n	n
d	d

__BEGIN__	__EPS__
s	s
u	o
n	n
n	n
e	e

__BEGIN__	__EPS__
s	s
p	p
o	o
t	tt
e	e
n	n

__BEGIN__	__EPS__
d	d
e	e
r	r

__BEGIN__	__EPS__
w	w
a	a
s	s

__BEGIN__	__EPS__
n	n
a	a
g	g
e	e
l	l

__BEGIN__	__EPS__
d	d
i	i
e	e

__BEGIN__	__EPS__
d	d
e	e
n	n

__BEGIN__	__EPS__
b	b
o	o
t	t

__BEGIN__	__EPS__
e	e
r	r
t	d
r	re
i	i
c	c
h	h

__BEGIN__	__EPS__
f	h
u	__EPS__
e	e
r	r
g	g
i	i
n	n
g	g
e	e
n	n

__BEGIN__	__EPS__
d	d
o	a

__BEGIN__	__EPS__
m	m
e	e
i	i
n	n

__BEGIN__	__EPS__
m	m
a	a
r	r
t	t
e	e
r	r

__BEGIN__	__EPS__
q	k
u	__EPS__
a	a
m	m

__BEGIN__	__EPS__
p	p
e	e
t	t
r	r
u	u
s	s

__BEGIN__	__EPS__
d	d
a	a
s	ss

__BEGIN__	__EPS__
v	v
o	o
l	l
k	k
e	e
s	s

__BEGIN__	__EPS__
s	s
p	p
r	r
a	a
c	c
h	h

__BEGIN__	__EPS__
e	e
c	t
z	__EPS__
l	l
i	i
c	c
h	h
e	e
n	n

__BEGIN__	__EPS__
m	m
o	o
c	c
h	h
t	te

__BEGIN__	__EPS__
n	n
i	i
c	c
h	h
t	t

__BEGIN__	__EPS__
z	z
u	u
o	__EPS__

__BEGIN__	__EPS__
d	d
e	e
m	m

__BEGIN__	__EPS__
s	s
e	e
c	c
h	h
s	s
t	t
e	e
n	n

__BEGIN__	__EPS__
v	u
n	n
d	d

__BEGIN__	__EPS__
i	i
c	c
h	h

__BEGIN__	__EPS__
d	d
e	e
n	n

__BEGIN__	__EPS__
a	a
l	l
l	l
e	e
n	n

__BEGIN__	__EPS__
h	__EPS__
e	e
r	r

__BEGIN__	__EPS__
e	e
u	u
c	c
h	h

__BEGIN__	__EPS__
e	ih
r	r
i	e
m	m

__BEGIN__	__EPS__
m	me
y	i
n	n
e	e
n	m

__BEGIN__	__EPS__
h	h
e	e
r	r
e	__EPS__

__BEGIN__	__EPS__
i	ih
m	m

__BEGIN__	__EPS__
c	__EPS__
h	k
i	i
n	n
d	d
e	e
s	s

__BEGIN__	__EPS__
w	w
a	a
n	n
g	g
e	e
n	n

__BEGIN__	__EPS__
t	t
u	u
o	__EPS__
n	n

__BEGIN__	__EPS__
e	e
n	n
t	t
b	b
u	a
n	n
d	d
e	e
n	n
d	__EPS__

__BEGIN__	__EPS__
c	__EPS__
z	z
e	u

__BEGIN__	__EPS__
v	u
n	n
d	d

__BEGIN__	__EPS__
l	l
e	e
i	i
c	c
h	h
n	n
a	a
n	m

__BEGIN__	__EPS__
v	v
o	o
n	n

__BEGIN__	__EPS__
t	t
o	o
d	t

__BEGIN__	__EPS__
a	a
l	l
l	l
e	e
r	r
l	l
i	i
e	e
b	b
s	s
t	t
e	e

__BEGIN__	__EPS__
o	o
s	s
t	t
e	e
r	r
l	l
a	a
m	m
p	m

__BEGIN__	__EPS__
d	d
u	u
r	r
c	c
h	h

__BEGIN__	__EPS__
k	k
v	__EPS__
i	ö
n	n
i	i
c	g
h	__EPS__

__BEGIN__	__EPS__
v	u
n	n
r	r
a	e
y	i
n	n
e	e
n	n

__BEGIN__	__EPS__
e	e
r	r

__BEGIN__	__EPS__
a	a
b	b
e	e
r	r

__BEGIN__	__EPS__
d	d
e	e
m	m

__BEGIN__	__EPS__
d	de
y	i
n	ne
s	s

__BEGIN__	__EPS__
m	m
o	o
c	c
h	h
t	te

__BEGIN__	__EPS__
g	g
o	ot
t	t

__BEGIN__	__EPS__
v	u
n	n
d	d

__BEGIN__	__EPS__
d	d
e	e
n	n

__BEGIN__	__EPS__
c	k
r	r
e	e
u	u
t	__EPS__
z	z

__BEGIN__	__EPS__
g	g
r	r
o	os
z	s

__BEGIN__	d
u	u

__BEGIN__	__EPS__
d	d
a	a
r	r
v	u
m	m
b	__EPS__

__BEGIN__	__EPS__
m	m
i	i
t	t

__BEGIN__	__EPS__
v	u
n	n
d	d

__BEGIN__	__EPS__
s	s
e	e
l	l
b	b
e	e
r	r

__BEGIN__	__EPS__
k	k
i	i
n	n
d	d

__BEGIN__	__EPS__
v	v
o	o
r	r

__BEGIN__	__EPS__
a	a
n	n

__BEGIN__	__EPS__
v	u
n	n
d	d

__BEGIN__	__EPS__
m	m
e	e
n	n
s	s
c	c
h	h

__BEGIN__	__EPS__
n	n
o	o
t	t

__BEGIN__	__EPS__
d	d
y	i
r	r

__BEGIN__	__EPS__
d	d
o	a

__BEGIN__	__EPS__
d	d
o	a
e	__EPS__

__BEGIN__	__EPS__
m	m
a	a
r	r
t	t
e	e
r	r

__BEGIN__	__EPS__
d	d
a	a
s	ss

__BEGIN__	__EPS__
g	ge
o	he
n	n

__BEGIN__	__EPS__
p	p
a	a
r	r
a	a
s	s
c	c
e	e
u	v
e	e

__BEGIN__	__EPS__
v	v
o	o
n	n

__BEGIN__	__EPS__
g	g
a	eh
e	e
n	n

__BEGIN__	__EPS__
p	pe
y	i
n	n

__BEGIN__	__EPS__
f	f
ü	üh
r	r
e	__EPS__
t	t

__BEGIN__	__EPS__
h	h
e	a
t	t

__BEGIN__	__EPS__
s	s
u	ch
e	ö
n	n
s	s
t	te

__BEGIN__	__EPS__
l	le
i	i
n	n
i	e
n	n

__BEGIN__	__EPS__
s	s
o	o

__BEGIN__	__EPS__
a	a
r	ra
m	m
a	a
t	t
h	h
y	i
a	a

__BEGIN__	__EPS__
i	i
c	c
h	h

__BEGIN__	__EPS__
m	m
e	e
i	i
n	n

__BEGIN__	__EPS__
g	g
e	en

__BEGIN__	__EPS__
m	m
e	e
i	i
n	n

__BEGIN__	__EPS__
e	e
y	i
n	n

__BEGIN__	__EPS__
s	s
o	o
e	h
n	n

__BEGIN__	__EPS__
d	d
a	a

__BEGIN__	__EPS__
o	o
b	b

__BEGIN__	__EPS__
m	m
i	i
c	c
h	h

__BEGIN__	__EPS__
d	d
i	i
e	e

__BEGIN__	__EPS__
d	d
e	e
i	i
n	n

__BEGIN__	__EPS__
u	u
n	n
d	d

__BEGIN__	__EPS__
d	d
a	as
s	s

__BEGIN__	__EPS__
s	s
i	i
j	e

__BEGIN__	__EPS__
f	v
ü	o
r	r

__BEGIN__	__EPS__
a	a
n	n
d	d
e	e
r	re

__BEGIN__	__EPS__
h	h
o	ö
i	__EPS__
r	r
t	t
e	e

__BEGIN__	__EPS__
d	d
o	e
u	u
c	c
h	h
t	t
e	e

__BEGIN__	__EPS__
a	a
l	l
s	s
o	o

__BEGIN__	__EPS__
n	n
a	a
y	i
m	n

__BEGIN__	__EPS__
i	i
n	n

__BEGIN__	__EPS__
t	t
u	u
t	t

__BEGIN__	__EPS__
h	e
i	r

__BEGIN__	__EPS__
h	h
e	e
r	r
o	o
d	d
e	e
s	s

__BEGIN__	__EPS__
i	i
c	c
h	h

__BEGIN__	__EPS__
i	ih
m	m

__BEGIN__	__EPS__
w	w
o	oh
l	l

__BEGIN__	__EPS__
h	h
i	i
e	er

__BEGIN__	__EPS__
v	ü
b	b
e	e
r	r

__BEGIN__	__EPS__
f	f
r	r
e	e
i	u
d	de

__BEGIN__	__EPS__
v	u
n	n
d	d

__BEGIN__	e
i	i
n	n
g	g
e	e
t	t
u	u
n	n
c	__EPS__
k	k
e	__EPS__
t	t
i	e
n	n

__BEGIN__	__EPS__
i	ih
n	n

__BEGIN__	__EPS__
r	r
v	e
w	u
e	e

__BEGIN__	__EPS__
s	s
e	eh
y	e
n	n

__BEGIN__	__EPS__
d	d
o	a

__BEGIN__	__EPS__
d	d
o	a

__BEGIN__	__EPS__
v	u
n	n
d	d

__BEGIN__	__EPS__
n	n
i	ich
t	t

__BEGIN__	__EPS__
l	l
e	e
i	i
p	b

__BEGIN__	__EPS__
m	m
a	a
n	n

__BEGIN__	__EPS__
y	j
e	e

__BEGIN__	__EPS__
g	g
r	r
o	o
i	__EPS__
s	s
s	s
e	e

__BEGIN__	__EPS__
t	t
r	r
o	o
s	s
t	t

__BEGIN__	__EPS__
e	e
r	r
s	s
c	c
h	h
r	r
a	a
k	k
c	__EPS__
h	__EPS__
t	__EPS__
e	e
n	n

__BEGIN__	__EPS__
g	g
e	e
s	sch
m	m
a	a
c	c
k	k

__BEGIN__	__EPS__
s	s
e	eh
r	r

__BEGIN__	__EPS__
v	u
n	n
d	d

__BEGIN__	__EPS__
a	a
u	u
f	f
f	__EPS__
l	l
o	a
u	u
f	f
f	__EPS__

__BEGIN__	__EPS__
g	f
e	e
p	h
r	l
a	t
s	e
t	__EPS__

__BEGIN__	__EPS__
s	s
o	o

__BEGIN__	__EPS__
m	m
e	eh
r	r

__BEGIN__	__EPS__
w	w
e	e
n	nn

__BEGIN__	__EPS__
a	a
l	l
s	s
o	o

__BEGIN__	__EPS__
a	a
l	l
l	l

__BEGIN__	__EPS__
l	le
i	i
b	b
e	__EPS__

__BEGIN__	__EPS__
k	k
i	i
n	n
t	d

__BEGIN__	__EPS__
s	s
i	ie

__BEGIN__	a
v	u
f	f

__BEGIN__	__EPS__
n	n
i	i
c	c
h	h
t	t

__BEGIN__	__EPS__
b	b
r	r
w	u
n	n
n	n
e	e
n	n

__BEGIN__	__EPS__
s	s
p	p
r	r
a	a
c	c
h	h

__BEGIN__	__EPS__
l	l
o	o
c	c
h	h

__BEGIN__	__EPS__
c	c
e	e
n	n
t	t
u	u
r	r
i	i
o	o

__BEGIN__	__EPS__
g	g
a	a
l	l
l	l
e	i
k	c
a	a
n	n
t	t
u	__EPS__
s	__EPS__

__BEGIN__	n
e	ich
n	t

__BEGIN__	__EPS__
d	d
e	e
r	r

__BEGIN__	__EPS__
n	n
a	ah
m	m
e	e
n	n

__BEGIN__	__EPS__
v	u
n	n
d	d

__BEGIN__	__EPS__
w	w
a	a
s	r

__BEGIN__	__EPS__
s	s
y	ie

__BEGIN__	__EPS__
k	k
a	a
m	m

__BEGIN__	__EPS__
d	d
e	e
r	r

__BEGIN__	__EPS__
d	d
y	ie

__BEGIN__	__EPS__
m	m
u	u
t	t
t	t
e	e
r	r

__BEGIN__	__EPS__
i	ih
n	n

__BEGIN__	__EPS__
v	v
a	a
d	t
e	e
r	r

__BEGIN__	__EPS__
d	d
u	u
r	r
c	c
h	h
g	g
i	in
e	g

__BEGIN__	__EPS__
n	n
a	a
c	c
h	h

__BEGIN__	__EPS__
w	w
i	ie
d	d
e	e
r	r

__BEGIN__	__EPS__
g	g
e	e
p	b
u	u
n	n
d	d
e	e
n	n

__BEGIN__	__EPS__
d	d
e	e
n	n

__BEGIN__	__EPS__
c	k
r	r
v	e
c	u
e	z

__BEGIN__	__EPS__
v	u
n	n
d	d

__BEGIN__	__EPS__
v	u
n	n
d	d

__BEGIN__	__EPS__
h	h
i	i
e	e
s	s
z	s

__BEGIN__	__EPS__
o	o
w	w
e	eh

__BEGIN__	__EPS__
n	n
a	ä
g	g
h	__EPS__
e	e
l	l
e	__EPS__
n	n

__BEGIN__	__EPS__
e	e
r	r

__BEGIN__	__EPS__
i	i
s	s
t	t

__BEGIN__	__EPS__
c	__EPS__
h	k
w	ö
n	n
i	i
g	g

__BEGIN__	__EPS__
t	__EPS__
z	z
o	u

__BEGIN__	__EPS__
w	w
a	a
s	s

__BEGIN__	__EPS__
a	a
n	n
s	s
h	__EPS__
e	e
l	l
m	m
e	__EPS__

__BEGIN__	__EPS__
i	ih
n	n

__BEGIN__	__EPS__
d	d
a	a
s	ss

__BEGIN__	__EPS__
w	w
i	i
l	l
l	l
e	e
n	n

__BEGIN__	__EPS__
m	me
y	i
n	n
e	e
n	n

__BEGIN__	__EPS__
v	v
o	o
r	r

__BEGIN__	__EPS__
g	g
e	e
u	b
e	e
n	n

__BEGIN__	__EPS__
g	__EPS__
e	__EPS__
s	s
e	e
i	i
n	n

__BEGIN__	__EPS__
g	g
e	e
g	g
a	a
n	n
g	g
e	e
n	n

__BEGIN__	__EPS__
v	v
e	e
r	r
s	s
p	c
u	h
w	m
e	äh
n	t

__BEGIN__	__EPS__
s	s
i	i
c	e
h	h

__BEGIN__	__EPS__
v	u
n	n
d	d

__BEGIN__	__EPS__
e	e
i	i
n	n

__BEGIN__	__EPS__
e	e
r	r
n	n
e	äh
r	r
t	t

__BEGIN__	__EPS__
y	ih
n	n

__BEGIN__	__EPS__
i	i
c	c
h	h

__BEGIN__	__EPS__
a	a
l	l
l	l
e	e
r	r

__BEGIN__	__EPS__
z	r
e	e
s	i
e	h
m	e

__BEGIN__	__EPS__
y	j
e	e
t	t
z	zt

__BEGIN__	__EPS__
d	d
o	a

__BEGIN__	__EPS__
z	ze
ü	u
g	g
e	e
n	n

__BEGIN__	__EPS__
i	i
n	n

__BEGIN__	__EPS__
i	i
n	n

__BEGIN__	__EPS__
m	me
i	i
n	n

__BEGIN__	__EPS__
m	m
i	i
r	r

__BEGIN__	__EPS__
s	se
i	i
n	n
e	e
m	m

__BEGIN__	__EPS__
v	u
n	n
n	d

__BEGIN__	__EPS__
p	b
l	l
u	u
e	__EPS__
t	t

__BEGIN__	__EPS__
b	b
e	e
s	f
t	l
r	__EPS__
e	ec
b	k
t	t

__BEGIN__	__EPS__
t	t
o	o
e	__EPS__
t	d

__BEGIN__	__EPS__
l	l
i	ie
b	be

__BEGIN__	__EPS__
n	n
a	a
c	c
h	h
t	t

__BEGIN__	__EPS__
v	u
n	n
d	d

__BEGIN__	__EPS__
m	m
e	e
i	i
n	n

__BEGIN__	__EPS__
w	w
a	a
s	r

__BEGIN__	__EPS__
a	a
u	u
f	f
f	__EPS__

__BEGIN__	__EPS__
s	s
p	p
r	r
a	a
c	c
h	h

__BEGIN__	__EPS__
d	d
o	a

__BEGIN__	__EPS__
d	d
o	a

__BEGIN__	__EPS__
v	v
e	e
r	r
s	s
c	c
h	h
m	m
a	ä
c	__EPS__
h	h
t	t

__BEGIN__	__EPS__
s	s
i	i
j	e

__BEGIN__	__EPS__
e	e
i	i
n	n

__BEGIN__	__EPS__
d	d
a	a
z	ss

__BEGIN__	__EPS__
g	g
e	e
d	d
e	e
n	n
c	__EPS__
k	k

__BEGIN__	__EPS__
z	z
ü	u

__BEGIN__	__EPS__
d	t
o	ö
d	t
e	e
n	n

__BEGIN__	__EPS__
z	z
a	a
r	r
t	t
e	e
n	n

__BEGIN__	__EPS__
m	m
i	i
e	__EPS__
r	r

__BEGIN__	__EPS__
e	e
r	r

__BEGIN__	__EPS__
a	a
n	n

__BEGIN__	__EPS__
d	d
i	i
e	e

__BEGIN__	__EPS__
m	me
i	i
n	n

__BEGIN__	__EPS__
w	w
i	i
r	r

__BEGIN__	__EPS__
v	u
n	n
d	d

__BEGIN__	__EPS__
s	sch
w	w
e	e
r	r
t	t

__BEGIN__	__EPS__
s	s
e	e
y	i
n	n
e	e

__BEGIN__	__EPS__
g	g
r	r
o	o
z	s
z	s
e	e
r	r

__BEGIN__	__EPS__
s	s
u	ü
n	n
d	d
e	e

__BEGIN__	__EPS__
d	d
e	e
s	s
t	t
e	__EPS__
r	o

__BEGIN__	__EPS__
w	w
i	i
d	d
e	e
r	r
w	w
e	ä
r	r
t	ti
e	g
k	k
e	e
i	i
t	t

__BEGIN__	__EPS__
m	m
e	e
i	i
n	n

__BEGIN__	__EPS__
h	h
ö	ö
r	r
t	t
e	e
n	n

__BEGIN__	__EPS__
m	m
o	ö
e	__EPS__
c	c
h	h
t	te

__BEGIN__	__EPS__
d	d
e	e
m	m

__BEGIN__	__EPS__
d	d
a	a
r	__EPS__
n	n
a	a
c	c
h	h

__BEGIN__	__EPS__
v	u
n	n
d	d

__BEGIN__	__EPS__
z	z
v	u

__BEGIN__	__EPS__
m	m
o	ö
i	__EPS__
c	c
h	h
t	te

__BEGIN__	__EPS__
h	h
a	ä
n	n
d	d
e	e
n	n

__BEGIN__	__EPS__
i	i
c	c
h	h

__BEGIN__	__EPS__
k	s
a	c
p	h
f	a
e	u
t	te

__BEGIN__	__EPS__
h	h
o	a
v	u
b	p
e	__EPS__
t	t
e	__EPS__

__BEGIN__	__EPS__
t	t
o	o
t	t
e	e
n	n

__BEGIN__	__EPS__
l	l
a	a
z	s
s	s
e	e
n	n

__BEGIN__	__EPS__
v	v
i	i
e	e
r	r

__BEGIN__	__EPS__
s	s
p	p
r	r
a	a
c	c
h	h

__BEGIN__	__EPS__
s	s
o	o

__BEGIN__	__EPS__
t	__EPS__
z	z
o	u

__BEGIN__	__EPS__
l	l
o	a
s	s
z	s
e	e
n	n

__BEGIN__	__EPS__
s	s
e	eh
r	r
e	__EPS__

__BEGIN__	__EPS__
v	u
n	n
d	d

__BEGIN__	__EPS__
n	n
y	i
m	mm

__BEGIN__	__EPS__
z	z
e	e
u	u
g	g
e	e
n	n

__BEGIN__	__EPS__
m	m
a	a
n	n

__BEGIN__	__EPS__
h	h
e	a
t	t
t	t
e	e
n	n

__BEGIN__	__EPS__
a	a
n	n

__BEGIN__	__EPS__
g	g
e	e
s	s
a	e
h	h
e	e
n	n

__BEGIN__	__EPS__
v	u
n	n
d	d

__BEGIN__	__EPS__
y	ih
m	m

__BEGIN__	__EPS__
w	w
a	e
i	is
s	s
t	t

__BEGIN__	__EPS__
z	z
u	u
o	__EPS__

__BEGIN__	__EPS__
i	i
n	n

__BEGIN__	__EPS__
v	u
n	n
d	d
e	__EPS__

__BEGIN__	__EPS__
t	t
r	r
o	ö
s	s
t	t
e	e
n	n
d	d
e	__EPS__

__BEGIN__	__EPS__
f	f
u	ü
e	__EPS__
r	r
s	s
t	t
e	e
n	n

__BEGIN__	__EPS__
p	p
y	i
l	l
a	a
t	t
u	u
s	s

__BEGIN__	__EPS__
d	d
a	a

__BEGIN__	__EPS__
l	l
e	e
d	d
i	i
g	g

__BEGIN__	__EPS__
n	n
u	u
n	n

__BEGIN__	__EPS__
n	n
a	a
c	c
h	h
t	t

__BEGIN__	__EPS__
d	d
e	e
r	r

__BEGIN__	__EPS__
k	k
a	e
i	i
n	n

__BEGIN__	__EPS__
t	t
e	e
m	m
p	pe
l	l

__BEGIN__	a
v	u
f	f
h	h
e	ä
l	l
t	t

__BEGIN__	__EPS__
k	k
y	i
n	n
d	d
e	__EPS__

__BEGIN__	__EPS__
g	g
e	e
s	s
c	c
h	h
l	l
e	e
c	c
h	h
t	t

__BEGIN__	__EPS__
n	n
i	i
m	m
m	m
e	e
r	r

__BEGIN__	__EPS__
w	w
i	i
s	s
z	se

__BEGIN__	__EPS__
i	j
o	o
h	h
a	an
n	n
e	e
m	s

__BEGIN__	__EPS__
h	h
e	e
i	i
l	l
i	i
g	ge
s	s

__BEGIN__	__EPS__
d	d
o	a

__BEGIN__	__EPS__
d	d
o	a

__BEGIN__	__EPS__
d	d
o	a

__BEGIN__	__EPS__
s	s
p	p
r	r
a	a
c	c
h	h

__BEGIN__	__EPS__
s	s
y	ie

__BEGIN__	__EPS__
v	v
e	e
s	s
p	p
a	a
s	s
i	i
a	a
n	n
u	__EPS__
s	__EPS__

__BEGIN__	__EPS__
o	au
c	c
h	h

__BEGIN__	__EPS__
e	nich
n	t

__BEGIN__	__EPS__
d	d
o	a

__BEGIN__	d
u	u

__BEGIN__	__EPS__
g	g
a	a
r	r

__BEGIN__	__EPS__
s	s
i	i
c	c
h	h

__BEGIN__	__EPS__
m	m
i	i
n	n
n	n
e	e

__BEGIN__	__EPS__
w	w
i	i
l	l
l	l
e	e
n	n

__BEGIN__	__EPS__
g	g
e	e
b	b
i	e
n	n

__BEGIN__	__EPS__
h	h
e	a
t	t

__BEGIN__	__EPS__
w	w
a	a
r	r
t	d

__BEGIN__	__EPS__
v	v
o	o
n	n

__BEGIN__	__EPS__
d	d
a	a
z	ss

__BEGIN__	__EPS__
i	i
c	c
h	h

__BEGIN__	__EPS__
v	v
o	o
n	n

__BEGIN__	__EPS__
m	m
a	a
n	nn
i	i
c	__EPS__
h	g
f	f
a	a
l	l
t	tig

__BEGIN__	__EPS__
m	m
i	i
c	c
h	h

__BEGIN__	__EPS__
m	m
i	i
c	c
h	h

__BEGIN__	__EPS__
s	s
a	ol
l	l
t	t

__BEGIN__	__EPS__
d	d
a	a
z	ss

__BEGIN__	__EPS__
d	d
a	a
z	s

__BEGIN__	__EPS__
g	__EPS__
e	__EPS__
s	s
a	a
c	__EPS__
h	h

__BEGIN__	__EPS__
f	f
r	r
o	a
u	u
w	__EPS__

__BEGIN__	__EPS__
w	w
i	ie
d	d
e	e
r	r
b	b
r	r
i	i
n	n
g	g
e	e
n	n

__BEGIN__	__EPS__
d	d
a	a

__BEGIN__	__EPS__
m	m
e	e
y	i
n	n
i	e
s	s

__BEGIN__	__EPS__
n	n
a	ah
m	m

__BEGIN__	__EPS__
d	d
e	e
n	m

__BEGIN__	__EPS__
d	d
e	e
n	n
n	n
e	__EPS__

__BEGIN__	__EPS__
s	s
i	i
e	e

__BEGIN__	__EPS__
b	b
r	r
a	a
c	c
h	hte

__BEGIN__	__EPS__
t	t
h	__EPS__
u	u
i	__EPS__
n	n

__BEGIN__	__EPS__
d	d
o	a
r	__EPS__
c	__EPS__
z	z
u	u

__BEGIN__	__EPS__
b	b
e	e
y	i

__BEGIN__	__EPS__
c	k
r	r
e	e
u	u
c	__EPS__
z	z
e	__EPS__

__BEGIN__	__EPS__
h	e
i	__EPS__
e	r

__BEGIN__	__EPS__
u	u
n	n
s	s

__BEGIN__	__EPS__
a	a
n	n

__BEGIN__	__EPS__
a	a
n	n

__BEGIN__	__EPS__
h	h
a	a
i	be
n	n

__BEGIN__	__EPS__
w	w
a	an
n	n

__BEGIN__	__EPS__
e	b
r	e
b	b
i	__EPS__
d	e
n	n
e	__EPS__

__BEGIN__	__EPS__
h	__EPS__
e	e
l	l
i	i
a	a
s	s

__BEGIN__	__EPS__
v	u
n	n
s	s

__BEGIN__	__EPS__
v	v
e	e
r	r
l	l
a	e
u	u
g	g
e	__EPS__
n	ne
d	t

__BEGIN__	__EPS__
e	e
r	r
s	s
a	a
c	__EPS__
h	h

__BEGIN__	__EPS__
v	f
r	r
o	a
w	u
e	__EPS__

__BEGIN__	__EPS__
w	w
a	a
z	ss
e	e
r	r

__BEGIN__	__EPS__
d	d
e	e
r	r

__BEGIN__	__EPS__
z	z
e	e
u	u
g	g
e	e
n	n

__BEGIN__	__EPS__
w	w
e	e
r	__EPS__
l	l
t	t

__BEGIN__	__EPS__
m	m
i	i
t	t

__BEGIN__	__EPS__
p	p
f	f
e	e
n	n
y	n
n	i
g	g

__BEGIN__	__EPS__
w	w
a	a
z	r

__BEGIN__	__EPS__
n	n
a	ah
m	m

__BEGIN__	__EPS__
m	m
o	ö
r	r
d	d
e	e
r	r

__BEGIN__	__EPS__
w	w
e	ä
r	re

__BEGIN__	__EPS__
w	w
a	a
z	r

__BEGIN__	__EPS__
d	d
i	ie

__BEGIN__	__EPS__
f	f
u	ü
l	ll
t	t

__BEGIN__	__EPS__
v	u
n	n
d	d

__BEGIN__	__EPS__
s	s
p	p
r	r
a	a
c	c
h	h

__BEGIN__	__EPS__
g	__EPS__
e	__EPS__
p	b
l	l
u	u
o	__EPS__
t	t
e	e
n	n

__BEGIN__	__EPS__
s	s
o	o

__BEGIN__	__EPS__
b	b
u	r
r	u
s	s
t	t

__BEGIN__	__EPS__
w	w
i	i
e	e

__BEGIN__	__EPS__
m	m
e	e
a	a

__BEGIN__	__EPS__
m	m
i	i
t	t

__BEGIN__	__EPS__
w	w
o	a
n	nn

__BEGIN__	__EPS__
l	le
i	i
p	b

__BEGIN__	__EPS__
m	m
e	e
i	i
n	n

__BEGIN__	__EPS__
d	d
a	a
s	s

__BEGIN__	__EPS__
i	i
c	c
h	h

__BEGIN__	__EPS__
d	d
a	a
z	ss

__BEGIN__	__EPS__
f	f
r	r
o	a
w	u
e	e
n	n

__BEGIN__	__EPS__
m	m
i	i
c	c
h	h

__BEGIN__	__EPS__
m	m
u	u
e	h
m	m
e	e
n	__EPS__

__BEGIN__	__EPS__
s	s
p	p
r	r
a	a
c	c
h	h

__BEGIN__	__EPS__
d	d
i	i
c	c
h	h

__BEGIN__	__EPS__
m	m
i	i
t	t

__BEGIN__	__EPS__
d	d
i	i
e	e

__BEGIN__	__EPS__
h	h
a	a
d	t
d	t
e	e
n	n

__BEGIN__	__EPS__
e	e
r	r
l	l
i	i
t	tt
e	e
n	n

__BEGIN__	__EPS__
y	ih
m	m

__BEGIN__	__EPS__
a	a
l	l
l	l
e	e
r	r

__BEGIN__	__EPS__
a	a
n	n

__BEGIN__	__EPS__
e	e
i	i
n	n

__BEGIN__	__EPS__
v	u
n	n
d	d

__BEGIN__	__EPS__
g	g
u	ü
t	t
i	__EPS__
k	__EPS__
e	e
i	__EPS__
t	__EPS__
h	__EPS__

__BEGIN__	__EPS__
b	b
u	a
n	n
d	d
e	e
n	n

__BEGIN__	__EPS__
d	d
r	r
u	ü
e	__EPS__
c	c
k	k
t	t
e	e
n	n

__BEGIN__	__EPS__
a	a
l	l
s	s
o	o

__BEGIN__	__EPS__
d	d
i	i
c	c
h	h

__BEGIN__	__EPS__
a	a
n	n
s	s
h	__EPS__
e	e
l	l
m	m
u	__EPS__
s	__EPS__

__BEGIN__	__EPS__
w	w
a	a
z	r

__BEGIN__	__EPS__
a	a
n	n

__BEGIN__	__EPS__
s	s
t	t
o	a
n	n
t	d

__BEGIN__	__EPS__
a	o
b	b

__BEGIN__	__EPS__
a	a
ü	u
c	c
h	h

__BEGIN__	__EPS__
e	e
s	s

__BEGIN__	__EPS__
s	s
p	p
r	r
a	a
c	c
h	h
e	e
n	n

__BEGIN__	__EPS__
m	me
i	i
n	n

__BEGIN__	__EPS__
i	ih
m	m

__BEGIN__	__EPS__
m	m
o	o
c	c
h	h
t	te

__BEGIN__	__EPS__
v	v
o	o
n	n

__BEGIN__	__EPS__
k	k
r	r
o	o
n	ne

__BEGIN__	__EPS__
g	g
r	r
o	o
s	s
z	s

__BEGIN__	__EPS__
v	u
n	n
n	d

__BEGIN__	__EPS__
d	d
a	a

__BEGIN__	__EPS__
m	me
y	i
n	n

__BEGIN__	__EPS__
c	k
h	__EPS__
r	r
e	ä
f	f
t	t
e	e
n	n

__BEGIN__	__EPS__
s	s
o	o

__BEGIN__	__EPS__
d	d
o	a

__BEGIN__	__EPS__
h	h
a	a
w	u
p	p
t	t

__BEGIN__	__EPS__
g	g
e	e
s	s
a	a
g	g
e	__EPS__
t	t

__BEGIN__	__EPS__
i	j
e	e

__BEGIN__	__EPS__
e	e
r	r

__BEGIN__	__EPS__
h	h
a	a
n	n
t	d

__BEGIN__	__EPS__
m	m
o	o
c	c
h	h
t	te

__BEGIN__	__EPS__
d	d
e	e
r	r

__BEGIN__	__EPS__
s	s
a	a
c	__EPS__
h	h
e	e
n	n

__BEGIN__	__EPS__
w	w
a	a
s	r

__BEGIN__	__EPS__
d	d
a	a
t	s

__BEGIN__	__EPS__
b	b
a	a
l	l
d	d

__BEGIN__	__EPS__
s	se
y	i

__BEGIN__	__EPS__
h	h
a	a
s	s
t	t

__BEGIN__	__EPS__
n	n
a	ah
m	m
e	e
n	n
t	__EPS__

__BEGIN__	__EPS__
a	a
v	u
f	f

__BEGIN__	__EPS__
b	b
r	r
a	__EPS__
e	e
c	c
h	h
e	e
n	n

__BEGIN__	__EPS__
e	e
r	r

__BEGIN__	__EPS__
d	d
o	a

__BEGIN__	__EPS__
i	ih
m	m

__BEGIN__	__EPS__
v	v
o	o
n	n

__BEGIN__	__EPS__
b	b
e	e
g	g
a	an
i	ge
n	n

__BEGIN__	__EPS__
a	a
l	l
l	l
e	e

__BEGIN__	__EPS__
p	b
i	i
n	n

__BEGIN__	__EPS__
i	j
h	e
-	s
u	u
s	s

__BEGIN__	__EPS__
d	d
a	a
s	ss

__BEGIN__	__EPS__
w	w
a	a
s	r
z	__EPS__

__BEGIN__	__EPS__
d	d
o	a

__BEGIN__	__EPS__
h	h
e	e
r	r
t	__EPS__
z	z
e	e
n	__EPS__
l	l
a	e
i	i
d	d
e	e
s	s

__BEGIN__	__EPS__
m	m
i	i
t	t

__BEGIN__	e
s	s

__BEGIN__	__EPS__
o	o
b	b

__BEGIN__	__EPS__
w	w
a	a
r	r
d	d
e	__EPS__

__BEGIN__	__EPS__
h	h
e	e
r	r
o	o
d	d
e	e
s	s
z	__EPS__

__BEGIN__	__EPS__
g	g
r	r
o	o
s	s
z	s
e	e
n	n

__BEGIN__	__EPS__
d	d
a	as
z	s

__BEGIN__	__EPS__
l	l
o	o
b	b
e	__EPS__
t	t

__BEGIN__	__EPS__
g	k
h	__EPS__
e	e
i	i
n	n

__BEGIN__	__EPS__
v	v
i	i
e	e
r	r

__BEGIN__	__EPS__
p	p
i	i
l	l
a	a
t	t
u	u
m	s

__BEGIN__	__EPS__
w	w
e	e
y	i
n	n
o	__EPS__
t	t
e	e
n	n
t	__EPS__

__BEGIN__	__EPS__
h	h
o	ö
r	r
t	t
o	e
s	s
t	t

__BEGIN__	__EPS__
m	me
i	i
n	n

__BEGIN__	__EPS__
s	s
o	o

__BEGIN__	__EPS__
i	ih
r	r
e	e

__BEGIN__	__EPS__
d	d
e	e
m	m

__BEGIN__	__EPS__
i	i
c	c
h	h

__BEGIN__	__EPS__
s	s
o	o
g	l
e	c
t	h
a	e
n	__EPS__

__BEGIN__	__EPS__
w	w
a	a
n	nn

__BEGIN__	__EPS__
g	g
r	r
o	o
z	ss
e	e
m	m
e	__EPS__

__BEGIN__	__EPS__
q	s
u	t
a	ac
z	h

__BEGIN__	__EPS__
w	w
u	u
r	r
d	d
e	e
n	n

__BEGIN__	d
u	u

__BEGIN__	__EPS__
d	d
a	a
t	ss

__BEGIN__	__EPS__
i	ih
n	n

__BEGIN__	__EPS__
d	d
e	e
r	r

__BEGIN__	__EPS__
d	de
y	i
n	n

__BEGIN__	__EPS__
a	e
i	i
n	n
e	e
r	r

__BEGIN__	__EPS__
s	s
e	e
i	i
n	n

__BEGIN__	__EPS__
d	d
e	e
s	s

__BEGIN__	__EPS__
o	ih
m	m

__BEGIN__	__EPS__
v	v
o	ol
l	l

__BEGIN__	__EPS__
h	h
a	a
b	be

__BEGIN__	__EPS__
v	u
n	n
d	d

__BEGIN__	__EPS__
d	d
i	i
e	e

__BEGIN__	__EPS__
i	i
c	c
h	h

__BEGIN__	__EPS__
m	m
e	e
n	n
s	s
c	c
h	h
l	l
i	i
c	c
h	h
e	e
m	m

__BEGIN__	__EPS__
w	w
u	a
r	r
f	f
f	__EPS__
e	e
n	n

__BEGIN__	__EPS__
d	d
a	as
z	s

__BEGIN__	__EPS__
i	ih
m	m

__BEGIN__	__EPS__
p	p
y	i
l	l
a	a
t	t
u	u
s	s

__BEGIN__	__EPS__
c	z
a	e
r	rr
t	t
e	e

__BEGIN__	__EPS__
s	s
u	ü
e	__EPS__
s	s
s	s
e	e

__BEGIN__	__EPS__
n	n
u	u
e	__EPS__
n	n

__BEGIN__	__EPS__
a	a
b	b
e	e
r	r

__BEGIN__	__EPS__
d	d
a	a
n	nn

__BEGIN__	__EPS__
g	g
r	r
o	o
i	__EPS__
s	s
s	s
e	e
r	r

__BEGIN__	__EPS__
v	ü
b	b
e	e
r	r

__BEGIN__	__EPS__
h	h
a	a
t	t

__BEGIN__	__EPS__
v	v
o	o
n	n

__BEGIN__	__EPS__
d	d
e	e
r	r

__BEGIN__	__EPS__
w	w
i	i
l	ll

__BEGIN__	__EPS__
v	f
r	r
o	a
w	u
e	__EPS__

__BEGIN__	__EPS__
s	s
y	ie

__BEGIN__	__EPS__
e	e
i	i
n	n

__BEGIN__	__EPS__
z	z
w	u

__BEGIN__	__EPS__
p	se
s	id
e	e
l	n
e	e
r	s

__BEGIN__	__EPS__
d	d
e	e
r	r

__BEGIN__	__EPS__
f	f
u	ü
o	h
r	r
t	t

__BEGIN__	__EPS__
m	m
e	ehr

__BEGIN__	__EPS__
r	r
e	e
c	c
h	h
t	t
e	e
n	n

__BEGIN__	__EPS__
w	w
e	u
s	ss
t	te

__BEGIN__	__EPS__
h	h
o	a
u	u
p	p
t	t

__BEGIN__	__EPS__
v	u
n	n
d	d

__BEGIN__	__EPS__
d	d
e	e
m	m

__BEGIN__	__EPS__
d	de
y	i
n	ne
s	s

__BEGIN__	__EPS__
a	a
n	n
s	s
h	__EPS__
e	e
l	l
m	m

__BEGIN__	__EPS__
m	m
a	a
r	r
i	i
a	a

__BEGIN__	__EPS__
s	s
p	p
r	r
i	i
c	c
h	h
t	t

__BEGIN__	__EPS__
w	w
a	a
r	r
t	d

__BEGIN__	__EPS__
d	d
o	a

__BEGIN__	__EPS__
h	h
e	e
r	rr
e	e
n	n

__BEGIN__	__EPS__
s	s
t	t
a	a
r	r
c	__EPS__
k	k
e	e
n	n

__BEGIN__	__EPS__
l	l
i	i
e	e
s	ss

__BEGIN__	__EPS__
w	w
e	e
m	m

__BEGIN__	__EPS__
g	g
e	e
b	b
u	u
n	n
d	d
e	e
n	n

__BEGIN__	__EPS__
i	i
n	n

__BEGIN__	__EPS__
v	v
e	e
r	r
s	sch
m	m
e	ä
h	h
e	__EPS__
n	__EPS__
t	t

__BEGIN__	__EPS__
s	s
t	t
e	ä
d	tt
e	e

__BEGIN__	__EPS__
e	e
s	s
t	t

__BEGIN__	__EPS__
d	d
o	a

__BEGIN__	__EPS__
a	a
n	n
d	d
e	e
r	re

__BEGIN__	__EPS__
v	v
i	i
e	e
r	r

__BEGIN__	__EPS__
g	g
i	i
n	n
g	g

__BEGIN__	__EPS__
s	s
p	p
r	r
a	a
c	c
h	h

__BEGIN__	__EPS__
d	d
a	a

__BEGIN__	__EPS__
a	a
n	n
d	de
r	r
e	e

__BEGIN__	__EPS__
s	s
a	o
l	ll
t	t

__BEGIN__	__EPS__
m	m
u	u
o	t
t	t
e	e
r	r

__BEGIN__	__EPS__
d	d
i	i
e	e

__BEGIN__	__EPS__
d	d
a	a
z	s

__BEGIN__	__EPS__
m	me
i	i
n	n
e	e
m	m

__BEGIN__	__EPS__
g	g
e	e
w	w
a	a
n	n
t	d

__BEGIN__	__EPS__
d	d
i	e
e	i
n	n

__BEGIN__	__EPS__
a	a
l	l
l	l
e	e

__BEGIN__	a
v	u
s	s
s	s
e	e
c	t
z	z
i	i
g	g
e	e
n	n

__BEGIN__	__EPS__
s	s
t	t
a	e
i	i
n	n

__BEGIN__	__EPS__
i	i
n	n

__BEGIN__	__EPS__
g	g
e	e
s	s
c	c
h	h
r	r
i	ie
b	b
e	e
n	n

__BEGIN__	__EPS__
d	d
a	a
r	r
a	a
u	u
f	f
f	__EPS__

__BEGIN__	__EPS__
g	g
e	en

__BEGIN__	__EPS__
t	t
o	o
d	d

__BEGIN__	__EPS__
p	p
i	i
l	l
a	a
t	t
u	u
s	s

__BEGIN__	__EPS__
d	d
i	i
e	e

__BEGIN__	__EPS__
v	u
e	__EPS__
n	n
t	t
t	e
r	r
i	__EPS__
s	s
t	te

__BEGIN__	__EPS__
e	i
m	h
e	m

__BEGIN__	__EPS__
v	u
n	n
d	d

__BEGIN__	__EPS__
d	d
e	e
n	n

__BEGIN__	__EPS__
g	g
e	e
b	b
e	e

__BEGIN__	__EPS__
m	m
y	i
r	r

__BEGIN__	__EPS__
a	a
l	l
l	l

__BEGIN__	__EPS__
d	d
a	a
t	s

__BEGIN__	__EPS__
i	ih
m	m

__BEGIN__	__EPS__
k	k
i	i
n	n
t	d

__BEGIN__	__EPS__
s	s
t	t
a	eh
i	e
n	n

__BEGIN__	__EPS__
s	s
u	o
l	ll
d	t
e	e

__BEGIN__	__EPS__
v	u
n	n
d	d

__BEGIN__	__EPS__
i	ih
m	m

__BEGIN__	__EPS__
t	t
r	r
o	o
s	s
t	t

__BEGIN__	__EPS__
c	k
h	o
o	m
m	m
e	e
n	n

__BEGIN__	__EPS__
h	h
o	ö
r	r
t	t
e	e

__BEGIN__	__EPS__
h	h
e	a
t	t

__BEGIN__	__EPS__
n	n
a	a
c	c
h	h

__BEGIN__	__EPS__
e	e
y	i
n	n
e	e
r	r

__BEGIN__	__EPS__
d	d
i	i
e	e

__BEGIN__	__EPS__
s	s
e	e
c	__EPS__
h	h
t	t

__BEGIN__	__EPS__
s	s
t	t
a	ä
t	tte

__BEGIN__	__EPS__
b	b
e	e
w	w
e	e
i	i
n	n
e	__EPS__
t	t

__BEGIN__	__EPS__
h	h
a	a
t	t

__BEGIN__	__EPS__
p	pf
l	l
a	e
c	gt
h	e

__BEGIN__	__EPS__
m	m
a	a
n	nn

__BEGIN__	__EPS__
d	d
o	a

__BEGIN__	__EPS__
h	h
e	a
u	b
e	__EPS__
t	t

__BEGIN__	n
e	ich
n	t

__BEGIN__	__EPS__
g	g
r	r
o	o
s	s
z	s

__BEGIN__	__EPS__
m	me
i	i
n	n

__BEGIN__	__EPS__
h	h
e	e
r	r
o	o
d	d
e	e
s	s

__BEGIN__	__EPS__
a	a
v	u
f	f

__BEGIN__	__EPS__
c	__EPS__
h	k
i	i
n	n
d	d

__BEGIN__	__EPS__
d	d
a	a
s	ss

__BEGIN__	__EPS__
v	u
n	n
d	d

__BEGIN__	__EPS__
v	f
i	i
n	n
d	de

__BEGIN__	__EPS__
f	f
r	r
a	a
g	g
e	__EPS__
t	t

__BEGIN__	__EPS__
m	m
a	oc
h	h
t	t
e	e

__BEGIN__	__EPS__
d	d
e	e
n	n

__BEGIN__	__EPS__
y	ih
n	n

__BEGIN__	__EPS__
s	s
e	e
i	i
n	n

__BEGIN__	__EPS__
a	a
u	u
f	f
f	__EPS__
g	g
e	e
s	s
t	t
a	a
n	n
d	d
e	e
n	n

__BEGIN__	__EPS__
e	e
r	r

__BEGIN__	__EPS__
g	g
r	r
o	o
s	s
s	s
e	e
z	s

__BEGIN__	__EPS__
d	d
a	a
s	s

__BEGIN__	__EPS__
m	m
u	ü
e	t
t	t
e	e
r	r
l	l
i	i
c	c
h	h
e	e

__BEGIN__	__EPS__
s	s
p	p
r	r
a	a
c	c
h	h

__BEGIN__	__EPS__
u	u
n	n
d	d

__BEGIN__	__EPS__
d	d
a	a
z	ss

__BEGIN__	__EPS__
d	d
a	a
r	r

__BEGIN__	__EPS__
d	d
a	as
s	s

__BEGIN__	__EPS__
a	a
l	l
l	l
e	e
n	n

__BEGIN__	__EPS__
s	s
a	a
g	g
e	e

__BEGIN__	__EPS__
d	d
e	e
y	i
n	n

__BEGIN__	__EPS__
a	e
i	i
n	n

__BEGIN__	__EPS__
c	k
l	l
a	a
g	ge

__BEGIN__	__EPS__
a	a
l	l
l	l
e	e
s	s
z	__EPS__

__BEGIN__	__EPS__
h	h
e	ä
t	tt
e	e
n	n

__BEGIN__	__EPS__
a	a
b	b

__BEGIN__	__EPS__
s	s
a	o
l	ll
t	t

__BEGIN__	__EPS__
a	a
u	u
e	__EPS__
z	s

__BEGIN__	__EPS__
k	k
o	o
m	mm
e	e
n	n

__BEGIN__	__EPS__
a	e
i	i
n	n

__BEGIN__	__EPS__
e	e
r	r

__BEGIN__	__EPS__
a	a
l	l
l	l
e	e
s	s

__BEGIN__	__EPS__
m	m
i	i
t	t

__BEGIN__	__EPS__
a	a
l	l
s	s
o	o

__BEGIN__	__EPS__
s	s
p	p
r	r
a	a
c	c
h	h

__BEGIN__	__EPS__
s	s
p	p
r	r
e	e
c	c
h	h
e	e
n	n
e	__EPS__
n	__EPS__

__BEGIN__	__EPS__
b	be
i	i

__BEGIN__	__EPS__
d	d
a	a
z	s

__BEGIN__	er
p	b
a	a
r	r
m	m
u	u
n	n
g	g

__BEGIN__	__EPS__
n	n
a	e
i	i
n	n

__BEGIN__	__EPS__
i	i
s	s
t	t

__BEGIN__	__EPS__
h	h
a	a
t	t

__BEGIN__	__EPS__
f	f
u	üs
s	s
e	e

__BEGIN__	__EPS__
p	p
y	i
l	l
a	a
t	t
u	u
s	s

__BEGIN__	__EPS__
k	k
i	i
n	n
d	d
e	e
s	s

__BEGIN__	__EPS__
o	o
b	b

__BEGIN__	__EPS__
i	ih
m	m

__BEGIN__	__EPS__
s	s
i	e
h	h
e	e

__BEGIN__	__EPS__
h	dr
o	ec
r	k

__BEGIN__	__EPS__
a	a
n	n

__BEGIN__	__EPS__
e	e
s	s

__BEGIN__	__EPS__
v	v
u	e
r	r
c	__EPS__
z	z
a	w
g	e
e	i
n	f
y	l
s	u
s	n
e	g

__BEGIN__	__EPS__
h	h
a	a
t	t
t	t
e	e
n	n
t	__EPS__

__BEGIN__	__EPS__
t	t
e	a
t	t

__BEGIN__	__EPS__
u	ü
b	b
e	e
r	r

__BEGIN__	__EPS__
i	i
n	n

__BEGIN__	__EPS__
d	d
a	a
s	s

__BEGIN__	__EPS__
z	z
ü	u

__BEGIN__	__EPS__
g	g
o	o
t	tt
e	e
s	s

__BEGIN__	__EPS__
d	d
o	a

__BEGIN__	__EPS__
d	d
o	a

__BEGIN__	__EPS__
e	e
r	r

__BEGIN__	__EPS__
e	e
r	r
f	f
u	ü
l	l
l	l
t	t

__BEGIN__	__EPS__
k	k
i	i
n	n
d	d

__BEGIN__	__EPS__
v	a
y	u
s	__EPS__
s	s

__BEGIN__	__EPS__
n	n
u	un

__BEGIN__	__EPS__
m	m
o	ö
e	__EPS__
c	c
h	h
t	te

__BEGIN__	__EPS__
g	g
e	e
s	s
c	c
h	h
a	a
c	__EPS__
h	h

__BEGIN__	__EPS__
d	d
i	i
n	n
c	__EPS__
k	g

__BEGIN__	__EPS__
w	w
e	e
r	__EPS__
l	l
t	t

__BEGIN__	__EPS__
b	b
e	e
s	s
c	c
h	h
l	l
o	o
z	ss
e	e
n	n

__BEGIN__	__EPS__
i	j
e	ä
m	mm
e	e
r	r
l	l
i	i
c	c
h	h
e	e
n	n

__BEGIN__	__EPS__
r	r
e	e
d	d
e	e
n	n

__BEGIN__	__EPS__
u	ü
b	b
e	e
r	r

__BEGIN__	__EPS__
a	a
b	b
e	e
r	r

__BEGIN__	__EPS__
t	__EPS__
z	z
o	o
i	__EPS__
g	g
e	e
n	n

__BEGIN__	__EPS__
d	d
e	e
m	m

__BEGIN__	__EPS__
k	k
u	ü
s	ss
t	t
e	e

__BEGIN__	__EPS__
m	m
i	i
c	c
h	h

__BEGIN__	__EPS__
d	d
o	a
r	__EPS__
n	n
o	a
c	c
h	h

__BEGIN__	__EPS__
w	w
i	i
e	e

__BEGIN__	__EPS__
s	s
i	ie

__BEGIN__	__EPS__
s	se
y	i
n	n

__BEGIN__	__EPS__
w	w
i	i
e	e

__BEGIN__	__EPS__
w	w
ü	u
n	n
d	d
e	e
n	n

__BEGIN__	__EPS__
n	n
a	a
m	m
e	e
n	n

__BEGIN__	__EPS__
w	w
a	a
s	r

__BEGIN__	__EPS__
d	d
o	a

__BEGIN__	__EPS__
s	s
i	ie

__BEGIN__	__EPS__
v	v
u	e
r	r
k	k
o	ä
u	u
f	f
e	e
r	r

__BEGIN__	__EPS__
v	u
n	n
d	d

__BEGIN__	__EPS__
s	s
o	o
e	l
l	l
t	t
e	e

__BEGIN__	__EPS__
k	k
e	eh
r	r
t	t
e	e

__BEGIN__	__EPS__
s	s
p	p
r	r
a	a
c	ch

__BEGIN__	__EPS__
i	j
e	e

__BEGIN__	__EPS__
s	s
e	e
i	i
n	n
e	e

__BEGIN__	__EPS__
l	l
e	e
y	i
d	d
e	e

__BEGIN__	__EPS__
i	i
c	c
h	h

__BEGIN__	__EPS__
s	s
i	i
e	e

__BEGIN__	__EPS__
n	n
i	i
c	c
h	h
t	t

__BEGIN__	__EPS__
d	d
o	a

__BEGIN__	__EPS__
s	s
p	p
r	r
a	a
c	c
h	h
e	e
n	n
d	__EPS__

__BEGIN__	__EPS__
i	ih
n	n

__BEGIN__	__EPS__
d	d
a	a
z	ss

__BEGIN__	__EPS__
t	t
a	a
g	g
e	e
n	n

__BEGIN__	__EPS__
h	h
e	ä
t	tte

__BEGIN__	__EPS__
s	s
i	i
c	c
h	h

__BEGIN__	__EPS__
i	ih
m	m

__BEGIN__	__EPS__
d	d
c	ass

__BEGIN__	__EPS__
p	b
l	l
u	u
t	t

__BEGIN__	__EPS__
p	pf
o	o
r	r
t	te

__BEGIN__	__EPS__
k	k
i	i
n	n
d	d
e	__EPS__

__BEGIN__	__EPS__
a	a
n	n
c	s
e	e
l	l
e	__EPS__
n	m

__BEGIN__	__EPS__
a	a
l	l
l	l
e	e

__BEGIN__	__EPS__
e	e
r	r
s	s
t	t
e	e
n	n

__BEGIN__	__EPS__
j	j
e	e
s	s
u	u
s	s

__BEGIN__	__EPS__
d	d
i	i
e	e

__BEGIN__	__EPS__
b	b
y	i
n	n

__BEGIN__	__EPS__
d	d
a	a

__BEGIN__	__EPS__
g	g
e	e
s	s
e	e
g	g
e	__EPS__
n	ne
t	t

__BEGIN__	__EPS__
h	h
a	a
b	be

__BEGIN__	__EPS__
g	g
e	ehe
n	n

__BEGIN__	__EPS__
d	t
o	ö
e	__EPS__
d	t
e	e
n	n

__BEGIN__	__EPS__
e	e
y	i
n	n

__BEGIN__	__EPS__
s	s
c	c
h	h
w	w
e	e
s	s
t	t
e	e
r	r

__BEGIN__	__EPS__
c	__EPS__
z	z
u	u

__BEGIN__	__EPS__
s	s
e	eh
r	r

__BEGIN__	__EPS__
t	t
e	u
s	s
t	t

__BEGIN__	__EPS__
d	d
a	a
s	ss

__BEGIN__	__EPS__
h	e
e	r

__BEGIN__	__EPS__
s	s
p	p
r	r
a	a
c	c
h	h

__BEGIN__	__EPS__
a	e
i	i
n	n

__BEGIN__	__EPS__
v	u
n	n
d	d

__BEGIN__	__EPS__
w	w
e	e
i	i
n	n
t	t

__BEGIN__	__EPS__
h	h
e	e
r	r
c	z
z	e
l	l
a	e
i	i
d	d

__BEGIN__	__EPS__
i	i
c	c
h	h

__BEGIN__	__EPS__
e	e
i	i
n	n

__BEGIN__	__EPS__
s	s
c	c
h	h
e	e
y	i
d	d
e	e
n	n

__BEGIN__	__EPS__
s	s
e	e
y	i
n	n

__BEGIN__	__EPS__
d	d
o	a

__BEGIN__	__EPS__
d	d
r	r
e	e
y	i

__BEGIN__	__EPS__
w	w
u	u
r	r
d	d
e	e

__BEGIN__	__EPS__
p	b
r	r
u	u
d	d
e	e
r	r

__BEGIN__	__EPS__
v	u
n	n
d	d

__BEGIN__	__EPS__
e	e
w	w
i	ig
k	k
e	e
i	i
t	t

__BEGIN__	__EPS__
d	d
w	u

__BEGIN__	__EPS__
i	j
v	u
d	d
e	e
n	n

__BEGIN__	__EPS__
d	d
i	i
e	e

__BEGIN__	__EPS__
e	e
y	i
n	n
e	e

__BEGIN__	__EPS__
g	g
a	eh
t	t

__BEGIN__	__EPS__
d	d
o	a

__BEGIN__	__EPS__
d	d
a	a
s	s

__BEGIN__	__EPS__
d	d
i	i
e	e

__BEGIN__	__EPS__
v	u
n	n
s	s
z	__EPS__
e	e
r	r
e	e
n	m

__BEGIN__	__EPS__
m	m
ü	ü
t	tt
e	e
r	r
l	l
i	i
c	c
h	h
e	e
n	n

__BEGIN__	__EPS__
u	a
f	u
f	f

__BEGIN__	__EPS__
h	h
o	ö
e	__EPS__
r	r
e	e

__BEGIN__	__EPS__
w	w
a	a
s	r

__BEGIN__	__EPS__
g	g
r	rä
u	u
l	l
i	i
c	c
h	h
i	e
n	n

__BEGIN__	__EPS__
m	m
u	u
t	tt
e	e
r	r

__BEGIN__	__EPS__
m	m
u	u
e	s
s	s
t	t
e	e

__BEGIN__	__EPS__
g	g
r	r
o	o
z	s
v	s
n	__EPS__

__BEGIN__	__EPS__
f	__EPS__
r	h
o	el
m	f
e	e

__BEGIN__	__EPS__
s	s
i	ie

__BEGIN__	__EPS__
m	m
a	a
c	g
h	__EPS__

__BEGIN__	__EPS__
h	h
o	o
c	c
h	h
z	ze
i	i
t	t
l	l
i	i
c	c
h	h

__BEGIN__	__EPS__
d	d
i	i
e	e

__BEGIN__	__EPS__
b	b
i	e
g	g
h	__EPS__
e	i
e	e
r	r
t	d
e	e
n	n

__BEGIN__	__EPS__
d	o
i	__EPS__
k	f
c	__EPS__
h	__EPS__
e	t

__BEGIN__	__EPS__
d	d
i	i
e	e

__BEGIN__	__EPS__
i	ih
m	m

__BEGIN__	__EPS__
e	e
r	r

__BEGIN__	__EPS__
d	d
v	u

__BEGIN__	__EPS__
r	r
o	o
t	t

__BEGIN__	__EPS__
m	me
i	i
n	n

__BEGIN__	__EPS__
l	l
a	a
z	z
e	a
r	r
e	__EPS__
u	u
n	s

__BEGIN__	__EPS__
d	d
a	a
s	s

__BEGIN__	__EPS__
l	l
e	e
i	i
b	b

__BEGIN__	__EPS__
d	d
a	a

__BEGIN__	__EPS__
g	g
e	e
s	s
o	o
g	g
e	e
n	n

__BEGIN__	__EPS__
a	a
l	l
u	t
a	v
e	ä
t	t
t	__EPS__
e	e
r	r
e	__EPS__
n	n

__BEGIN__	__EPS__
y	ih
m	m

__BEGIN__	__EPS__
i	ih
n	n

__BEGIN__	__EPS__
p	b
a	e
y	i
d	d
e	e
w	__EPS__

__BEGIN__	__EPS__
d	d
e	e
r	r

__BEGIN__	__EPS__
s	s
o	ol
l	l
t	t

__BEGIN__	__EPS__
k	k
i	i
n	n
t	d

__BEGIN__	__EPS__
w	w
a	a
s	r

__BEGIN__	__EPS__
g	g
o	o
t	tt
e	e
s	s

__BEGIN__	__EPS__
v	u
n	n
d	d

__BEGIN__	__EPS__
d	d
i	i
e	e

__BEGIN__	__EPS__
l	l
i	ie
f	f

__BEGIN__	__EPS__
y	ih
r	r

__BEGIN__	n
e	ich
n	t

__BEGIN__	__EPS__
k	k
e	eh
r	r
t	t
e	e

__BEGIN__	__EPS__
a	a
n	n

__BEGIN__	__EPS__
i	i
n	n

__BEGIN__	__EPS__
e	e
r	r

__BEGIN__	__EPS__
s	s
i	i
n	n
t	d

__BEGIN__	__EPS__
d	d
o	a

__BEGIN__	__EPS__
s	s
a	ä
u	u
l	l
e	e

__BEGIN__	__EPS__
d	d
o	a

__BEGIN__	__EPS__
d	d
i	i
e	e

__BEGIN__	__EPS__
v	v
o	o
l	l
c	__EPS__
k	k

__BEGIN__	__EPS__
s	s
o	o
r	r
g	ge

__BEGIN__	__EPS__
t	t
o	o
t	t
e	e
n	n

__BEGIN__	__EPS__
v	v
e	e
r	r
r	r
a	a
t	t
e	e
n	n

__BEGIN__	__EPS__
r	r
e	e
c	c
h	h
t	t
e	__EPS__

__BEGIN__	__EPS__
w	we
i	i
s	s
s	s
a	a
g	g
v	u
n	n
g	g
e	__EPS__

__BEGIN__	__EPS__
p	p
y	i
l	l
a	a
t	t
u	u
s	s

__BEGIN__	__EPS__
d	d
e	e
r	r

__BEGIN__	__EPS__
h	h
e	e
r	r
c	__EPS__
z	z

__BEGIN__	__EPS__
v	u
n	n
d	d

__BEGIN__	__EPS__
w	w
i	i
l	ll

__BEGIN__	__EPS__
d	d
y	ie

__BEGIN__	__EPS__
s	s
p	p
r	r
o	a
c	c
h	h
e	e
n	n

__BEGIN__	__EPS__
s	sch
l	l
u	u
g	g
e	e
n	n

__BEGIN__	__EPS__
m	m
e	e
n	n
s	s
h	c
e	h

__BEGIN__	__EPS__
v	v
e	e
r	r
b	b
a	a
r	r
c	g
h	__EPS__

__BEGIN__	__EPS__
v	a
y	u
s	s
s	__EPS__
g	g
e	e
t	__EPS__
z	z
o	o
i	__EPS__
g	g
e	e
n	n

__BEGIN__	__EPS__
d	d
i	i
e	e

__BEGIN__	__EPS__
s	s
o	o

__BEGIN__	__EPS__
c	k
r	r
ü	e
t	u
z	z

__BEGIN__	__EPS__
m	m
a	a
n	nn

__BEGIN__	__EPS__
c	__EPS__
z	z
e	e
i	i
c	c
h	h
e	e
n	n

__BEGIN__	__EPS__
d	d
a	a
z	ss

__BEGIN__	__EPS__
l	l
a	a
n	n
d	d

__BEGIN__	__EPS__
h	h
i	__EPS__
e	a
t	t

__BEGIN__	__EPS__
v	u
n	n
d	d

__BEGIN__	__EPS__
h	h
e	ö
l	l
l	le

__BEGIN__	__EPS__
d	d
o	a

__BEGIN__	__EPS__
m	m
u	u
t	t
t	t
e	e
r	r

__BEGIN__	__EPS__
g	g
u	ü
t	t
l	l
i	i
c	c
h	h
e	__EPS__
n	__EPS__

__BEGIN__	__EPS__
d	d
o	u
e	rc
r	h

__BEGIN__	__EPS__
s	s
o	o

__BEGIN__	__EPS__
d	d
o	a

__BEGIN__	__EPS__
h	h
i	i
n	n

__BEGIN__	__EPS__
d	d
v	i
i	e

__BEGIN__	__EPS__
k	k
e	e
i	i
n	n
e	e

__BEGIN__	__EPS__
l	l
e	eh
r	r
e	e
r	r

__BEGIN__	__EPS__
d	d
e	e
s	s

__BEGIN__	__EPS__
s	s
i	i
c	c
h	h

__BEGIN__	__EPS__
w	w
a	a
r	r
t	t

__BEGIN__	__EPS__
d	d
v	a

__BEGIN__	__EPS__
v	u
n	n
d	d

__BEGIN__	__EPS__
s	s
o	o

__BEGIN__	__EPS__
d	d
y	ie

__BEGIN__	__EPS__
d	d
a	a
r	__EPS__
n	n
a	a
c	c
h	h

__BEGIN__	__EPS__
d	d
a	a
s	s

__BEGIN__	__EPS__
s	s
o	o
e	__EPS__

__BEGIN__	__EPS__
h	h
o	ö
r	r
i	__EPS__
t	t

__BEGIN__	__EPS__
k	k
u	ö
n	n
i	i
g	g
r	r
e	e
i	i
c	c
h	h

__BEGIN__	__EPS__
o	au
p	f

__BEGIN__	__EPS__
l	l
i	i
e	e
b	b
l	l
i	i
c	c
h	h
s	e
z	s

__BEGIN__	__EPS__
c	__EPS__
z	z
u	u

__BEGIN__	__EPS__
d	d
i	i
r	r

__BEGIN__	__EPS__
c	k
r	r
u	e
i	u
c	__EPS__
z	z
i	i
g	g
e	e
n	n

__BEGIN__	__EPS__
e	e
t	c
c	c
e	e
r	__EPS__

__BEGIN__	__EPS__
s	s
c	o
h	__EPS__
o	l
l	l
t	te

__BEGIN__	__EPS__
e	e
r	r

__BEGIN__	e
v	u
c	c
h	h

__BEGIN__	__EPS__
n	n
i	ic
h	h
t	t

__BEGIN__	__EPS__
d	d
e	e
r	r

__BEGIN__	__EPS__
s	s
t	t
u	a
n	n
t	d

__BEGIN__	__EPS__
s	s
i	i
j	e

__BEGIN__	__EPS__
r	r
i	i
e	e
f	f
f	__EPS__
e	e
n	n

__BEGIN__	__EPS__
h	h
a	a
v	be
n	n

__BEGIN__	__EPS__
m	m
i	i
t	t

__BEGIN__	__EPS__
a	a
n	n

__BEGIN__	__EPS__
f	f
r	r
o	öh
l	l
i	i
c	c
h	h

__BEGIN__	__EPS__
a	a
n	n
s	s
c	__EPS__
z	__EPS__
h	__EPS__
e	e
l	l
m	m
u	__EPS__
s	__EPS__
z	__EPS__

__BEGIN__	__EPS__
v	v
o	o
n	n

__BEGIN__	__EPS__
v	f
a	a
l	l
t	t
i	i
g	g
e	e
n	n

__BEGIN__	__EPS__
z	z
u	u
o	__EPS__

__BEGIN__	__EPS__
m	m
i	i
c	c
h	h

__BEGIN__	__EPS__
d	d
i	i
e	e

__BEGIN__	__EPS__
v	u
n	n
d	d

__BEGIN__	__EPS__
d	d
i	i
e	e

__BEGIN__	__EPS__
d	d
e	e
s	s

__BEGIN__	__EPS__
g	g
r	r
o	o
s	s
s	s
e	e
n	n

__BEGIN__	__EPS__
l	l
i	i
e	e
f	f
f	__EPS__

__BEGIN__	__EPS__
f	f
r	r
u	e
i	u
n	n
d	d

__BEGIN__	__EPS__
d	d
u	u

__BEGIN__	__EPS__
d	d
i	i
e	e

__BEGIN__	__EPS__
v	u
n	n
n	d

__BEGIN__	__EPS__
v	v
u	e
r	r
b	b
u	u
n	n
d	d
e	e
n	n

__BEGIN__	__EPS__
n	n
e	e
y	h
m	m
p	__EPS__
t	t

__BEGIN__	__EPS__
e	eh
e	e

__BEGIN__	__EPS__
e	e
r	r

__BEGIN__	__EPS__
m	me
i	i
n	n

__BEGIN__	__EPS__
k	k
i	i
n	n
d	d
e	__EPS__

__BEGIN__	__EPS__
p	p
y	i
l	l
a	a
t	t
u	u
s	s

__BEGIN__	__EPS__
i	i
c	c
h	h

__BEGIN__	__EPS__
v	u
n	n
d	d

__BEGIN__	__EPS__
g	g
h	__EPS__
e	e
s	s
o	u
n	n
t	d

__BEGIN__	__EPS__
a	a
l	l
s	s

__BEGIN__	__EPS__
n	n
e	ac
h	h
t	t

__BEGIN__	__EPS__
g	g
e	e
h	h
a	a
b	b
t	t

__BEGIN__	__EPS__
w	w
i	i
l	l
l	l
e	e
n	n

__BEGIN__	__EPS__
w	wi
e	e
g	g
t	t
e	e
n	n

__BEGIN__	__EPS__
l	l
a	a
n	n
g	g

__BEGIN__	__EPS__
h	u
e	m
l	a
s	rm
e	e
n	n

__BEGIN__	__EPS__
r	r
i	i
t	t
t	t
e	e
r	r

__BEGIN__	__EPS__
d	d
y	ie
t	s

__BEGIN__	__EPS__
t	t
o	o
d	d

__BEGIN__	__EPS__
m	m
y	i
r	r

__BEGIN__	__EPS__
i	ih
m	m

__BEGIN__	__EPS__
m	m
o	u
d	tt
e	e
r	r

__BEGIN__	__EPS__
c	__EPS__
z	z
w	w
a	e
y	i
e	e
n	n

__BEGIN__	__EPS__
i	ih
n	n

__BEGIN__	__EPS__
w	w
a	a
s	r

__BEGIN__	__EPS__
w	w
e	ä
r	r
e	e

__BEGIN__	__EPS__
d	d
e	e
n	nn

__BEGIN__	__EPS__
d	d
e	e
s	s

__BEGIN__	__EPS__
h	h
e	e
r	r
e	r

__BEGIN__	__EPS__
e	eh
e	e

__BEGIN__	__EPS__
a	a
r	r
m	m

__BEGIN__	__EPS__
m	m
e	e
i	i
n	n

__BEGIN__	__EPS__
k	k
i	i
n	n
t	d

__BEGIN__	__EPS__
d	d
a	a
s	s

__BEGIN__	__EPS__
m	j
a	u
e	n
g	gf
d	räu
l	l
i	i
c	c
h	h
e	e
n	n

__BEGIN__	__EPS__
s	sch
w	w
e	e
r	r
t	t

__BEGIN__	__EPS__
i	i
n	n

__BEGIN__	__EPS__
a	a
n	n
d	d
e	e
r	r
s	s

__BEGIN__	__EPS__
v	v
o	o
n	n

