__BEGIN__	__EPS__
a	a
n	n
p	b
l	l
i	i
c	c
k	k

__BEGIN__	__EPS__
m	me
i	i
n	n

__BEGIN__	__EPS__
g	g
o	o
t	tt

__BEGIN__	__EPS__
d	d
a	a
u	v
i	i
d	d

__BEGIN__	__EPS__
d	d
o	a

__BEGIN__	__EPS__
p	b
a	a
t	t
e	e
n	n

__BEGIN__	__EPS__
i	i
c	c
h	h

__BEGIN__	__EPS__
a	o
b	b

__BEGIN__	__EPS__
v	u
n	n
s	s
e	e
m	r
e	em

__BEGIN__	__EPS__
v	v
e	e
r	r
w	w
a	a
n	n
d	d
e	e
l	l
t	t

__BEGIN__	__EPS__
m	m
i	i
r	r

__BEGIN__	__EPS__
s	s
p	p
r	r
a	a
c	c
h	h

__BEGIN__	__EPS__
t	t
o	o
t	d

__BEGIN__	__EPS__
s	s
o	o

__BEGIN__	__EPS__
f	f
u	ü
s	s
z	s
e	e

__BEGIN__	__EPS__
d	d
i	i
e	e

__BEGIN__	__EPS__
s	se
y	i
n	n
e	e
n	n

__BEGIN__	__EPS__
l	l
i	i
e	e
s	__EPS__
z	z

__BEGIN__	__EPS__
z	z
u	u

__BEGIN__	__EPS__
l	l
e	e
m	m
a	a
z	z
a	a
b	b
a	a
t	t
h	h
a	a
i	i
n	__EPS__

__BEGIN__	__EPS__
d	d
o	a

__BEGIN__	__EPS__
d	d
u	u

__BEGIN__	__EPS__
s	s
p	p
r	r
a	a
c	c
h	h

__BEGIN__	__EPS__
v	u
n	n
d	d

__BEGIN__	__EPS__
m	m
e	a
n	n

__BEGIN__	__EPS__
m	m
e	e
i	i
n	n

__BEGIN__	__EPS__
e	e
r	r

__BEGIN__	__EPS__
w	w
i	i
l	l
l	l

__BEGIN__	__EPS__
a	a
l	l
l	l
e	e
n	n

__BEGIN__	__EPS__
i	ih
n	n

__BEGIN__	__EPS__
v	u
m	m
b	__EPS__

__BEGIN__	__EPS__
d	d
o	a

__BEGIN__	__EPS__
m	m
i	i
t	t

__BEGIN__	__EPS__
s	s
p	p
r	r
a	ä
e	__EPS__
c	c
h	h
e	e
n	n

__BEGIN__	__EPS__
s	s
y	ie

__BEGIN__	__EPS__
s	s
c	c
h	h
r	r
i	i
e	e
n	n

__BEGIN__	__EPS__
d	d
a	a
z	s

__BEGIN__	__EPS__
e	e
y	i
n	n
e	e
r	r

__BEGIN__	ges
e	et
.	z
e	es

__BEGIN__	__EPS__
w	w
i	i
e	e

__BEGIN__	__EPS__
v	v
o	o
n	n

__BEGIN__	__EPS__
z	s
e	o
h	gl
a	e
n	ic
t	h

__BEGIN__	__EPS__
d	d
o	a

__BEGIN__	__EPS__
h	h
e	a
e	__EPS__
f	b
t	t

__BEGIN__	__EPS__
w	w
a	a
z	r

__BEGIN__	__EPS__
f	f
u	ü
r	r
s	s
p	p
r	r
e	e
c	c
h	h
e	er

__BEGIN__	__EPS__
s	s
i	i
c	c
h	he
r	rh
e	e
i	i
t	t

__BEGIN__	__EPS__
v	v
o	o
n	n

__BEGIN__	__EPS__
m	me
y	i
n	n

__BEGIN__	__EPS__
m	m
i	i
c	c
h	h

__BEGIN__	__EPS__
d	d
e	e
m	m

__BEGIN__	__EPS__
h	h
e	e
r	r
o	o
d	d
e	e
s	s

__BEGIN__	__EPS__
d	d
u	u

__BEGIN__	__EPS__
o	o
w	w
e	eh

__BEGIN__	__EPS__
i	ih
m	m

__BEGIN__	__EPS__
y	j
a	a
c	c
k	__EPS__
o	o
b	b
u	u
s	s

__BEGIN__	__EPS__
k	k
i	i
n	n
d	d
e	e
r	r

__BEGIN__	__EPS__
a	a
u	u
c	c
h	h

__BEGIN__	__EPS__
g	g
e	e
s	s
u	u
n	n
t	d
h	h
e	e
y	i
t	t

__BEGIN__	__EPS__
y	ih
r	r

__BEGIN__	__EPS__
v	u
m	m
b	__EPS__

__BEGIN__	__EPS__
w	w
o	ah
r	r
h	h
e	e
i	i
t	t

__BEGIN__	__EPS__
d	d
a	a
s	s

__BEGIN__	__EPS__
h	h
i	i
l	l
f	f

__BEGIN__	__EPS__
d	d
a	a

__BEGIN__	__EPS__
b	b
l	l
u	u
o	__EPS__
t	t

__BEGIN__	__EPS__
g	g
e	e
s	s
a	a
n	nd
t	t

__BEGIN__	__EPS__
i	ih
r	r
e	e

__BEGIN__	__EPS__
k	k
e	a
y	i
s	s
e	e
r	r

__BEGIN__	__EPS__
v	u
n	n
d	d

__BEGIN__	__EPS__
d	d
e	e
i	i
n	n

__BEGIN__	__EPS__
c	__EPS__
z	z
u	u

__BEGIN__	__EPS__
t	t
r	r
a	a
w	u
e	__EPS__
t	t

__BEGIN__	__EPS__
s	s
t	t
a	ad
t	t

__BEGIN__	__EPS__
h	h
e	e
i	i
l	l
i	i
g	g
e	e
n	n

__BEGIN__	__EPS__
k	g
e	e
g	g
i	e
n	n

__BEGIN__	__EPS__
h	h
e	e
r	r
t	__EPS__
z	z

__BEGIN__	__EPS__
a	a
n	n
t	t
l	l
ü	i
c	t
z	z

__BEGIN__	__EPS__
d	d
i	i
e	e

__BEGIN__	__EPS__
n	n
i	i
c	c
h	h
t	t

__BEGIN__	__EPS__
b	be
y	i

__BEGIN__	__EPS__
v	v
u	e
r	r
d	d
r	r
i	ie
s	s
s	s
e	e
n	n

__BEGIN__	__EPS__
v	u
n	n
d	d

__BEGIN__	__EPS__
l	l
a	ass

__BEGIN__	__EPS__
e	e
w	w
i	i
g	g

__BEGIN__	__EPS__
p	p
y	i
l	l
a	a
t	t
u	u
s	s

__BEGIN__	__EPS__
m	m
a	a
n	nn

__BEGIN__	__EPS__
v	v
o	o
l	l
k	k

__BEGIN__	__EPS__
l	l
e	e
i	i
b	b

__BEGIN__	__EPS__
v	f
r	r
o	a
g	g
i	__EPS__
t	t

__BEGIN__	__EPS__
d	d
e	e
m	m

__BEGIN__	__EPS__
w	w
i	i
r	r

__BEGIN__	__EPS__
m	me
i	i
n	n

__BEGIN__	__EPS__
e	e
r	r
b	b
e	a
r	r
m	me
d	n

__BEGIN__	__EPS__
i	ih
n	n

__BEGIN__	__EPS__
v	u
n	n
d	d

__BEGIN__	__EPS__
a	a
n	n

__BEGIN__	__EPS__
e	n
n	icht

__BEGIN__	__EPS__
w	w
a	a
n	nn

__BEGIN__	__EPS__
d	d
a	a
s	s

__BEGIN__	__EPS__
d	d
i	i
e	e

__BEGIN__	__EPS__
c	__EPS__
z	z
a	e
i	i
c	c
h	h
e	e
n	n

__BEGIN__	__EPS__
d	da
z	s

__BEGIN__	__EPS__
m	m
i	i
r	r

__BEGIN__	__EPS__
w	w
u	o
n	n
i	n
c	i
h	g
l	l
e	__EPS__
i	i
c	c
h	h

__BEGIN__	__EPS__
w	w
e	eh

__BEGIN__	__EPS__
m	m
e	e
i	i
n	n

__BEGIN__	__EPS__
w	w
a	a
s	r

__BEGIN__	__EPS__
a	a
l	l
l	l
e	e

__BEGIN__	__EPS__
v	f
r	r
a	a
g	g
e	e
n	n

__BEGIN__	__EPS__
d	d
e	e
r	r

__BEGIN__	__EPS__
s	s
o	ol
l	l
t	t
e	e
s	s
t	t

__BEGIN__	__EPS__
v	u
n	n
s	s

__BEGIN__	a
v	u
f	f

__BEGIN__	__EPS__
e	e
r	r

__BEGIN__	__EPS__
w	w
o	o
r	r
t	t

__BEGIN__	__EPS__
m	v
a	i
l	e
l	l
i	er
c	l
h	ei

__BEGIN__	__EPS__
m	m
o	o
c	c
h	h
t	te

__BEGIN__	__EPS__
l	l
a	ass
i	e
n	n

__BEGIN__	__EPS__
f	f
r	r
o	oh

__BEGIN__	__EPS__
n	n
i	ich
t	t

__BEGIN__	__EPS__
r	r
e	e
i	i
n	n
e	e

__BEGIN__	__EPS__
d	d
e	e
s	s

__BEGIN__	__EPS__
i	j
o	o
h	h
a	a
n	nn
e	e
s	s

__BEGIN__	__EPS__
d	d
e	e
n	m

__BEGIN__	__EPS__
d	d
a	a
v	v
o	o
n	n

__BEGIN__	__EPS__
e	e
r	r

__BEGIN__	__EPS__
d	d
e	e
r	r

__BEGIN__	__EPS__
w	w
i	i
l	l
l	l

__BEGIN__	__EPS__
s	s
a	a
g	g
e	e

__BEGIN__	__EPS__
d	d
e	e
r	r

__BEGIN__	__EPS__
w	w
a	a
z	s

__BEGIN__	__EPS__
d	d
e	e
n	n

__BEGIN__	__EPS__
w	w
o	ol
l	l
d	t
e	e

__BEGIN__	__EPS__
d	d
a	a
r	r
v	u
m	m

__BEGIN__	__EPS__
d	d
a	as
s	s

__BEGIN__	__EPS__
h	h
o	ö
e	__EPS__
r	r
e	e
n	n

__BEGIN__	__EPS__
w	p
i	r
s	o
s	ph
a	e
g	t

__BEGIN__	__EPS__
g	g
e	e
w	w
a	a
l	l
t	t

__BEGIN__	__EPS__
d	d
e	e
r	r

__BEGIN__	__EPS__
i	j
o	o
h	h
a	a
n	n
n	n
e	e
s	s

__BEGIN__	__EPS__
v	u
n	n
d	d

__BEGIN__	__EPS__
s	s
o	oh
n	n

__BEGIN__	__EPS__
l	l
e	e
i	i
c	c
h	h
n	n
a	a
n	m

__BEGIN__	__EPS__
i	i
n	n

__BEGIN__	__EPS__
v	v
o	o
n	n

__BEGIN__	__EPS__
g	g
e	e
s	sch
l	l
a	a
i	ge
n	n

__BEGIN__	__EPS__
n	n
a	a
g	g
e	e
l	l

__BEGIN__	__EPS__
g	z
e	e
z	__EPS__
v	u
i	__EPS__
g	g
e	e

__BEGIN__	__EPS__
b	b
e	e
s	sch
l	l
o	o
s	s
s	s
e	e
n	n

__BEGIN__	__EPS__
m	m
u	u
s	s
z	s

__BEGIN__	__EPS__
m	m
i	i
c	c
h	h

__BEGIN__	__EPS__
d	d
e	e
n	n

__BEGIN__	__EPS__
o	o
b	b
e	e
n	n

__BEGIN__	__EPS__
a	e
i	i
g	g
e	e
n	nen

__BEGIN__	__EPS__
z	z
c	__EPS__
u	u

__BEGIN__	__EPS__
d	d
a	a
s	s

__BEGIN__	__EPS__
m	m
a	a
r	r
i	i
a	a

__BEGIN__	__EPS__
s	s
a	e
c	t
z	z
t	t
e	e

__BEGIN__	__EPS__
g	g
e	e
r	r
i	i
c	c
h	h
t	tet

__BEGIN__	__EPS__
t	__EPS__
z	z
o	u

__BEGIN__	__EPS__
a	a
u	u
c	c
h	h

__BEGIN__	__EPS__
h	h
a	a
i	be
n	n

__BEGIN__	__EPS__
f	f
o	o
r	r
m	m
a	a

__BEGIN__	__EPS__
s	s
y	ie

__BEGIN__	__EPS__
z	z
e	e
i	i
c	c
h	h
e	e
n	n

__BEGIN__	__EPS__
s	s
i	ie

__BEGIN__	__EPS__
g	__EPS__
e	__EPS__
.	.
.	.
.	.

__BEGIN__	__EPS__
a	a
l	l
s	s

__BEGIN__	__EPS__
d	d
e	e
m	m

__BEGIN__	__EPS__
d	d
e	e
m	m

__BEGIN__	__EPS__
v	u
n	n
d	d

__BEGIN__	__EPS__
s	s
v	i
i	e

__BEGIN__	__EPS__
v	u
n	n
d	d

__BEGIN__	__EPS__
w	w
e	e
r	r
d	d
e	e
n	n

__BEGIN__	n
e	ich
n	t

__BEGIN__	__EPS__
m	me
y	i
n	n
e	e
m	m

__BEGIN__	__EPS__
o	a
u	u
c	c
h	h

__BEGIN__	__EPS__
h	e
e	r

__BEGIN__	__EPS__
s	s
c	c
h	h
w	w
e	e
r	r
t	t

__BEGIN__	__EPS__
e	e
y	i
n	n
e	e
n	n

__BEGIN__	__EPS__
h	h
ö	ö
r	r
t	t

__BEGIN__	__EPS__
i	j
h	__EPS__
e	e
s	s
u	u
s	s

__BEGIN__	__EPS__
a	a
l	l
s	s

__BEGIN__	__EPS__
e	e
r	r

__BEGIN__	__EPS__
l	l
e	e
g	g
t	t
e	e
n	n

__BEGIN__	__EPS__
n	n
e	e
y	h
m	m
p	__EPS__
t	t

__BEGIN__	__EPS__
c	__EPS__
z	z
u	u
o	__EPS__

__BEGIN__	__EPS__
m	m
i	i
t	t

__BEGIN__	__EPS__
d	d
o	a

__BEGIN__	__EPS__
w	w
e	ä
r	r
e	e

__BEGIN__	__EPS__
m	m
a	a
n	n

__BEGIN__	__EPS__
s	s
a	a
g	h
e	e
n	n

__BEGIN__	__EPS__
g	g
o	o
t	tt

__BEGIN__	__EPS__
c	__EPS__
h	k
w	ö
n	n
i	i
g	g

__BEGIN__	__EPS__
v	v
e	e
r	r
l	l
i	i
e	e
z	sses
t	t

__BEGIN__	__EPS__
s	s
e	e
i	i
n	n
e	e

__BEGIN__	__EPS__
h	h
i	i
e	er

__BEGIN__	__EPS__
l	l
i	i
e	e
u	b
e	e

__BEGIN__	__EPS__
g	g
e	e
b	b
o	o
r	re
n	n

__BEGIN__	__EPS__
g	g
r	r
o	o
z	ss
e	e

__BEGIN__	__EPS__
h	h
e	e
r	r
t	__EPS__
z	z

__BEGIN__	__EPS__
h	__EPS__
e	e
l	l
y	i
a	a
s	s

__BEGIN__	__EPS__
c	c
e	e
n	n
t	t
v	u
r	r
i	i
a	o

__BEGIN__	__EPS__
h	h
e	ä
n	n
t	de

__BEGIN__	__EPS__
l	l
i	i
e	e
b	b
e	e
s	s

__BEGIN__	__EPS__
m	m
i	i
t	t

__BEGIN__	__EPS__
w	w
a	a
r	r
v	u
m	m
b	__EPS__

__BEGIN__	__EPS__
i	ih
n	n

__BEGIN__	__EPS__
s	s
o	oh
n	n

__BEGIN__	__EPS__
g	g
e	e
s	s
c	c
h	h
r	r
e	e
i	i

__BEGIN__	__EPS__
a	a
l	l
s	s
o	o

__BEGIN__	__EPS__
d	d
o	a

__BEGIN__	__EPS__
i	i
s	s
t	t

__BEGIN__	__EPS__
d	d
u	u
e	__EPS__

__BEGIN__	__EPS__
m	m
a	a
g	g
d	d
a	a
l	l
e	e
n	n
a	a

__BEGIN__	__EPS__
v	v
o	o
n	n

__BEGIN__	__EPS__
m	m
i	i
t	t

__BEGIN__	__EPS__
a	a
n	n

__BEGIN__	__EPS__
h	h
a	a
u	u
s	s
f	f
r	r
a	a
w	u
e	__EPS__

__BEGIN__	__EPS__
k	k
i	i
n	n
d	d

__BEGIN__	__EPS__
s	s
u	oh
n	n

__BEGIN__	__EPS__
d	d
i	i
e	e

__BEGIN__	__EPS__
m	m
e	e
n	n
s	s
c	c
h	hh
a	e
i	i
t	t

__BEGIN__	__EPS__
g	g
e	e
s	s
p	p
r	r
o	o
c	c
h	h
e	e
n	n
e	__EPS__
n	__EPS__

__BEGIN__	__EPS__
d	d
a	a
s	s

__BEGIN__	__EPS__
b	b
e	__EPS__
l	l
e	e
i	i
b	b
e	e
n	n

__BEGIN__	__EPS__
c	k
r	r
u	e
c	u
e	z

__BEGIN__	__EPS__
d	t
o	o
t	t

__BEGIN__	__EPS__
v	u
n	n
d	d

__BEGIN__	__EPS__
e	ehe

__BEGIN__	__EPS__
d	d
e	e
r	r

__BEGIN__	__EPS__
i	i
n	n

__BEGIN__	__EPS__
r	r
i	e
e	i
c	c
h	h
e	e

__BEGIN__	__EPS__
m	m
o	o
c	c
h	h
t	te

__BEGIN__	__EPS__
a	a
l	l
l	l
e	e
s	s

__BEGIN__	__EPS__
s	s
p	p
r	r
a	a
c	c
h	h

__BEGIN__	__EPS__
n	n
a	a
c	c
h	h

__BEGIN__	__EPS__
f	f
r	r
o	a
w	u
e	__EPS__

__BEGIN__	__EPS__
m	m
e	e
i	i
n	n
e	e
s	s

__BEGIN__	__EPS__
s	s
p	p
r	r
a	a
c	c
h	h

__BEGIN__	__EPS__
l	l
e	e
i	i
n	n
e	e
n	n
t	t
u	u
c	c
h	h

__BEGIN__	__EPS__
d	d
e	e
n	n

__BEGIN__	__EPS__
g	g
a	a
n	n
t	__EPS__
z	z
e	e

__BEGIN__	__EPS__
d	d
a	a
s	s
z	__EPS__

__BEGIN__	__EPS__
w	w
a	a
r	r
e	e
n	n

__BEGIN__	__EPS__
i	ih
n	n

__BEGIN__	__EPS__
w	w
a	a
s	r

__BEGIN__	__EPS__
l	l
e	e
y	i
d	d

__BEGIN__	__EPS__
v	u
n	n
d	d

__BEGIN__	__EPS__
a	a
l	l
l	l

__BEGIN__	__EPS__
v	u
n	n
d	d

__BEGIN__	__EPS__
i	i
p	p
-	n
u	u
s	s

__BEGIN__	__EPS__
t	t
o	o
t	t
e	e
r	n

__BEGIN__	__EPS__
v	u
n	n
d	d

__BEGIN__	__EPS__
i	i
c	c
h	h

__BEGIN__	__EPS__
s	s
a	a
g	g
t	t

__BEGIN__	__EPS__
v	u
n	n
d	d

__BEGIN__	__EPS__
v	u
n	n
d	d

__BEGIN__	__EPS__
h	h
e	a
t	t

__BEGIN__	__EPS__
v	v
o	o
r	r

__BEGIN__	__EPS__
s	s
p	p
r	r
a	a
c	c
h	h

__BEGIN__	__EPS__
v	f
r	r
o	a
w	u
e	__EPS__

__BEGIN__	__EPS__
i	j
v	u
d	d
e	e
n	n

__BEGIN__	__EPS__
m	m
y	ir

__BEGIN__	__EPS__
w	w
i	i
e	e

__BEGIN__	__EPS__
d	d
i	i
e	e

__BEGIN__	__EPS__
m	m
a	a
c	g
h	__EPS__

__BEGIN__	__EPS__
a	a
b	b
e	e
r	r

__BEGIN__	__EPS__
w	w
u	u
r	r
d	d
e	e
n	n

__BEGIN__	__EPS__
a	e
i	i
n	n
e	e
n	m

__BEGIN__	__EPS__
v	u
n	n
d	d

__BEGIN__	__EPS__
m	m
i	i
c	c
h	h

__BEGIN__	__EPS__
w	w
a	a
r	r
v	u
m	m
b	__EPS__

__BEGIN__	__EPS__
d	d
o	o
c	c
h	h

__BEGIN__	__EPS__
f	f
r	r
a	a
u	u

__BEGIN__	__EPS__
g	g
e	e
s	s
i	i
c	c
h	h
t	t

__BEGIN__	__EPS__
d	d
o	a

__BEGIN__	__EPS__
v	u
n	n
d	d

__BEGIN__	__EPS__
p	p
i	i
l	l
a	a
t	t
u	u
s	s

__BEGIN__	__EPS__
s	s
i	i
c	c
h	h

__BEGIN__	__EPS__
s	s
i	i
n	n
d	d

__BEGIN__	__EPS__
t	t
e	e
i	i
l	l
t	t
e	e
n	n

__BEGIN__	__EPS__
k	k
i	i
n	n
t	d

__BEGIN__	__EPS__
h	h
a	a
t	t
t	t
e	e
n	n

__BEGIN__	__EPS__
m	m
e	e
i	i
n	n
e	e
n	m

__BEGIN__	__EPS__
s	s
p	p
r	r
a	a
c	c
h	h

__BEGIN__	__EPS__
k	k
a	a
u	u
m	m

__BEGIN__	__EPS__
i	j
a	am
m	m
e	e
r	r

__BEGIN__	__EPS__
y	ih
m	m

__BEGIN__	__EPS__
s	s
e	ee
l	le

__BEGIN__	__EPS__
d	d
a	a
z	s

__BEGIN__	__EPS__
b	b
o	ö
e	__EPS__
s	s
e	e

__BEGIN__	__EPS__
s	s
i	i
c	c
h	h

__BEGIN__	__EPS__
v	u
n	n
d	d

__BEGIN__	__EPS__
p	b
e	e
i	i

__BEGIN__	__EPS__
z	z
a	a
r	r
t	t
e	e
n	n

__BEGIN__	__EPS__
g	g
r	r
o	o
s	s
s	s
e	e
m	m

__BEGIN__	__EPS__
v	u
n	nd

__BEGIN__	__EPS__
v	f
i	i
s	s
c	c
h	h
l	l
e	e
i	i
n	n

__BEGIN__	__EPS__
n	n
a	a
c	c
h	h

__BEGIN__	__EPS__
w	w
o	o
u	l
l	l
t	t

__BEGIN__	__EPS__
f	v
o	o
r	r

__BEGIN__	__EPS__
p	s
h	e
e	i
l	de
l	n
e	e
m	n

__BEGIN__	__EPS__
d	t
o	o
i	__EPS__
t	t

__BEGIN__	__EPS__
y	ih
n	n

__BEGIN__	__EPS__
d	d
a	ahi
r	n

__BEGIN__	__EPS__
s	s
c	c
h	h
r	r
e	e
y	i
b	b
e	__EPS__
t	t

__BEGIN__	__EPS__
h	h
a	a
s	s
t	t

__BEGIN__	__EPS__
v	u
n	n
d	d

__BEGIN__	__EPS__
d	d
i	ie

__BEGIN__	__EPS__
c	__EPS__
z	z
w	u

__BEGIN__	__EPS__
m	m
u	u
e	t
t	t
e	e
r	r

__BEGIN__	__EPS__
d	d
e	e
r	r

__BEGIN__	__EPS__
t	t
a	a
g	g

__BEGIN__	__EPS__
b	b
i	i
s	s
t	t

__BEGIN__	__EPS__
v	u
n	n
n	d

__BEGIN__	__EPS__
v	u
n	n
d	d

__BEGIN__	__EPS__
f	f
r	r
o	ö
e	h
l	l
i	i
c	c
h	h

__BEGIN__	__EPS__
m	m
y	i
r	r

__BEGIN__	__EPS__
s	s
a	o
l	l
l	l

__BEGIN__	__EPS__
d	d
i	i
c	c
h	h

__BEGIN__	__EPS__
v	u
n	n
d	d

__BEGIN__	__EPS__
s	s
c	c
h	h
r	r
i	i
f	f
t	t

__BEGIN__	__EPS__
d	d
o	a

__BEGIN__	__EPS__
g	g
a	eh
v	e
n	n

__BEGIN__	__EPS__
l	l
a	e
i	i
d	d

__BEGIN__	__EPS__
v	v
o	o
n	n

__BEGIN__	__EPS__
a	a
l	l
s	s
e	__EPS__

__BEGIN__	__EPS__
s	s
y	ie

__BEGIN__	__EPS__
i	i
c	c
h	h

__BEGIN__	__EPS__
w	w
i	i
e	e

__BEGIN__	__EPS__
g	g
i	i
n	n
g	g

__BEGIN__	__EPS__
h	h
e	a
t	t

__BEGIN__	__EPS__
s	s
o	o

__BEGIN__	__EPS__
s	s
p	p
a	a
n	n
n	ne

__BEGIN__	__EPS__
e	e
r	r

__BEGIN__	__EPS__
h	h
i	i
e	e
z	ss

__BEGIN__	__EPS__
d	d
e	e
r	r

__BEGIN__	__EPS__
n	n
i	i
c	c
h	h
t	t

__BEGIN__	__EPS__
m	m
i	i
c	c
h	h

__BEGIN__	__EPS__
m	m
i	i
c	c
h	h

__BEGIN__	__EPS__
i	i
c	c
h	h

__BEGIN__	__EPS__
s	s
v	u
c	c
h	h
t	t
e	e

__BEGIN__	__EPS__
s	sch
w	w
e	e
s	s
t	t
e	e
r	r

__BEGIN__	__EPS__
c	__EPS__
z	z
w	w
e	e
n	i

__BEGIN__	__EPS__
a	e
i	i
n	n

__BEGIN__	__EPS__
c	k
l	l
e	e
y	i
d	d
e	e
r	r
e	__EPS__

__BEGIN__	__EPS__
m	m
a	a
r	r
i	i
e	a
n	__EPS__

__BEGIN__	__EPS__
v	u
n	n
d	d

__BEGIN__	__EPS__
d	d
o	a

__BEGIN__	__EPS__
w	w
o	o
l	ll
d	t
e	e
n	n

__BEGIN__	__EPS__
h	hi
e	e
r	r
e	__EPS__

__BEGIN__	__EPS__
e	e
i	i
n	n

__BEGIN__	__EPS__
t	__EPS__
z	z
e	u

__BEGIN__	__EPS__
y	ih
n	n

__BEGIN__	__EPS__
h	h
a	a
n	n
t	d

__BEGIN__	__EPS__
y	ih
n	n

__BEGIN__	__EPS__
d	d
i	i
e	e

__BEGIN__	__EPS__
v	u
n	n
d	d

__BEGIN__	__EPS__
l	l
a	a
m	m
a	a
z	z
a	a
b	b
a	a
t	t
a	a
m	ni

__BEGIN__	__EPS__
e	e
r	r

__BEGIN__	__EPS__
g	g
a	a
n	n
c	__EPS__
z	z

__BEGIN__	__EPS__
s	s
e	e
i	i
t	__EPS__
t	t
e	e
n	n

__BEGIN__	__EPS__
d	d
u	u

__BEGIN__	__EPS__
h	h
i	i
n	n

__BEGIN__	__EPS__
e	e
r	r
b	b
e	a
r	r
m	me
d	n

__BEGIN__	__EPS__
t	t
o	o
t	t

__BEGIN__	__EPS__
g	g
e	e
s	s
e	e
g	g
e	__EPS__
n	ne
t	t

__BEGIN__	__EPS__
i	ih
n	n

__BEGIN__	__EPS__
s	s
e	e
y	i

__BEGIN__	__EPS__
v	v
o	o
n	n

__BEGIN__	__EPS__
d	d
i	i
e	e

__BEGIN__	__EPS__
d	d
e	e
i	i
n	n

__BEGIN__	__EPS__
g	g
e	e
r	r
n	n
e	e

__BEGIN__	__EPS__
a	a
n	n
t	t
w	w
o	o
r	r
t	t
t	__EPS__
e	e
t	t

__BEGIN__	__EPS__
v	u
n	n
d	d

__BEGIN__	__EPS__
a	a
l	l
s	s

__BEGIN__	__EPS__
n	n
y	ie
d	d
e	e
r	r

__BEGIN__	__EPS__
v	u
n	n
d	d

__BEGIN__	__EPS__
p	p
y	i
l	l
a	a
t	t
u	u
s	s

__BEGIN__	__EPS__
c	__EPS__
z	z
e	e
i	i
g	g
i	__EPS__
t	t
e	e

__BEGIN__	__EPS__
h	h
a	a
w	u
s	s

__BEGIN__	__EPS__
h	h
e	a
t	t
t	t
e	e
n	n

__BEGIN__	__EPS__
d	da
z	s

__BEGIN__	__EPS__
a	a
n	n

__BEGIN__	__EPS__
a	a
b	b
e	e
r	r

__BEGIN__	__EPS__
n	n
y	ich
t	t

__BEGIN__	__EPS__
e	e
r	r

__BEGIN__	__EPS__
m	m
i	i
t	t

__BEGIN__	__EPS__
n	n
u	un

__BEGIN__	__EPS__
w	w
a	a
r	r
d	d
e	__EPS__
n	__EPS__

__BEGIN__	__EPS__
w	m
a	a
n	n

__BEGIN__	__EPS__
w	w
a	a
z	r

__BEGIN__	__EPS__
c	k
r	r
e	e
w	u
c	__EPS__
z	z

__BEGIN__	__EPS__
s	s
c	c
h	h
i	i
e	e
d	d

__BEGIN__	__EPS__
b	be
i	i

__BEGIN__	__EPS__
h	h
e	e
r	r
n	ni
e	e
d	d
e	e
r	r

__BEGIN__	__EPS__
w	w
a	a
s	r
.	__EPS__
v	__EPS__
n	__EPS__
d	__EPS__

__BEGIN__	__EPS__
a	a
n	n

__BEGIN__	__EPS__
d	da
z	ss

__BEGIN__	__EPS__
r	r
o	o
t	t

__BEGIN__	__EPS__
r	r
e	e
i	i
c	c
h	h

__BEGIN__	__EPS__
a	a
l	l
s	s
o	o

__BEGIN__	__EPS__
d	d
i	ie
z	s

__BEGIN__	__EPS__
g	g
e	e
w	w
a	a
n	n
t	d

__BEGIN__	__EPS__
m	m
i	i
t	t

__BEGIN__	__EPS__
i	ih
m	m

__BEGIN__	__EPS__
e	e
r	r

__BEGIN__	__EPS__
d	d
o	a

__BEGIN__	__EPS__
w	w
o	oh
l	l

__BEGIN__	__EPS__
m	m
i	i
r	r

__BEGIN__	__EPS__
m	me
y	i
n	n
e	e
n	m

__BEGIN__	__EPS__
d	t
o	o
i	__EPS__
t	d

__BEGIN__	__EPS__
a	a
n	n

__BEGIN__	__EPS__
s	s
t	t
a	e
i	i
n	n

__BEGIN__	__EPS__
s	s
a	a
c	c
h	h
e	e

__BEGIN__	__EPS__
g	g
e	e
s	s
c	c
h	h
a	a
h	h
e	__EPS__

__BEGIN__	__EPS__
h	h
o	ö
r	re

__BEGIN__	__EPS__
k	k
ü	ö
n	n
i	i
g	g

__BEGIN__	__EPS__
g	g
e	e
d	t
a	a
i	__EPS__
n	n

__BEGIN__	__EPS__
n	n
o	o
c	c
h	h

__BEGIN__	__EPS__
s	s
o	o

__BEGIN__	__EPS__
i	u
n	n
d	d

__BEGIN__	__EPS__
e	e
r	r

__BEGIN__	i
e	h
n	n

__BEGIN__	__EPS__
l	l
e	e
i	i
b	b

__BEGIN__	__EPS__
g	g
e	e
t	t
h	__EPS__
a	a
n	n

__BEGIN__	__EPS__
d	d
a	a
r	r
v	u
m	m
b	__EPS__

__BEGIN__	__EPS__
v	u
n	n
d	d

__BEGIN__	__EPS__
e	e
r	r
s	s
t	t
e	e
n	n

__BEGIN__	__EPS__
i	ih
r	r
e	e
n	n

__BEGIN__	__EPS__
m	m
i	i
c	c
h	h

__BEGIN__	__EPS__
n	n
i	ic
e	h
t	t

__BEGIN__	__EPS__
f	f
v	ü
e	__EPS__
z	s
z	s
e	e

__BEGIN__	__EPS__
w	w
u	u
r	r
t	de

__BEGIN__	__EPS__
d	de
u	u
c	c
h	h
t	t
e	e

__BEGIN__	__EPS__
a	a
n	n

__BEGIN__	__EPS__
a	a
n	n

__BEGIN__	__EPS__
d	d
o	a

__BEGIN__	__EPS__
w	w
i	ie
d	d
e	e
r	r

__BEGIN__	__EPS__
v	f
r	r
e	e
u	u
w	__EPS__
e	e
n	n

__BEGIN__	__EPS__
g	g
r	r
o	o
s	s
s	s
e	e
r	r

__BEGIN__	__EPS__
l	l
e	e
i	i
b	b
e	e
s	s

__BEGIN__	__EPS__
g	g
e	e
s	sch
l	l
a	a
g	g
e	e
n	n

__BEGIN__	__EPS__
n	n
v	un

__BEGIN__	__EPS__
r	r
y	ie
f	f
e	e
n	n

__BEGIN__	__EPS__
i	j
a	a
m	mm
e	e
r	r

__BEGIN__	__EPS__
d	da
z	ss

__BEGIN__	__EPS__
i	i
s	s
t	t

__BEGIN__	__EPS__
z	z
u	u
o	__EPS__

__BEGIN__	__EPS__
d	d
a	a
e	__EPS__

__BEGIN__	__EPS__
m	m
i	i
t	t
e	e
i	i
n	n
a	a
n	n
d	d
e	e
r	r

__BEGIN__	__EPS__
b	b
e	e
g	g
u	a
n	n
t	n
e	__EPS__

__BEGIN__	__EPS__
g	g
e	e
b	b
o	o
t	t
e	e

__BEGIN__	__EPS__
s	s
i	ie

__BEGIN__	__EPS__
e	u
n	nd

__BEGIN__	__EPS__
w	w
a	a
s	r

__BEGIN__	__EPS__
d	d
i	i
e	e

__BEGIN__	__EPS__
m	m
a	a
l	l

__BEGIN__	__EPS__
d	d
e	e
r	r

__BEGIN__	__EPS__
h	h
e	e
r	r
c	__EPS__
z	z

__BEGIN__	__EPS__
d	d
o	a

__BEGIN__	__EPS__
w	w
i	i
l	lls
t	t

__BEGIN__	__EPS__
z	z
u	u
o	__EPS__

__BEGIN__	__EPS__
i	i
c	c
h	h

__BEGIN__	__EPS__
a	a
u	u
f	f
f	__EPS__

__BEGIN__	__EPS__
g	g
e	e
d	t
a	a
i	__EPS__
n	n

__BEGIN__	__EPS__
i	j
v	u
d	d
e	e
n	n

__BEGIN__	__EPS__
a	a
l	l
s	s

__BEGIN__	__EPS__
p	p
y	i
l	l
a	a
t	t
u	u
s	s

__BEGIN__	__EPS__
p	b
r	r
u	u
d	d
e	e
r	r

__BEGIN__	__EPS__
g	g
a	a
b	b

__BEGIN__	__EPS__
d	d
o	a

__BEGIN__	__EPS__
c	c
e	e
n	n
t	t
u	u
r	r
i	i
o	o

__BEGIN__	__EPS__
v	l
e	__EPS__
r	i
h	__EPS__
e	e
n	s
g	s
e	__EPS__
t	__EPS__

__BEGIN__	__EPS__
i	ih
n	n

__BEGIN__	__EPS__
d	d
i	i
e	e

__BEGIN__	__EPS__
d	d
e	e
n	n

__BEGIN__	__EPS__
f	f
r	r
o	a
w	u
e	__EPS__

__BEGIN__	__EPS__
v	u
n	n
d	d

__BEGIN__	__EPS__
f	f
v	ü
e	h
r	r
t	t
e	e
n	n

__BEGIN__	__EPS__
e	e
r	r

__BEGIN__	__EPS__
w	w
e	ä
r	r
e	e

__BEGIN__	__EPS__
i	i
c	c
h	h

__BEGIN__	__EPS__
v	u
n	n
d	d

__BEGIN__	__EPS__
m	m
i	i
c	c
h	h

__BEGIN__	__EPS__
p	p
a	a
s	s
s	s
i	i
o	o

__BEGIN__	__EPS__
i	i
n	n

__BEGIN__	__EPS__
i	j
v	u
d	d
e	e

__BEGIN__	__EPS__
s	s
ü	o
n	n
d	d
e	e
r	rn

__BEGIN__	__EPS__
s	s
p	p
r	r
a	a
c	c
h	h

__BEGIN__	__EPS__
v	ü
b	b
e	e
r	r

__BEGIN__	__EPS__
d	d
o	a

__BEGIN__	__EPS__
l	l
i	i
e	e
f	f

__BEGIN__	__EPS__
v	v
u	e
r	r
s	s
t	t
o	ö
r	r
i	__EPS__
t	t

__BEGIN__	__EPS__
e	e
n	n
g	g
i	e
l	l

__BEGIN__	__EPS__
i	j
o	o
h	h
a	an
n	n
y	es

__BEGIN__	__EPS__
s	se
i	i
n	n

__BEGIN__	__EPS__
g	g
u	u
t	t
e	e
n	n

__BEGIN__	__EPS__
i	j
h	__EPS__
e	e
r	r
u	u
s	s
a	a
l	l
e	e
m	m

__BEGIN__	__EPS__
s	s
p	p
r	r
a	a
c	c
h	h

__BEGIN__	__EPS__
i	ih
m	m

__BEGIN__	__EPS__
d	d
o	o
c	c
h	h

__BEGIN__	__EPS__
h	h
e	ä
n	n
d	d
e	e

__BEGIN__	__EPS__
d	d
e	e
m	m

__BEGIN__	__EPS__
d	d
o	a

__BEGIN__	__EPS__
e	e
s	s

__BEGIN__	__EPS__
b	g
e	e
s	s
c	c
h	h
i	i
c	e
h	h
t	t

__BEGIN__	__EPS__
m	me
y	i
n	n
e	e
n	n

__BEGIN__	__EPS__
f	f
r	r
a	a
w	u

__BEGIN__	__EPS__
d	d
o	a

__BEGIN__	__EPS__
d	d
a	a
s	ss

__BEGIN__	__EPS__
b	g
e	e
s	s
c	c
h	h
i	i
c	e
h	h
t	t

__BEGIN__	__EPS__
v	u
n	n
d	d

__BEGIN__	__EPS__
m	m
i	i
r	r

__BEGIN__	__EPS__
i	i
n	n

__BEGIN__	__EPS__
g	g
a	a
n	n
t	__EPS__
z	z

__BEGIN__	__EPS__
s	s
y	ie

__BEGIN__	__EPS__
h	h
o	ö
e	__EPS__
r	r
e	e

__BEGIN__	__EPS__
d	d
e	e
s	s

__BEGIN__	__EPS__
d	d
e	e
m	m

__BEGIN__	__EPS__
g	g
e	e
b	w
o	a
l	l
t	t

__BEGIN__	__EPS__
s	s
e	e
i	i
n	n

__BEGIN__	__EPS__
s	e
ü	i
n	n
d	z
e	e
r	__EPS__
l	l
i	__EPS__
c	__EPS__
h	__EPS__
e	__EPS__
n	n

__BEGIN__	__EPS__
s	s
i	ie

__BEGIN__	__EPS__
g	g
i	i
e	__EPS__
n	n
g	g
e	e
n	n

__BEGIN__	__EPS__
i	ih
r	r
e	e
n	n

__BEGIN__	__EPS__
d	d
i	i
e	e

__BEGIN__	__EPS__
d	d
o	a

__BEGIN__	__EPS__
d	d
o	a

__BEGIN__	__EPS__
h	h
a	a
t	t
t	te

__BEGIN__	__EPS__
l	le
i	i
b	b

__BEGIN__	__EPS__
e	e
r	r
l	l
o	o
s	s
c	c
h	h
e	e
n	n

__BEGIN__	__EPS__
m	m
u	u
o	s
s	s
t	t

__BEGIN__	__EPS__
d	d
o	a

__BEGIN__	__EPS__
a	a
n	n

__BEGIN__	__EPS__
e	e
z	s

__BEGIN__	__EPS__
n	n
i	i
c	c
h	h
t	t

__BEGIN__	__EPS__
w	w
e	e
i	i
p	b

__BEGIN__	__EPS__
i	i
c	c
h	h

__BEGIN__	__EPS__
m	m
e	e
i	i
n	ne
s	s

__BEGIN__	__EPS__
s	s
o	o

__BEGIN__	__EPS__
i	ih
m	m

__BEGIN__	__EPS__
s	s
t	t
u	u
n	n
t	de

__BEGIN__	__EPS__
n	n
i	i
c	c
h	h
t	t

__BEGIN__	__EPS__
v	u
n	n
s	s
e	e
r	r

__BEGIN__	__EPS__
c	k
r	r
u	__EPS__
i	e
t	u
z	z
e	e

__BEGIN__	__EPS__
a	a
n	n
s	s
a	a
c	__EPS__
h	h

__BEGIN__	__EPS__
s	s
y	ie

__BEGIN__	__EPS__
g	g
a	a
l	l
l	l
e	e
n	n

__BEGIN__	__EPS__
r	r
e	e
y	i
n	n
e	e

__BEGIN__	__EPS__
i	ih
n	n

__BEGIN__	__EPS__
d	d
u	u

__BEGIN__	__EPS__
d	d
a	a

__BEGIN__	__EPS__
f	f
r	r
a	a
g	g
t	t

__BEGIN__	__EPS__
h	h
a	a
d	t
d	t
e	e
s	s
t	t

__BEGIN__	__EPS__
h	h
e	ä
n	n
d	d
e	e
n	n

__BEGIN__	__EPS__
e	e
r	r
s	s
c	c
h	h
v	ütte
i	r
t	t
e	e

__BEGIN__	__EPS__
v	u
n	n
d	d

__BEGIN__	__EPS__
d	d
e	e
n	n

__BEGIN__	__EPS__
d	d
y	ie
s	s

__BEGIN__	__EPS__
v	au
t	s

__BEGIN__	__EPS__
i	i
n	n

__BEGIN__	__EPS__
d	d
a	a
z	s

__BEGIN__	__EPS__
w	w
o	oh
l	l

__BEGIN__	__EPS__
g	g
e	e
t	t
e	a
t	n

__BEGIN__	__EPS__
m	m
e	e
i	i
n	n
e	e
m	m

__BEGIN__	__EPS__
c	__EPS__
z	z
u	u

__BEGIN__	__EPS__
i	i
c	c
h	h

__BEGIN__	__EPS__
e	e
s	s

__BEGIN__	__EPS__
d	d
e	e
m	m

__BEGIN__	__EPS__
s	se
i	i
n	n

__BEGIN__	__EPS__
v	v
e	e
r	r
k	k
e	eh
r	r
e	e
r	r

__BEGIN__	__EPS__
d	d
o	a

__BEGIN__	__EPS__
k	k
i	i
n	n
t	d

__BEGIN__	__EPS__
v	u
n	n
d	d

__BEGIN__	__EPS__
n	n
u	ah
m	m
e	e
n	n

__BEGIN__	__EPS__
v	fe
u	u
y	e
r	r

__BEGIN__	__EPS__
h	h
i	e
n	r
v	u
m	m
b	__EPS__

__BEGIN__	__EPS__
v	u
n	n
n	d

__BEGIN__	__EPS__
d	d
y	i
r	r

__BEGIN__	__EPS__
v	v
o	o
n	n

__BEGIN__	__EPS__
w	a
i	u
d	f
e	__EPS__
r	__EPS__
m	b
a	a
c	__EPS__
h	u
e	e
n	n

__BEGIN__	__EPS__
e	u
n	nd

__BEGIN__	__EPS__
n	n
y	ie
d	d
e	e
r	r

__BEGIN__	__EPS__
s	s
e	e
l	l
i	i
g	g
e	e

__BEGIN__	__EPS__
w	w
o	o
r	r
t	t

__BEGIN__	__EPS__
m	me
i	i
n	n

__BEGIN__	__EPS__
e	e
s	s

__BEGIN__	__EPS__
a	a
l	l
l	l
e	e

__BEGIN__	__EPS__
d	d
i	i
e	e

__BEGIN__	__EPS__
w	w
e	ä
r	r
e	e

__BEGIN__	__EPS__
a	a
n	n

__BEGIN__	__EPS__
t	t
a	ä
e	__EPS__
t	t
e	e

__BEGIN__	__EPS__
n	n
u	un

__BEGIN__	__EPS__
v	u
n	n
d	d

__BEGIN__	__EPS__
a	a
n	n
t	t
w	w
u	o
r	rte
t	t

__BEGIN__	__EPS__
i	j
u	ü
n	n
g	g
e	e
r	r

__BEGIN__	__EPS__
k	k
o	o
m	mm
e	e

__BEGIN__	__EPS__
d	d
o	a

__BEGIN__	__EPS__
w	w
i	i
l	l
l	l
e	e
n	n

__BEGIN__	__EPS__
d	d
e	e
r	r

__BEGIN__	__EPS__
i	i
c	c
h	h

__BEGIN__	__EPS__
i	ih
n	n

__BEGIN__	__EPS__
m	m
e	e
i	i
n	n

__BEGIN__	__EPS__
g	g
e	e
d	t
a	a
i	__EPS__
n	n

__BEGIN__	__EPS__
v	f
e	e
i	i
n	n
t	d

__BEGIN__	__EPS__
d	d
a	a
z	ss

__BEGIN__	__EPS__
t	t
o	o
d	d

__BEGIN__	__EPS__
i	i
c	c
h	h

__BEGIN__	__EPS__
s	s
t	t
y	im
m	m
e	e
n	n

__BEGIN__	__EPS__
c	k
r	re
u	u
c	z
i	i
g	g
e	e
n	n

__BEGIN__	__EPS__
w	w
a	a
s	r

__BEGIN__	__EPS__
h	e
e	r

__BEGIN__	__EPS__
a	a
n	n
d	d
e	e
r	re

__BEGIN__	__EPS__
s	s
y	ie

__BEGIN__	__EPS__
d	d
o	a

__BEGIN__	__EPS__
d	d
e	e
n	n

__BEGIN__	__EPS__
h	h
e	ä
n	n
n	__EPS__
d	de

__BEGIN__	__EPS__
m	m
e	e
n	n
s	s
c	c
h	h

__BEGIN__	__EPS__
d	d
i	i
e	e

__BEGIN__	__EPS__
h	h
a	äng
y	e
n	n

__BEGIN__	__EPS__
s	s
o	o

__BEGIN__	__EPS__
d	d
o	a

__BEGIN__	__EPS__
v	b
n	i
t	__EPS__
z	s

__BEGIN__	__EPS__
d	d
a	a
t	ss

__BEGIN__	__EPS__
n	n
a	ah
m	m
e	e
n	n

__BEGIN__	__EPS__
e	e
r	r

__BEGIN__	__EPS__
e	e
y	i
g	g
e	e
l	l
s	s
t	t
e	e
y	i
n	n

__BEGIN__	__EPS__
s	r
c	__EPS__
h	__EPS__
a	ä
c	u
h	b
e	e
r	r

__BEGIN__	__EPS__
k	k
i	i
n	n
t	d

__BEGIN__	__EPS__
t	t
u	e
i	u
r	r
r	__EPS__
e	e
n	n

__BEGIN__	__EPS__
f	f
r	r
e	e
u	u
d	de

__BEGIN__	__EPS__
f	f
u	ü
r	r
s	s
t	t
e	e
n	n

__BEGIN__	__EPS__
i	i
n	n

__BEGIN__	__EPS__
s	s
c	c
h	h
a	a
d	d
e	e
n	n

__BEGIN__	__EPS__
f	f
r	r
a	a
u	u
w	__EPS__
e	__EPS__

__BEGIN__	__EPS__
l	l
e	e
i	i
p	b

__BEGIN__	__EPS__
w	w
a	a
s	r
z	__EPS__

__BEGIN__	__EPS__
h	h
i	i
e	e
s	s
z	s

__BEGIN__	__EPS__
d	d
e	e
r	r

__BEGIN__	__EPS__
t	t
a	a
g	g
e	e
s	s

__BEGIN__	__EPS__
t	t
a	a
g	g

__BEGIN__	__EPS__
m	m
i	i
r	r

__BEGIN__	__EPS__
k	k
a	a
m	m

__BEGIN__	__EPS__
m	m
a	a
r	r
i	i
a	a

__BEGIN__	p
s	s
a	a
l	l
t	t
e	e
r	r

__BEGIN__	__EPS__
s	s
c	c
h	h
r	r
i	i
e	e
n	n

__BEGIN__	__EPS__
c	__EPS__
z	z
u	u

__BEGIN__	__EPS__
m	m
a	a
c	c
h	h
o	__EPS__
t	te

__BEGIN__	__EPS__
z	z
u	u

__BEGIN__	__EPS__
d	d
a	a
t	ss

__BEGIN__	__EPS__
p	p
h	f
e	e
n	n
n	n
i	i
n	__EPS__
g	g
e	e

__BEGIN__	__EPS__
c	k
a	a
y	i
p	p
h	h
a	a
s	s

__BEGIN__	__EPS__
k	k
i	i
n	n
d	d

__BEGIN__	__EPS__
d	d
a	a
z	ss

__BEGIN__	__EPS__
d	d
ü	u

__BEGIN__	__EPS__
n	n
o	o
c	c
h	h

__BEGIN__	__EPS__
i	i
c	c
h	h

__BEGIN__	__EPS__
i	i
n	n

__BEGIN__	__EPS__
a	a
l	l
l	l
e	e

__BEGIN__	__EPS__
g	g
r	r
i	im
m	m
e	e
n	n

__BEGIN__	__EPS__
v	v

__BEGIN__	__EPS__
e	e
r	r
t	d
r	re
i	i
c	c
h	h
e	__EPS__

__BEGIN__	__EPS__
s	s
e	e
i	i
n	n

__BEGIN__	__EPS__
r	r
o	o
c	c
k	k

__BEGIN__	__EPS__
v	v
e	e
r	r
t	t
r	r
i	ie
b	b
e	e
n	n

__BEGIN__	__EPS__
i	i
u	u
d	d
a	a
s	s

__BEGIN__	__EPS__
i	i
c	c
h	h

__BEGIN__	__EPS__
d	d
a	a

__BEGIN__	__EPS__
d	d
a	a
n	nn

__BEGIN__	__EPS__
w	w
i	i
l	ll

__BEGIN__	__EPS__
s	s
y	ie

__BEGIN__	__EPS__
g	g
e	e
s	s
c	c
h	h
l	l
e	e
c	c
h	h
t	t

__BEGIN__	__EPS__
s	s
p	p
r	r
a	a
c	c
h	h

__BEGIN__	__EPS__
w	w
i	i
r	r

__BEGIN__	__EPS__
w	w
i	i
e	e

__BEGIN__	__EPS__
d	d
e	e
m	m

__BEGIN__	__EPS__
d	d
a	a

__BEGIN__	__EPS__
v	v
e	e
r	r
k	k
e	eh
r	r
e	e
r	r

__BEGIN__	d
u	u

__BEGIN__	i
e	h
n	n

__BEGIN__	__EPS__
d	d
a	a
s	s

__BEGIN__	__EPS__
e	e
r	r
l	l
e	e
d	d
i	i
g	g
t	t

__BEGIN__	__EPS__
w	d
a	e
n	n
t	n

__BEGIN__	__EPS__
s	s
a	a
g	g
e	e

__BEGIN__	__EPS__
e	e
r	r
d	d
e	e

__BEGIN__	__EPS__
i	i
c	c
h	h

__BEGIN__	__EPS__
d	d
a	a

__BEGIN__	__EPS__
o	u
m	m

__BEGIN__	__EPS__
v	v
o	o
l	l
k	k

__BEGIN__	__EPS__
d	d
a	a
t	s

__BEGIN__	__EPS__
n	n
e	e
i	i
g	g
e	__EPS__
t	t

__BEGIN__	__EPS__
v	u
n	n
d	d

__BEGIN__	__EPS__
g	g
e	e
w	w
a	a
l	l
t	t

__BEGIN__	__EPS__
m	m
o	o
c	c
h	h
t	t
e	e

__BEGIN__	__EPS__
e	e
r	r

__BEGIN__	__EPS__
n	n
i	ich
t	t

__BEGIN__	__EPS__
b	b
e	e
l	l
e	e
i	i
d	d
i	i
g	g
e	__EPS__
t	t
h	__EPS__

__BEGIN__	__EPS__
e	e
r	r
b	b
a	a
r	r
m	me

__BEGIN__	__EPS__
r	r
e	e
w	u
e	e

__BEGIN__	__EPS__
m	m
i	i
c	c
h	h

__BEGIN__	__EPS__
g	g
y	i
n	n
g	g
e	e
n	n

__BEGIN__	__EPS__
e	e
r	r

__BEGIN__	__EPS__
m	m
o	u
e	s
t	s

__BEGIN__	__EPS__
v	u
n	n
d	d

__BEGIN__	__EPS__
v	v
a	o
n	n

__BEGIN__	__EPS__
v	v
o	o
r	r

__BEGIN__	__EPS__
l	l
i	i
e	e
u	b
e	e

__BEGIN__	__EPS__
p	p
e	e
t	t
r	r
e	us

__BEGIN__	__EPS__
s	s
e	e
e	e
l	le

__BEGIN__	__EPS__
d	d
a	a
z	s

__BEGIN__	__EPS__
m	me
i	i
n	n

__BEGIN__	__EPS__
n	n
i	ic
h	h
t	t

__BEGIN__	__EPS__
e	e
m	m
p	p
f	f
i	i
e	__EPS__
n	n
g	g

__BEGIN__	__EPS__
v	u
n	n
d	d

__BEGIN__	__EPS__
d	d
o	o
c	c
h	h

__BEGIN__	__EPS__
e	e
r	r

__BEGIN__	__EPS__
i	i
c	c
h	h

__BEGIN__	__EPS__
d	d
a	as
s	s

__BEGIN__	__EPS__
d	d
a	a
r	__EPS__
n	n
a	a
c	c
h	h

__BEGIN__	__EPS__
y	ih
m	m

__BEGIN__	__EPS__
v	u
n	n
d	d

__BEGIN__	__EPS__
l	l
e	e
y	i
d	d
e	e

__BEGIN__	__EPS__
i	i
c	c
h	h

__BEGIN__	__EPS__
v	u
n	n
d	d

__BEGIN__	__EPS__
d	d
a	a
z	s

__BEGIN__	__EPS__
s	s
p	p
r	r
a	a
c	c
h	h

__BEGIN__	__EPS__
d	d
e	e
n	n

__BEGIN__	__EPS__
v	v
e	e
r	r
r	r
a	a
t	t
e	e
n	n

__BEGIN__	__EPS__
m	m
o	u
e	t
d	t
e	e
r	r

__BEGIN__	__EPS__
a	a
n	n
d	de
r	r
e	e

__BEGIN__	__EPS__
s	s
u	o
o	h
n	n

__BEGIN__	__EPS__
r	r
i	i
c	c
h	h
t	t
e	e
r	r

__BEGIN__	__EPS__
a	e
i	i
n	n

__BEGIN__	__EPS__
l	l
i	i
n	n
c	__EPS__
k	k
e	e
n	n

__BEGIN__	__EPS__
a	a
l	l
l	l
e	e
s	s

__BEGIN__	__EPS__
s	s
p	p
r	r
a	a
c	c
h	h

__BEGIN__	__EPS__
s	s
a	a
c	__EPS__
h	h
e	e
n	n

__BEGIN__	__EPS__
m	j
a	u
e	n
g	g
t	fräu
l	l
i	i
c	c
h	h
e	e
n	n

__BEGIN__	__EPS__
f	f
r	r
a	a
w	u
e	__EPS__

__BEGIN__	__EPS__
g	g
r	r
o	o
s	s
s	s
i	__EPS__
u	e

__BEGIN__	__EPS__
d	d
i	i
e	e

__BEGIN__	__EPS__
d	d
e	e
n	n

__BEGIN__	__EPS__
w	w
a	a
s	r
z	__EPS__

__BEGIN__	__EPS__
h	h
a	a
i	__EPS__
t	t

__BEGIN__	__EPS__
g	g
e	e
w	w
a	ah
r	r

__BEGIN__	__EPS__
w	w
a	a
s	r

__BEGIN__	__EPS__
w	w
a	a
s	r

__BEGIN__	__EPS__
d	d
o	a

__BEGIN__	__EPS__
e	e
r	r

__BEGIN__	__EPS__
a	a
l	l
l	l
e	e
s	s

__BEGIN__	__EPS__
d	d
a	a
z	s

__BEGIN__	__EPS__
p	b
a	a
t	t
e	e
n	n

__BEGIN__	__EPS__
d	d
y	i
e	e

__BEGIN__	__EPS__
w	w
a	o
i	h
l	l
l	__EPS__

__BEGIN__	__EPS__
d	d
u	u

__BEGIN__	__EPS__
f	f
e	e
r	r
r	n
e	__EPS__

__BEGIN__	__EPS__
c	ch
r	r
i	i
s	s
t	t
i	i

__BEGIN__	__EPS__
s	s
i	i
c	c
h	h

__BEGIN__	__EPS__
d	d
e	e
n	n
n	n
e	__EPS__

__BEGIN__	__EPS__
d	d
o	a

__BEGIN__	__EPS__
s	s
y	i
m	m
e	e
o	o
n	n

__BEGIN__	__EPS__
v	v
o	o
n	n

__BEGIN__	__EPS__
b	be
y	i

__BEGIN__	__EPS__
s	s
y	ie

__BEGIN__	__EPS__
z	z
u	u

__BEGIN__	__EPS__
v	u
n	n
d	d

__BEGIN__	__EPS__
a	a
e	__EPS__
n	n
s	s
i	i
c	c
h	h
t	t
e	__EPS__

__BEGIN__	__EPS__
m	m
i	i
c	c
h	h

__BEGIN__	__EPS__
d	d
i	i
r	r

__BEGIN__	__EPS__
v	u
n	n
d	d

__BEGIN__	__EPS__
s	s
y	ie

__BEGIN__	__EPS__
g	g
o	ot
t	t

__BEGIN__	__EPS__
v	u
n	n
d	d

__BEGIN__	__EPS__
w	w
a	a
r	r
d	d

__BEGIN__	__EPS__
c	__EPS__
z	z
a	a
r	r
t	t
e	e
s	s

__BEGIN__	__EPS__
d	d
e	e
m	m

__BEGIN__	__EPS__
v	u
n	n
d	d

__BEGIN__	__EPS__
s	s
i	ie

__BEGIN__	__EPS__
g	__EPS__
e	__EPS__
s	s
p	p
r	r
a	a
c	c
h	h

__BEGIN__	__EPS__
m	m
a	a
n	n

__BEGIN__	__EPS__
y	j
.	e
d	d
o	o
c	c
h	h

__BEGIN__	__EPS__
g	g
r	r
o	o
s	s
z	s

__BEGIN__	__EPS__
i	i
c	c
h	h

__BEGIN__	__EPS__
s	si
e	e

__BEGIN__	__EPS__
d	d
e	e
r	r

__BEGIN__	__EPS__
v	u
n	n
d	d

__BEGIN__	__EPS__
m	m
e	e
i	i
n	n

__BEGIN__	__EPS__
d	d
e	e
r	r

__BEGIN__	__EPS__
s	s
c	c
h	h
l	l
e	ä
g	ge

__BEGIN__	__EPS__
d	d
e	e
n	n

__BEGIN__	__EPS__
i	i
n	n

__BEGIN__	__EPS__
v	u
n	n
d	d

__BEGIN__	__EPS__
d	d
a	a
r	__EPS__
n	n
a	a
c	c
h	h

__BEGIN__	__EPS__
d	d
e	e
r	r

__BEGIN__	__EPS__
s	s
o	o
n	h
e	n

__BEGIN__	__EPS__
h	__EPS__
e	e
r	r

__BEGIN__	__EPS__
k	k
o	o
m	mm
e	e
n	n

__BEGIN__	__EPS__
m	m
i	i
c	c
h	h

__BEGIN__	__EPS__
v	u
n	n
d	d

__BEGIN__	__EPS__
w	w
i	i
s	s
s	s
e	e
n	n

__BEGIN__	__EPS__
o	o
w	w
e	eh

__BEGIN__	__EPS__
d	o
i	__EPS__
c	__EPS__
h	f
e	t

__BEGIN__	__EPS__
e	e
r	r
s	s
c	c
h	h
a	i
i	e
n	n

__BEGIN__	__EPS__
a	a
l	l
l	l
e	e
r	r

__BEGIN__	__EPS__
d	d
a	a

__BEGIN__	__EPS__
h	h
a	a
l	l
f	f
f	__EPS__

__BEGIN__	__EPS__
m	m
i	i
t	t

__BEGIN__	__EPS__
l	l
a	e
w	u
t	t
e	e

__BEGIN__	__EPS__
b	b
r	r
a	a
c	c
h	h
e	e
n	n

__BEGIN__	__EPS__
i	ih
n	n

__BEGIN__	__EPS__
m	m
e	e
i	i
n	n

__BEGIN__	__EPS__
k	k
n	n
e	e
c	c
h	h
t	t

__BEGIN__	__EPS__
d	d
e	e
r	r

__BEGIN__	__EPS__
h	h
a	a
b	b
e	e
n	n

__BEGIN__	__EPS__
n	n
a	a
c	c
h	h

__BEGIN__	__EPS__
d	d
a	a
s	s

__BEGIN__	__EPS__
a	a
l	l
s	s

__BEGIN__	__EPS__
i	i
c	c
h	h

__BEGIN__	__EPS__
g	g
a	a
b	b

__BEGIN__	__EPS__
i	i
c	c
h	h

__BEGIN__	__EPS__
i	i
c	c
h	h

__BEGIN__	__EPS__
s	s
c	c
h	h
u	u
l	l
d	d

__BEGIN__	__EPS__
z	z
e	u

__BEGIN__	__EPS__
i	i
c	c
h	h

__BEGIN__	__EPS__
d	d
v	u

__BEGIN__	__EPS__
g	__EPS__
e	__EPS__
d	d
a	a
c	c
h	h
t	te

__BEGIN__	__EPS__
w	w
i	i
e	e

__BEGIN__	__EPS__
d	d
a	a
e	__EPS__

__BEGIN__	__EPS__
d	d
i	i
e	e

__BEGIN__	__EPS__
t	t
a	a
g	g

__BEGIN__	__EPS__
d	de
i	i
n	n
e	e
m	m

__BEGIN__	__EPS__
e	e
t	t

__BEGIN__	__EPS__
w	w
a	a
r	re
n	n

__BEGIN__	__EPS__
d	d
e	e
n	n

__BEGIN__	__EPS__
d	d
o	a

__BEGIN__	__EPS__
d	d
a	a
z	ss

__BEGIN__	__EPS__
d	d
i	i
e	e

__BEGIN__	__EPS__
i	j
u	ü
n	n
g	g
e	e
r	r

__BEGIN__	__EPS__
m	m
i	i
t	t

__BEGIN__	__EPS__
m	m
a	a
n	n

__BEGIN__	__EPS__
m	m
i	i
t	t

__BEGIN__	__EPS__
a	a
u	u
s	s
g	g
e	e
n	n
o	o
m	m
e	__EPS__
n	m
l	__EPS__
i	__EPS__
c	__EPS__
h	__EPS__
e	e
n	n

__BEGIN__	__EPS__
m	m
i	i
r	r

__BEGIN__	__EPS__
c	k
h	__EPS__
r	r
e	e
u	u
c	__EPS__
z	z

__BEGIN__	__EPS__
v	u
n	n
d	d

__BEGIN__	__EPS__
i	i
c	c
h	h

__BEGIN__	__EPS__
s	s
v	i
i	e

__BEGIN__	__EPS__
g	__EPS__
e	__EPS__
s	s
t	t
r	r
e	e
n	n
g	g
e	e

__BEGIN__	__EPS__
w	w
a	a
s	s

__BEGIN__	__EPS__
d	d
u	u
r	r
c	c
h	h

__BEGIN__	__EPS__
h	h
e	er
r	r
e	e
n	n

__BEGIN__	__EPS__
k	k
i	i
n	n
d	d
e	__EPS__

__BEGIN__	__EPS__
i	i
n	n

__BEGIN__	__EPS__
i	ih
m	m

__BEGIN__	__EPS__
b	b
i	i
s	s

__BEGIN__	__EPS__
g	g
r	r
o	o
s	s
s	s
e	e
m	m

__BEGIN__	__EPS__
r	r
y	ie
f	f

__BEGIN__	__EPS__
m	m
o	o
c	c
h	h
t	te

__BEGIN__	__EPS__
m	m
i	i
c	c
h	h

__BEGIN__	__EPS__
h	h
a	a
n	n
d	d

__BEGIN__	__EPS__
s	s
e	e
l	l
u	b
e	e
s	s

__BEGIN__	__EPS__
n	n
o	o
t	t

__BEGIN__	__EPS__
a	a
n	n

__BEGIN__	__EPS__
m	m
e	e
i	i
n	n

__BEGIN__	__EPS__
a	a
b	b
e	e
r	r

__BEGIN__	__EPS__
w	w
e	ä
r	re

__BEGIN__	__EPS__
o	o
s	s
t	t
e	e
r	r
l	l
a	a
m	m
p	m
e	__EPS__
s	s

__BEGIN__	__EPS__
w	w
a	a
i	h
r	r
h	h
e	e
i	i
t	t

__BEGIN__	__EPS__
d	t
e	ä
d	t
e	e

__BEGIN__	__EPS__
i	u
n	n
d	d

__BEGIN__	__EPS__
d	d
i	i
e	e

__BEGIN__	__EPS__
e	e
i	i
n	n

__BEGIN__	__EPS__
s	s
c	c
h	h
o	ö
e	__EPS__
n	n
i	__EPS__
s	s
t	te

__BEGIN__	__EPS__
k	k
i	i
n	n
d	d
e	e
r	r

__BEGIN__	__EPS__
s	s
o	o

__BEGIN__	__EPS__
v	u
n	n
d	d

__BEGIN__	__EPS__
y	ih
n	n

__BEGIN__	__EPS__
d	d
o	a

__BEGIN__	__EPS__
n	n
a	a
c	c
h	h
t	t

__BEGIN__	__EPS__
v	f
r	r
u	ü
e	h

__BEGIN__	__EPS__
o	a
u	u
c	c
h	h

__BEGIN__	__EPS__
g	g
e	e
s	s
c	c
h	h
i	eh
e	e
n	n

__BEGIN__	__EPS__
v	v
o	o
n	n

__BEGIN__	__EPS__
a	a
v	u
f	f

__BEGIN__	__EPS__
m	me
i	i
n	n

__BEGIN__	__EPS__
d	d
o	a

__BEGIN__	__EPS__
h	h
e	e
r	r
o	o
d	d
i	e
s	s

__BEGIN__	__EPS__
g	g
e	e
f	f
l	l
o	o
s	s
s	s
e	e
n	n

__BEGIN__	__EPS__
l	l
e	e
y	i
b	b
e	__EPS__

__BEGIN__	__EPS__
h	h
e	e
l	l
y	y

__BEGIN__	__EPS__
d	d
o	a

__BEGIN__	__EPS__
k	k
i	i
n	n
d	d

__BEGIN__	__EPS__
d	d
u	u
r	r
c	c
h	h
g	g
o	o
z	s
s	s
e	e
n	n

__BEGIN__	__EPS__
s	s
p	p
r	r
a	a
c	c
h	h

__BEGIN__	__EPS__
e	e
r	r

__BEGIN__	__EPS__
g	g
e	e
m	m
e	e
y	i
n	n
e	e

__BEGIN__	__EPS__
k	k
i	i
n	n
d	d

__BEGIN__	__EPS__
a	e
i	i
n	n
e	e
n	n

__BEGIN__	__EPS__
s	s
t	t
u	__EPS__
o	a
n	n
d	d

__BEGIN__	__EPS__
i	ih
m	m

__BEGIN__	__EPS__
v	v
i	ie
l	l

__BEGIN__	__EPS__
v	u
n	n
d	d

__BEGIN__	__EPS__
w	w
e	ä
e	r
r	e

__BEGIN__	__EPS__
d	d
e	e
i	i
n	n

__BEGIN__	__EPS__
m	m
e	e
a	a

__BEGIN__	__EPS__
a	a
l	l
z	s
o	o

__BEGIN__	__EPS__
g	g
r	r
o	o
i	__EPS__
s	s
s	s
e	e
n	__EPS__

__BEGIN__	__EPS__
p	p
e	e
t	tr
e	u
r	s

__BEGIN__	__EPS__
y	e
z	s

__BEGIN__	__EPS__
m	m
i	i
r	r

__BEGIN__	__EPS__
k	k
r	r
e	e
u	u
t	__EPS__
z	z
e	e
n	n

__BEGIN__	__EPS__
h	h
e	e
r	r
t	__EPS__
z	z

__BEGIN__	__EPS__
e	e
r	r

__BEGIN__	__EPS__
d	d
a	as
s	s

__BEGIN__	__EPS__
d	d
u	u
r	r
c	c
h	h

__BEGIN__	__EPS__
n	n
u	un

__BEGIN__	__EPS__
s	s
y	ie

__BEGIN__	__EPS__
i	ih
m	m

__BEGIN__	__EPS__
h	h
e	__EPS__
b	a
b	b
e	e
n	n

__BEGIN__	__EPS__
v	v
o	o
r	r

__BEGIN__	__EPS__
d	d
a	a
z	s

__BEGIN__	__EPS__
d	d
a	a
s	s

__BEGIN__	__EPS__
b	b
e	e
r	r
e	i
c	c
h	h
t	t
e	e

__BEGIN__	__EPS__
w	w
a	a
r	r
e	e
n	n
t	__EPS__

__BEGIN__	__EPS__
d	d
e	e
r	r

__BEGIN__	__EPS__
m	m
u	u
t	t
t	t
e	e
r	r

__BEGIN__	__EPS__
i	i
n	n

__BEGIN__	__EPS__
w	w
i	i
e	e

__BEGIN__	__EPS__
i	ih
n	n

__BEGIN__	__EPS__
v	ü
b	b
e	e
r	r

__BEGIN__	__EPS__
s	s
o	o
e	h
n	n

__BEGIN__	__EPS__
m	m
e	e
i	i
n	n

__BEGIN__	__EPS__
e	e
r	r
c	__EPS__
z	z
a	e
i	i
g	g
t	t

__BEGIN__	__EPS__
n	n
i	i
e	ch
t	t

__BEGIN__	__EPS__
v	u
i	__EPS__
n	n
s	s

__BEGIN__	__EPS__
w	w
i	il
l	l

__BEGIN__	__EPS__
h	h
e	e
r	r

__BEGIN__	__EPS__
e	e
l	l
e	e
m	men
t	t
e	e
n	n

__BEGIN__	__EPS__
i	i
c	c
h	h

__BEGIN__	__EPS__
z	z
u	u

__BEGIN__	__EPS__
d	d
e	e
r	r

__BEGIN__	__EPS__
m	m
o	u
e	t
d	t
e	e
r	r

__BEGIN__	__EPS__
s	s
o	o

__BEGIN__	__EPS__
h	h
a	a
b	b
e	e
n	n
t	__EPS__

__BEGIN__	__EPS__
y	ih
n	n

__BEGIN__	__EPS__
n	n
i	i
c	c
h	h
t	t

__BEGIN__	__EPS__
k	ke
u	u
s	s
c	c
h	h

__BEGIN__	__EPS__
i	ih
m	m

__BEGIN__	__EPS__
m	m
i	i
r	r

__BEGIN__	__EPS__
d	d
o	a

__BEGIN__	__EPS__
e	e
r	r

__BEGIN__	__EPS__
a	anst
r	ren
b	g
e	u
i	n
t	g
e	e
n	n

__BEGIN__	__EPS__
a	a
n	n

__BEGIN__	__EPS__
e	i
m	h
e	m

__BEGIN__	__EPS__
i	i
s	s
t	t

__BEGIN__	__EPS__
s	s
y	ie

__BEGIN__	__EPS__
i	ih
n	n

__BEGIN__	__EPS__
a	a
n	n

__BEGIN__	__EPS__
a	a
l	l
s	s

__BEGIN__	__EPS__
v	u
n	n
d	d

__BEGIN__	__EPS__
p	p
y	i
l	l
a	a
t	t
u	u
s	s

__BEGIN__	__EPS__
v	u
n	n
d	d
e	__EPS__

__BEGIN__	__EPS__
d	d
o	a

__BEGIN__	__EPS__
g	g
r	r
o	o
s	ss
e	e
r	r

__BEGIN__	__EPS__
m	m
i	i
r	r

__BEGIN__	__EPS__
s	s
i	i
c	c
h	h

__BEGIN__	__EPS__
p	b
a	a
t	t

__BEGIN__	__EPS__
d	d
i	i
e	e

__BEGIN__	__EPS__
p	p
e	e
y	i
n	n
s	z
e	__EPS__
t	t

__BEGIN__	__EPS__
v	u
n	n
d	d

__BEGIN__	__EPS__
d	d
a	as
s	s

__BEGIN__	__EPS__
s	s
e	e
c	__EPS__
h	h
t	t

__BEGIN__	__EPS__
w	w
u	u
n	n
d	d
e	e
r	r

__BEGIN__	__EPS__
n	n
o	o
c	c
h	h

__BEGIN__	__EPS__
a	a
s	s
s	s
i	i
r	r
i	i
a	a

__BEGIN__	__EPS__
a	a
u	u
f	f

__BEGIN__	__EPS__
s	s
o	o

__BEGIN__	__EPS__
d	d
a	a
r	__EPS__
n	n
a	a
c	c
h	h

__BEGIN__	__EPS__
d	d
i	i
e	e

__BEGIN__	__EPS__
e	e
r	r

__BEGIN__	__EPS__
d	d
e	e
r	r

__BEGIN__	__EPS__
w	w
a	a
n	n
n	n

__BEGIN__	__EPS__
e	e
r	r

__BEGIN__	__EPS__
d	d
r	r
i	e
j	i

__BEGIN__	__EPS__
s	s
a	o
l	ll

__BEGIN__	__EPS__
s	s
o	o
e	h
n	n

__BEGIN__	__EPS__
i	i
n	n

__BEGIN__	__EPS__
l	le
i	i
b	b
e	__EPS__

__BEGIN__	__EPS__
n	n
e	a
c	c
h	h
t	t
e	__EPS__
n	s

__BEGIN__	__EPS__
z	z
i	e
u	u
g	ge

__BEGIN__	__EPS__
a	a
n	n

__BEGIN__	__EPS__
d	d
a	an
n	n

__BEGIN__	__EPS__
a	a
n	n
s	s
h	__EPS__
e	e
l	l
m	m
u	__EPS__
s	__EPS__

__BEGIN__	__EPS__
s	se
i	i
n	n
e	e
s	s

__BEGIN__	__EPS__
p	b
i	i
n	n

__BEGIN__	__EPS__
v	u
m	m
b	__EPS__

__BEGIN__	__EPS__
i	i
c	c
h	h

