__BEGIN__	__EPS__
o	o
w	w
e	eh

__BEGIN__	__EPS__
s	s
i	i
c	c
h	h

__BEGIN__	__EPS__
h	e
e	r

__BEGIN__	__EPS__
s	s
t	t
e	ehe
n	n

__BEGIN__	__EPS__
c	__EPS__
h	k
i	i
n	n
d	d

__BEGIN__	__EPS__
d	d
e	e
m	m

__BEGIN__	__EPS__
i	i
s	s
t	t

__BEGIN__	__EPS__
b	b
e	e
g	g
r	r
o	u
i	__EPS__
f	__EPS__
f	b

__BEGIN__	__EPS__
a	a
l	l
l	l
e	e
s	s

__BEGIN__	__EPS__
w	w
i	o
l	l
l	l
e	e
n	n

__BEGIN__	__EPS__
m	m
a	an
n	n

__BEGIN__	__EPS__
l	l
e	e
i	i
b	be
s	s

__BEGIN__	__EPS__
m	m
a	a
l	l

__BEGIN__	__EPS__
d	d
a	as
s	s

__BEGIN__	__EPS__
s	s
c	c
h	h
e	e
y	i
n	ne

__BEGIN__	__EPS__
g	g
e	e
g	g
r	r
u	ü
e	__EPS__
s	s
e	s
t	t

__BEGIN__	__EPS__
v	v
o	o
n	n

__BEGIN__	__EPS__
n	n
u	un

__BEGIN__	__EPS__
p	p
i	i
l	l
a	a
t	t
u	u
s	s
z	__EPS__

__BEGIN__	__EPS__
s	s
i	ie

__BEGIN__	__EPS__
d	d
a	a
z	ss

__BEGIN__	__EPS__
i	i
m	m
m	m
e	e
r	r

__BEGIN__	__EPS__
m	m
i	i
c	c
h	h

__BEGIN__	__EPS__
c	k
l	l
e	e
i	i
t	d

__BEGIN__	__EPS__
l	l
a	a
n	n
g	g

__BEGIN__	__EPS__
m	m
a	a
n	n

__BEGIN__	__EPS__
d	d
a	a
s	s

__BEGIN__	__EPS__
m	m
e	e
i	i
n	n

__BEGIN__	__EPS__
d	d
ü	u

__BEGIN__	__EPS__
h	h
a	a
d	t
d	t
e	e
s	st

__BEGIN__	__EPS__
s	s
w	oh
n	n

__BEGIN__	__EPS__
i	i
c	c
h	h

__BEGIN__	__EPS__
s	s
o	o
i	h
n	n

__BEGIN__	__EPS__
v	ü
i	__EPS__
b	b
e	e
r	r

__BEGIN__	__EPS__
s	s
o	o

__BEGIN__	__EPS__
i	i
c	c
h	h

__BEGIN__	__EPS__
r	r
a	a
t	t

__BEGIN__	__EPS__
d	d
a	a
s	s

__BEGIN__	__EPS__
n	n
i	ich
t	t

__BEGIN__	__EPS__
d	d
i	i
e	e

__BEGIN__	__EPS__
v	u
n	n
d	d

__BEGIN__	__EPS__
v	f
i	ie
l	l

__BEGIN__	__EPS__
i	i
n	n

__BEGIN__	__EPS__
d	d
e	e
r	r

__BEGIN__	__EPS__
w	w
o	o
l	ll
t	t

__BEGIN__	__EPS__
i	j
u	ü
n	n
g	g
e	e
r	r
e	__EPS__
n	n

__BEGIN__	__EPS__
m	m
i	i
t	t

__BEGIN__	__EPS__
s	se
y	i
m	n
e	e

__BEGIN__	__EPS__
g	g
e	e
s	s
e	e
c	t
z	z
e	e

__BEGIN__	__EPS__
m	m
i	i
c	c
h	h

__BEGIN__	__EPS__
v	u
n	n
d	d

__BEGIN__	__EPS__
p	b
e	e
r	r
i	__EPS__
g	g
e	e
n	n

__BEGIN__	__EPS__
s	s
p	p
r	r
a	a
c	c
h	h

__BEGIN__	__EPS__
o	a
u	u
c	c
h	h

__BEGIN__	__EPS__
g	g
e	e
b	b
e	e
d	t
e	e

__BEGIN__	__EPS__
d	d
a	a

__BEGIN__	__EPS__
e	e
r	r
f	f
u	ü
i	__EPS__
l	l
l	l
e	__EPS__
t	t

__BEGIN__	__EPS__
z	z
e	u

__BEGIN__	__EPS__
p	p
a	e
y	s
s	sa
c	c
h	h
e	__EPS__
n	__EPS__

__BEGIN__	__EPS__
s	s
i	i
e	e

__BEGIN__	__EPS__
s	s
e	e
h	h
e	e
n	n

__BEGIN__	__EPS__
w	w
a	a
s	r
z	__EPS__

__BEGIN__	__EPS__
h	h
i	i
e	e
s	s
z	s
e	e

__BEGIN__	__EPS__
d	d
e	e
n	n

__BEGIN__	__EPS__
d	d
o	a

__BEGIN__	__EPS__
s	sch
w	w
e	e
s	s
t	t
e	e
r	r

__BEGIN__	__EPS__
n	n
a	ah
m	m

__BEGIN__	__EPS__
d	d
i	i
e	e

__BEGIN__	__EPS__
i	ih
m	m

__BEGIN__	__EPS__
e	n
n	icht

__BEGIN__	__EPS__
h	h
e	e
u	u
t	te

__BEGIN__	__EPS__
d	d
i	ie
s	s
e	e
w	__EPS__

__BEGIN__	__EPS__
g	g
e	e
s	s
c	c
h	h
a	a
c	__EPS__
h	h

__BEGIN__	__EPS__
u	ü
b	b
e	e
r	r

__BEGIN__	__EPS__
p	b
r	r
a	a
c	c
h	h
e	e
n	n

__BEGIN__	__EPS__
v	v
o	o
r	r

__BEGIN__	__EPS__
v	u
n	n
d	d

__BEGIN__	__EPS__
h	h
e	e
i	i
l	l
i	i
g	g

__BEGIN__	__EPS__
v	u
n	n
d	d

__BEGIN__	__EPS__
w	w
e	eh

__BEGIN__	__EPS__
m	m
a	a
n	n

__BEGIN__	__EPS__
e	e
r	r

__BEGIN__	__EPS__
v	u
n	n
d	d

__BEGIN__	__EPS__
b	b
i	i
s	st

__BEGIN__	__EPS__
i	i
c	c
h	h

__BEGIN__	__EPS__
k	k
o	ö
n	n
y	i
n	__EPS__
g	g
y	i
n	n
n	__EPS__
e	__EPS__

__BEGIN__	__EPS__
m	m
i	i
t	t

__BEGIN__	__EPS__
d	d
e	e
r	r

__BEGIN__	__EPS__
v	b
n	i
t	__EPS__
z	s

__BEGIN__	__EPS__
v	u
n	n
d	d

__BEGIN__	__EPS__
s	sie

__BEGIN__	__EPS__
a	a
l	l
l	l
e	e
m	m

__BEGIN__	__EPS__
v	v
o	o
n	n

__BEGIN__	__EPS__
m	m
a	a
n	n

__BEGIN__	__EPS__
e	e
n	n
d	de

__BEGIN__	__EPS__
g	g
e	e
s	s
t	t
a	a
l	l
t	tet

__BEGIN__	__EPS__
m	me
y	i
n	n

__BEGIN__	__EPS__
d	d
o	a

__BEGIN__	__EPS__
g	g
r	r
e	ä
b	b
e	e
r	r

__BEGIN__	__EPS__
e	e
r	r
f	f
v	ü
e	l
l	l
t	t

__BEGIN__	__EPS__
p	pf
l	l
e	e
i	g
t	t

__BEGIN__	__EPS__
i	ih
m	m

__BEGIN__	__EPS__
s	s
y	ie

__BEGIN__	__EPS__
d	d
e	i
y	e
n	n
s	s
t	t
l	le
u	u
d	t
e	e

__BEGIN__	__EPS__
h	h
o	a
u	u
p	p
t	t

__BEGIN__	__EPS__
v	v
a	a
t	t
e	e
r	r

__BEGIN__	__EPS__
v	u
n	n
d	d

__BEGIN__	__EPS__
o	o
n	nt
d	d
a	o
e	e
n	n

__BEGIN__	__EPS__
d	d
i	i
r	r

__BEGIN__	__EPS__
v	v
o	o
n	n

__BEGIN__	__EPS__
o	a
e	u
c	ch

__BEGIN__	__EPS__
w	w
e	eh

__BEGIN__	__EPS__
d	d
a	o
c	c
h	h

__BEGIN__	__EPS__
d	d
i	i
e	e

__BEGIN__	__EPS__
a	e
i	i
n	n
e	e
m	m

__BEGIN__	__EPS__
d	d
e	e
n	n

__BEGIN__	__EPS__
w	w
o	ol
l	l
d	t
e	e

__BEGIN__	__EPS__
p	b
e	e
i	i
n	n

__BEGIN__	__EPS__
d	d
e	e
r	r

__BEGIN__	__EPS__
s	s
c	c
h	h
r	r
i	ie
b	b

__BEGIN__	__EPS__
q	k
u	__EPS__
a	a
m	m

__BEGIN__	__EPS__
b	b
r	r
i	i
e	e
f	__EPS__
f	f

__BEGIN__	__EPS__
a	a
n	n
s	s
h	__EPS__
e	e
l	l
m	m
e	__EPS__

__BEGIN__	__EPS__
d	d
o	a

__BEGIN__	__EPS__
v	u
n	n
d	d

__BEGIN__	__EPS__
v	f
r	r
a	a
g	g
e	__EPS__
d	t
e	e

__BEGIN__	__EPS__
t	t
r	r
i	i
n	n
c	__EPS__
k	k

__BEGIN__	__EPS__
s	s
a	a
c	__EPS__
h	h

__BEGIN__	__EPS__
d	d
a	a
s	s
z	s

__BEGIN__	__EPS__
e	e
r	r

__BEGIN__	__EPS__
m	m
a	a
g	g

__BEGIN__	__EPS__
v	u
n	n
d	d

__BEGIN__	__EPS__
p	p
e	e
y	i
n	n

__BEGIN__	__EPS__
n	n
i	ich
t	t

__BEGIN__	__EPS__
d	d
r	re
y	i
c	__EPS__
z	z
e	eh
n	n
d	t
e	e
n	n

__BEGIN__	__EPS__
e	e
r	r

__BEGIN__	__EPS__
e	e
n	n
g	g
e	e
l	l

__BEGIN__	__EPS__
i	j
u	u
d	d
e	e
n	n

__BEGIN__	__EPS__
n	n
i	i
e	e

__BEGIN__	__EPS__
v	v
o	o
n	n

__BEGIN__	__EPS__
i	ih
m	m

__BEGIN__	__EPS__
i	ih
m	m

__BEGIN__	__EPS__
d	d
u	u

__BEGIN__	__EPS__
w	w
i	i
l	l
l	l

__BEGIN__	__EPS__
h	h
e	e
r	r
t	z
z	e
l	l
e	e
i	i
d	d

__BEGIN__	__EPS__
d	d
i	i
e	e

__BEGIN__	__EPS__
n	n
i	i
c	c
h	h
t	t

__BEGIN__	__EPS__
h	h
e	e
r	r
r	r
e	e
n	n

__BEGIN__	__EPS__
d	d
r	r
i	i
t	t
t	t
e	e
n	n

__BEGIN__	__EPS__
w	w
i	ie
d	d
e	e
r	r
m	m
a	a
c	c
h	h
e	e
n	n

__BEGIN__	__EPS__
w	w
u	ü
i	__EPS__
r	r
d	de

__BEGIN__	__EPS__
k	k
y	i
n	n
d	d
e	__EPS__

__BEGIN__	__EPS__
i	i
c	c
h	h

__BEGIN__	__EPS__
f	f
r	r
a	a
w	u

__BEGIN__	__EPS__
n	n
y	i
e	e

__BEGIN__	__EPS__
k	k
o	a
m	m
e	e
n	n
d	__EPS__

__BEGIN__	__EPS__
m	m
a	a
g	g
d	d
a	a
l	l
e	e
n	n
a	a

__BEGIN__	__EPS__
h	h
a	a
b	be

__BEGIN__	__EPS__
d	d
a	a
z	s

__BEGIN__	__EPS__
d	d
a	a
r	__EPS__
n	n
a	a
c	c
h	h

__BEGIN__	__EPS__
n	n
a	ah
m	m

__BEGIN__	__EPS__
v	u
n	n
d	d

__BEGIN__	__EPS__
m	m
a	a
g	g
e	__EPS__
t	d

__BEGIN__	__EPS__
s	s
o	o

__BEGIN__	__EPS__
k	k
i	i
n	n
t	d

__BEGIN__	__EPS__
v	b
n	i
c	__EPS__
z	s

__BEGIN__	__EPS__
s	s
p	p
r	r
a	a
c	c
h	h

__BEGIN__	__EPS__
d	t
a	ä
e	__EPS__
d	t
e	e
n	n

__BEGIN__	__EPS__
s	s
a	a
c	__EPS__
h	h

__BEGIN__	__EPS__
d	d
i	i
e	e

__BEGIN__	__EPS__
s	s
p	p
r	r
a	a
c	c
h	h

__BEGIN__	__EPS__
m	v
a	__EPS__
n	__EPS__
i	i
g	__EPS__
e	e
m	len

__BEGIN__	__EPS__
w	w
o	o
i	__EPS__
r	r
t	t

__BEGIN__	__EPS__
s	se
i	i
n	n

__BEGIN__	__EPS__
d	d
o	a

__BEGIN__	__EPS__
d	d
i	i
e	e

__BEGIN__	__EPS__
s	s
p	p
r	r
i	i
h	c
e	h
t	t

__BEGIN__	__EPS__
z	z
a	a
r	r
t	t
e	e
s	s

__BEGIN__	__EPS__
s	s
p	p
r	r
a	a
c	c
h	h

__BEGIN__	__EPS__
g	g
e	e
s	s
e	a
i	g
t	t

__BEGIN__	__EPS__
s	s
i	e
t	t
t	z
e	e
n	n

__BEGIN__	__EPS__
v	a
i	u
s	s
z	__EPS__

__BEGIN__	__EPS__
v	b
n	i
c	__EPS__
z	s

__BEGIN__	__EPS__
m	m
e	e
i	i
n	n

__BEGIN__	__EPS__
l	l
e	ä
s	ss
t	t

__BEGIN__	__EPS__
b	b
e	e
d	t
r	ri
e	e
u	b
e	e
n	n

__BEGIN__	__EPS__
d	d
i	i
n	n
ü	u
m	m
e	e
r	r
a	a
ü	v
e	e
r	r
u	u
n	n
t	t

__BEGIN__	__EPS__
w	w
e	e
g	g
e	__EPS__

__BEGIN__	__EPS__
f	f
r	r
e	e
u	u
n	n
d	d

__BEGIN__	__EPS__
z	z
u	u

__BEGIN__	__EPS__
g	g
a	eh
y	e
n	n

__BEGIN__	__EPS__
g	g
n	n
a	a
d	d
e	e
n	n

__BEGIN__	d
u	u

__BEGIN__	__EPS__
s	s
p	p
r	r
a	a
c	c
h	h
e	e
n	n

__BEGIN__	__EPS__
l	l
i	i
n	n
g	k
g	__EPS__
e	e
n	n

__BEGIN__	__EPS__
s	s
e	e
i	i
n	n

__BEGIN__	__EPS__
w	w
e	e
i	i
s	s
z	s

__BEGIN__	__EPS__
d	d
o	a

__BEGIN__	__EPS__
w	w
e	ä
r	r
e	e

__BEGIN__	__EPS__
e	e
i	i
n	n

__BEGIN__	__EPS__
d	t
o	ö
d	t
e	e
n	n

__BEGIN__	n
i	i
c	c
h	h
t	t

__BEGIN__	__EPS__
s	s
e	e
h	h
e	e
n	n

__BEGIN__	__EPS__
d	d
o	a

__BEGIN__	__EPS__
m	m
a	a
n	nn
i	i
g	g
v	f
a	a
l	l
t	t
i	i
g	g
e	e
n	n

__BEGIN__	__EPS__
g	g
e	e
s	s
c	c
h	h
a	a
c	__EPS__
h	h

__BEGIN__	__EPS__
z	z
v	o
g	g
e	e
m	n

__BEGIN__	__EPS__
d	d
o	a

__BEGIN__	__EPS__
v	v
o	o
r	r

__BEGIN__	__EPS__
g	g
e	e
s	s
p	p
r	r
o	o
c	c
h	h
e	e
n	n

__BEGIN__	__EPS__
w	w
a	a
s	r

__BEGIN__	__EPS__
s	s
u	o
e	h
n	n

__BEGIN__	__EPS__
g	g
r	r
o	o
z	s
z	s
e	e
m	m

__BEGIN__	__EPS__
a	a
l	l
l	l
e	e
r	r

__BEGIN__	__EPS__
a	a
u	u
f	f
f	__EPS__
s	s
t	t
o	ehe
n	n

__BEGIN__	__EPS__
c	__EPS__
z	z
a	a
r	r
t	t
e	e
n	n

__BEGIN__	__EPS__
i	ih
n	n

__BEGIN__	__EPS__
i	ih
m	m

__BEGIN__	__EPS__
d	d
a	a
s	s

__BEGIN__	__EPS__
v	u
n	n
d	d

__BEGIN__	__EPS__
l	l
i	ie
b	b
s	s
t	t
e	e

__BEGIN__	__EPS__
s	s
a	o
l	ll
t	t

__BEGIN__	__EPS__
w	wi
e	e
d	d
e	e
r	r

__BEGIN__	__EPS__
e	e
r	r
l	l
i	i
t	tt
e	e
n	n

__BEGIN__	__EPS__
d	d
a	a
z	s

__BEGIN__	__EPS__
b	b
a	a
r	r
r	r
a	a
b	b
a	a
n	s

__BEGIN__	__EPS__
v	v
o	o
r	r

__BEGIN__	__EPS__
p	p
i	i
l	l
a	a
t	t
u	u
s	s

__BEGIN__	__EPS__
s	s
p	p
r	r
a	a
c	c
h	h

__BEGIN__	__EPS__
b	b
i	i
s	s
c	c
h	h
o	o
f	f
f	__EPS__

__BEGIN__	__EPS__
v	u
n	n
d	d
e	__EPS__

__BEGIN__	__EPS__
c	__EPS__
z	z
u	u

__BEGIN__	__EPS__
e	e
r	r
d	d
e	e
n	n

__BEGIN__	__EPS__
e	e
r	r

__BEGIN__	__EPS__
d	da
z	s

__BEGIN__	__EPS__
m	me
i	i
n	n

__BEGIN__	__EPS__
e	e
r	r
l	l
e	e
d	d
g	i
e	g
t	t

__BEGIN__	__EPS__
s	o
t	__EPS__
a	r
t	t

__BEGIN__	__EPS__
s	s
c	__EPS__
h	o
o	l
l	l
d	t

__BEGIN__	__EPS__
v	a
f	u
f	f

__BEGIN__	__EPS__
s	s
t	t
a	a
c	c
h	h

__BEGIN__	__EPS__
m	m
a	a
i	g
t	d

__BEGIN__	__EPS__
v	v
o	o
n	n

__BEGIN__	__EPS__
e	e
i	i
n	n
e	e

__BEGIN__	__EPS__
l	l
i	i
e	e
f	be
s	s

__BEGIN__	__EPS__
e	ih
n	n

__BEGIN__	__EPS__
s	s
e	e
i	i
n	n

__BEGIN__	__EPS__
d	d
e	e
s	s

__BEGIN__	__EPS__
z	z
u	u

__BEGIN__	__EPS__
o	ü
u	b
e	e
r	r

__BEGIN__	__EPS__
d	d
i	i
e	e

__BEGIN__	__EPS__
d	d
a	a
s	ss

__BEGIN__	__EPS__
w	w
i	i
e	e

__BEGIN__	__EPS__
v	u
n	n
s	s
z	__EPS__
e	e
r	r

__BEGIN__	__EPS__
s	s
p	p
r	r
i	i
c	c
h	h
t	t
t	__EPS__

__BEGIN__	__EPS__
s	s
o	o

__BEGIN__	__EPS__
w	w
a	a
r	r
t	d

__BEGIN__	__EPS__
h	h
e	e
i	i
l	l
i	i
g	g
i	__EPS__
s	s
t	t
e	e

__BEGIN__	__EPS__
o	a
u	u
c	c
h	h

__BEGIN__	__EPS__
s	s
e	e
i	i
n	n
e	e

__BEGIN__	__EPS__
s	s
o	o

__BEGIN__	__EPS__
m	m
u	u
t	tt
e	e
r	r

__BEGIN__	__EPS__
m	m
i	i
t	t

__BEGIN__	__EPS__
t	t
o	o
t	t
i	e
n	n

__BEGIN__	__EPS__
d	d
u	u

__BEGIN__	__EPS__
m	me
y	i
n	n

__BEGIN__	__EPS__
a	a
n	n
d	d
e	e
r	re

__BEGIN__	__EPS__
n	n
i	ic
h	h
t	t

__BEGIN__	__EPS__
s	s
a	a
c	c
h	h
e	e

__BEGIN__	__EPS__
w	w
a	a
r	r
d	d

__BEGIN__	__EPS__
n	n
e	eh
m	m
y	__EPS__
t	t

__BEGIN__	__EPS__
s	s
e	i
w	e

__BEGIN__	__EPS__
d	d
a	a
t	ss

__BEGIN__	__EPS__
h	h
e	e
r	rr
s	sc
h	h
a	a
f	f
t	t

__BEGIN__	__EPS__
w	w
e	a
r	r
t	d

__BEGIN__	__EPS__
p	p
f	f
e	e
n	n
n	n
i	i
n	__EPS__
g	g
e	e

__BEGIN__	__EPS__
e	e
i	i
n	n
e	e
r	r

__BEGIN__	__EPS__
d	d
i	i
e	e
s	s

__BEGIN__	__EPS__
g	__EPS__
e	__EPS__
d	d
u	ü
r	r
f	f
f	__EPS__
e	e
n	n

__BEGIN__	__EPS__
y	ih
m	m

__BEGIN__	__EPS__
s	s
i	e
j	i
n	n

__BEGIN__	__EPS__
a	a
n	n
g	g
e	e
s	s
i	i
c	c
h	h
t	t
e	__EPS__

__BEGIN__	__EPS__
d	d
i	i
e	e

__BEGIN__	__EPS__
i	i
c	c
h	h

__BEGIN__	__EPS__
a	a
l	l
l	l

__BEGIN__	__EPS__
i	i
c	c
h	h

__BEGIN__	__EPS__
s	s
t	t
i	i
l	l
l	l
e	e
n	n

__BEGIN__	__EPS__
k	k
l	l
a	a
r	r
h	h
a	e
i	i
t	t

__BEGIN__	h
v	u
n	n
g	g
e	__EPS__
s	r
s	i
e	__EPS__
n	g

__BEGIN__	__EPS__
i	i
n	n

__BEGIN__	__EPS__
d	d
e	e
i	i
n	n

__BEGIN__	__EPS__
g	__EPS__
e	__EPS__
a	a
n	n
t	t
w	w
u	o
r	r
t	t
t	__EPS__
e	e
n	n

__BEGIN__	__EPS__
d	d
e	e
s	s
z	__EPS__

__BEGIN__	__EPS__
h	h
a	am
m	m
e	e
r	r
s	sch
l	l
e	ä
g	g
e	e

__BEGIN__	__EPS__
w	w
e	e
i	is
s	s

__BEGIN__	__EPS__
v	u
n	n
d	d

__BEGIN__	__EPS__
m	m
o	o
c	c
h	h
t	te

__BEGIN__	__EPS__
d	d
a	a

__BEGIN__	__EPS__
s	s
o	o

__BEGIN__	__EPS__
h	h
e	ät
t	te

__BEGIN__	__EPS__
s	sch
n	n
e	e
y	i
d	d
e	e
n	n

__BEGIN__	__EPS__
d	d
e	e
n	n
n	n

__BEGIN__	__EPS__
v	u
n	n
d	d

__BEGIN__	__EPS__
e	e
y	i
n	n

__BEGIN__	a
v	u
p	f

__BEGIN__	__EPS__
m	m
e	e
i	i
n	n
e	e
m	m

__BEGIN__	__EPS__
a	a
n	n
d	d
e	e
r	re

__BEGIN__	__EPS__
g	g
r	r
o	o
z	s
z	s

__BEGIN__	__EPS__
p	b
i	i
s	s
t	t

__BEGIN__	__EPS__
a	a
n	n

__BEGIN__	__EPS__
h	e
i	r

__BEGIN__	__EPS__
w	wo
n	n
n	n
e	e
b	v
e	o
r	__EPS__
n	l
d	l
v	__EPS__
i	e

__BEGIN__	__EPS__
d	di
e	e
s	s
e	e
n	n

__BEGIN__	__EPS__
n	n
u	u
e	__EPS__
r	r

__BEGIN__	__EPS__
a	a
u	u
d	d
i	i

__BEGIN__	__EPS__
y	j
e	e
m	m
a	a
n	nd

__BEGIN__	__EPS__
m	me
i	i
n	n
e	e
r	r

__BEGIN__	__EPS__
s	s
i	ie

__BEGIN__	__EPS__
b	b
e	e
g	g
i	i
e	__EPS__
n	n
c	g
h	__EPS__

__BEGIN__	__EPS__
n	n
a	ah
m	m

__BEGIN__	__EPS__
d	d
o	a

__BEGIN__	__EPS__
y	ih
m	m

__BEGIN__	__EPS__
l	l
o	o
c	c
h	h

__BEGIN__	a
v	u
s	s
z	__EPS__

__BEGIN__	__EPS__
h	h
a	ab
n	e

__BEGIN__	__EPS__
h	h
a	e
i	i
s	s
s	s
e	__EPS__
t	t

__BEGIN__	__EPS__
g	g
e	e
s	s
e	e
c	__EPS__
h	h
e	e
n	n
d	__EPS__

__BEGIN__	__EPS__
v	u
n	n
d	d

__BEGIN__	__EPS__
a	a
l	l
l	l
e	e

__BEGIN__	__EPS__
c	k
r	r
v	e
i	u
t	z
z	i
g	g
o	__EPS__
t	t
e	e
n	n

__BEGIN__	__EPS__
d	d
o	a
m	m
i	i
t	t

__BEGIN__	__EPS__
s	sä
u	u
l	le

__BEGIN__	__EPS__
a	a
l	l
l	l
e	e
r	r

__BEGIN__	__EPS__
m	m
e	e
i	i
n	n

__BEGIN__	__EPS__
v	u
n	n
d	d

__BEGIN__	__EPS__
s	s
y	ie

__BEGIN__	a
v	u
f	f

__BEGIN__	__EPS__
v	f
i	i
n	n
s	s
t	t
e	e
r	rnis

__BEGIN__	__EPS__
d	d
e	e
r	r

__BEGIN__	__EPS__
s	s
t	t
e	ä
d	dt
e	e

__BEGIN__	__EPS__
d	d
i	i
e	e

__BEGIN__	__EPS__
u	a
f	u
f	f

__BEGIN__	__EPS__
b	b
e	ege
k	gn
a	e
m	te

__BEGIN__	__EPS__
s	s
c	c
h	h
r	r
a	e
y	i
b	b
e	e
r	r

__BEGIN__	__EPS__
i	i
n	n

__BEGIN__	__EPS__
d	d
a	a
s	s
z	s

__BEGIN__	__EPS__
d	d
i	ie

__BEGIN__	__EPS__
i	ih
r	r
e	e

__BEGIN__	__EPS__
m	m
i	i
t	t

__BEGIN__	__EPS__
c	__EPS__
z	z
e	e
r	r
d	d
e	eh
n	n
t	t
e	e
n	n

__BEGIN__	__EPS__
s	s
t	t
y	im
m	me

__BEGIN__	__EPS__
d	d
i	i
e	e

__BEGIN__	__EPS__
i	ih
m	m

__BEGIN__	__EPS__
s	s
o	o

__BEGIN__	__EPS__
d	d
e	e
z	s

__BEGIN__	__EPS__
s	s
t	te
i	i
g	ge

__BEGIN__	__EPS__
i	j
u	u
d	d
e	e
n	n

__BEGIN__	__EPS__
d	d
e	e
n	n

__BEGIN__	__EPS__
i	i
c	c
h	h

__BEGIN__	__EPS__
v	v
o	o
l	l
k	k
i	__EPS__
z	s

__BEGIN__	__EPS__
h	h
e	e
r	r
c	__EPS__
z	z
e	e
n	n

__BEGIN__	__EPS__
d	d
c	as

__BEGIN__	__EPS__
a	a
n	n
d	d
i	e
r	re

__BEGIN__	__EPS__
w	w
i	i
e	e

__BEGIN__	__EPS__
v	u
n	n
d	d

__BEGIN__	__EPS__
w	w
a	a
s	s
s	s
e	e
r	r

__BEGIN__	__EPS__
m	m
e	e
i	i
n	n
e	e
n	m

__BEGIN__	__EPS__
d	d
o	a

__BEGIN__	__EPS__
g	g
e	e
s	s
t	t
a	a
l	l
t	tet

__BEGIN__	__EPS__
e	e
r	r

__BEGIN__	__EPS__
a	a
l	l
l	l

__BEGIN__	__EPS__
h	h
a	a
n	n
t	d

__BEGIN__	__EPS__
e	e
r	r

__BEGIN__	__EPS__
e	e
r	r

__BEGIN__	__EPS__
d	d
i	i
e	e

__BEGIN__	__EPS__
d	da
z	ss

__BEGIN__	__EPS__
g	g
a	a
p	b

__BEGIN__	__EPS__
t	t
i	i
s	s
c	c
h	h

__BEGIN__	__EPS__
b	b
o	ö
e	__EPS__
s	s
e	e

__BEGIN__	__EPS__
m	m
e	e
y	i
n	n

__BEGIN__	__EPS__
i	i
s	s
t	t

__BEGIN__	__EPS__
n	n
i	ich
t	t

__BEGIN__	__EPS__
i	i
c	c
h	h

__BEGIN__	__EPS__
a	a
l	l
l	l
e	e
r	r

__BEGIN__	__EPS__
s	s
p	p
r	r
a	a
c	c
h	h

__BEGIN__	__EPS__
v	u
n	n
d	d
t	__EPS__

__BEGIN__	__EPS__
h	e
e	r

__BEGIN__	__EPS__
d	d
u	u
r	r
c	c
h	h
s	s
c	c
h	h
l	l
a	a
g	g
e	e
n	n

__BEGIN__	__EPS__
a	a
n	n
s	s
h	__EPS__
e	e
l	l
m	m

__BEGIN__	__EPS__
v	u
i	__EPS__
n	n
s	s

__BEGIN__	__EPS__
m	m
e	e
i	i
n	n
e	e
m	m

__BEGIN__	__EPS__
c	c
r	r
u	u
c	c
i	i
f	f
i	i
g	g
e	e

__BEGIN__	__EPS__
i	ih
r	r
e	__EPS__

__BEGIN__	__EPS__
a	a
n	n

__BEGIN__	__EPS__
f	f
v	ü
e	h
r	r
t	t
e	e
n	n

__BEGIN__	__EPS__
v	u
n	n
d	d

__BEGIN__	__EPS__
w	w
i	i
r	r
t	d

__BEGIN__	__EPS__
w	w
i	ie
d	d
e	e
r	r

__BEGIN__	__EPS__
i	i
c	c
h	h

__BEGIN__	__EPS__
d	d
o	a

__BEGIN__	__EPS__
w	w
i	i
r	r

__BEGIN__	__EPS__
a	a
l	l
l	l
e	e
r	r

__BEGIN__	__EPS__
v	u
n	n
s	ser
e	e
m	m

__BEGIN__	__EPS__
d	d
i	ie
s	s
e	e
m	m

__BEGIN__	__EPS__
o	o
w	w
e	e
e	h

__BEGIN__	__EPS__
s	sch
l	l
e	ä
g	g
e	e

__BEGIN__	__EPS__
s	s
p	p
o	ö
e	__EPS__
t	t
t	t
l	__EPS__
e	__EPS__
i	is
c	c
h	h
e	__EPS__
n	__EPS__

__BEGIN__	__EPS__
d	d
e	e
m	m

__BEGIN__	__EPS__
s	s
v	i
i	e

__BEGIN__	__EPS__
b	b
e	e
l	l
a	a
d	d
e	e
n	n

__BEGIN__	__EPS__
l	l
u	a
f	u
f	f
e	e
n	n

__BEGIN__	__EPS__
d	l
e	i
n	n
k	k
e	e
n	n

__BEGIN__	__EPS__
s	s
a	a
n	nd
t	te

__BEGIN__	__EPS__
e	e
r	r

__BEGIN__	__EPS__
g	g
o	o
t	tt

__BEGIN__	__EPS__
s	s
p	p
r	r
a	a
i	__EPS__
c	c
h	h
e	e
n	n

__BEGIN__	__EPS__
w	w
e	e
y	i
n	n
t	t
e	e

__BEGIN__	__EPS__
w	w
o	o
r	r
t	t

__BEGIN__	__EPS__
h	h
e	e
r	r
z	z
e	e
n	n

__BEGIN__	__EPS__
i	i
c	c
h	h

__BEGIN__	__EPS__
k	k
r	r
e	e
ü	u
c	__EPS__
z	z

__BEGIN__	__EPS__
h	h
o	ö
r	r
t	t

__BEGIN__	__EPS__
v	v
o	o
n	n

__BEGIN__	__EPS__
i	ih
m	m

__BEGIN__	__EPS__
g	g
e	e
d	t
a	a
i	__EPS__
n	n

__BEGIN__	__EPS__
v	u
n	n
d	d

__BEGIN__	__EPS__
n	n
i	ich
t	t

__BEGIN__	__EPS__
o	o
b	b

__BEGIN__	__EPS__
m	m
a	a
n	n

__BEGIN__	__EPS__
v	u
n	n
d	d

__BEGIN__	__EPS__
h	h
a	a
d	t
d	t
e	e

__BEGIN__	__EPS__
w	w
e	e
i	is
s	s

__BEGIN__	__EPS__
s	s
p	p
r	r
a	a
c	c
h	h

__BEGIN__	__EPS__
v	ü
b	b
e	e
r	r

__BEGIN__	__EPS__
m	m
i	i
r	r

__BEGIN__	__EPS__
w	w
e	e
i	i
s	s
s	s
a	a
g	g
u	u
n	n
g	g
e	__EPS__

__BEGIN__	__EPS__
k	k
e	e
y	i
n	n

__BEGIN__	__EPS__
i	ih
m	m

__BEGIN__	__EPS__
d	d
o	a

__BEGIN__	__EPS__
e	e
r	r

__BEGIN__	__EPS__
f	f
r	r
a	a
u	u
e	e
n	n

__BEGIN__	__EPS__
s	s
i	i
n	n
d	d

__BEGIN__	__EPS__
v	u
n	n
d	d

__BEGIN__	__EPS__
c	__EPS__
h	k
i	i
n	n
d	d

__BEGIN__	__EPS__
g	g
a	ä
e	__EPS__
b	be

__BEGIN__	__EPS__
f	f
u	a
n	n
d	d
i	e
n	n

__BEGIN__	__EPS__
e	e
r	r
b	b
e	e
b	b
e	__EPS__
t	t
e	e

__BEGIN__	__EPS__
d	d
i	i
e	e

__BEGIN__	__EPS__
d	d
a	a

__BEGIN__	__EPS__
g	g
r	r
a	a
b	b

__BEGIN__	__EPS__
s	s
i	i
n	n
d	d

__BEGIN__	__EPS__
o	o
f	f
f	f
e	e
n	n

__BEGIN__	__EPS__
n	n
u	un

__BEGIN__	__EPS__
a	a
n	n

__BEGIN__	__EPS__
d	d
o	a

__BEGIN__	__EPS__
a	o
b	b

__BEGIN__	__EPS__
e	e
r	r

__BEGIN__	__EPS__
m	m
i	i
t	t

__BEGIN__	__EPS__
x	ch
p	ri
-	st
u	u
s	s

__BEGIN__	__EPS__
d	d
a	a
r	r
a	a
n	n

__BEGIN__	__EPS__
a	e
i	i
n	n

__BEGIN__	__EPS__
c	k
h	__EPS__
i	i
n	n
d	d

__BEGIN__	__EPS__
i	ih
m	m

__BEGIN__	d
u	u

__BEGIN__	__EPS__
d	d
a	a
s	s

__BEGIN__	__EPS__
h	h
u	e
i	u
t	te

__BEGIN__	__EPS__
s	s
y	ie

__BEGIN__	__EPS__
m	l
i	i
n	__EPS__
e	e
k	b
l	l
i	i
c	c
h	h
e	e
s	s

__BEGIN__	__EPS__
v	v
o	o
l	l
c	__EPS__
k	k
s	__EPS__

__BEGIN__	__EPS__
w	w
a	a
s	r

__BEGIN__	__EPS__
v	u
n	n
d	d

__BEGIN__	__EPS__
v	u
n	n
d	d

__BEGIN__	__EPS__
s	s
o	o

__BEGIN__	__EPS__
d	d
e	e
z	s

__BEGIN__	__EPS__
a	a
n	n
g	g
e	e
s	s
i	i
c	c
h	h
t	t
e	__EPS__

__BEGIN__	__EPS__
h	h
e	a
t	tt
e	e
n	n
d	__EPS__

__BEGIN__	__EPS__
a	a
n	n
d	d
e	e
r	r
e	e
n	n

__BEGIN__	__EPS__
e	u
n	nd

__BEGIN__	__EPS__
l	l
a	a
s	s
z	s

__BEGIN__	__EPS__
m	m
i	i
t	t

__BEGIN__	__EPS__
v	f
r	r
e	e
u	u
w	__EPS__
e	e
n	n

__BEGIN__	__EPS__
w	w
o	ol
l	l
t	t
e	e
n	n

__BEGIN__	__EPS__
w	we
i	i
s	s
s	s
a	a
g	g
e	ung

__BEGIN__	__EPS__
z	z
a	a
r	r
t	t
e	e
n	n

__BEGIN__	__EPS__
a	a
n	n

__BEGIN__	__EPS__
s	s
e	e
r	h
e	r

__BEGIN__	__EPS__
r	r
a	a
t	t

__BEGIN__	__EPS__
n	n
a	a
c	c
h	h

__BEGIN__	__EPS__
v	v
o	o
n	n

__BEGIN__	__EPS__
s	s
o	o

__BEGIN__	__EPS__
l	l
a	a
i	__EPS__
s	s
z	s

__BEGIN__	__EPS__
w	w
i	ie
d	d
e	e
r	r

__BEGIN__	__EPS__
h	h
a	a
s	s
t	t

__BEGIN__	__EPS__
v	v
o	o
n	n

__BEGIN__	__EPS__
y	ih
n	n

__BEGIN__	__EPS__
e	e
z	s

__BEGIN__	__EPS__
s	s
p	p
r	r
e	e
i	__EPS__
e	__EPS__
c	c
h	he

__BEGIN__	__EPS__
d	d
o	a

__BEGIN__	__EPS__
v	u
n	n
d	d

__BEGIN__	__EPS__
p	p
i	i
l	l
a	a
t	t
o	us

__BEGIN__	__EPS__
s	s
a	a
c	__EPS__
h	h

__BEGIN__	__EPS__
e	e
r	r

__BEGIN__	__EPS__
m	m
e	e
i	i
n	n

__BEGIN__	__EPS__
i	ih
m	m

__BEGIN__	__EPS__
w	w
o	oh
l	l

__BEGIN__	__EPS__
l	le
ü	u
t	t
e	e
n	n

__BEGIN__	__EPS__
e	e
r	r
p	b
y	__EPS__
d	__EPS__
e	e
m	__EPS__
p	b
t	te

__BEGIN__	__EPS__
g	g
e	e
m	m
a	a
c	c
h	h
t	t

__BEGIN__	__EPS__
i	i
s	s
t	t

__BEGIN__	__EPS__
h	h
a	a
b	b
e	e
n	n

__BEGIN__	__EPS__
v	u
n	n
d	d

__BEGIN__	__EPS__
m	m
i	i
r	r

__BEGIN__	__EPS__
e	e
r	r

__BEGIN__	__EPS__
m	m
i	i
t	t

__BEGIN__	__EPS__
s	s
i	ie

__BEGIN__	__EPS__
k	k
i	i
n	n
t	d

__BEGIN__	__EPS__
h	h
i	ä
e	t
t	te

__BEGIN__	__EPS__
e	e
r	r

__BEGIN__	__EPS__
v	u
n	n
d	d
e	__EPS__

__BEGIN__	__EPS__
a	a
l	l
l	l
e	e
r	r

__BEGIN__	__EPS__
i	j
o	o
h	h
a	an
n	n
e	e
s	s

__BEGIN__	__EPS__
d	d
a	a
z	s

__BEGIN__	__EPS__
e	u
n	nd

__BEGIN__	__EPS__
b	b
i	i
d	t
d	t
e	e

__BEGIN__	__EPS__
v	u
n	n
d	d

__BEGIN__	__EPS__
d	d
i	ie
s	s
e	e
r	r

__BEGIN__	__EPS__
v	v
a	a
d	t
e	e
r	r

__BEGIN__	__EPS__
d	d
e	e
n	n

__BEGIN__	__EPS__
h	h
e	a
t	t

__BEGIN__	__EPS__
v	u
n	n
d	d
e	__EPS__

__BEGIN__	__EPS__
h	h
e	ä
n	n
d	de

__BEGIN__	__EPS__
k	k
i	i
n	n
t	d

__BEGIN__	__EPS__
p	p
e	e
t	t
r	r
o	us

__BEGIN__	__EPS__
m	m
u	u
s	ss
t	t
e	e
n	n

__BEGIN__	__EPS__
k	k
i	i
n	n
t	d

__BEGIN__	__EPS__
i	ih
m	m

__BEGIN__	__EPS__
w	w
i	i
s	s
s	s
e	e
n	n

__BEGIN__	__EPS__
n	n
y	ich
t	t

__BEGIN__	__EPS__
u	u
n	n
d	d

__BEGIN__	__EPS__
i	i
s	st

__BEGIN__	__EPS__
e	e
r	r
s	s
a	a
c	__EPS__
h	h
e	e
n	n

__BEGIN__	__EPS__
c	__EPS__
z	z
w	u

__BEGIN__	__EPS__
p	p
y	i
l	l
a	a
t	t
u	u
s	s

__BEGIN__	__EPS__
d	d
u	u

__BEGIN__	__EPS__
s	s
o	o
e	h
n	n

__BEGIN__	__EPS__
s	s
p	p
r	r
a	a
c	c
h	h

__BEGIN__	__EPS__
s	sch
w	w
a	a
c	c
h	h

__BEGIN__	__EPS__
d	d
o	a

__BEGIN__	__EPS__
e	e
r	r
s	s
c	__EPS__
h	__EPS__
t	t
e	e
n	n

__BEGIN__	__EPS__
f	f
u	ü
e	s
s	s
z	e

__BEGIN__	__EPS__
w	wa
z	s

__BEGIN__	__EPS__
w	w
i	i
e	e

__BEGIN__	__EPS__
s	s
p	p
e	ee
r	r

__BEGIN__	__EPS__
w	w
a	a
r	r
t	d

__BEGIN__	__EPS__
s	s
e	e
h	h
e	e
n	n

__BEGIN__	__EPS__
h	h
e	ee
r	r
e	e
s	s

__BEGIN__	__EPS__
h	h
e	ä
t	tte

__BEGIN__	__EPS__
b	b
i	i
s	s
t	t

__BEGIN__	__EPS__
s	s
i	ie

__BEGIN__	__EPS__
k	k
l	l
a	a
g	ge

__BEGIN__	__EPS__
g	g
a	a
n	n
c	__EPS__
z	z
i	e
s	s

__BEGIN__	__EPS__
d	d
i	i
c	c
h	h

__BEGIN__	__EPS__
m	m
y	i
t	t
l	l
e	e
y	i
d	d
e	__EPS__
n	__EPS__

__BEGIN__	__EPS__
i	j
o	o
s	s
e	e
p	p
h	h

__BEGIN__	__EPS__
a	a
l	l
l	l
e	e
m	m

__BEGIN__	__EPS__
g	g
e	e
s	s
e	e
l	lle

__BEGIN__	__EPS__
i	j
u	u
d	d
e	e
n	n

__BEGIN__	d
u	u

__BEGIN__	d
u	u

__BEGIN__	__EPS__
s	s
e	ee
l	l
i	i
c	g

__BEGIN__	__EPS__
w	gl
a	au
n	b
d	t
o	e
n	n

__BEGIN__	__EPS__
f	f
i	i
l	l
y	i
s	s

__BEGIN__	__EPS__
b	b
e	e
g	g
i	in
e	g

__BEGIN__	__EPS__
k	k
a	a
n	nn
t	te

__BEGIN__	__EPS__
g	g
i	i
n	n
g	g

__BEGIN__	__EPS__
m	m
o	ö
e	__EPS__
c	c
h	h
t	te

__BEGIN__	__EPS__
h	h
e	i
i	m
m	m
l	li
s	s
c	c
h	h
e	e
n	n

__BEGIN__	__EPS__
l	l
e	e
g	g
t	t

__BEGIN__	__EPS__
d	d
i	i
e	e

__BEGIN__	__EPS__
k	k
i	i
n	n
d	d
e	e
s	s

__BEGIN__	__EPS__
k	k
a	a
m	m

__BEGIN__	__EPS__
w	w
i	ie
d	d
e	e
r	r
m	m
a	a
c	c
h	h
e	e
n	n

__BEGIN__	__EPS__
g	g
e	e
s	sch
l	l
a	a
g	g
i	e
n	n

__BEGIN__	__EPS__
t	t
o	o
t	t
e	e
n	n

__BEGIN__	__EPS__
l	l
e	e
i	i
c	c
h	h
n	n
a	a
m	m

__BEGIN__	__EPS__
k	k
i	i
n	n
d	d
e	__EPS__

__BEGIN__	__EPS__
d	d
a	a
t	ss

__BEGIN__	__EPS__
w	w
e	e
r	r
d	d
e	e
n	n

__BEGIN__	__EPS__
a	a
l	l
s	s

__BEGIN__	__EPS__
w	w
o	o
r	r
t	t

__BEGIN__	__EPS__
a	a
l	l
l	l
e	e
n	n

__BEGIN__	__EPS__
d	d
o	a

__BEGIN__	__EPS__
m	me
y	i
n	n
e	e
n	n

__BEGIN__	__EPS__
i	ih
n	n

__BEGIN__	__EPS__
a	a
b	b
e	e
r	r

__BEGIN__	__EPS__
g	g
o	o
t	t
t	t

__BEGIN__	__EPS__
v	v
o	o
n	n

__BEGIN__	__EPS__
s	s
c	c
h	h
l	l
a	a
h	g
e	e
n	n

__BEGIN__	__EPS__
d	t
e	ä
d	t
e	e

__BEGIN__	__EPS__
l	l
e	ä
s	s
s	__EPS__
t	t
e	e
r	r
l	l
e	__EPS__
i	i
c	c
h	h

__BEGIN__	__EPS__
s	s
o	o

__BEGIN__	__EPS__
i	i
u	u
d	d
a	a
s	s

__BEGIN__	__EPS__
m	me
y	i
n	n

__BEGIN__	__EPS__
i	i
c	c
h	h

__BEGIN__	__EPS__
e	e
l	l
e	e
m	m
e	e
n	n
t	t

__BEGIN__	__EPS__
i	j
h	__EPS__
e	e
s	s
u	u
s	s

__BEGIN__	__EPS__
v	u
n	n
d	d

__BEGIN__	__EPS__
r	r
e	e
d	de
s	s
t	t

__BEGIN__	__EPS__
d	d
a	a

__BEGIN__	__EPS__
h	h
e	a
t	t

__BEGIN__	__EPS__
d	d
a	a
s	s

__BEGIN__	__EPS__
v	v
i	ie
l	l

__BEGIN__	__EPS__
g	g
e	e
h	h
e	e
y	i
s	s
c	__EPS__
h	s
e	e
n	n

__BEGIN__	__EPS__
m	m
e	e
a	a

__BEGIN__	__EPS__
s	s
t	t
e	e
i	i
g	g

__BEGIN__	__EPS__
d	d
o	o
c	c
h	h

__BEGIN__	__EPS__
e	e
r	r

__BEGIN__	__EPS__
d	d
a	a
t	t
u	__EPS__
r	__EPS__

__BEGIN__	__EPS__
a	a
u	u
s	s
z	__EPS__

__BEGIN__	__EPS__
w	w
e	e
r	r

__BEGIN__	__EPS__
d	d
e	e
n	n

__BEGIN__	__EPS__
e	e
r	r

__BEGIN__	__EPS__
e	e
u	u
c	c
h	h

__BEGIN__	__EPS__
s	s
y	ie

__BEGIN__	__EPS__
d	d
i	i
r	r

__BEGIN__	__EPS__
h	h
e	a
s	s
t	t

__BEGIN__	__EPS__
y	j
e	e
m	m
a	a
n	n
d	d

__BEGIN__	__EPS__
a	a
l	l
l	l
e	e
s	s

__BEGIN__	__EPS__
d	t
a	a
c	g
h	__EPS__

__BEGIN__	__EPS__
s	s
p	p
e	ee
r	r

__BEGIN__	__EPS__
a	a
n	n
d	d
e	e
r	re
n	n

__BEGIN__	__EPS__
g	g
r	r
o	o
i	__EPS__
s	s
s	s
e	e
r	r

__BEGIN__	__EPS__
a	a
l	l
l	l
e	e
n	n

__BEGIN__	__EPS__
h	h
e	a
u	u
s	s
e	__EPS__

__BEGIN__	__EPS__
s	s
e	e
h	h
e	e
n	n

__BEGIN__	d
u	u

__BEGIN__	__EPS__
i	j
u	u
d	d
e	e
n	n

__BEGIN__	__EPS__
d	d
e	e
n	n

__BEGIN__	__EPS__
l	l
a	a
g	g

__BEGIN__	__EPS__
s	s
a	a
g	g
e	e

__BEGIN__	__EPS__
g	g
a	a
n	n
c	__EPS__
z	z
e	e

__BEGIN__	__EPS__
s	s
a	a
c	__EPS__
h	h
e	e
n	n

__BEGIN__	__EPS__
e	e
r	r
b	b
a	a
r	__EPS__
m	m
e	en

__BEGIN__	__EPS__
d	d
e	e
n	n

__BEGIN__	__EPS__
d	d
o	a
e	__EPS__

__BEGIN__	__EPS__
d	d
o	a

__BEGIN__	__EPS__
g	g
e	__EPS__
l	l
a	a
u	u
b	be

__BEGIN__	__EPS__
b	b
e	e
u	f
a	a
l	l
l	l
e	e
n	n

__BEGIN__	__EPS__
e	e
r	r

__BEGIN__	__EPS__
s	s
p	p
r	r
a	a
c	c
h	h
e	e
n	n

__BEGIN__	__EPS__
a	a
n	n
s	s
h	__EPS__
e	e
l	l
m	m

__BEGIN__	__EPS__
t	__EPS__
z	z
o	u

__BEGIN__	__EPS__
v	v
o	o
r	r

__BEGIN__	__EPS__
o	ü
b	b
b	__EPS__
e	e
r	r

__BEGIN__	__EPS__
s	s
i	i
e	e

__BEGIN__	__EPS__
d	d
a	a
i	__EPS__
r	r
u	u
n	m
b	__EPS__

__BEGIN__	__EPS__
e	a
u	b
e	e
r	r

__BEGIN__	__EPS__
w	w
o	o
r	r
t	t

__BEGIN__	__EPS__
w	w
e	e
m	m

__BEGIN__	__EPS__
n	n
i	i
c	c
h	h
t	t

__BEGIN__	__EPS__
h	h
a	a
t	t

__BEGIN__	__EPS__
w	w
a	a
s	r

__BEGIN__	__EPS__
m	m
i	i
c	c
h	h

__BEGIN__	__EPS__
m	m
e	ehr

__BEGIN__	__EPS__
w	w
u	u
r	r
d	d
e	e
n	n

__BEGIN__	__EPS__
d	d
e	e
s	s
z	__EPS__

__BEGIN__	__EPS__
v	v
i	ie
l	l

__BEGIN__	__EPS__
s	s
a	a
c	__EPS__
h	h

__BEGIN__	a
v	u
f	f

__BEGIN__	__EPS__
v	u
n	n
d	d

__BEGIN__	__EPS__
k	k
l	l
e	e
i	i
n	n
e	e
n	n

__BEGIN__	__EPS__
t	d
a	a
z	ss

__BEGIN__	__EPS__
d	d
a	a

__BEGIN__	__EPS__
s	s
c	c
h	h
i	n
e	elle
r	r

__BEGIN__	__EPS__
c	k
r	re
u	u
c	z
e	e
n	n

__BEGIN__	__EPS__
n	n
y	i
e	e

__BEGIN__	__EPS__
d	d
e	e
r	r

__BEGIN__	__EPS__
s	s
p	p
a	e
e	e
r	r

__BEGIN__	__EPS__
v	u
n	n
d	d

__BEGIN__	__EPS__
s	s
y	i
m	m
e	e
o	o
n	n
i	__EPS__
s	s

__BEGIN__	__EPS__
f	f
u	ü
e	h
r	r
t	t
e	e
n	n

__BEGIN__	__EPS__
s	s
p	p
r	r
a	a
c	c
h	h

__BEGIN__	__EPS__
v	u
n	n
s	s
c	c
h	h
u	u
l	l
d	d
i	i
g	g

__BEGIN__	__EPS__
v	u
m	m
b	__EPS__

__BEGIN__	__EPS__
i	ih
m	m

__BEGIN__	__EPS__
g	g
a	a
r	r

__BEGIN__	__EPS__
h	ha
v	u
s	s

__BEGIN__	__EPS__
l	l
i	e
e	i
b	b

__BEGIN__	__EPS__
d	d
i	i
e	e

__BEGIN__	__EPS__
e	er
b	b
a	a
r	r
m	m
e	e
n	n
d	__EPS__

__BEGIN__	__EPS__
n	n
i	i
e	e

__BEGIN__	__EPS__
w	w
y	i
r	r

__BEGIN__	__EPS__
s	s
o	o
u	l
l	l
t	t

__BEGIN__	__EPS__
v	u
n	n
d	d

__BEGIN__	__EPS__
v	u
n	n
d	d

__BEGIN__	__EPS__
a	a
c	c
h	h

__BEGIN__	__EPS__
v	u
n	n
d	d

__BEGIN__	__EPS__
d	t
a	a
d	t
e	e
n	n

__BEGIN__	__EPS__
v	v
e	e
r	r
t	__EPS__
z	z
y	i
e	ehe
n	n

__BEGIN__	__EPS__
n	n
i	ic
h	h
t	t

__BEGIN__	__EPS__
k	k
i	i
n	n
t	d

__BEGIN__	__EPS__
b	b
i	i
n	n

__BEGIN__	__EPS__
g	g
e	e
w	w
a	a
n	n
t	d

__BEGIN__	__EPS__
g	g
v	u
e	__EPS__
t	te
z	s

__BEGIN__	__EPS__
v	u
n	n
d	d

__BEGIN__	__EPS__
g	g
e	e
s	s
t	t
o	o
s	s
s	s
e	e
n	n

__BEGIN__	__EPS__
s	s
c	c
h	h
i	ie
r	r

__BEGIN__	__EPS__
a	a
l	l
s	s
o	o

__BEGIN__	__EPS__
a	a
n	n

__BEGIN__	__EPS__
d	d
a	as
s	s

__BEGIN__	__EPS__
k	k
r	r
e	äh
t	t

__BEGIN__	__EPS__
d	d
i	i
e	e

__BEGIN__	__EPS__
g	g
r	r
o	o
t	ss
e	e

__BEGIN__	__EPS__
v	v
o	o
r	r

__BEGIN__	__EPS__
n	n
v	un

__BEGIN__	__EPS__
d	d
i	i
e	e

__BEGIN__	__EPS__
g	g
e	e
r	r
e	__EPS__
n	n

__BEGIN__	__EPS__
w	w
u	u
r	r
d	d
e	e
n	n

__BEGIN__	__EPS__
k	k
a	a
m	m

__BEGIN__	__EPS__
a	a
n	n
s	s
e	e
l	l
m	m
u	__EPS__
s	__EPS__

__BEGIN__	__EPS__
m	me
y	i
n	n

__BEGIN__	__EPS__
n	n
a	a
c	c
h	h

__BEGIN__	__EPS__
v	u
n	n
d	d
e	__EPS__

__BEGIN__	__EPS__
h	h
i	i
m	mm
e	e
l	l
r	re
i	i
c	c
h	h

__BEGIN__	__EPS__
v	u
n	n
t	t
t	__EPS__
e	e
r	r
r	r
i	i
c	c
h	h
t	tet

__BEGIN__	__EPS__
s	s
t	t
r	r
e	e
i	i
c	c
h	h

__BEGIN__	__EPS__
c	__EPS__
z	z
u	u

__BEGIN__	__EPS__
w	w
e	e
g	g
e	e
n	n

__BEGIN__	__EPS__
g	g
a	a
b	b
e	e
n	n

__BEGIN__	__EPS__
d	d
a	a
z	s

__BEGIN__	__EPS__
d	d
e	e
m	m

__BEGIN__	__EPS__
d	d
r	r
i	i
t	t
t	t
e	e
n	n

__BEGIN__	__EPS__
h	h
u	o
e	__EPS__
b	b

__BEGIN__	__EPS__
d	da
z	ss

__BEGIN__	__EPS__
d	d
o	a

__BEGIN__	__EPS__
v	u
n	n
d	d

__BEGIN__	__EPS__
e	e
r	r
l	l
o	ö
s	s
e	__EPS__
t	t

__BEGIN__	__EPS__
s	s
p	p
r	r
a	a
c	c
h	h
e	e
n	n

__BEGIN__	__EPS__
s	sc
h	h
i	n
e	e
r	l
e	l

__BEGIN__	__EPS__
g	g
a	a
l	l
l	l
e	e
n	n

__BEGIN__	__EPS__
v	f
o	ü
r	r
c	c
h	h
t	t
e	e
n	n

__BEGIN__	__EPS__
a	a
u	u
f	f

__BEGIN__	__EPS__
s	s
e	e
i	i
n	n

__BEGIN__	__EPS__
a	a
r	r
m	m

__BEGIN__	__EPS__
g	__EPS__
e	__EPS__
w	w
a	e
i	i
n	n
e	e
n	n

__BEGIN__	__EPS__
g	g
e	e
w	w
e	äh
r	r

__BEGIN__	__EPS__
d	d
o	a

__BEGIN__	__EPS__
v	v
a	o
n	n

__BEGIN__	__EPS__
k	k
u	o
n	nn
d	t
e	e

__BEGIN__	__EPS__
i	ih
m	m

__BEGIN__	__EPS__
d	d
e	e
r	r

__BEGIN__	__EPS__
v	u
n	n
d	d

__BEGIN__	__EPS__
d	t
e	ä
d	t
e	e

__BEGIN__	__EPS__
m	me
y	i
n	n

__BEGIN__	__EPS__
v	u
n	n
d	d

__BEGIN__	__EPS__
g	g
e	e
s	s
t	t
a	a
l	l
t	tet

__BEGIN__	__EPS__
m	m
o	o
c	c
h	h
t	t
e	e

__BEGIN__	__EPS__
r	r
e	e
x	x

__BEGIN__	__EPS__
w	w
i	i
r	r
t	d

__BEGIN__	__EPS__
d	d
a	a
t	s

__BEGIN__	__EPS__
d	d
o	a

__BEGIN__	__EPS__
d	d
a	a
z	s

__BEGIN__	__EPS__
s	s
e	e
i	i
n	n
e	e
m	m

__BEGIN__	__EPS__
p	b
e	__EPS__
l	l
e	__EPS__
i	ie
b	b

__BEGIN__	__EPS__
a	a
l	l
l	l
e	e
s	s

__BEGIN__	__EPS__
w	w
a	a
r	r
t	d

__BEGIN__	__EPS__
d	d
a	a
s	s

__BEGIN__	__EPS__
b	b
e	e
s	s
t	t
r	r
e	e
b	b
t	t

__BEGIN__	__EPS__
i	i
c	c
h	h

__BEGIN__	__EPS__
h	h
a	a
n	n
n	__EPS__
t	d

__BEGIN__	__EPS__
g	g
r	r
o	o
s	s
z	s
e	e
n	n

__BEGIN__	__EPS__
s	s
o	o

__BEGIN__	__EPS__
m	m
a	a
r	r
i	i
a	a

__BEGIN__	__EPS__
m	m
a	a
n	n

__BEGIN__	__EPS__
c	__EPS__
z	z
u	u

__BEGIN__	__EPS__
s	s
e	e
r	h
e	r

__BEGIN__	__EPS__
s	sch
w	w
u	o
r	r

__BEGIN__	__EPS__
g	g
e	e
h	h
e	e
y	i
s	s
c	__EPS__
h	s
e	e
n	n

__BEGIN__	__EPS__
d	d
o	a

__BEGIN__	__EPS__
d	d
e	e
i	i
m	n
e	em

__BEGIN__	__EPS__
v	v
a	a
t	t
e	e
r	r

__BEGIN__	__EPS__
b	b
e	e
u	f
a	a
l	l
l	l
e	e
n	n

__BEGIN__	__EPS__
a	a
l	l
l	l
e	e

__BEGIN__	__EPS__
v	v
e	e
r	r
s	s
t	t
a	eh
i	e
n	n

__BEGIN__	__EPS__
d	d
e	e
n	nn

__BEGIN__	__EPS__
v	u
n	n
d	d

__BEGIN__	__EPS__
w	au
t	s

__BEGIN__	__EPS__
m	m
e	e
i	i
n	n
e	e
n	m

__BEGIN__	__EPS__
m	m
e	e
i	i
n	n

__BEGIN__	__EPS__
d	d
a	as
z	s

__BEGIN__	__EPS__
s	s
i	i
c	c
h	h

__BEGIN__	__EPS__
m	m
i	i
t	t

__BEGIN__	__EPS__
e	e
i	i
n	n

__BEGIN__	__EPS__
d	d
a	a

__BEGIN__	__EPS__
d	d
a	a

__BEGIN__	__EPS__
a	e
i	i
n	n

__BEGIN__	__EPS__
d	d
a	a

__BEGIN__	__EPS__
v	u
n	n
d	d

__BEGIN__	__EPS__
n	n
u	u

__BEGIN__	__EPS__
r	r
i	i
e	e
f	f
f	__EPS__

__BEGIN__	__EPS__
s	s
a	e
l	l
i	i
c	g
h	__EPS__

__BEGIN__	__EPS__
a	a
c	c
h	h

__BEGIN__	__EPS__
v	u
n	n
b	p
e	a
h	ss
e	e
n	n
d	d
e	__EPS__

__BEGIN__	__EPS__
g	g
r	r
o	o
s	s
z	s

__BEGIN__	__EPS__
d	d
i	i
r	r

__BEGIN__	__EPS__
m	m
e	e
i	i
n	n

__BEGIN__	__EPS__
w	w
u	u
r	r
d	d
e	e
n	n

__BEGIN__	__EPS__
v	f
a	a
l	l
s	s
c	c
h	h
e	e
r	r

__BEGIN__	__EPS__
c	__EPS__
h	k
i	i
n	n
d	d

__BEGIN__	__EPS__
i	i
c	c
h	h

__BEGIN__	__EPS__
t	t
u	u
e	__EPS__
n	n
t	__EPS__

__BEGIN__	__EPS__
a	a
n	n
h	h
e	ä
t	tte

__BEGIN__	__EPS__
d	d
o	a
e	__EPS__

__BEGIN__	__EPS__
w	w
e	e
r	r

__BEGIN__	__EPS__
d	d
a	a

__BEGIN__	__EPS__
i	i
c	c
h	h

__BEGIN__	__EPS__
v	u
n	n
d	d

__BEGIN__	__EPS__
i	i
n	n

__BEGIN__	__EPS__
n	n
y	ich
t	t

__BEGIN__	__EPS__
a	a
l	l
l	l
e	e
r	r

__BEGIN__	__EPS__
g	g
e	e
w	w
a	a
l	l
t	t
t	__EPS__
i	i
k	g
l	__EPS__
e	__EPS__
i	__EPS__
c	__EPS__
h	__EPS__

__BEGIN__	__EPS__
m	me
y	i
n	n
e	e
n	m

__BEGIN__	__EPS__
i	ih
n	n

__BEGIN__	__EPS__
v	u
n	n
d	d

__BEGIN__	__EPS__
w	w
o	o
l	ll
t	t

__BEGIN__	__EPS__
d	d
i	i
e	e

__BEGIN__	__EPS__
d	d
a	a
s	s

__BEGIN__	__EPS__
s	s
a	a
i	g
t	te

__BEGIN__	__EPS__
h	h
e	e
r	r

__BEGIN__	__EPS__
s	s
o	oh
n	n

__BEGIN__	__EPS__
a	a
u	u
s	s
z	__EPS__

__BEGIN__	__EPS__
n	n
i	i
e	ch
t	t

__BEGIN__	__EPS__
s	s
a	ä
e	__EPS__
h	h
e	e

__BEGIN__	__EPS__
t	t
r	r
v	o
c	c
k	k
e	__EPS__
n	ne
t	t
e	e

__BEGIN__	__EPS__
m	m
i	i
t	t

__BEGIN__	__EPS__
o	o
w	w
e	eh

__BEGIN__	__EPS__
d	d
v	u

__BEGIN__	__EPS__
e	e
r	r
f	f
r	r
e	e
w	u
t	t

__BEGIN__	__EPS__
d	d
a	a
z	ss

__BEGIN__	__EPS__
b	b
e	e
g	g
i	i
e	__EPS__
n	n
g	g
e	e
n	n
t	__EPS__

__BEGIN__	__EPS__
s	se
y	i
m	n
e	em

__BEGIN__	__EPS__
n	n
i	i
c	c
h	h
t	t

__BEGIN__	__EPS__
h	h
e	e
r	r
r	r

__BEGIN__	__EPS__
n	n
a	a
g	g
e	e
l	l

__BEGIN__	__EPS__
h	h
o	ö
e	__EPS__
r	re

__BEGIN__	__EPS__
d	d
a	a

__BEGIN__	__EPS__
t	t
v	u
c	c
h	h

__BEGIN__	__EPS__
i	ih
m	m

__BEGIN__	__EPS__
i	ih
n	n

__BEGIN__	__EPS__
v	v
e	e
r	r
m	m
e	e
s	s
s	s
e	e
n	n

__BEGIN__	__EPS__
d	d
i	i
e	e

__BEGIN__	__EPS__
s	s
o	o
i	__EPS__
l	l
l	l
e	e
n	n

__BEGIN__	__EPS__
d	d
a	a
z	s

__BEGIN__	__EPS__
a	a
l	l
s	s
o	o

__BEGIN__	__EPS__
w	w
a	a
s	r

__BEGIN__	__EPS__
l	l
i	i
e	e
b	b

__BEGIN__	__EPS__
v	w
a	a
i	__EPS__
r	r
u	u
n	m
b	__EPS__

__BEGIN__	__EPS__
l	l
a	a
s	s
t	t
e	e
r	r

__BEGIN__	__EPS__
w	w
a	a
s	s
s	s
e	e
r	r
s	s
u	ü
c	c
h	h
t	t
i	i
g	g
e	e
n	n

__BEGIN__	__EPS__
d	d
a	a

__BEGIN__	__EPS__
n	n
i	i
c	c
h	h
t	t

__BEGIN__	__EPS__
m	m
i	i
t	t

__BEGIN__	__EPS__
i	i
n	n

__BEGIN__	__EPS__
s	s
e	e
i	i
n	n

__BEGIN__	__EPS__
b	b
e	e
g	g
e	__EPS__
n	n
v	ü
g	g
e	__EPS__
t	t
e	e

__BEGIN__	__EPS__
t	t
r	r
i	i
n	n
n	__EPS__
k	k
e	e
n	n
d	__EPS__
e	__EPS__

__BEGIN__	__EPS__
c	__EPS__
z	z
u	u
o	__EPS__

__BEGIN__	__EPS__
i	ih
r	r

__BEGIN__	__EPS__
i	i
c	c
h	h

__BEGIN__	__EPS__
w	w
a	a
s	s

__BEGIN__	__EPS__
h	h
e	a
t	tt
e	e

__BEGIN__	__EPS__
t	d
r	r
o	o
i	h
t	t
e	e
n	n

__BEGIN__	__EPS__
a	a
l	l
l	l
e	e
s	s

__BEGIN__	__EPS__
a	a
u	u
s	s
z	__EPS__
g	g
e	e
f	f
u	üh
r	r
t	t

__BEGIN__	__EPS__
e	e
r	r

__BEGIN__	__EPS__
s	s
p	p
r	r
a	a
c	c
h	h

__BEGIN__	__EPS__
m	m
i	i
t	t

__BEGIN__	__EPS__
p	p
y	i
l	l
a	a
t	t
u	u
s	s

__BEGIN__	__EPS__
d	d
i	i
e	e

__BEGIN__	__EPS__
z	z
v	u
o	__EPS__

__BEGIN__	__EPS__
s	s
i	ie

__BEGIN__	__EPS__
r	re
i	i
c	c
h	h

__BEGIN__	__EPS__
n	n
a	ah
m	m

__BEGIN__	__EPS__
t	t
e	ä
t	t
t	__EPS__
e	e
n	n

__BEGIN__	__EPS__
d	d
a	a
z	ss

__BEGIN__	__EPS__
c	__EPS__
z	z
a	a
r	r
t	t

__BEGIN__	__EPS__
d	d
a	a
s	s

__BEGIN__	__EPS__
i	ih
m	m

__BEGIN__	__EPS__
s	s
a	a
n	nd
t	t
e	e

__BEGIN__	__EPS__
d	d
e	e
r	r

__BEGIN__	__EPS__
s	s
a	a
c	__EPS__
h	h

__BEGIN__	__EPS__
i	ih
n	n

__BEGIN__	__EPS__
d	d
e	e
r	r

__BEGIN__	__EPS__
h	h
a	a
l	l
s	s
z	__EPS__

__BEGIN__	__EPS__
s	s
p	p
r	r
a	a
c	c
h	h

__BEGIN__	__EPS__
b	__EPS__
e	__EPS__
s	s
c	c
h	h
a	ä
n	nde
t	te

__BEGIN__	__EPS__
d	d
a	a

__BEGIN__	__EPS__
m	m
e	e
i	i
n	n

__BEGIN__	__EPS__
t	t
o	o
d	t

__BEGIN__	__EPS__
r	r
o	ö
m	m
i	i
s	s
c	c
h	h
e	e

__BEGIN__	__EPS__
n	n
i	ich
t	t

__BEGIN__	__EPS__
a	a
l	l
l	l
e	e
n	n

__BEGIN__	__EPS__
h	h
a	e
i	i
l	l
i	i
g	g
e	e
n	n

__BEGIN__	__EPS__
s	sch
w	w
e	e
s	s
t	t
e	e
r	r

__BEGIN__	__EPS__
a	a
n	n
t	t
w	w
o	o
e	__EPS__
r	r
d	t
e	e

__BEGIN__	__EPS__
t	__EPS__
z	z
o	u

__BEGIN__	__EPS__
g	g
r	r
i	i
e	__EPS__
f	f
f	f
e	e
n	n

__BEGIN__	__EPS__
g	__EPS__
e	a
b	p
e	o
t	s
t	t
e	el
n	n

__BEGIN__	__EPS__
d	d
e	e
m	m

__BEGIN__	__EPS__
j	ih
n	n

__BEGIN__	__EPS__
i	j
a	a
m	mm
e	e
r	r

__BEGIN__	__EPS__
e	e
r	r
k	k
e	e
n	n
n	n
e	__EPS__
t	t

__BEGIN__	__EPS__
v	v
o	o
n	n

__BEGIN__	__EPS__
v	v
u	o
r	r

__BEGIN__	__EPS__
d	d
e	e
n	n

__BEGIN__	__EPS__
i	i
s	s
t	t

__BEGIN__	__EPS__
y	ih
n	n

__BEGIN__	__EPS__
d	d
u	u

__BEGIN__	__EPS__
a	a
n	n

__BEGIN__	__EPS__
h	h
e	ä
t	t
t	t
e	e

__BEGIN__	__EPS__
v	f
i	i
n	n
s	s
t	t
e	e
r	rnis

__BEGIN__	__EPS__
m	m
o	o
c	c
h	h
t	t
e	e

__BEGIN__	__EPS__
e	e
r	r

__BEGIN__	__EPS__
f	f
r	r
a	a
g	g
t	t

__BEGIN__	__EPS__
d	d
a	a
z	s

__BEGIN__	__EPS__
i	ih
n	n

__BEGIN__	__EPS__
i	j
h	e
-	s
u	us

__BEGIN__	__EPS__
d	d
i	i
e	e

__BEGIN__	__EPS__
i	ih
n	n

__BEGIN__	__EPS__
i	j
ü	u
d	d
e	e
n	n

__BEGIN__	__EPS__
d	d
o	a

__BEGIN__	__EPS__
m	m
a	a
g	g
d	d
a	a
l	l
e	e
n	n
a	a

__BEGIN__	__EPS__
n	n
i	i
e	ch
t	t

__BEGIN__	__EPS__
d	d
e	e
s	s

__BEGIN__	__EPS__
w	w
o	o
u	l
l	l
d	t
e	e

__BEGIN__	__EPS__
w	w
o	o
l	ll
t	t

__BEGIN__	__EPS__
w	w
o	o
l	l
l	l
e	e

__BEGIN__	__EPS__
d	d
v	u
r	rc
h	h

__BEGIN__	__EPS__
d	d
i	i
e	e

__BEGIN__	__EPS__
w	w
y	i
r	r

__BEGIN__	__EPS__
z	z
e	u

__BEGIN__	__EPS__
z	z
u	u

__BEGIN__	__EPS__
c	k
r	r
u	e
c	u
e	z

__BEGIN__	__EPS__
d	d
a	a

__BEGIN__	__EPS__
n	n
a	o
c	c
h	h

__BEGIN__	__EPS__
v	f
i	e
g	i
e	__EPS__
n	n
d	d

__BEGIN__	__EPS__
f	f
u	ü
l	l
l	l
t	t

__BEGIN__	__EPS__
v	u
r	r
t	t
a	e
i	i
l	l

__BEGIN__	__EPS__
a	a
r	r
m	m
e	e
n	n

__BEGIN__	__EPS__
d	d
y	ie

__BEGIN__	__EPS__
w	w
a	a
s	r

__BEGIN__	__EPS__
a	a
b	b

__BEGIN__	__EPS__
s	s
t	e
a	h
r	r
c	__EPS__
k	__EPS__
l	__EPS__
i	__EPS__
c	__EPS__
h	__EPS__

__BEGIN__	__EPS__
v	u
n	n
d	d

__BEGIN__	__EPS__
v	v
u	e
r	r
s	s
m	__EPS__
a	__EPS__
c	c
h	h
t	m
e	äh
t	t

__BEGIN__	__EPS__
t	t
o	o
t	t

__BEGIN__	__EPS__
w	w
u	u
r	r
d	d
e	e
n	n
d	__EPS__
t	__EPS__

__BEGIN__	__EPS__
s	s
p	p
o	o
t	tte
s	s

__BEGIN__	__EPS__
e	e
l	l
e	e
m	men
t	t
e	e

__BEGIN__	__EPS__
s	s
a	a
h	h

__BEGIN__	__EPS__
w	w
a	a
r	r
d	d

__BEGIN__	__EPS__
v	u
n	n
d	d

__BEGIN__	__EPS__
d	d
u	u

__BEGIN__	__EPS__
d	d
a	a
s	s

__BEGIN__	__EPS__
s	s
p	p
r	r
a	a
c	c
h	h

__BEGIN__	__EPS__
a	a
l	l
l	l
e	e
r	r
e	e
r	r
s	s
t	t

__BEGIN__	__EPS__
y	j
a	a
m	mm
e	e
r	r

__BEGIN__	__EPS__
d	de
i	i
n	n
e	e
n	n

__BEGIN__	__EPS__
a	a
n	n
t	t
l	l
u	i
c	t
z	z

__BEGIN__	__EPS__
a	a
n	n

__BEGIN__	__EPS__
s	s
e	e
i	i
n	n

__BEGIN__	__EPS__
r	r
u	u
f	f
t	t
e	e
n	n

__BEGIN__	__EPS__
i	ih
n	n

__BEGIN__	__EPS__
d	d
e	e
r	r

__BEGIN__	__EPS__
s	s
t	t
a	e
i	i
n	n

__BEGIN__	__EPS__
h	h
e	a
t	t

__BEGIN__	__EPS__
v	u
n	n
d	d

__BEGIN__	__EPS__
d	d
y	ie

__BEGIN__	__EPS__
d	d
i	i
e	e

__BEGIN__	__EPS__
v	u
n	n
d	d

__BEGIN__	__EPS__
s	s
p	p
r	r
a	a
c	c
h	h

__BEGIN__	__EPS__
h	h
a	a
t	t

__BEGIN__	__EPS__
b	b
l	l
u	u
t	t
s	s

__BEGIN__	__EPS__
d	d
a	a
h	h
i	i
n	n

__BEGIN__	__EPS__
g	g
e	e
c	__EPS__
z	z
e	äh
l	l
t	t

__BEGIN__	__EPS__
a	a
u	u
s	s
f	f
u	ü
e	h
r	r
t	t

__BEGIN__	__EPS__
m	m
i	i
r	r

__BEGIN__	__EPS__
h	e
e	r

__BEGIN__	__EPS__
k	k
i	i
n	n
d	d
t	__EPS__

__BEGIN__	__EPS__
s	s
p	p
r	r
e	e
c	c
h	he

__BEGIN__	__EPS__
p	p
l	l
o	o
r	r
a	a
u	vi
t	t

__BEGIN__	__EPS__
i	j
e	ä
m	mm
e	e
r	r
l	l
i	i
c	c
h	h
i	e
n	n

__BEGIN__	__EPS__
v	u
n	n
d	d
e	__EPS__

__BEGIN__	__EPS__
d	d
a	a
t	ss

__BEGIN__	__EPS__
d	d
a	a
e	n
r	a
n	c
a	h

__BEGIN__	__EPS__
d	d
o	a

__BEGIN__	__EPS__
v	u
n	n
d	d

__BEGIN__	__EPS__
e	e
r	r
p	b
a	a
r	r
m	m
e	e
n	n

__BEGIN__	__EPS__
w	w
a	a
n	n
g	g
e	e
n	n

__BEGIN__	__EPS__
g	g
a	a
r	r

