__BEGIN__	__EPS__
w	w
e	e
g	g

__BEGIN__	__EPS__
v	u
n	n
d	d

__BEGIN__	__EPS__
h	h
e	e
r	r
c	__EPS__
z	z
e	e
n	__EPS__
l	l
a	e
i	i
d	d
e	__EPS__

__BEGIN__	__EPS__
b	b
e	e
z	sch
l	l
o	o
s	s
s	s
e	e
n	n

__BEGIN__	__EPS__
a	a
l	l
s	s
o	o

__BEGIN__	__EPS__
o	o
w	w
e	eh

__BEGIN__	__EPS__
m	m
e	e
i	i
n	n

__BEGIN__	__EPS__
v	v
o	o
l	l
c	__EPS__
k	k

__BEGIN__	__EPS__
i	i
s	s
t	t

__BEGIN__	__EPS__
d	d
i	i
e	e

__BEGIN__	__EPS__
m	m
e	e
i	i
n	ne
s	s

__BEGIN__	__EPS__
d	d
u	u

__BEGIN__	__EPS__
v	ü
b	b
e	e
r	r
h	h
a	a
b	b
e	e
n	n

__BEGIN__	__EPS__
h	h
a	a
n	n
t	d
h	__EPS__

__BEGIN__	__EPS__
m	m
e	e
n	n
s	s
c	c
h	h
e	__EPS__

__BEGIN__	__EPS__
d	d
e	e
n	n
n	n
e	__EPS__

__BEGIN__	__EPS__
d	d
a	a
z	s

__BEGIN__	__EPS__
p	p
e	e
t	t
r	r
u	u
s	s

__BEGIN__	__EPS__
s	se
y	i
n	n

__BEGIN__	__EPS__
g	g
r	r
o	o
s	ss
e	e
m	m

__BEGIN__	__EPS__
i	j
u	u
d	d
e	e
n	n

__BEGIN__	__EPS__
i	i
c	c
h	h

__BEGIN__	__EPS__
a	a
l	l
l	l
e	e
r	r

__BEGIN__	__EPS__
d	d
i	ie
s	s
e	e
r	r

__BEGIN__	__EPS__
n	n
a	a
c	c
h	h
t	t

__BEGIN__	__EPS__
g	g
l	l
a	a
d	d
i	i
u	__EPS__
s	__EPS__

__BEGIN__	__EPS__
k	k
a	a
i	i
s	s
e	e
r	r
l	l
i	i
c	c
h	h
e	e
r	r

__BEGIN__	__EPS__
w	w
a	an
n	n

__BEGIN__	__EPS__
d	d
e	e
m	m

__BEGIN__	__EPS__
d	d
o	a
r	r

__BEGIN__	__EPS__
v	u
n	n
d	d

__BEGIN__	__EPS__
v	u
n	n
d	d

__BEGIN__	__EPS__
m	m
i	i
c	c
h	h

__BEGIN__	__EPS__
e	e
r	r

__BEGIN__	__EPS__
s	s
y	ie

__BEGIN__	__EPS__
i	i
s	s
t	t

__BEGIN__	__EPS__
v	u
n	n
n	d

__BEGIN__	be
s	s
v	o
n	n
d	d
e	e
r	r
l	__EPS__
i	__EPS__
c	__EPS__
h	__EPS__
e	e
r	__EPS__

__BEGIN__	__EPS__
v	u
n	n
d	d

__BEGIN__	__EPS__
m	m
a	a
l	l

__BEGIN__	__EPS__
w	w
o	o
r	r
d	d
e	e
n	n

__BEGIN__	__EPS__
b	b
e	e
r	r
i	i
c	c
h	h
t	tet

__BEGIN__	__EPS__
s	s
u	ü
s	s
s	s
e	e
n	n

__BEGIN__	__EPS__
e	e
r	r
f	f
u	ü
l	ll
t	t

__BEGIN__	__EPS__
d	d
a	a
r	__EPS__
n	n
a	a
c	c
h	h

__BEGIN__	__EPS__
t	t
a	a
g	g

__BEGIN__	__EPS__
s	s
t	t
i	i
m	mm
e	e

__BEGIN__	__EPS__
s	se
i	i
n	n

__BEGIN__	__EPS__
t	t
o	ö
e	__EPS__
t	t
e	e
n	n

__BEGIN__	__EPS__
p	p
y	i
l	l
a	a
t	t
o	us

__BEGIN__	__EPS__
k	k
o	o
m	mm
e	e
n	n
t	d

__BEGIN__	__EPS__
v	v
o	o
n	n

__BEGIN__	__EPS__
l	l
i	ie
s	s
t	t

__BEGIN__	__EPS__
d	d
u	u

__BEGIN__	__EPS__
d	d
o	a

__BEGIN__	__EPS__
b	b
r	r
a	a
c	c
h	h
t	te

__BEGIN__	__EPS__
s	s
i	ie

__BEGIN__	__EPS__
v	f
o	ü
e	__EPS__
s	s
s	s
e	e

__BEGIN__	__EPS__
k	k
i	i
n	n
d	d
e	e
s	s

__BEGIN__	__EPS__
m	me
y	i
n	n

__BEGIN__	__EPS__
c	__EPS__
z	z
e	ä
r	r
t	t
l	l
i	i
c	c
h	h

__BEGIN__	__EPS__
b	b
y	i
s	s
t	t

__BEGIN__	__EPS__
i	ih
m	m

__BEGIN__	__EPS__
c	k
h	__EPS__
i	i
n	n
d	d

__BEGIN__	__EPS__
t	t
r	r
a	a
u	u
r	r
i	i
g	g
k	k
a	e
i	i
t	t

__BEGIN__	__EPS__
d	d
e	e
s	s

__BEGIN__	__EPS__
i	i
s	s
t	t

__BEGIN__	__EPS__
d	d
e	e
n	n

__BEGIN__	__EPS__
e	n
n	icht

__BEGIN__	__EPS__
z	z
e	u

__BEGIN__	__EPS__
i	ih
n	n

__BEGIN__	__EPS__
v	u
n	n
n	d

__BEGIN__	__EPS__
p	b
l	l
u	u
t	t

__BEGIN__	__EPS__
e	e
r	r

__BEGIN__	__EPS__
a	a
n	n
e	__EPS__
b	b
l	l
i	i
c	c
k	k
e	__EPS__
s	s

__BEGIN__	__EPS__
n	n
a	a
c	c
h	h

__BEGIN__	__EPS__
w	w
a	a
s	r
z	__EPS__

__BEGIN__	__EPS__
i	j
e	e
r	r
u	u
s	s
a	a
l	l
e	e
m	m

__BEGIN__	__EPS__
d	d
a	a
z	s

__BEGIN__	__EPS__
s	s
y	ie

__BEGIN__	__EPS__
d	d
o	a

__BEGIN__	__EPS__
a	a
n	n

__BEGIN__	__EPS__
a	a
u	u
f	f

__BEGIN__	__EPS__
i	ih
n	n

__BEGIN__	__EPS__
d	d
e	e
s	s

__BEGIN__	__EPS__
c	k
r	r
u	e
c	u
e	z

__BEGIN__	__EPS__
s	s
y	ie

__BEGIN__	__EPS__
d	d
a	as
z	s

__BEGIN__	__EPS__
l	l
e	e
b	b
e	__EPS__
t	t
e	e

__BEGIN__	__EPS__
i	ih
m	m

__BEGIN__	__EPS__
i	e
z	s

__BEGIN__	__EPS__
i	i
c	c
h	h

__BEGIN__	__EPS__
m	m
a	a
g	g
d	d
a	a
l	l
e	e
n	n
a	a

__BEGIN__	__EPS__
m	m
i	i
r	r

__BEGIN__	__EPS__
n	n
i	ich
t	t

__BEGIN__	__EPS__
g	g
i	i
n	n
g	g

__BEGIN__	__EPS__
i	ih
n	n

__BEGIN__	__EPS__
n	n
a	a
t	t
u	u
r	r

__BEGIN__	__EPS__
d	d
e	e
n	n

__BEGIN__	__EPS__
d	d
u	u
r	r
c	c
h	h

__BEGIN__	__EPS__
d	w
a	__EPS__
n	__EPS__
n	__EPS__
e	e
n	g

__BEGIN__	__EPS__
a	a
n	n

__BEGIN__	__EPS__
m	m
a	a
c	c
h	h
e	__EPS__
t	t

__BEGIN__	__EPS__
c	k
h	__EPS__
i	i
n	n
d	d
e	e
s	s

__BEGIN__	__EPS__
s	s
c	c
h	h
l	l
o	o
s	s
z	s

__BEGIN__	__EPS__
b	b
l	l
u	u
d	t
e	__EPS__

__BEGIN__	__EPS__
d	d
i	i
e	e

__BEGIN__	__EPS__
i	ih
m	m

__BEGIN__	__EPS__
g	g
r	r
o	o
i	__EPS__
s	s
s	s
e	e
n	n

__BEGIN__	__EPS__
p	p
e	e
y	i
n	n
e	__EPS__

__BEGIN__	__EPS__
a	a
n	n
d	d
e	e
r	r
s	s

__BEGIN__	__EPS__
g	g
e	e
t	t
o	a
n	n

__BEGIN__	__EPS__
v	v
o	o
n	n

__BEGIN__	__EPS__
g	__EPS__
e	__EPS__
f	f
u	ü
o	h
r	r
t	t
e	e
n	n

__BEGIN__	__EPS__
g	g
e	e
n	n
o	o
m	mm
e	e
n	n

__BEGIN__	__EPS__
d	d
i	i
e	e

__BEGIN__	__EPS__
v	u
n	n
d	d

__BEGIN__	__EPS__
e	e
i	i
n	n

__BEGIN__	__EPS__
e	e
r	r

__BEGIN__	__EPS__
r	r
a	e
i	i
n	n

__BEGIN__	__EPS__
h	h
e	e
ü	u
t	te

__BEGIN__	__EPS__
c	__EPS__
h	g
r	r
i	ie
c	c
h	h
i	i
s	s
c	c
h	h

__BEGIN__	__EPS__
e	e
r	r
l	l
o	au
b	b
t	t

__BEGIN__	__EPS__
d	d
i	i
e	e

__BEGIN__	__EPS__
n	n
a	a
z	z
a	a
r	r
e	e
n	n
u	u
s	s

__BEGIN__	__EPS__
v	u
n	n
s	s
e	ä
g	g
r	l
e	__EPS__
c	__EPS__
h	__EPS__
e	__EPS__
y	i
c	c
h	h

__BEGIN__	__EPS__
n	n
i	i
c	c
h	h
t	t

__BEGIN__	__EPS__
d	d
i	i
r	r

__BEGIN__	__EPS__
s	r
c	__EPS__
h	ä
o	u
c	__EPS__
h	b
e	e
r	r

__BEGIN__	__EPS__
i	j
o	u
e	__EPS__
d	d
e	e
n	n

__BEGIN__	__EPS__
o	o
w	w
e	eh

__BEGIN__	__EPS__
i	ih
m	m

__BEGIN__	__EPS__
d	d
o	a

__BEGIN__	__EPS__
s	s
c	c
h	h
ö	ö
p	p
f	f
e	e
r	r

__BEGIN__	__EPS__
s	s
p	p
r	r
a	a
c	c
h	h
e	e
n	n

__BEGIN__	__EPS__
i	ih
n	n

__BEGIN__	__EPS__
m	m
o	o
c	c
h	h
t	te

__BEGIN__	__EPS__
d	t
e	ä
d	t
e	e

__BEGIN__	__EPS__
d	d
o	a

__BEGIN__	__EPS__
m	me
y	i
n	n

__BEGIN__	__EPS__
w	w
i	i
s	ss
t	t

__BEGIN__	__EPS__
a	e
i	i
n	n
e	e
n	n

__BEGIN__	__EPS__
s	se
y	i
n	n

__BEGIN__	__EPS__
e	e
r	r

__BEGIN__	__EPS__
a	a
l	l
z	s

__BEGIN__	__EPS__
w	w
i	ü
r	r
d	d
i	ig
k	k
e	e
i	i
t	t
h	__EPS__

__BEGIN__	__EPS__
l	l
i	i
e	e
b	b
e	e

__BEGIN__	__EPS__
m	m
a	a
n	n

__BEGIN__	__EPS__
i	ih
n	n

__BEGIN__	__EPS__
v	u
n	n
d	d

__BEGIN__	__EPS__
a	a
l	l
d	d
u	u
s	s

__BEGIN__	__EPS__
d	d
a	a
s	s

__BEGIN__	__EPS__
z	z
e	e
i	i
c	c
h	h
e	e
n	n

__BEGIN__	__EPS__
s	s
p	p
r	r
a	a
c	c
h	h

__BEGIN__	__EPS__
g	g
i	i
e	__EPS__
n	n
c	g
h	__EPS__

__BEGIN__	__EPS__
v	u
n	n
d	d

__BEGIN__	__EPS__
s	s
e	eh
y	e
n	n

__BEGIN__	__EPS__
g	g
e	e
n	n

__BEGIN__	__EPS__
v	u
n	n
d	d

__BEGIN__	__EPS__
y	ih
m	m

__BEGIN__	__EPS__
d	d
o	a

__BEGIN__	__EPS__
s	s
c	c
h	h
a	e
i	i
d	d
e	e
n	n

__BEGIN__	__EPS__
v	u
n	n
d	d

__BEGIN__	__EPS__
a	a
r	r
m	m

__BEGIN__	__EPS__
i	ih
m	m

__BEGIN__	__EPS__
d	d
e	e
n	m

__BEGIN__	__EPS__
e	e
i	i
n	n
n	__EPS__

__BEGIN__	__EPS__
w	w
a	a
n	n
n	n
e	__EPS__

__BEGIN__	__EPS__
w	we
y	i
s	ss

__BEGIN__	__EPS__
w	w
a	a
z	r

__BEGIN__	__EPS__
a	am
e	e
m	n

__BEGIN__	__EPS__
g	g
r	r
o	o
s	s
z	s

__BEGIN__	__EPS__
s	s
p	p
r	r
a	a
c	c
h	h

__BEGIN__	__EPS__
m	m
a	a
n	n

__BEGIN__	__EPS__
c	k
h	o
u	m
m	m
e	e
n	n

__BEGIN__	__EPS__
w	w
u	u
n	n
d	d
e	e
n	n

__BEGIN__	__EPS__
e	e
r	r

__BEGIN__	__EPS__
s	s
e	eh
r	r
e	__EPS__

__BEGIN__	__EPS__
e	e
r	r
p	b
a	a
r	r
m	m
t	t

__BEGIN__	__EPS__
y	ih
n	n

__BEGIN__	__EPS__
w	s
i	e
s	i
z	__EPS__

__BEGIN__	__EPS__
e	e
w	w
e	ig
l	l
i	i
c	c
k	h

__BEGIN__	__EPS__
m	m
i	i
c	c
h	h

__BEGIN__	__EPS__
n	n
a	a
c	c
k	k
e	e
n	n
d	d

__BEGIN__	__EPS__
d	d
o	a

__BEGIN__	__EPS__
s	sch
w	w
e	e
r	r
t	t

__BEGIN__	__EPS__
a	a
l	l
l	l
e	e

__BEGIN__	__EPS__
w	w
a	a
s	r

__BEGIN__	__EPS__
g	g
e	e
s	s
c	c
h	h
a	a
f	f
f	f
e	e
n	n

__BEGIN__	__EPS__
k	k
y	i
n	n
t	d

__BEGIN__	__EPS__
c	k
l	l
a	a
g	g
e	e

__BEGIN__	__EPS__
a	a
l	l
l	l
e	e
r	r
l	l
i	i
e	e
b	b
s	s
t	t
e	e

__BEGIN__	__EPS__
h	h
e	e
r	r
r	r
e	__EPS__

__BEGIN__	__EPS__
w	w
a	a
s	r

__BEGIN__	__EPS__
d	d
o	a

__BEGIN__	__EPS__
l	l
i	i
e	e
b	b
e	e
n	n

__BEGIN__	__EPS__
d	d
i	i
e	e

__BEGIN__	__EPS__
h	h
e	e
r	r
e	r

__BEGIN__	__EPS__
s	s
c	ch
u	ü
d	t
d	t
e	e
n	n

__BEGIN__	__EPS__
v	u
n	n
d	d

__BEGIN__	__EPS__
w	w
a	a
s	r

__BEGIN__	__EPS__
s	s
c	c
h	h
i	i
e	e
d	d

__BEGIN__	__EPS__
g	g
e	e
d	t
r	ri
e	e
u	b
e	e
n	n

__BEGIN__	__EPS__
p	p
r	r
i	i
n	n
c	z
e	e
n	n

__BEGIN__	__EPS__
i	j
a	ä
e	m
m	m
e	e
r	r
l	l
i	i
c	c
h	h

__BEGIN__	__EPS__
h	h
e	e
r	r
r	r

__BEGIN__	__EPS__
j	j
u	u
d	d
e	e
n	n

__BEGIN__	__EPS__
v	f
i	i
e	e
l	l

__BEGIN__	__EPS__
a	a
n	n

__BEGIN__	__EPS__
l	le
i	i
c	c
h	h
a	n
e	a
m	m
s	s

__BEGIN__	__EPS__
w	w
u	u
r	r
d	d
e	e

__BEGIN__	__EPS__
g	g
r	r
o	o
z	s
z	s
e	e
m	m

__BEGIN__	__EPS__
i	j
ü	ü
n	n
g	g
s	s
t	t
e	e
n	n

__BEGIN__	__EPS__
d	d
a	a
s	ss

__BEGIN__	__EPS__
d	d
e	e
m	m

__BEGIN__	__EPS__
h	h
i	i
n	n

__BEGIN__	__EPS__
v	f
r	r
o	a
u	u
w	__EPS__
e	__EPS__

__BEGIN__	__EPS__
s	s
t	t
v	a
e	__EPS__
n	n
d	d
e	e
n	n

__BEGIN__	__EPS__
v	u
n	n
d	d

__BEGIN__	__EPS__
t	__EPS__
z	z
a	a
r	r
t	t
z	__EPS__

__BEGIN__	__EPS__
g	g
i	i
e	__EPS__
n	n
g	g
e	e
n	n

__BEGIN__	__EPS__
w	w
e	e
r	r
f	f
f	__EPS__
e	e
n	n
t	d

__BEGIN__	__EPS__
b	g
e	e
r	sc
e	h
i	ick
t	te

__BEGIN__	__EPS__
v	u
n	n
r	r
e	e
i	i
n	n
i	__EPS__
k	h
e	e
i	i
t	t

__BEGIN__	__EPS__
k	k
i	i
n	n
t	d

__BEGIN__	__EPS__
n	n
i	ich
t	t

__BEGIN__	__EPS__
w	w
o	a
r	r
p	f
e	e
n	n

__BEGIN__	__EPS__
c	__EPS__
h	k
o	a
m	m

__BEGIN__	__EPS__
r	r
e	ä
c	c
h	h
e	e
n	n

__BEGIN__	__EPS__
v	u
n	n
d	d

__BEGIN__	__EPS__
m	m
i	i
t	t

__BEGIN__	__EPS__
d	d
a	a
s	s

__BEGIN__	__EPS__
c	k
l	l
a	a
g	g
t	t

__BEGIN__	__EPS__
e	e
r	r

__BEGIN__	__EPS__
g	g
e	e
e	ä
r	r
g	g
e	e
r	r
t	t

__BEGIN__	__EPS__
n	n
o	a
c	c
h	h

__BEGIN__	__EPS__
d	d
a	as
z	s

__BEGIN__	__EPS__
d	d
a	a
t	s

__BEGIN__	__EPS__
i	i
c	c
h	h

__BEGIN__	__EPS__
a	a
n	n
c	t
z	__EPS__
l	l
i	i
c	t
z	z
e	e

__BEGIN__	__EPS__
v	u
n	n
d	d

__BEGIN__	__EPS__
h	h
e	er
r	r
e	e
n	n

__BEGIN__	__EPS__
p	b
e	__EPS__
l	l
e	e
i	i
b	b
e	e
n	n

__BEGIN__	__EPS__
i	i
c	c
h	h

__BEGIN__	__EPS__
i	ih
m	m

__BEGIN__	__EPS__
v	u
n	n
d	d

__BEGIN__	__EPS__
a	a
l	l
l	l
e	e
s	s

__BEGIN__	__EPS__
w	w
i	i
e	e

__BEGIN__	__EPS__
e	u
n	nd

__BEGIN__	__EPS__
p	p
y	i
l	l
a	a
t	t
ü	u
s	s

__BEGIN__	__EPS__
a	a
b	b
i	e
r	r

__BEGIN__	__EPS__
v	u
n	n
d	d

__BEGIN__	__EPS__
v	u
n	n
d	d

__BEGIN__	__EPS__
w	w
a	a
s	r

__BEGIN__	__EPS__
g	g
i	i
n	n
g	g
e	e
n	n

__BEGIN__	__EPS__
s	s
e	a
i	g
d	t
e	e
n	n

__BEGIN__	__EPS__
v	u
n	n
d	d

__BEGIN__	__EPS__
w	w
i	u
s	ss
t	t
e	e

__BEGIN__	__EPS__
a	a
l	l
s	s
o	o

__BEGIN__	__EPS__
g	g
e	e
b	b
e	e

__BEGIN__	__EPS__
v	u
n	n
d	d

__BEGIN__	__EPS__
g	g
e	e
l	l
a	a
u	u
f	__EPS__
f	f
e	e
n	n

__BEGIN__	__EPS__
a	a
b	b
g	g
e	e
z	z
o	o
g	g
e	e
n	n

__BEGIN__	__EPS__
s	s
p	p
r	r
a	a
c	c
h	h

__BEGIN__	__EPS__
v	v
o	o
n	n

__BEGIN__	__EPS__
s	s
p	p
r	r
a	a
c	c
h	h

__BEGIN__	__EPS__
c	__EPS__
z	s
u	o
h	gle
a	i
n	c
t	h

__BEGIN__	__EPS__
w	w
o	o
l	ll
d	t
e	e

__BEGIN__	__EPS__
w	w
o	o
r	r
t	t

__BEGIN__	__EPS__
s	s
o	o

__BEGIN__	__EPS__
e	e
r	r
s	s
t	t
a	a
n	n
d	d
e	e
n	n

__BEGIN__	__EPS__
v	f
r	r
e	a
g	g
e	__EPS__
s	s
t	t
e	__EPS__

__BEGIN__	__EPS__
d	d
i	i
r	r

__BEGIN__	__EPS__
m	m
i	i
t	t

__BEGIN__	__EPS__
h	h
e	ä
t	t
t	t
e	e

__BEGIN__	__EPS__
g	g
e	e
g	g
e	e
b	b
e	e
n	n

__BEGIN__	__EPS__
z	z
u	u
o	__EPS__

__BEGIN__	__EPS__
v	f
r	r
o	a
u	u
w	__EPS__
e	__EPS__

__BEGIN__	__EPS__
t	t
e	a
t	t

__BEGIN__	__EPS__
w	w
i	i
e	e

__BEGIN__	__EPS__
d	d
e	e
r	r

__BEGIN__	__EPS__
n	n
i	i
t	ch
t	t

__BEGIN__	__EPS__
v	u
n	n
d	d

__BEGIN__	__EPS__
e	e
r	r

__BEGIN__	__EPS__
m	m
i	i
r	r

__BEGIN__	__EPS__
s	s
o	o

__BEGIN__	__EPS__
f	f
r	r
a	a
w	u

__BEGIN__	__EPS__
a	a
l	l
s	s
o	o

__BEGIN__	__EPS__
d	d
o	a

__BEGIN__	__EPS__
b	b
l	l
u	u
t	t

__BEGIN__	__EPS__
g	g
e	e
h	h
e	a
p	b
t	t

__BEGIN__	__EPS__
g	g
e	e
t	t
o	a
n	n

__BEGIN__	__EPS__
p	b
u	a
n	n
d	d
e	e
n	n

__BEGIN__	__EPS__
w	w
i	i
e	e

__BEGIN__	__EPS__
s	s
y	ie

__BEGIN__	__EPS__
t	t
o	o
t	d

__BEGIN__	__EPS__
d	d
u	u

__BEGIN__	__EPS__
w	w
e	ä
r	re

__BEGIN__	__EPS__
i	j
e	ä
m	mm
e	e
r	r
c	__EPS__
h	__EPS__
l	l
e	__EPS__
i	i
c	c
h	h
e	e
n	n

__BEGIN__	__EPS__
m	m
a	a
n	n

__BEGIN__	__EPS__
d	d
i	i
e	e

__BEGIN__	__EPS__
k	k
a	a
m	m

__BEGIN__	__EPS__
e	e
r	r
z	z
u	o
g	g
t	t
e	__EPS__

__BEGIN__	__EPS__
w	w
u	u
r	r
d	d
e	e
n	n

__BEGIN__	__EPS__
g	__EPS__
e	__EPS__
h	h
e	e
l	l
f	f
e	e
n	n

__BEGIN__	__EPS__
m	me
y	i
n	n

__BEGIN__	__EPS__
w	w
e	e
r	r

__BEGIN__	__EPS__
s	s
p	p
r	r
a	a
c	c
h	h

__BEGIN__	__EPS__
h	h
i	i
e	e
r	r

__BEGIN__	__EPS__
d	d
a	a
s	s
z	__EPS__

__BEGIN__	__EPS__
v	f
e	e
i	i
n	n
t	d

__BEGIN__	__EPS__
h	h
e	e
i	i
l	li
g	g
e	__EPS__
t	t
e	e

__BEGIN__	__EPS__
e	i
m	h
e	m

__BEGIN__	__EPS__
w	w
e	e
r	r
f	__EPS__
f	f
e	e
n	n

__BEGIN__	__EPS__
p	p
f	f
e	e
n	n
n	n
i	i
g	g

__BEGIN__	__EPS__
s	se
i	i
n	n

__BEGIN__	a
v	u
f	f

__BEGIN__	__EPS__
h	h
o	ö
r	r
e	e

__BEGIN__	__EPS__
a	a
l	l
l	l
e	e
s	s

__BEGIN__	__EPS__
m	m
i	i
c	c
h	h

__BEGIN__	__EPS__
s	s
y	ie

__BEGIN__	__EPS__
e	e
s	s

__BEGIN__	__EPS__
p	p
i	i
l	l
a	a
t	t
u	u
s	s

__BEGIN__	__EPS__
a	a
m	m
e	e
n	n

__BEGIN__	__EPS__
g	g
i	i
e	__EPS__
n	n
g	g

__BEGIN__	__EPS__
g	k
h	__EPS__
e	e
y	i
n	n

__BEGIN__	__EPS__
a	a
l	l
l	l
i	e
t	s

__BEGIN__	__EPS__
s	s
c	c
h	h
w	w
e	e
r	r
t	t

__BEGIN__	__EPS__
g	g
e	e
t	t
r	r
a	a
g	g
e	e
n	n

__BEGIN__	__EPS__
e	e
i	i
n	n

__BEGIN__	__EPS__
d	d
a	a
s	ss

__BEGIN__	__EPS__
c	k
r	r
e	e
u	u
c	__EPS__
z	z

__BEGIN__	__EPS__
z	z
e	u

__BEGIN__	__EPS__
w	w
a	a
n	n
n	__EPS__
g	ge

__BEGIN__	__EPS__
u	a
f	u
f	f

__BEGIN__	__EPS__
g	g
e	e
t	t
a	a
n	n

__BEGIN__	__EPS__
d	d
e	e
r	r

__BEGIN__	__EPS__
m	m
i	i
t	t

__BEGIN__	__EPS__
v	v
i	ie
l	l

__BEGIN__	__EPS__
d	d
e	e
r	r

__BEGIN__	__EPS__
s	s
p	p
r	r
a	a
c	c
h	h

__BEGIN__	__EPS__
g	g
r	r
o	o
s	s
s	s
e	e
r	r

__BEGIN__	__EPS__
v	u
n	n
d	d

__BEGIN__	__EPS__
f	f
u	ü
e	__EPS__
s	s
s	s
e	e

__BEGIN__	__EPS__
d	d
a	a
z	ss

__BEGIN__	__EPS__
k	k
o	ö
n	n
y	i
g	g
r	re
i	i
c	c
h	h

__BEGIN__	__EPS__
d	d
a	a
s	s

__BEGIN__	__EPS__
b	be
y	i

__BEGIN__	__EPS__
l	l
i	i
e	e
f	f
e	e
n	n

__BEGIN__	__EPS__
w	w
a	a
s	r

__BEGIN__	__EPS__
l	l
i	i
e	e
b	b
e	e

__BEGIN__	__EPS__
a	a
n	n
s	s
h	__EPS__
e	e
l	l
m	m
e	__EPS__

__BEGIN__	__EPS__
v	u
n	n
d	d

__BEGIN__	__EPS__
m	l
i	ie
n	b
e	e
k	v
l	o
i	l
c	__EPS__
h	l
e	e

__BEGIN__	__EPS__
s	s
t	t
a	ad
t	t

__BEGIN__	__EPS__
a	a
n	n

__BEGIN__	__EPS__
d	d
i	i
n	n
g	g

__BEGIN__	__EPS__
p	b
i	i
s	s
c	c
h	h
o	o
f	f

__BEGIN__	__EPS__
l	l
e	e
b	b
e	e
n	n
s	s

__BEGIN__	__EPS__
a	a
n	n
c	t
z	__EPS__
l	l
i	i
c	t
z	z
e	e

__BEGIN__	__EPS__
v	v
o	o
n	n

__BEGIN__	__EPS__
t	t
o	o
d	__EPS__
t	t
e	e
n	n

__BEGIN__	__EPS__
i	j
u	u
d	d
e	e
n	n

__BEGIN__	__EPS__
v	v
o	o
n	n

__BEGIN__	__EPS__
b	b
i	i
s	s
t	t

__BEGIN__	__EPS__
z	t
a	r
h	__EPS__
e	ä
r	n
e	e
n	n

__BEGIN__	__EPS__
z	z
a	a
r	r
t	t
e	e
n	n

__BEGIN__	__EPS__
d	d
e	e
r	r

__BEGIN__	__EPS__
n	n
i	i
e	e
m	m
a	a
n	n
t	d

__BEGIN__	__EPS__
e	e
r	r
s	s
c	c
h	h
a	i
i	e
n	n

__BEGIN__	__EPS__
m	m
i	i
r	r

__BEGIN__	__EPS__
n	n
i	ich
t	t

__BEGIN__	__EPS__
v	b
e	e
r	__EPS__
s	s
p	u
i	d
b	e
e	l
n	t

__BEGIN__	__EPS__
s	se
e	e
l	le

__BEGIN__	__EPS__
h	h
i	i
e	er

__BEGIN__	d
ü	u

__BEGIN__	__EPS__
e	e
m	m
e	__EPS__

__BEGIN__	__EPS__
l	l
a	a
y	s
s	s

__BEGIN__	__EPS__
w	w
i	ie
d	d
e	e
r	r

__BEGIN__	__EPS__
t	t
o	o
t	t

__BEGIN__	__EPS__
s	s
o	o
h	h
e	__EPS__
n	n

__BEGIN__	__EPS__
z	r
e	ech
s	t
e	e
m	n

__BEGIN__	__EPS__
y	ih
n	n

__BEGIN__	__EPS__
h	h
a	a
t	t
t	t
e	e

__BEGIN__	__EPS__
w	w
a	a
s	s

__BEGIN__	__EPS__
w	w
o	o
r	r
d	d
e	e
n	n

__BEGIN__	__EPS__
b	b
e	e
v	f
y	ieh
l	l

__BEGIN__	__EPS__
v	ü
b	b
e	e
r	r

__BEGIN__	__EPS__
a	a
l	l
z	s

__BEGIN__	__EPS__
d	d
i	i
e	e

__BEGIN__	__EPS__
p	b
e	e
i	i
n	n

__BEGIN__	__EPS__
d	d
a	as
z	s

__BEGIN__	__EPS__
b	b
e	e
g	g
a	a
n	n
g	g
e	e
n	n

__BEGIN__	__EPS__
l	l
a	a
s	s
z	s

__BEGIN__	__EPS__
h	h
a	ä
n	n
g	g
e	e
n	n

__BEGIN__	__EPS__
v	u
n	n
d	d

__BEGIN__	__EPS__
g	g
e	e
n	n
a	a
g	g
e	e
l	l
t	t

__BEGIN__	__EPS__
s	s
a	a
g	g
e	e

__BEGIN__	__EPS__
m	me
i	i
n	n

__BEGIN__	__EPS__
v	u
n	n
d	d

__BEGIN__	__EPS__
d	d
e	e
r	r

__BEGIN__	__EPS__
e	e
r	r

__BEGIN__	__EPS__
e	e
w	v
a	a
n	n
g	g
e	e
l	l
i	i
s	s
t	t
e	e
n	n

__BEGIN__	__EPS__
s	s
i	i
e	e

__BEGIN__	__EPS__
i	ih
r	r

__BEGIN__	__EPS__
n	n
o	o
c	c
h	h

__BEGIN__	__EPS__
v	u
n	n
d	d

__BEGIN__	__EPS__
g	__EPS__
e	__EPS__
f	f
o	o
l	l
g	g
e	e
n	n

__BEGIN__	__EPS__
m	m
y	i
t	t

__BEGIN__	__EPS__
e	nich
n	t

__BEGIN__	__EPS__
d	d
i	i
e	e

__BEGIN__	__EPS__
i	i
c	c
h	h

__BEGIN__	__EPS__
i	ih
n	n

__BEGIN__	__EPS__
s	s
i	ie

__BEGIN__	__EPS__
i	i
c	c
h	h

__BEGIN__	__EPS__
v	u
n	n
d	d

__BEGIN__	__EPS__
w	w
a	a
s	r

__BEGIN__	__EPS__
c	__EPS__
z	z
e	e
r	rr
t	te

__BEGIN__	__EPS__
d	d
e	e
m	m

__BEGIN__	__EPS__
s	sch
l	l
a	a
h	g
e	e
n	n

__BEGIN__	__EPS__
m	m
i	i
r	r

__BEGIN__	__EPS__
a	a
n	n
t	t
l	l
u	i
t	t
z	z

__BEGIN__	__EPS__
v	u
n	n
d	d

__BEGIN__	__EPS__
s	s
e	e
r	h
e	r

__BEGIN__	__EPS__
i	ih
r	r
e	e
n	n

__BEGIN__	__EPS__
e	e
s	s

__BEGIN__	n
e	ich
n	t

__BEGIN__	__EPS__
v	v
o	o
n	n

__BEGIN__	__EPS__
a	a
l	l
l	l
e	e
r	r
s	s
c	c
h	h
o	ö
n	n
s	s
t	te

__BEGIN__	__EPS__
e	e
y	i
n	n

__BEGIN__	d
u	u

__BEGIN__	__EPS__
h	h
a	a
t	t
t	t
e	e

__BEGIN__	__EPS__
d	d
y	ie

__BEGIN__	__EPS__
d	d
e	e
r	r

__BEGIN__	__EPS__
v	u
n	n
d	d

__BEGIN__	__EPS__
d	d
o	a

__BEGIN__	__EPS__
h	h
o	ö
e	__EPS__
r	r
e	e

__BEGIN__	__EPS__
m	m
i	i
r	r

__BEGIN__	__EPS__
w	w
u	u
r	r
d	d
e	e
n	n

__BEGIN__	__EPS__
d	t
r	r
e	e
i	i
f	b
f	e

__BEGIN__	__EPS__
i	i
n	n

__BEGIN__	__EPS__
s	s
a	a
b	bb
a	a
t	t
u	__EPS__
n	__EPS__

__BEGIN__	__EPS__
a	a
u	u
c	c
h	h

__BEGIN__	__EPS__
a	a
n	n

__BEGIN__	__EPS__
w	w
y	ie

__BEGIN__	__EPS__
s	s
a	a
n	nd
t	te

__BEGIN__	__EPS__
i	i
c	c
h	h

__BEGIN__	__EPS__
e	e
r	r

__BEGIN__	__EPS__
v	v
o	o
n	n

__BEGIN__	__EPS__
m	m
o	u
d	tt
e	e
r	r

__BEGIN__	__EPS__
e	e
n	n
n	__EPS__
d	de

__BEGIN__	__EPS__
w	w
i	i
e	e

__BEGIN__	__EPS__
d	d
i	i
e	e

__BEGIN__	__EPS__
e	e
r	r

__BEGIN__	__EPS__
v	u
n	n
d	d

__BEGIN__	__EPS__
d	d
i	i
e	e

__BEGIN__	__EPS__
h	h
a	abe
n	n

__BEGIN__	__EPS__
d	de
i	i
n	n
e	e
n	n

__BEGIN__	__EPS__
f	f
r	r
a	a
g	g
t	t

__BEGIN__	__EPS__
v	u
n	n
d	d

__BEGIN__	__EPS__
d	d
e	e
r	r

__BEGIN__	__EPS__
g	g
a	a
r	r

__BEGIN__	__EPS__
v	v
o	o
n	n

__BEGIN__	__EPS__
s	s
e	e
x	chs
t	t
i	e
n	n

__BEGIN__	__EPS__
e	e
r	r

__BEGIN__	__EPS__
e	e
r	r

__BEGIN__	__EPS__
h	e
e	r

__BEGIN__	__EPS__
i	i
s	s
t	t

__BEGIN__	__EPS__
d	d
a	a
z	ss

__BEGIN__	__EPS__
c	k
r	r
u	e
i	u
c	__EPS__
z	z

__BEGIN__	__EPS__
n	n
o	a
c	c
h	h

__BEGIN__	__EPS__
e	a
u	b
e	e
r	r

__BEGIN__	__EPS__
d	d
i	i
c	c
h	h

__BEGIN__	__EPS__
d	d
o	a

__BEGIN__	__EPS__
d	d
e	e
n	n

__BEGIN__	__EPS__
d	d
o	a
r	__EPS__
n	n
o	a
c	c
h	h

__BEGIN__	__EPS__
h	__EPS__
e	e
r	r

__BEGIN__	__EPS__
s	s
i	e
e	i
n	n
e	e
n	m

__BEGIN__	__EPS__
n	n
i	ic
h	h
t	t

__BEGIN__	__EPS__
k	k
y	i
n	n
t	d

__BEGIN__	__EPS__
m	m
e	e
i	i
n	n

__BEGIN__	__EPS__
v	u
n	n
d	t
e	e
r	r

__BEGIN__	__EPS__
v	v
o	o
n	n

__BEGIN__	__EPS__
e	ehe

__BEGIN__	__EPS__
d	d
y	i
r	r

__BEGIN__	__EPS__
h	h
o	a
u	u
b	p
t	t
i	e
s	s

__BEGIN__	__EPS__
g	__EPS__
e	__EPS__
s	s
c	c
h	h
r	r
i	i
f	f
f	__EPS__
t	t

__BEGIN__	__EPS__
m	m
i	i
r	r

__BEGIN__	__EPS__
s	s
e	e
i	i
n	n
e	e

__BEGIN__	__EPS__
h	h
e	e
r	r
t	__EPS__
z	z

__BEGIN__	__EPS__
i	i
s	st

__BEGIN__	__EPS__
v	u
n	n
d	d

__BEGIN__	__EPS__
e	e
r	r

__BEGIN__	__EPS__
v	u
n	n
d	d

__BEGIN__	__EPS__
p	b
i	i
t	t
t	t
e	e
r	r
l	l
e	__EPS__
i	i
c	c
h	h
e	k
l	__EPS__
a	e
y	i
d	t

__BEGIN__	__EPS__
d	d
o	a

__BEGIN__	__EPS__
a	a
u	u
f	f

__BEGIN__	__EPS__
y	ih
n	n

__BEGIN__	__EPS__
d	d
e	e
s	s

__BEGIN__	__EPS__
v	a
f	u
f	f

__BEGIN__	__EPS__
h	e
e	r

__BEGIN__	__EPS__
a	a
l	l
l	l
e	e

__BEGIN__	__EPS__
s	s
p	p
r	r
a	a
c	c
h	h

__BEGIN__	__EPS__
h	h
e	e
r	r
o	o
d	d
e	e
s	s

__BEGIN__	__EPS__
b	b
l	l
u	u
t	t

__BEGIN__	__EPS__
g	__EPS__
e	__EPS__
s	s
t	t
i	e
r	r
b	be

__BEGIN__	__EPS__
m	m
y	e
n	n
s	s
c	c
h	h
e	e
n	n

__BEGIN__	__EPS__
s	s
y	ie

__BEGIN__	__EPS__
v	v
o	o
n	n

__BEGIN__	__EPS__
e	e
r	r
l	l
a	o
s	s
c	c
h	h

__BEGIN__	a
v	u
f	f

__BEGIN__	__EPS__
s	s
i	i
c	c
h	h

__BEGIN__	__EPS__
v	u
n	n
s	s

__BEGIN__	__EPS__
d	d
i	i
e	e

__BEGIN__	__EPS__
h	e
i	r

__BEGIN__	__EPS__
m	m
e	e
i	i
n	n
e	e
e	__EPS__
t	m

__BEGIN__	__EPS__
s	s
i	i
c	c
h	h

__BEGIN__	__EPS__
g	g
a	eh
i	e
n	n

__BEGIN__	__EPS__
t	t
u	u
t	t

__BEGIN__	__EPS__
r	r
e	e
d	d
e	e
n	n

__BEGIN__	__EPS__
d	d
o	a

__BEGIN__	__EPS__
v	u
n	n
d	d

__BEGIN__	__EPS__
e	e
r	r
p	b
a	a
r	r
m	m
v	u
n	n
g	g

__BEGIN__	__EPS__
w	w
i	i
z	s
z	s
e	__EPS__
t	t

__BEGIN__	__EPS__
a	a
n	n
s	s
h	__EPS__
e	e
l	l
m	m
u	__EPS__
s	__EPS__

__BEGIN__	__EPS__
d	d
i	i
e	e
s	s
e	e
r	r

__BEGIN__	__EPS__
d	d
u	u

__BEGIN__	__EPS__
w	w
a	a
t	s

__BEGIN__	__EPS__
v	u
n	n
d	d

__BEGIN__	__EPS__
e	e
r	r

__BEGIN__	__EPS__
f	f
r	r
e	e
u	u
t	t

__BEGIN__	__EPS__
v	u
n	n
d	d

__BEGIN__	__EPS__
e	e
d	d
l	l
e	e
r	r

__BEGIN__	__EPS__
v	u
n	n
d	d

__BEGIN__	__EPS__
l	l
i	i
e	e
f	b
f	__EPS__

__BEGIN__	__EPS__
d	d
i	e
j	i
n	n

__BEGIN__	e
y	i
s	se
i	r
n	n
e	e
n	n

__BEGIN__	__EPS__
w	w
o	ol
l	l
t	t
e	e
n	n

__BEGIN__	__EPS__
a	e
i	i
n	n

__BEGIN__	__EPS__
h	h
e	e
y	i
l	li
g	g
e	e
n	n

__BEGIN__	__EPS__
t	t
u	u
t	t

__BEGIN__	__EPS__
m	m
i	i
r	r

__BEGIN__	__EPS__
s	s
i	e
j	i
d	t
e	e
n	n

__BEGIN__	__EPS__
h	h
a	a
t	t
t	t
e	e

__BEGIN__	__EPS__
i	ih
n	n

__BEGIN__	__EPS__
d	d
e	e
n	m

__BEGIN__	__EPS__
w	w
a	e
i	i
n	n
t	t

__BEGIN__	__EPS__
g	g
a	a
b	b

__BEGIN__	__EPS__
i	i
s	s
t	t

__BEGIN__	__EPS__
w	w
o	a
r	r
f	f
f	__EPS__
e	e
n	n

__BEGIN__	__EPS__
v	u
n	n
d	d

__BEGIN__	__EPS__
i	i
n	n

__BEGIN__	__EPS__
f	f
u	u
o	h
r	r

__BEGIN__	__EPS__
w	w
a	a
r	r
t	d

__BEGIN__	__EPS__
i	i
c	c
h	h

__BEGIN__	__EPS__
g	g
e	e
d	t
a	a
n	n

__BEGIN__	__EPS__
d	d
o	a

__BEGIN__	__EPS__
d	d
a	a
r	__EPS__
n	n
a	a
c	c
h	h

__BEGIN__	__EPS__
n	n
i	ic
e	h
t	t

__BEGIN__	__EPS__
s	s
t	t
a	a
r	r
b	b

__BEGIN__	__EPS__
d	d
e	e
r	r

__BEGIN__	__EPS__
p	p
y	i
l	l
a	a
t	t
o	us

__BEGIN__	__EPS__
d	d
o	a

__BEGIN__	__EPS__
m	me
i	i
n	n

__BEGIN__	__EPS__
a	a
l	l
s	s

__BEGIN__	__EPS__
g	g
e	e
m	m
e	e
i	i
n	n
e	e
n	n

__BEGIN__	__EPS__
i	u
n	n
d	d

__BEGIN__	__EPS__
p	p
y	i
l	l
a	a
t	t
u	u
s	s

__BEGIN__	__EPS__
v	v
u	e
r	r
b	b
u	u
n	n
d	d
e	e
n	n

__BEGIN__	__EPS__
m	m
o	o
c	c
h	h
t	te

__BEGIN__	__EPS__
j	j
e	ä
m	mm
e	e
r	r
l	l
i	i
c	c
h	h
e	e
n	n

__BEGIN__	__EPS__
d	d
e	e
n	n

__BEGIN__	__EPS__
v	u
n	n
d	d

__BEGIN__	__EPS__
d	d
a	a
z	s

__BEGIN__	__EPS__
h	h
e	ä
t	t
t	t
i	e

__BEGIN__	__EPS__
w	w
e	e
i	i
s	s
s	s
a	a
g	g
u	u
n	n
g	g

__BEGIN__	__EPS__
w	w
i	i
e	e

__BEGIN__	__EPS__
d	d
o	a

__BEGIN__	__EPS__
d	d
a	a

__BEGIN__	__EPS__
d	d
i	i
e	e

__BEGIN__	__EPS__
v	u
n	n
d	d

__BEGIN__	__EPS__
s	s
c	c
h	h
r	r
y	i
r	__EPS__
e	e
n	n

__BEGIN__	__EPS__
a	a
n	n
d	d
e	e
r	re
n	n

__BEGIN__	__EPS__
d	d
e	e
r	r

__BEGIN__	__EPS__
t	t
r	r
o	o
s	s
t	t
e	e
s	s

__BEGIN__	__EPS__
w	w
i	i
l	l
l	l

__BEGIN__	__EPS__
d	d
i	i
e	e

__BEGIN__	__EPS__
v	f
i	i
e	e
l	l

__BEGIN__	__EPS__
a	a
r	r
b	b
a	e
y	i
t	t

__BEGIN__	__EPS__
m	m
e	e
i	i
n	n

__BEGIN__	__EPS__
k	k
o	o
m	m
e	m
s	s
t	t

__BEGIN__	__EPS__
g	g
e	e
r	r
n	n
e	e

__BEGIN__	__EPS__
v	u
n	n
d	d

__BEGIN__	__EPS__
a	a
l	l
l	l
e	e

__BEGIN__	__EPS__
m	m
a	a
r	r
i	i
a	a

__BEGIN__	__EPS__
d	d
a	a
s	ss

__BEGIN__	__EPS__
e	i
m	h
e	m

__BEGIN__	__EPS__
g	g
e	e
d	d
o	a
c	c
h	h
t	t
e	e

__BEGIN__	__EPS__
n	n
a	a
e	ch

__BEGIN__	__EPS__
r	r
e	e
c	c
h	h
t	t

__BEGIN__	__EPS__
d	d
i	i
e	e

__BEGIN__	__EPS__
a	a
l	l
l	l
e	e
n	n

__BEGIN__	__EPS__
s	s
p	p
r	r
a	a
c	c
h	h

__BEGIN__	__EPS__
a	oh
n	ne

__BEGIN__	__EPS__
s	s
t	t
e	ehe
n	n

__BEGIN__	__EPS__
d	d
o	a

__BEGIN__	__EPS__
d	d
e	e
m	m

__BEGIN__	__EPS__
i	j
h	__EPS__
e	e
s	s
u	u
s	s

__BEGIN__	__EPS__
k	k
i	i
n	n
t	d

__BEGIN__	__EPS__
r	r
e	e
c	c
h	h
t	t
e	e

__BEGIN__	__EPS__
v	ü
b	b
e	e
r	r

__BEGIN__	__EPS__
e	e
n	__EPS__
e	__EPS__
l	l
e	e
n	n
d	d
e	e
n	n

__BEGIN__	__EPS__
k	k
l	l
a	a
g	g
t	t
e	e
n	n

__BEGIN__	__EPS__
s	s
e	e
i	i
n	n

__BEGIN__	__EPS__
l	l
ä	e
w	u
t	t
e	e
n	n

__BEGIN__	__EPS__
v	v
i	ie
l	l

__BEGIN__	__EPS__
i	j
v	ü
n	n
g	g
e	__EPS__
s	s
t	t
e	e
n	n

__BEGIN__	__EPS__
m	m
o	o
c	c
h	h
t	t
e	e

__BEGIN__	__EPS__
s	s
p	p
r	r
a	ä
e	__EPS__
c	c
h	h
e	e
n	n

__BEGIN__	__EPS__
s	s
y	ie

__BEGIN__	__EPS__
w	w
i	il
l	l

__BEGIN__	__EPS__
d	d
a	a

__BEGIN__	__EPS__
i	i
c	c
h	h

__BEGIN__	__EPS__
s	s
p	p
r	r
e	e
c	c
h	h
e	e
n	n
t	__EPS__
t	__EPS__

__BEGIN__	__EPS__
d	d
e	e
m	m

__BEGIN__	__EPS__
d	d
a	a
s	ss

__BEGIN__	__EPS__
b	b
e	e
g	g
r	r
a	a
b	b
e	e
n	n

__BEGIN__	__EPS__
d	d
u	u

__BEGIN__	__EPS__
m	m
i	i
t	t

__BEGIN__	__EPS__
d	d
a	a
t	s

__BEGIN__	__EPS__
m	m
i	i
r	r

__BEGIN__	__EPS__
v	u
n	n
d	d

__BEGIN__	__EPS__
w	w
e	e
i	i
n	n
e	__EPS__
t	t

__BEGIN__	__EPS__
d	d
a	a
t	ss

__BEGIN__	__EPS__
l	l
i	ie
b	b
e	e
r	r

__BEGIN__	__EPS__
t	t
o	o
e	__EPS__
t	t

__BEGIN__	__EPS__
v	v
i	ie
l	l

__BEGIN__	__EPS__
e	e
i	i
n	n

__BEGIN__	__EPS__
m	l
i	ie
n	b
i	e
g	v
k	o
l	l
i	l
c	__EPS__
h	__EPS__
e	e
n	n

__BEGIN__	__EPS__
t	t
o	o
d	d

__BEGIN__	__EPS__
d	d
e	e
s	s

__BEGIN__	__EPS__
y	ih
m	m

__BEGIN__	__EPS__
v	u
n	n
d	d

__BEGIN__	__EPS__
i	u
n	n
d	d

__BEGIN__	__EPS__
z	z
u	u

__BEGIN__	__EPS__
i	ih
m	m

__BEGIN__	__EPS__
m	m
u	u
n	n
d	d

__BEGIN__	__EPS__
v	f
r	r
a	a
e	__EPS__
g	g
e	e
n	n

__BEGIN__	__EPS__
i	i
n	n

__BEGIN__	__EPS__
s	s
e	e
i	i
n	n

__BEGIN__	__EPS__
a	a
l	l
z	s

__BEGIN__	g
l	li
e	e
d	d
e	e
r	r
e	__EPS__

__BEGIN__	__EPS__
c	k
l	l
e	ä
g	g
e	__EPS__
l	l
i	i
c	c
h	h
e	e

__BEGIN__	__EPS__
d	d
o	a

__BEGIN__	__EPS__
h	h
a	än
i	ge
n	n

__BEGIN__	__EPS__
d	d
i	i
e	e

__BEGIN__	__EPS__
h	h
o	a
u	u
b	p
t	t

__BEGIN__	__EPS__
g	g
e	e
l	l
a	a
s	s
s	s
e	e
n	n

__BEGIN__	__EPS__
d	d
e	e
r	r

__BEGIN__	__EPS__
r	r
o	ö
e	m
m	i
s	s
c	c
h	h

__BEGIN__	__EPS__
a	a
l	l
s	s
o	o

__BEGIN__	__EPS__
f	f
r	r
o	a
w	u

__BEGIN__	__EPS__
i	j
o	u
d	d
e	e
n	n

__BEGIN__	__EPS__
l	l
y	i
e	e
f	b
f	__EPS__

__BEGIN__	__EPS__
d	de
i	i
n	n

__BEGIN__	__EPS__
i	j
u	u
d	d
e	e
n	n

__BEGIN__	__EPS__
d	d
i	i
e	e

__BEGIN__	__EPS__
e	e
r	r

__BEGIN__	__EPS__
d	d
u	u

__BEGIN__	__EPS__
s	s
o	o

__BEGIN__	__EPS__
i	i
s	s
t	t

__BEGIN__	__EPS__
l	le
i	i
b	b

__BEGIN__	__EPS__
d	d
a	a
z	ss

__BEGIN__	__EPS__
k	k
y	i
n	n
t	d

__BEGIN__	__EPS__
h	h
i	i
e	e
r	r

__BEGIN__	__EPS__
m	m
a	a
g	g

__BEGIN__	__EPS__
m	m
e	e
y	i
n	n

__BEGIN__	__EPS__
s	s
i	i
c	c
h	h

__BEGIN__	__EPS__
i	i
c	c
h	h

__BEGIN__	__EPS__
s	s
e	e
g	__EPS__
s	c
t	h
z	s
e	__EPS__
i	__EPS__
t	__EPS__

__BEGIN__	__EPS__
d	t
o	o
d	d
e	e
s	s

__BEGIN__	__EPS__
v	u
n	n
d	d

__BEGIN__	__EPS__
m	m
e	e
i	i
n	n

__BEGIN__	__EPS__
g	__EPS__
e	__EPS__
s	s
a	a
c	__EPS__
h	h

__BEGIN__	__EPS__
d	d
e	e
z	s

__BEGIN__	__EPS__
t	t
o	o
t	d

__BEGIN__	__EPS__
k	k
i	i
n	n
d	d
e	e
s	s

__BEGIN__	__EPS__
v	u
n	n
d	d

__BEGIN__	__EPS__
v	u
n	n
s	s

__BEGIN__	__EPS__
d	d
a	a
t	s

__BEGIN__	__EPS__
g	g
r	r
o	o
i	__EPS__
s	s
z	s

__BEGIN__	__EPS__
d	d
i	i
e	e

__BEGIN__	__EPS__
l	l
i	i
e	e
b	b
i	e

__BEGIN__	__EPS__
d	d
e	e
m	m

__BEGIN__	__EPS__
m	me
i	i
n	n
e	e
m	m

__BEGIN__	__EPS__
a	a
r	r
m	m
e	e
n	n

__BEGIN__	__EPS__
a	a
n	n
d	d
e	e
r	re

__BEGIN__	__EPS__
a	a
u	u
f	f

__BEGIN__	__EPS__
d	d
e	e
n	n

__BEGIN__	__EPS__
w	w
a	a
s	r

__BEGIN__	__EPS__
s	s
y	ie

__BEGIN__	__EPS__
i	ih
n	n

__BEGIN__	__EPS__
d	d
a	a
t	ss

__BEGIN__	__EPS__
m	me
y	i
n	n

__BEGIN__	__EPS__
i	j
e	e
s	s
u	u
s	s

__BEGIN__	__EPS__
e	e
s	s

__BEGIN__	__EPS__
i	ih
n	n

__BEGIN__	__EPS__
d	d
o	a

__BEGIN__	__EPS__
d	d
e	e
n	n

__BEGIN__	__EPS__
g	g
e	e
s	s
c	c
h	h
l	l
a	a
g	g
e	e
n	n

__BEGIN__	__EPS__
k	k
i	i
n	n
t	d

__BEGIN__	__EPS__
d	d
i	i
e	e

__BEGIN__	__EPS__
z	w
w	u
o	sc
g	h

__BEGIN__	__EPS__
p	p
o	o
t	t
u	__EPS__
s	__EPS__

__BEGIN__	__EPS__
w	w
a	a
r	r
t	d

__BEGIN__	__EPS__
m	m
i	i
c	c
h	h

__BEGIN__	__EPS__
d	d
i	i
e	e

__BEGIN__	__EPS__
z	z
u	u

__BEGIN__	__EPS__
d	d
a	ahi
r	n

__BEGIN__	__EPS__
m	me
y	i
n	n

__BEGIN__	__EPS__
d	d
e	e
r	r

__BEGIN__	__EPS__
s	s
c	c
h	h
r	r
i	i
e	e
r	__EPS__
e	__EPS__
n	n

__BEGIN__	__EPS__
l	l
e	e
g	g
t	t
e	e
n	n

__BEGIN__	__EPS__
g	g
o	o
d	tte
s	s
s	s
o	o
n	h
e	n

__BEGIN__	__EPS__
z	z
u	o
g	g
e	e
n	n

__BEGIN__	__EPS__
v	u
n	n
d	d

__BEGIN__	__EPS__
v	a
f	u
f	f

__BEGIN__	__EPS__
k	k
y	i
n	n
d	d
e	e
s	s

__BEGIN__	__EPS__
i	e
s	s

__BEGIN__	__EPS__
g	g
e	e
w	w
a	a
n	n
t	d

__BEGIN__	__EPS__
e	e
r	r
l	l
i	it
t	t
e	e
n	n

__BEGIN__	__EPS__
d	d
y	i
e	e

__BEGIN__	__EPS__
a	a
l	l
s	s

__BEGIN__	__EPS__
h	h
e	e
l	l
y	y
a	a
m	m

__BEGIN__	__EPS__
d	d
e	e
m	m

__BEGIN__	__EPS__
k	k
i	i
n	n
d	d

__BEGIN__	__EPS__
r	r
u	u
f	__EPS__
f	f
t	__EPS__
e	e
n	n

__BEGIN__	__EPS__
v	v
o	o
n	n

__BEGIN__	__EPS__
i	ih
m	m

__BEGIN__	__EPS__
i	i
c	c
h	h

__BEGIN__	__EPS__
s	s
o	oh
n	n

__BEGIN__	__EPS__
a	a
l	l
l	l
e	e
m	m

__BEGIN__	__EPS__
e	e
i	i
n	n

__BEGIN__	__EPS__
s	s
e	e
r	h
e	r

__BEGIN__	__EPS__
c	__EPS__
z	z
a	a
h	h
e	e
r	r

__BEGIN__	__EPS__
d	d
c	ass

__BEGIN__	__EPS__
t	__EPS__
z	z
e	e
i	i
c	c
h	h
e	e
n	n

__BEGIN__	__EPS__
s	s
y	ie

__BEGIN__	__EPS__
d	d
e	e
r	r

__BEGIN__	__EPS__
d	d
o	a

__BEGIN__	__EPS__
i	j
e	e

__BEGIN__	__EPS__
s	se
i	i
n	n

__BEGIN__	__EPS__
w	w
i	i
l	ll

__BEGIN__	__EPS__
k	k
r	r
o	ö
e	__EPS__
n	n
e	__EPS__
t	t
e	e

__BEGIN__	__EPS__
d	d
u	u

__BEGIN__	__EPS__
a	a
b	b
e	e
r	r

__BEGIN__	__EPS__
s	s
a	a
z	s
z	s
e	e
n	n

__BEGIN__	__EPS__
d	d
a	a
s	ss

__BEGIN__	__EPS__
a	o
d	d
e	e
r	r

__BEGIN__	__EPS__
s	s
i	i
j	e

__BEGIN__	__EPS__
e	e
r	r
t	d
r	re
i	i
c	c
h	h

__BEGIN__	__EPS__
d	d
o	a

__BEGIN__	__EPS__
d	d
o	a

__BEGIN__	__EPS__
s	s
c	c
h	h
l	l
a	a
g	g
e	e
n	n

__BEGIN__	__EPS__
s	s
i	ie

__BEGIN__	__EPS__
i	i
c	c
h	h

__BEGIN__	__EPS__
i	i
c	c
h	h

__BEGIN__	__EPS__
i	ih
m	m

__BEGIN__	__EPS__
a	a
u	u
s	s
z	__EPS__

__BEGIN__	__EPS__
i	i
n	n

__BEGIN__	n
e	ich
n	t

__BEGIN__	__EPS__
a	a
l	l
l	l
e	e

__BEGIN__	__EPS__
d	d
a	a
i	__EPS__
r	r
u	u
n	m
b	__EPS__

__BEGIN__	__EPS__
v	u
n	n
d	d
e	__EPS__

__BEGIN__	__EPS__
h	h
e	ä
n	n
d	d
e	e
n	n

__BEGIN__	__EPS__
v	ü
i	__EPS__
b	b
e	e
r	r

__BEGIN__	__EPS__
d	d
a	a

__BEGIN__	__EPS__
s	__EPS__
a	a
m	ls

__BEGIN__	__EPS__
b	b
y	i
n	n

__BEGIN__	__EPS__
v	u
n	n
d	d

__BEGIN__	__EPS__
s	s
i	i
j	e

__BEGIN__	__EPS__
g	g
e	e
w	w
a	a
n	n
t	d

__BEGIN__	__EPS__
i	jo
h	h
o	an
-	n
e	e
s	s

__BEGIN__	__EPS__
v	u
n	n
d	d

__BEGIN__	__EPS__
h	h
a	a
b	b
e	e
n	n

__BEGIN__	__EPS__
c	k
h	__EPS__
r	r
e	e
ü	u
c	__EPS__
z	z
t	t

__BEGIN__	__EPS__
v	a
f	u
f	f

__BEGIN__	__EPS__
d	de
i	i
n	n

__BEGIN__	__EPS__
t	t
o	o
d	d

__BEGIN__	__EPS__
r	r
o	u
e	__EPS__
f	f
f	__EPS__
t	t

__BEGIN__	__EPS__
a	a
l	l
l	l
e	e
r	r

__BEGIN__	__EPS__
m	m
u	us
s	s
t	t
e	e

__BEGIN__	__EPS__
s	s
p	p
o	o
t	tt

__BEGIN__	__EPS__
d	d
i	i
e	e

__BEGIN__	__EPS__
n	n
u	u
e	__EPS__
r	r

__BEGIN__	__EPS__
v	v
o	o
r	r

__BEGIN__	__EPS__
g	g
a	a
l	l
l	l
e	e
n	n

__BEGIN__	__EPS__
d	d
e	e
s	s

__BEGIN__	__EPS__
c	k
h	__EPS__
r	r
e	e
u	u
c	__EPS__
z	z

__BEGIN__	__EPS__
g	g
e	e
l	l
o	a
f	u
f	f
e	e
n	n

__BEGIN__	__EPS__
p	b
e	e
y	i

__BEGIN__	__EPS__
n	n
u	un

__BEGIN__	__EPS__
w	w
u	u
r	r
d	d
i	e
n	n

__BEGIN__	__EPS__
e	e
i	i
n	n

__BEGIN__	__EPS__
w	w
i	i
e	e

__BEGIN__	__EPS__
d	d
u	u

__BEGIN__	__EPS__
f	f
u	ü
e	h
r	r
t	t

__BEGIN__	__EPS__
t	t
r	r
i	i
n	n
c	__EPS__
k	k
e	e
n	n

__BEGIN__	__EPS__
t	t
e	e
m	m
p	p
e	e
l	l

__BEGIN__	__EPS__
h	h
i	i
e	e
s	s
z	s

__BEGIN__	__EPS__
d	d
o	a

__BEGIN__	__EPS__
d	d
e	e
r	r

__BEGIN__	__EPS__
a	a
n	n
t	t
w	w
o	o
e	__EPS__
r	r
d	t
e	e

__BEGIN__	__EPS__
s	sch
w	w
e	e
i	i
c	g
h	e

__BEGIN__	__EPS__
t	__EPS__
z	z
o	u

__BEGIN__	__EPS__
t	t
o	o
d	d

__BEGIN__	__EPS__
l	le
i	i
b	b
e	__EPS__

__BEGIN__	__EPS__
d	d
a	a
z	ss

__BEGIN__	__EPS__
d	d
e	e
m	m

__BEGIN__	__EPS__
v	u
n	n
d	d

__BEGIN__	__EPS__
m	m
i	i
r	r

__BEGIN__	__EPS__
m	m
i	i
r	r

__BEGIN__	__EPS__
d	d
i	i
e	e

__BEGIN__	__EPS__
h	h
a	a
i	be
n	n

__BEGIN__	__EPS__
y	i
n	n

__BEGIN__	__EPS__
s	s
y	ie

__BEGIN__	__EPS__
m	m
e	e
i	i
n	n

__BEGIN__	__EPS__
m	me
i	i
n	n

__BEGIN__	__EPS__
s	s
y	ie

__BEGIN__	__EPS__
e	u
n	n
d	d
e	__EPS__

__BEGIN__	__EPS__
w	w
i	i
d	d
e	e
r	r

__BEGIN__	__EPS__
t	t
o	o
d	d
e	__EPS__

__BEGIN__	__EPS__
a	a
r	r
m	m
e	e
n	n

__BEGIN__	__EPS__
d	d
i	i
e	e

__BEGIN__	__EPS__
s	s
i	i
c	c
i	i
o	o

__BEGIN__	__EPS__
i	j
e	e
r	ru
s	s
u	a
l	l
e	e
m	m

__BEGIN__	__EPS__
t	t
h	__EPS__
o	o
d	d
i	e
s	s

__BEGIN__	__EPS__
h	h
e	ä
t	t
t	t
e	e

__BEGIN__	__EPS__
m	m
i	i
r	r

__BEGIN__	__EPS__
s	s
e	e
y	i

__BEGIN__	__EPS__
v	u
n	n
d	t
e	e
r	r

__BEGIN__	__EPS__
w	w
a	a
n	nn

__BEGIN__	__EPS__
d	d
o	a

__BEGIN__	__EPS__
h	h
e	e
r	r
z	z
e	e
l	l
e	e
i	i
d	d
e	__EPS__

__BEGIN__	__EPS__
d	d
e	e
r	r

__BEGIN__	__EPS__
d	d
i	ie
t	s

__BEGIN__	__EPS__
d	d
e	e
m	m

__BEGIN__	__EPS__
w	w
i	i
e	e

__BEGIN__	__EPS__
i	i
n	n

__BEGIN__	__EPS__
o	ih
m	m

__BEGIN__	__EPS__
e	e
y	i
n	n

__BEGIN__	__EPS__
d	d
e	e
n	m

__BEGIN__	__EPS__
g	g
e	e
r	r
n	n
e	e

__BEGIN__	__EPS__
v	u
n	n
d	d

__BEGIN__	__EPS__
d	d
e	e
r	r

__BEGIN__	__EPS__
d	d
a	a
s	ss

__BEGIN__	__EPS__
m	l
i	i
n	__EPS__
n	__EPS__
e	e
k	b
l	l
i	i
c	c
h	h

__BEGIN__	__EPS__
f	f
u	ü
i	__EPS__
n	n
f	f
f	__EPS__
t	t
u	a
s	u
s	s
e	e
n	n
t	d

__BEGIN__	__EPS__
z	s
e	o
h	gl
a	e
n	i
t	ch

__BEGIN__	__EPS__
u	a
f	u
f	f

__BEGIN__	__EPS__
d	d
e	e
r	r

__BEGIN__	__EPS__
v	v
o	o
r	r

__BEGIN__	__EPS__
l	l
a	ass

__BEGIN__	__EPS__
v	v
a	a
t	t
i	e
r	r

__BEGIN__	__EPS__
a	a
l	l
s	s

__BEGIN__	__EPS__
k	k
o	o
m	mm
e	e
n	n
d	d
e	__EPS__

__BEGIN__	__EPS__
e	e
s	s
z	__EPS__

__BEGIN__	__EPS__
i	i
n	n

__BEGIN__	__EPS__
d	d
y	ie

__BEGIN__	__EPS__
k	k
i	i
n	n
d	d

__BEGIN__	__EPS__
y	ih
r	r

__BEGIN__	__EPS__
a	a
b	b
e	e
r	r

__BEGIN__	__EPS__
k	k
l	l
a	ä
g	g
l	l
e	__EPS__
i	i
c	c
h	h

__BEGIN__	__EPS__
a	a
b	b

__BEGIN__	__EPS__
d	d
a	a

__BEGIN__	__EPS__
s	s
e	e
i	i
n	n

__BEGIN__	__EPS__
w	w
e	äh
r	r
t	t
e	e

__BEGIN__	__EPS__
g	g
i	i
e	__EPS__
n	n
g	g
e	e
n	n

__BEGIN__	__EPS__
d	d
e	e
m	m

__BEGIN__	__EPS__
m	m
i	i
t	t

__BEGIN__	__EPS__
i	i
s	s
t	t

__BEGIN__	__EPS__
n	n
i	i
e	ch
t	t

__BEGIN__	__EPS__
w	w
i	i
e	e

__BEGIN__	__EPS__
c	k
h	__EPS__
i	i
n	n
d	d

__BEGIN__	__EPS__
b	b
e	e
d	d
e	e
n	n
c	__EPS__
k	k
e	e

__BEGIN__	__EPS__
d	d
e	e
r	r

__BEGIN__	__EPS__
g	g
e	e
t	__EPS__
t	t
r	r
a	a
g	g
e	e
n	n

__BEGIN__	__EPS__
d	d
a	a

__BEGIN__	__EPS__
s	s
p	p
r	r
a	a
c	c
h	h

__BEGIN__	__EPS__
y	ih
r	r

__BEGIN__	__EPS__
w	w
e	ä
r	r
r	__EPS__
e	e

__BEGIN__	__EPS__
e	e
r	r

__BEGIN__	__EPS__
g	g
u	ö
n	n
n	n
e	e
n	n

__BEGIN__	__EPS__
b	be
y	i

__BEGIN__	__EPS__
o	o
s	s
s	s
a	a

__BEGIN__	__EPS__
s	s
.	.
.	.
t	t

__BEGIN__	__EPS__
s	s
e	e
c	c
h	h
s	s
t	t
e	e
n	n

__BEGIN__	__EPS__
e	e
i	i
n	n

__BEGIN__	__EPS__
a	a
n	n

__BEGIN__	__EPS__
d	d
e	er

__BEGIN__	__EPS__
t	t
e	e
m	m
p	p
e	e
l	l

__BEGIN__	__EPS__
j	j
a	a
m	mm
e	e
r	r

__BEGIN__	__EPS__
m	m
u	u
e	t
t	t
e	e
r	r

__BEGIN__	__EPS__
d	d
o	a
e	__EPS__

__BEGIN__	__EPS__
m	m
e	e
i	i
n	n
e	e
n	n

__BEGIN__	__EPS__
k	k
i	i
n	n
t	d
h	h
e	e
i	i
t	t

__BEGIN__	__EPS__
w	w
u	u
n	n
t	d
e	e
n	n

__BEGIN__	__EPS__
b	b
e	e
y	i
n	n

__BEGIN__	__EPS__
m	l
i	i
n	e
n	b
e	e
c	v
h	o
l	l
e	__EPS__
i	__EPS__
c	l
h	__EPS__

__BEGIN__	__EPS__
s	s
i	i
c	c
h	h

__BEGIN__	__EPS__
g	g
i	i
e	__EPS__
n	n
g	g

__BEGIN__	__EPS__
k	k
u	ö
n	n
i	i
g	g

__BEGIN__	__EPS__
g	g
e	e
s	s
t	t
a	a
l	l
t	t

__BEGIN__	__EPS__
g	g
e	e
c	__EPS__
z	z
h	i
a	e
m	mte

__BEGIN__	__EPS__
w	w
o	o
l	ll
t	te

__BEGIN__	__EPS__
d	d
a	a
s	s

__BEGIN__	__EPS__
m	m
i	i
c	c
h	h

__BEGIN__	__EPS__
e	i
m	h
e	m

__BEGIN__	__EPS__
g	g
e	e
d	t
a	a
i	__EPS__
n	n

__BEGIN__	__EPS__
u	v
i	i
d	d
e	e

__BEGIN__	__EPS__
m	m
y	i
r	r

__BEGIN__	__EPS__
d	d
e	e
r	r

__BEGIN__	__EPS__
s	s
t	t
a	e
i	i
n	n

__BEGIN__	__EPS__
m	m
e	e
i	i
n	n

__BEGIN__	__EPS__
a	a
n	n

__BEGIN__	__EPS__
d	d
u	u
r	r
c	c
h	h

__BEGIN__	__EPS__
d	d
o	a

__BEGIN__	__EPS__
t	t
o	o
d	d

__BEGIN__	__EPS__
d	d
i	i
e	e

__BEGIN__	__EPS__
d	d
e	e
n	n

__BEGIN__	__EPS__
e	e
r	r

__BEGIN__	__EPS__
t	t
a	a
g	g

__BEGIN__	__EPS__
r	r
e	e
c	c
h	h
t	t
e	e
n	n

__BEGIN__	__EPS__
s	s
t	t
a	a
n	n
d	d

__BEGIN__	__EPS__
i	i
c	c
h	h

__BEGIN__	__EPS__
f	f
ü	ü
r	r
c	c
h	h
t	t
e	e
s	s
t	t

__BEGIN__	__EPS__
d	d
e	e
r	r

__BEGIN__	__EPS__
d	d
o	a
e	__EPS__

__BEGIN__	__EPS__
d	d
a	a
s	s

__BEGIN__	__EPS__
s	s
i	ie

__BEGIN__	__EPS__
d	d
v	u
r	rch
l	l
u	e
e	u
c	c
h	h
t	t
e	e
t	t

__BEGIN__	__EPS__
o	a
u	u
g	g
h	__EPS__
e	e
n	n

__BEGIN__	__EPS__
s	se
y	i
n	n
e	e

__BEGIN__	__EPS__
z	z
u	u
o	__EPS__

__BEGIN__	__EPS__
c	k
r	r
u	e
c	u
e	z

__BEGIN__	__EPS__
d	d
u	u
r	r
c	c
h	h

__BEGIN__	__EPS__
d	d
y	ie

__BEGIN__	__EPS__
l	l
a	a
g	g

__BEGIN__	__EPS__
s	s
p	p
r	r
a	a
c	c
h	h

__BEGIN__	__EPS__
m	m
i	i
t	t

__BEGIN__	__EPS__
d	d
r	r
e	e
y	i
e	e
r	r

__BEGIN__	__EPS__
w	p
e	__EPS__
i	r
s	o
z	p
s	h
a	e
g	t
e	e
n	n

__BEGIN__	__EPS__
d	d
a	a

__BEGIN__	__EPS__
w	w
a	a
s	r
z	__EPS__

__BEGIN__	__EPS__
s	se
y	i
n	n

__BEGIN__	__EPS__
c	k
h	__EPS__
l	l
e	ä
g	g
l	l
e	__EPS__
i	i
c	c
h	h

__BEGIN__	__EPS__
d	d
e	e
r	r

__BEGIN__	__EPS__
d	d
e	e
r	r

__BEGIN__	__EPS__
a	a
l	l
t	d
o	u
e	__EPS__
s	s

__BEGIN__	__EPS__
d	d
i	i
e	e

__BEGIN__	__EPS__
n	n
i	ich
t	t

__BEGIN__	__EPS__
n	n
e	ic
y	h
t	t

__BEGIN__	__EPS__
g	g
e	e
s	sch
l	l
u	a
e	__EPS__
g	g
e	e
n	n

__BEGIN__	__EPS__
v	v
o	o
n	n

__BEGIN__	__EPS__
k	k
o	o
m	mm
e	e
n	n

__BEGIN__	__EPS__
a	a
n	n
g	g
e	e
s	s
e	e
c	__EPS__
h	h
e	e
n	n

__BEGIN__	__EPS__
c	__EPS__
h	k
a	e
i	i
n	n
e	e
r	r

__BEGIN__	__EPS__
m	m
a	a
n	n

__BEGIN__	__EPS__
i	i
c	c
h	h

__BEGIN__	__EPS__
d	d
a	a
t	ss

__BEGIN__	__EPS__
m	m
a	a
g	g
d	d
a	a
l	l
e	e
n	n
a	a

__BEGIN__	__EPS__
o	o

__BEGIN__	__EPS__
d	d
o	a

__BEGIN__	__EPS__
w	w
o	ah
r	r

__BEGIN__	__EPS__
d	d
y	i
e	e

__BEGIN__	__EPS__
d	d
o	a

__BEGIN__	__EPS__
n	n
i	i
c	c
h	h
t	t

__BEGIN__	__EPS__
v	v
o	o
r	r

__BEGIN__	__EPS__
s	s
y	ie

__BEGIN__	__EPS__
d	d
o	a

__BEGIN__	__EPS__
i	ih
m	m

__BEGIN__	__EPS__
i	j
e	ä
m	mm
e	e
r	r
l	l
i	i
c	c
h	h

__BEGIN__	__EPS__
d	d
a	a

__BEGIN__	__EPS__
w	w
a	a
r	r
d	d
t	__EPS__

__BEGIN__	__EPS__
s	s
c	c
h	h
r	r
i	i
r	__EPS__
e	e
n	n

__BEGIN__	__EPS__
d	d
a	a

__BEGIN__	__EPS__
v	u
n	n
d	d

__BEGIN__	__EPS__
v	u
n	n
d	d

__BEGIN__	__EPS__
e	e
r	r
h	h
o	ö
e	__EPS__
r	r
t	t

__BEGIN__	__EPS__
s	s
p	p
r	r
i	i
c	c
h	h
t	t

__BEGIN__	__EPS__
d	d
a	a
s	s

__BEGIN__	__EPS__
e	u
n	nd

__BEGIN__	__EPS__
v	u
n	n
s	s
e	e
r	r

__BEGIN__	__EPS__
h	__EPS__
e	e
r	r

__BEGIN__	__EPS__
i	j
u	u
d	d
e	e
n	n

__BEGIN__	__EPS__
v	v
o	o
n	n

__BEGIN__	__EPS__
s	s
p	p
r	r
a	a
c	c
h	h

__BEGIN__	__EPS__
h	h
i	i
e	e
z	ss

__BEGIN__	a
v	u
f	f

__BEGIN__	__EPS__
a	e
i	i
n	n
e	e
n	n

