__BEGIN__	__EPS__
v	f
r	r
o	a
u	u
w	__EPS__
e	__EPS__

__BEGIN__	__EPS__
e	e
r	r
k	qu
i	i
c	c
k	k
e	__EPS__
t	t
e	e

__BEGIN__	__EPS__
c	k
r	r
u	e
c	u
z	z
e	e

__BEGIN__	__EPS__
s	sch
w	w
e	e
i	i
c	g
h	e

__BEGIN__	__EPS__
s	s
p	p
r	r
a	a
i	__EPS__
c	c
h	h
e	e
n	n

__BEGIN__	__EPS__
s	s
t	t
i	im
m	me

__BEGIN__	__EPS__
h	h
i	i
e	e
s	s
z	s

__BEGIN__	__EPS__
i	e
r	r
l	l
o	ö
z	s
i	e
n	n

__BEGIN__	__EPS__
m	m
e	eh
r	r

__BEGIN__	__EPS__
b	h
u	ü
i	__EPS__
c	g
h	__EPS__
c	e
l	l
e	__EPS__
n	n
e	__EPS__
n	__EPS__

__BEGIN__	__EPS__
e	e
r	r

__BEGIN__	__EPS__
s	s
o	o

__BEGIN__	__EPS__
m	m
i	i
e	__EPS__
r	r

__BEGIN__	__EPS__
g	g
e	e
n	n
o	o
m	mm
e	e
n	n

__BEGIN__	__EPS__
a	a
n	n
t	t
l	l
i	i
c	t
z	z

__BEGIN__	__EPS__
m	m
a	a
n	nn
i	i
c	__EPS__
h	g
u	f
a	a
l	l
t	tig

__BEGIN__	__EPS__
t	__EPS__
z	z
o	u

__BEGIN__	__EPS__
w	w
a	a
r	r
d	d
e	__EPS__

__BEGIN__	__EPS__
s	s
e	e
i	i
n	n

__BEGIN__	__EPS__
i	i
s	st

__BEGIN__	__EPS__
d	d
o	a

__BEGIN__	__EPS__
s	s
p	p
r	r
a	a
c	c
h	h
e	__EPS__

__BEGIN__	__EPS__
e	e
y	i
n	n
s	sch
l	l
u	u
g	g
e	e
n	n

__BEGIN__	__EPS__
a	a
l	l
s	s
o	o

__BEGIN__	__EPS__
m	m
a	a
r	r
i	i
a	a

__BEGIN__	__EPS__
s	s
i	i
c	c
h	h

__BEGIN__	__EPS__
h	h
e	e
r	r
a	a
u	u
s	s
z	__EPS__

__BEGIN__	__EPS__
v	u
n	n
d	d

__BEGIN__	__EPS__
n	n
y	i
m	mm

__BEGIN__	__EPS__
n	n
i	i
e	e

__BEGIN__	__EPS__
v	v
o	o
n	n

__BEGIN__	__EPS__
g	g
e	e
r	r
n	n
e	e

__BEGIN__	__EPS__
w	w
e	e
r	r
d	d
e	e
n	n

__BEGIN__	__EPS__
d	d
o	a

__BEGIN__	__EPS__
e	e
r	r

__BEGIN__	__EPS__
a	a
l	l
s	s
o	o

__BEGIN__	__EPS__
e	e
r	r

__BEGIN__	__EPS__
i	i
c	c
h	h

__BEGIN__	__EPS__
m	m
a	a
r	r
t	t
e	e
r	r

__BEGIN__	__EPS__
i	i
c	ch

__BEGIN__	__EPS__
g	g
r	r
o	o
s	s
s	s
e	e
m	m

__BEGIN__	__EPS__
g	g
e	e
s	sch
l	l
a	a
g	g
e	e
n	n

__BEGIN__	__EPS__
s	s
a	a
z	s
z	s

__BEGIN__	__EPS__
g	g
e	e
t	t
a	a
n	n

__BEGIN__	__EPS__
d	d
a	a
z	ss

__BEGIN__	__EPS__
v	u
n	n
d	d

__BEGIN__	__EPS__
h	h
e	e
r	r
e	r

__BEGIN__	__EPS__
v	u
n	n
d	d

__BEGIN__	__EPS__
i	j
u	u
d	d
e	e
n	n

__BEGIN__	__EPS__
b	b
a	a
n	n
t	d

__BEGIN__	__EPS__
i	j
h	e
-	s
u	u

__BEGIN__	__EPS__
s	s
i	i
c	c
h	h

__BEGIN__	__EPS__
y	ih
n	n

__BEGIN__	__EPS__
f	f
r	re
u	u
n	n
d	d
e	e

__BEGIN__	__EPS__
m	m
a	oc
h	h
t	t
e	e

__BEGIN__	__EPS__
y	ih
r	r

__BEGIN__	__EPS__
k	k
i	i
n	n
t	d

__BEGIN__	__EPS__
h	h
y	i
m	mm
e	e
l	l
z	s

__BEGIN__	__EPS__
b	b
e	e
y	i

__BEGIN__	__EPS__
s	s
e	e
l	l
b	b
e	e
r	r

__BEGIN__	__EPS__
h	h
a	a
t	t

__BEGIN__	__EPS__
v	u
n	n
d	d

__BEGIN__	__EPS__
i	i
c	c
h	h

__BEGIN__	__EPS__
i	j
v	u
d	d
e	e
n	n

__BEGIN__	__EPS__
s	s
o	o

__BEGIN__	__EPS__
g	g
e	e
v	f
a	a
n	n
g	g
e	e
n	n

__BEGIN__	__EPS__
g	g
e	e
t	t
a	a
e	__EPS__
n	n

__BEGIN__	__EPS__
e	e
n	m
p	p
h	f
i	i
e	__EPS__
n	n
g	g
e	e

__BEGIN__	__EPS__
a	a
n	n

__BEGIN__	__EPS__
d	t
a	a
d	t
e	e
n	n

__BEGIN__	__EPS__
d	d
a	a
z	s

__BEGIN__	__EPS__
h	i
e	h
m	m

__BEGIN__	__EPS__
m	me
y	i
n	n

__BEGIN__	__EPS__
g	__EPS__
e	__EPS__
u	f
o	o
l	l
g	g
e	e
n	n

__BEGIN__	__EPS__
c	k
u	ü
s	s
s	s
e	e
n	n

__BEGIN__	__EPS__
a	a
l	l
l	l
e	e
s	s

__BEGIN__	__EPS__
v	v
i	i
d	d
e	e

__BEGIN__	__EPS__
a	a
l	l
s	s

__BEGIN__	__EPS__
i	ih
m	m

__BEGIN__	__EPS__
i	ih
n	n

__BEGIN__	__EPS__
i	ih
r	r
e	e
m	m

__BEGIN__	__EPS__
i	ih
n	n

__BEGIN__	__EPS__
d	d
i	i
e	e

__BEGIN__	__EPS__
d	d
a	a
s	s

__BEGIN__	__EPS__
v	u
n	n
d	d

__BEGIN__	__EPS__
z	z
u	u
o	__EPS__

__BEGIN__	__EPS__
d	d
a	a
r	r
y	i
n	n

__BEGIN__	__EPS__
c	k
h	__EPS__
o	o
e	s
s	t

__BEGIN__	__EPS__
a	a
l	l
l	l
e	e

__BEGIN__	__EPS__
d	d
a	a
z	ss

__BEGIN__	__EPS__
i	i
s	st

__BEGIN__	__EPS__
a	a
l	l
l	l
e	e

__BEGIN__	__EPS__
g	__EPS__
e	__EPS__
t	t
r	r
o	ö
e	__EPS__
s	s
t	t
e	e
n	n

__BEGIN__	__EPS__
d	d
v	i
i	e

__BEGIN__	__EPS__
g	g
e	e
p	b
e	e
i	i
n	n

__BEGIN__	__EPS__
c	k
h	__EPS__
r	r
e	ä
f	f
t	t
e	e
n	n

__BEGIN__	__EPS__
e	e
s	s
z	__EPS__

__BEGIN__	__EPS__
d	d
i	i
e	e

__BEGIN__	__EPS__
s	s
y	e
e	i

__BEGIN__	__EPS__
s	s
t	teh
e	e
n	n

__BEGIN__	__EPS__
d	d
e	e
n	n

__BEGIN__	__EPS__
w	w
a	a
r	r
e	e
n	n

__BEGIN__	__EPS__
e	e
i	i
n	n

__BEGIN__	__EPS__
e	u
n	nd

__BEGIN__	__EPS__
d	d
i	ir

__BEGIN__	__EPS__
v	u
n	n
d	d
e	__EPS__

__BEGIN__	__EPS__
d	d
e	e
r	r

__BEGIN__	__EPS__
d	d
e	e
m	m
e	__EPS__

__BEGIN__	__EPS__
m	m
i	i
r	r

__BEGIN__	__EPS__
g	g
e	e
k	k
u	ü
n	n
d	d
e	e
t	t

__BEGIN__	__EPS__
w	w
o	o
u	l
l	l
d	t
e	e
n	n

__BEGIN__	__EPS__
d	d
o	a

__BEGIN__	__EPS__
l	l
a	a
i	s
s	s
t	t

__BEGIN__	__EPS__
a	a
n	n
d	d
e	e
r	r
s	s

__BEGIN__	__EPS__
t	t
u	u
o	__EPS__
c	c
h	h

__BEGIN__	__EPS__
h	h
o	a
u	u
b	p
t	t

__BEGIN__	__EPS__
d	d
y	ie

__BEGIN__	__EPS__
s	s
p	p
r	r
a	a
c	c
h	h
i	e
n	n

__BEGIN__	__EPS__
d	d
i	i
e	e

__BEGIN__	__EPS__
m	me
i	i
n	n

__BEGIN__	__EPS__
e	e
n	n
t	t
h	h
a	a
u	u
b	pte
t	t

__BEGIN__	__EPS__
w	w
a	a
z	r

__BEGIN__	__EPS__
d	d
i	i
e	e

__BEGIN__	__EPS__
h	h
a	a
i	__EPS__
t	t

__BEGIN__	__EPS__
s	s
i	i
n	n
n	n
e	e
n	n

__BEGIN__	__EPS__
d	d
a	a
s	ss

__BEGIN__	__EPS__
v	u
n	n
d	d

__BEGIN__	__EPS__
i	j
u	u
n	n
c	__EPS__
k	g
f	f
r	r
-	au

__BEGIN__	__EPS__
s	s
c	c
h	h
r	r
i	i
r	e
n	n

__BEGIN__	__EPS__
n	n
a	ah
m	m

__BEGIN__	__EPS__
w	w
a	a
s	r

__BEGIN__	__EPS__
d	d
a	a
s	ss

__BEGIN__	__EPS__
c	k
a	a
y	i
p	p
h	h
a	a
s	s

__BEGIN__	__EPS__
v	u
n	n
v	v
e	e
r	rsehrt

__BEGIN__	__EPS__
y	ih
m	m

__BEGIN__	__EPS__
d	d
e	e
n	n

__BEGIN__	__EPS__
e	e
r	r

__BEGIN__	__EPS__
h	e
e	r

__BEGIN__	__EPS__
d	d
a	a

__BEGIN__	__EPS__
t	t
o	ö
e	__EPS__
t	t
t	__EPS__
e	e
n	n

__BEGIN__	__EPS__
w	w
a	ä
e	r
r	e

__BEGIN__	__EPS__
w	w
u	a
r	r
f	f
f	__EPS__
e	e
n	n

__BEGIN__	__EPS__
i	ih
n	n

__BEGIN__	__EPS__
j	j
o	u
e	__EPS__
d	d
e	e
n	n

__BEGIN__	__EPS__
d	d
e	e
r	r

__BEGIN__	__EPS__
s	s
i	i
n	n
d	d

__BEGIN__	__EPS__
e	e
r	r
l	l
o	au
b	b
t	t

__BEGIN__	__EPS__
e	e
r	r
g	g
i	i
n	n
g	g

__BEGIN__	__EPS__
v	u
n	n
d	d

__BEGIN__	__EPS__
d	d
a	as
z	s

__BEGIN__	__EPS__
d	d
o	a

__BEGIN__	__EPS__
s	s
a	a
s	s
s	s
e	e
n	n

__BEGIN__	__EPS__
i	i
c	ch

__BEGIN__	__EPS__
d	d
e	e
n	n

__BEGIN__	__EPS__
m	m
i	i
c	c
h	h

__BEGIN__	__EPS__
m	m
i	i
c	c
h	h

__BEGIN__	__EPS__
e	e
s	s

__BEGIN__	__EPS__
s	s
a	a
g	g
e	e

__BEGIN__	__EPS__
g	__EPS__
e	__EPS__
t	t
r	r
o	ö
e	__EPS__
s	s
t	t
e	e
n	n

__BEGIN__	__EPS__
i	i
n	n

__BEGIN__	__EPS__
a	a
l	l
s	s
o	o

__BEGIN__	__EPS__
v	u
n	n
d	d

__BEGIN__	__EPS__
s	s
p	p
r	r
a	a
c	c
h	h
e	e
n	n

__BEGIN__	__EPS__
a	a
u	u
s	s

__BEGIN__	__EPS__
d	d
i	i
c	c
h	h

__BEGIN__	__EPS__
z	z
u	u
o	__EPS__

__BEGIN__	__EPS__
v	v
o	o
r	r

__BEGIN__	__EPS__
m	m
i	i
r	r

__BEGIN__	__EPS__
d	d
a	a
s	s

__BEGIN__	__EPS__
m	m
a	a
r	r
i	i
a	a

__BEGIN__	__EPS__
g	g
e	e
d	d
a	a
c	c
h	h
t	te

__BEGIN__	__EPS__
d	d
a	as
z	s

__BEGIN__	__EPS__
d	d
o	a

__BEGIN__	__EPS__
s	s
e	e
l	l
b	bst

__BEGIN__	__EPS__
s	s
e	e
l	l
u	b
e	e
n	n

__BEGIN__	__EPS__
s	s
e	e
i	i
n	n

__BEGIN__	__EPS__
h	h
a	äng
y	e
n	n

__BEGIN__	__EPS__
m	m
i	i
t	t
n	n
i	i
c	c
h	h
t	t
e	en

__BEGIN__	__EPS__
p	b
r	r
a	a
c	c
h	h
t	t
e	e

__BEGIN__	__EPS__
d	de
i	i
n	n
e	e
r	r

__BEGIN__	__EPS__
m	m
e	e
n	n
s	sch
l	l
i	i
c	c
h	h

__BEGIN__	__EPS__
e	e
r	r

__BEGIN__	__EPS__
n	n
u	un

__BEGIN__	__EPS__
v	u
n	n
d	d

__BEGIN__	__EPS__
e	e
i	i
n	n
e	e
r	r

__BEGIN__	__EPS__
w	w
o	oh
l	l

__BEGIN__	__EPS__
o	au
p	f

__BEGIN__	__EPS__
d	d
i	i
e	e

__BEGIN__	__EPS__
h	h
o	ö
r	r
t	t

__BEGIN__	__EPS__
d	d
o	a

__BEGIN__	__EPS__
v	v
e	e
r	r
l	l
e	e
ü	u
c	g
k	n
e	e
n	__EPS__
d	t
e	e

__BEGIN__	__EPS__
v	f
o	o
l	l
g	g
t	t

__BEGIN__	__EPS__
n	ih
e	n

__BEGIN__	__EPS__
w	w
a	a
r	r
t	d

__BEGIN__	__EPS__
v	u
n	n
d	d

__BEGIN__	__EPS__
a	e
i	i
g	g
e	e
n	n

__BEGIN__	__EPS__
d	d
e	e
m	m

__BEGIN__	__EPS__
d	d
o	a

__BEGIN__	__EPS__
i	ih
n	n

__BEGIN__	__EPS__
s	s
e	eh
r	r
e	__EPS__

__BEGIN__	__EPS__
s	s
i	ie

__BEGIN__	__EPS__
v	u
n	n
d	d

__BEGIN__	__EPS__
i	i
c	c
h	h

__BEGIN__	__EPS__
m	m
i	i
t	t

__BEGIN__	__EPS__
a	e
i	i
n	n

__BEGIN__	__EPS__
m	me
i	i
n	n

__BEGIN__	n
e	ich
n	t

__BEGIN__	__EPS__
m	m
i	i
r	r

__BEGIN__	__EPS__
d	d
e	e
r	r

__BEGIN__	__EPS__
d	d
e	e
r	r

__BEGIN__	__EPS__
h	h
e	e
r	r
l	r
e	l
i	i
c	c
h	h
e	e
n	n

__BEGIN__	__EPS__
i	j
a	am
m	m
e	e
r	r

__BEGIN__	__EPS__
v	v
u	o
r	r

__BEGIN__	__EPS__
k	k
i	i
n	n
t	d

__BEGIN__	__EPS__
k	k
u	ö
n	ni
c	g

__BEGIN__	__EPS__
d	d
i	ie

__BEGIN__	__EPS__
a	a
l	l
t	t
e	e

__BEGIN__	__EPS__
m	m
i	i
r	r

__BEGIN__	__EPS__
k	k
r	r
e	ä
g	h
e	e

__BEGIN__	__EPS__
r	r
i	i
t	t
t	t
e	e
r	r

__BEGIN__	__EPS__
d	d
i	i
e	e

__BEGIN__	__EPS__
m	m
i	i
r	r

__BEGIN__	__EPS__
m	m
i	i
c	c
h	h

__BEGIN__	__EPS__
d	d
i	i
e	e

__BEGIN__	__EPS__
m	m
i	i
r	r

__BEGIN__	__EPS__
v	v
i	ie
l	l

__BEGIN__	__EPS__
v	u
n	n
d	d

__BEGIN__	__EPS__
v	u
n	n
d	d

__BEGIN__	__EPS__
g	g
e	e
s	s
c	c
h	h
e	i
i	e
d	d
e	e
n	n

__BEGIN__	__EPS__
k	k
i	i
n	n
t	d

__BEGIN__	__EPS__
v	u
n	n
d	d

__BEGIN__	__EPS__
n	n
o	o
c	c
h	h

__BEGIN__	__EPS__
h	h
e	ö
l	l
l	le

__BEGIN__	__EPS__
s	s
e	e
i	i
n	n
e	e
n	n

__BEGIN__	__EPS__
d	d
a	a
z	s

__BEGIN__	__EPS__
m	m
e	e
n	n
s	sc
h	h
e	e
n	n

__BEGIN__	__EPS__
a	a
b	b
e	e
r	r

__BEGIN__	__EPS__
d	d
a	a

__BEGIN__	__EPS__
p	p
y	i
l	l
a	a
t	t
u	u
s	s

__BEGIN__	d
v	u

__BEGIN__	__EPS__
c	k
h	__EPS__
i	i
n	n
d	d

__BEGIN__	__EPS__
d	d
i	i
e	e

__BEGIN__	__EPS__
b	b
e	e
k	k
a	a
m	m

__BEGIN__	__EPS__
h	h
a	a
n	be

__BEGIN__	__EPS__
m	m
e	e
i	i
n	n
e	e
m	m

__BEGIN__	__EPS__
n	n
o	o
c	c
h	h

__BEGIN__	__EPS__
s	s
a	a
g	g
e	e

__BEGIN__	__EPS__
v	v
o	o
n	n

__BEGIN__	__EPS__
s	s
y	ie

__BEGIN__	__EPS__
d	d
e	e
m	m

__BEGIN__	__EPS__
s	s
p	p
r	r
i	i
c	c
h	h
t	t

__BEGIN__	__EPS__
h	h
e	e
r	r
o	o
d	d
e	e
s	s

__BEGIN__	__EPS__
n	n
a	a
g	g
e	e
l	l

__BEGIN__	__EPS__
i	i
n	n

__BEGIN__	__EPS__
w	w
e	eh

__BEGIN__	__EPS__
b	b
r	r
u	u
e	__EPS__
s	s
t	t

__BEGIN__	__EPS__
w	w
a	a
r	r
t	d

__BEGIN__	__EPS__
v	u
i	__EPS__
n	n
s	s
e	e
r	re
n	n

__BEGIN__	__EPS__
u	v
i	ie
l	l

__BEGIN__	__EPS__
g	g
e	e
s	sch
l	l
a	a
g	g
e	e
n	n

__BEGIN__	__EPS__
s	s
e	e
i	i
n	n
e	e
m	m

__BEGIN__	__EPS__
a	a
l	l
l	l
e	e

__BEGIN__	__EPS__
m	m
e	e
a	a

__BEGIN__	__EPS__
a	a
n	n

__BEGIN__	__EPS__
d	d
i	i
e	e

__BEGIN__	__EPS__
d	d
o	o
r	r
n	n
e	e
n	n

__BEGIN__	__EPS__
v	v
o	o
l	l
k	k
c	__EPS__
h	__EPS__

__BEGIN__	__EPS__
d	d
i	e
e	i
n	n

__BEGIN__	__EPS__
z	z
u	u
l	l
a	a
u	u
f	f
f	__EPS__

__BEGIN__	__EPS__
c	k
h	__EPS__
l	l
a	a
g	g
e	e

__BEGIN__	__EPS__
i	j
u	u
d	d
e	e
n	n

__BEGIN__	__EPS__
m	m
e	eh
r	r

__BEGIN__	__EPS__
w	w
i	i
e	e

__BEGIN__	__EPS__
w	w
e	e
r	__EPS__
l	l
t	t

__BEGIN__	__EPS__
y	i
m	h
e	m

__BEGIN__	__EPS__
t	t
o	o
t	t
e	e
n	n

__BEGIN__	__EPS__
v	u
n	n
d	d

__BEGIN__	__EPS__
m	m
e	ee
r	r
e	__EPS__

__BEGIN__	__EPS__
a	a
l	l
s	s

__BEGIN__	__EPS__
i	i
c	c
h	h

__BEGIN__	__EPS__
n	n
a	a
c	c
h	h

__BEGIN__	__EPS__
j	j
u	u
d	d
e	e
n	n

__BEGIN__	__EPS__
n	n
e	eh
m	m
e	e
n	n

__BEGIN__	__EPS__
v	u
n	n
d	d

__BEGIN__	__EPS__
s	s
t	t
u	a
e	__EPS__
n	n
d	d

__BEGIN__	__EPS__
z	z
o	u
g	g
e	e
h	h
o	ö
e	__EPS__
r	r
e	e
n	n

__BEGIN__	__EPS__
s	sch
l	l
e	ä
g	g
e	e
n	n

__BEGIN__	__EPS__
d	d
u	u

__BEGIN__	__EPS__
h	h
e	a
t	t

__BEGIN__	__EPS__
d	d
o	a

__BEGIN__	__EPS__
h	h
a	ä
n	n
g	g
h	__EPS__
e	e
n	n

__BEGIN__	__EPS__
v	v
o	o
n	n

__BEGIN__	__EPS__
a	oh
n	ne

__BEGIN__	__EPS__
m	me
y	i
n	n

__BEGIN__	__EPS__
h	h
e	e
r	r
o	o
d	d
e	e
s	s
z	__EPS__

__BEGIN__	__EPS__
c	__EPS__
z	z
ü	o
g	g
e	e
n	n

__BEGIN__	__EPS__
g	g
r	r
o	o
z	s
z	s
e	e
m	m

__BEGIN__	__EPS__
z	z
u	u
o	__EPS__

__BEGIN__	__EPS__
d	d
o	a

__BEGIN__	__EPS__
s	s
c	c
h	h
r	r
e	e
i	i
b	b
e	e
n	n

__BEGIN__	__EPS__
a	a
n	n
t	t
w	w
u	o
e	__EPS__
r	r
t	tet

__BEGIN__	__EPS__
o	o
f	f
t	t

__BEGIN__	__EPS__
a	a
n	n

__BEGIN__	__EPS__
d	d
a	as
s	s

__BEGIN__	__EPS__
p	b
i	i
s	s

__BEGIN__	__EPS__
d	d
i	i
e	e

__BEGIN__	__EPS__
d	t
o	o
d	d
e	e
s	s

__BEGIN__	__EPS__
g	__EPS__
e	__EPS__
h	h
e	e
l	l
f	f
e	e
n	n

__BEGIN__	__EPS__
z	z
u	u

__BEGIN__	__EPS__
d	d
a	a
i	__EPS__
r	__EPS__

__BEGIN__	__EPS__
w	w
a	a
n	nn

__BEGIN__	__EPS__
d	d
i	ie
s	s
e	e
r	r

__BEGIN__	__EPS__
m	me
i	i
n	n
e	e
n	n

__BEGIN__	__EPS__
e	e
r	r
f	f
ü	ü
l	l
l	l
e	e
t	t

__BEGIN__	__EPS__
w	w
i	i
e	e

__BEGIN__	__EPS__
e	e
s	s
z	__EPS__

__BEGIN__	__EPS__
d	d
o	a

__BEGIN__	__EPS__
k	k
u	o
m	mm
e	e
n	n
t	d

__BEGIN__	__EPS__
i	i
c	c
h	h

__BEGIN__	__EPS__
r	r
e	e
i	__EPS__
c	c
h	h
t	t

__BEGIN__	__EPS__
v	u
n	n
d	d

__BEGIN__	__EPS__
d	d
a	a
s	ss

__BEGIN__	__EPS__
o	o
d	d
e	e
r	r

__BEGIN__	__EPS__
d	d
e	e
m	m

__BEGIN__	__EPS__
w	w
y	i
e	e

__BEGIN__	__EPS__
e	e
i	i
n	n

__BEGIN__	__EPS__
v	u
n	n
d	d

__BEGIN__	__EPS__
n	n
i	i
c	c
h	h
t	t

__BEGIN__	__EPS__
i	i
c	c
h	h

__BEGIN__	__EPS__
r	r
e	e
c	c
h	h
t	t

__BEGIN__	__EPS__
t	t
u	u
c	c
h	h

__BEGIN__	__EPS__
s	s
y	i
e	e

__BEGIN__	__EPS__
s	s
p	p
r	r
a	a
c	c
h	h

__BEGIN__	__EPS__
n	n
i	ich
t	t

__BEGIN__	__EPS__
w	w
i	i
e	e

__BEGIN__	__EPS__
w	w
i	ie
d	d
e	e
r	r

__BEGIN__	__EPS__
m	m
a	a
u	__EPS__
l	l

__BEGIN__	__EPS__
g	g
o	ot
t	t
e	e
s	s
s	s
u	oh
n	n

__BEGIN__	__EPS__
e	e
y	i
n	n
e	e

__BEGIN__	__EPS__
v	u
n	n
s	s
c	c
h	h
u	u
l	l
d	d
i	i
c	__EPS__
h	g

__BEGIN__	__EPS__
e	e
i	i
n	n

__BEGIN__	__EPS__
d	d
i	i
e	e

__BEGIN__	__EPS__
l	l
e	ä
n	n
g	g
e	e
r	r

__BEGIN__	__EPS__
a	oh
n	ne

__BEGIN__	__EPS__
a	a
n	n

__BEGIN__	__EPS__
k	k
e	e
i	i
n	n
e	e
n	n

__BEGIN__	__EPS__
i	i
c	c
h	h

__BEGIN__	__EPS__
s	se
i	i
d	t
e	e
n	n

__BEGIN__	__EPS__
s	s
y	ie

__BEGIN__	__EPS__
a	a
l	l
l	l
e	e
r	r
l	l
i	i
e	e
b	b
s	s
t	t
e	e
s	s

__BEGIN__	__EPS__
r	r
e	e
c	c
h	h
t	t
e	e
r	r

__BEGIN__	__EPS__
a	a
u	u
d	d
i	i

__BEGIN__	__EPS__
d	d
e	e
r	r

__BEGIN__	__EPS__
m	m
i	i
t	t

__BEGIN__	__EPS__
c	__EPS__
h	k
i	i
n	n
d	d

__BEGIN__	__EPS__
o	a
u	u
g	g
e	e
n	n

__BEGIN__	__EPS__
f	f
u	uh
r	r

__BEGIN__	__EPS__
a	a
u	u
d	d
y	i

__BEGIN__	__EPS__
e	i
m	h
e	m

__BEGIN__	__EPS__
f	f
u	üh
r	r
t	t
e	e

__BEGIN__	__EPS__
s	s
v	oh
n	n

__BEGIN__	__EPS__
w	w
a	a
s	r

__BEGIN__	__EPS__
v	u
n	n
d	d

__BEGIN__	__EPS__
i	i
c	c
h	h

__BEGIN__	__EPS__
h	h
a	a
b	b
t	t

__BEGIN__	__EPS__
d	d
e	e
m	m

__BEGIN__	__EPS__
v	u
n	n
t	t
e	e
r	r

__BEGIN__	__EPS__
s	s
o	o

__BEGIN__	n
e	ich
n	t

__BEGIN__	__EPS__
e	e
r	r
k	k
e	e
n	n
n	n
e	e
n	n

__BEGIN__	__EPS__
v	u
m	m
b	__EPS__

__BEGIN__	__EPS__
d	d
o	a

__BEGIN__	__EPS__
v	v
o	o
n	n

__BEGIN__	__EPS__
v	v
o	o
c	l
k	k
l	e
s	s

__BEGIN__	__EPS__
l	l
a	e
i	i
d	d

__BEGIN__	__EPS__
v	f
i	e
g	i
e	__EPS__
n	nd
s	s
c	c
h	h
a	a
f	f
f	__EPS__
t	t

__BEGIN__	__EPS__
d	d
e	e
r	r

__BEGIN__	__EPS__
y	ih
m	m

__BEGIN__	__EPS__
d	d
u	u

__BEGIN__	__EPS__
d	d
o	o
c	c
h	h

__BEGIN__	__EPS__
e	e
i	i
n	n
e	e
n	n

__BEGIN__	__EPS__
i	ih
n	n

__BEGIN__	__EPS__
d	d
e	e
r	r

__BEGIN__	__EPS__
p	b
e	e
s	s
z	s
e	e
r	r

__BEGIN__	__EPS__
d	d
o	a

__BEGIN__	__EPS__
d	d
o	a

__BEGIN__	__EPS__
d	d
i	i
e	e

__BEGIN__	__EPS__
d	d
a	a
t	ss

__BEGIN__	__EPS__
v	v
a	a
t	t
i	e
r	r

__BEGIN__	__EPS__
e	e
r	r
p	b
i	__EPS__
d	__EPS__
e	e
n	b
t	te

__BEGIN__	__EPS__
w	w
i	i
l	ll

__BEGIN__	__EPS__
i	j
o	o
h	h
a	a
n	n
n	n
e	e
s	s

__BEGIN__	__EPS__
n	n
u	un

__BEGIN__	__EPS__
d	d
i	ie
t	s

__BEGIN__	__EPS__
a	a
l	l
l	l
a	e
i	i
n	n

__BEGIN__	__EPS__
p	b
i	i
s	s

__BEGIN__	__EPS__
m	me
y	i
n	n
e	e

__BEGIN__	__EPS__
g	g
o	o
t	tt

__BEGIN__	__EPS__
a	a
l	l
s	s

__BEGIN__	__EPS__
m	m
i	i
r	r

__BEGIN__	__EPS__
m	me
i	i
n	n

__BEGIN__	__EPS__
i	i
s	s
t	t

__BEGIN__	__EPS__
d	d
o	a

__BEGIN__	__EPS__
w	w
e	e
y	i
n	n
t	t
e	e

__BEGIN__	__EPS__
h	__EPS__
e	e
r	r

__BEGIN__	__EPS__
t	t
r	r
a	a
v	u
r	r
i	i
c	g
h	k
a	e
i	i
t	t

__BEGIN__	__EPS__
d	d
a	a
s	s

__BEGIN__	__EPS__
h	h
e	ä
t	t
t	t
e	e

__BEGIN__	__EPS__
y	ih
n	n

__BEGIN__	__EPS__
e	e
s	s

__BEGIN__	__EPS__
w	w
o	ol
l	l
t	t
e	e

__BEGIN__	__EPS__
d	d
o	a

__BEGIN__	__EPS__
c	z
z	e
u	r
s	s
t	t
o	ö
r	r
t	t
e	e

__BEGIN__	__EPS__
c	k
r	re
u	u
t	__EPS__
z	z

__BEGIN__	__EPS__
s	s
p	p
r	r
e	e
c	c
h	h
e	e
n	n

__BEGIN__	__EPS__
s	s
y	ie

__BEGIN__	__EPS__
m	me
y	i
n	n
e	e
n	n

__BEGIN__	__EPS__
p	p
i	e
j	i
n	n

__BEGIN__	__EPS__
d	d
a	as
s	s

__BEGIN__	__EPS__
i	ih
r	r

__BEGIN__	__EPS__
t	t
o	o
d	d
e	e
s	s

__BEGIN__	__EPS__
s	s
i	ie

__BEGIN__	__EPS__
w	w
i	i
r	r

__BEGIN__	__EPS__
v	u
n	n
d	d

__BEGIN__	__EPS__
g	g
e	e
w	w
a	a
l	l
t	t

__BEGIN__	__EPS__
v	u
n	n
d	d

__BEGIN__	__EPS__
w	w
a	a
s	r

__BEGIN__	__EPS__
d	d
e	e
n	n

__BEGIN__	__EPS__
f	f
r	re
v	u
n	n
t	de

__BEGIN__	__EPS__
h	h
e	e
r	r
e	r

__BEGIN__	__EPS__
g	g
e	e
w	w
a	e
i	i
n	n
t	t

__BEGIN__	__EPS__
m	m
u	u
t	t
t	t
e	e
r	r

__BEGIN__	__EPS__
v	u
n	n
d	d

__BEGIN__	__EPS__
g	g
r	r
o	o
s	s
s	s

__BEGIN__	__EPS__
a	a
u	u
f	f

__BEGIN__	__EPS__
w	w
a	e
n	m

__BEGIN__	__EPS__
g	__EPS__
e	__EPS__
s	s
e	e
h	h
e	e

__BEGIN__	__EPS__
t	t
a	a
g	g

__BEGIN__	__EPS__
t	t
v	u
t	t

__BEGIN__	__EPS__
k	k
u	ö
n	n
i	i
g	g

__BEGIN__	__EPS__
v	v
o	o
l	l
c	k
h	__EPS__

__BEGIN__	__EPS__
m	m
i	i
t	t

__BEGIN__	__EPS__
s	s
t	t
a	ad
t	t

__BEGIN__	__EPS__
d	d
o	a

__BEGIN__	__EPS__
p	p
y	i
l	l
a	a
t	t
u	u
s	s

__BEGIN__	__EPS__
z	z
c	__EPS__
u	u

__BEGIN__	__EPS__
e	e
z	s

__BEGIN__	__EPS__
g	g
o	o
t	tt
h	h
a	e
i	i
t	t

__BEGIN__	__EPS__
a	e
i	i
n	n

__BEGIN__	__EPS__
h	h
i	i
e	e
s	ss

__BEGIN__	__EPS__
l	l
e	e
d	d
i	i
g	g
t	t

__BEGIN__	__EPS__
z	z
e	e
r	r
b	b
r	r
e	e
c	c
h	h
e	e
n	n

__BEGIN__	__EPS__
p	p
y	i
l	l
a	a
t	t
u	u
s	s

__BEGIN__	__EPS__
m	m
a	a
c	g
h	__EPS__

__BEGIN__	__EPS__
v	ü
b	b
e	__EPS__
l	le
s	s

__BEGIN__	__EPS__
v	v
e	e
r	r
g	g
a	a
s	s
s	s

__BEGIN__	__EPS__
w	w
a	a
z	r

__BEGIN__	__EPS__
i	i
c	c
h	h

__BEGIN__	__EPS__
m	m
i	i
t	t

__BEGIN__	__EPS__
i	i
c	c
h	h

__BEGIN__	__EPS__
d	d
u	u

__BEGIN__	d
u	u

__BEGIN__	__EPS__
v	u
n	n
d	d

__BEGIN__	__EPS__
k	k
i	i
n	n
t	d

__BEGIN__	__EPS__
r	r
a	a
u	__EPS__
t	te

__BEGIN__	__EPS__
h	h
a	a
b	b
e	e
n	n

__BEGIN__	__EPS__
w	w
o	o
r	r
t	t

__BEGIN__	__EPS__
s	s
p	p
r	r
a	a
c	c
h	h
e	e
n	n

__BEGIN__	__EPS__
i	j
o	u
e	__EPS__
d	d
e	e
n	n

__BEGIN__	__EPS__
s	s
e	e
y	i
n	n
e	e

__BEGIN__	__EPS__
h	h
o	ü
e	__EPS__
d	t
e	e

__BEGIN__	__EPS__
d	d
i	i
e	e

__BEGIN__	__EPS__
d	d
e	e
r	r

__BEGIN__	__EPS__
k	k
u	ö
n	n
i	i
g	g

__BEGIN__	__EPS__
h	h
a	a
b	b
e	e
n	n

__BEGIN__	__EPS__
i	i
c	c
h	h

__BEGIN__	__EPS__
d	d
o	a

__BEGIN__	__EPS__
k	k
l	l
a	ä
e	__EPS__
g	g
l	l
i	i
c	c
h	h

__BEGIN__	__EPS__
i	j
a	a
m	mm
e	e
r	r

__BEGIN__	__EPS__
d	d
o	o
c	c
h	h

__BEGIN__	__EPS__
m	m
e	e
i	i
n	n
e	e
r	r

__BEGIN__	__EPS__
s	s
c	c
h	h
m	m
e	e
r	r
t	__EPS__
z	z
e	e
n	n

__BEGIN__	__EPS__
v	u
n	n
d	d

__BEGIN__	__EPS__
s	s
o	o

__BEGIN__	__EPS__
v	v
o	on

__BEGIN__	__EPS__
h	h
o	ö
e	__EPS__
r	re

__BEGIN__	__EPS__
d	d
e	e
y	i
m	n
e	em

__BEGIN__	__EPS__
h	h
o	ö
e	__EPS__
r	re

__BEGIN__	__EPS__
d	d
a	ahi
r	n

__BEGIN__	__EPS__
v	u
n	n
d	d

__BEGIN__	n
e	ich
n	t

__BEGIN__	__EPS__
s	s
i	i
c	c
h	h

__BEGIN__	__EPS__
s	s
p	p
o	o
t	tt

__BEGIN__	__EPS__
i	j
h	__EPS__
e	e
s	s
u	u
s	s

__BEGIN__	__EPS__
w	w
e	ä
r	re

__BEGIN__	__EPS__
d	d
e	e
s	s

__BEGIN__	__EPS__
l	l
a	a
n	n
g	g
k	__EPS__

__BEGIN__	__EPS__
h	h
o	a
t	t
t	t
e	e

__BEGIN__	__EPS__
g	g
r	r
o	o
z	ss
e	e
m	m

__BEGIN__	__EPS__
m	m
i	i
c	c
h	h

__BEGIN__	__EPS__
s	s
p	p
r	r
a	a
c	c
h	h

__BEGIN__	__EPS__
h	h
o	o
c	c
h	h
z	z
e	e
i	i
t	t

__BEGIN__	__EPS__
m	m
e	e
i	i
n	n

__BEGIN__	__EPS__
d	d
e	e
r	r

__BEGIN__	__EPS__
a	oh
n	n
e	e

__BEGIN__	__EPS__
v	__EPS__
e	__EPS__
r	__EPS__
g	g
e	e
c	s
h	a
e	g
n	t

__BEGIN__	__EPS__
a	a
r	r
m	m
e	e

__BEGIN__	__EPS__
b	bi
e	t
t	t
e	e

__BEGIN__	__EPS__
d	d
o	a

__BEGIN__	__EPS__
m	m
a	a
n	n

__BEGIN__	__EPS__
d	d
r	r
e	e
y	i
e	e
r	r
h	l
a	e
n	i
d	__EPS__

__BEGIN__	__EPS__
e	e
i	i
n	n

__BEGIN__	__EPS__
d	d
a	a

__BEGIN__	__EPS__
d	d
o	a

__BEGIN__	__EPS__
b	b
u	r
r	u
s	s
t	t

__BEGIN__	__EPS__
s	s
p	p
r	r
a	a
c	c
h	h

__BEGIN__	__EPS__
k	k
i	i
n	n
t	d

__BEGIN__	__EPS__
d	d
o	a

__BEGIN__	__EPS__
m	m
e	e
n	n
t	__EPS__
s	s
c	c
h	h
e	e
n	n

__BEGIN__	__EPS__
m	m
a	a
g	g

__BEGIN__	__EPS__
d	d
a	a

__BEGIN__	__EPS__
p	p
e	e
t	t
e	r
r	us

__BEGIN__	__EPS__
s	s
o	o

__BEGIN__	__EPS__
w	w
a	a
n	n
n	n

__BEGIN__	__EPS__
i	ih
m	m

__BEGIN__	__EPS__
c	k
l	l
a	a
g	g
t	t
e	e
n	n

__BEGIN__	__EPS__
e	e
r	r

__BEGIN__	__EPS__
d	d
a	a

__BEGIN__	__EPS__
n	n
i	i
m	m
p	m
t	t

__BEGIN__	__EPS__
v	v
i	i
e	e
l	l

__BEGIN__	__EPS__
c	k
l	l
o	a
f	f
t	t
e	e
r	r
n	n

__BEGIN__	__EPS__
n	n
y	i
e	e

__BEGIN__	__EPS__
v	u
n	n
d	d

__BEGIN__	__EPS__
g	__EPS__
e	__EPS__
z	z
e	e
w	u
g	g
e	e
n	n

__BEGIN__	__EPS__
k	k
e	e
i	i
n	n
e	e
n	n

__BEGIN__	__EPS__
s	s
t	t
u	a
n	n
t	d

__BEGIN__	__EPS__
e	e
s	s

__BEGIN__	__EPS__
s	s
i	ie

__BEGIN__	__EPS__
a	a
l	l
l	l
e	e

__BEGIN__	__EPS__
k	k
r	r
o	o
n	ne

__BEGIN__	__EPS__
i	i
n	n

__BEGIN__	__EPS__
a	a
l	l
s	s

__BEGIN__	__EPS__
s	s
i	i
n	n
t	d

__BEGIN__	__EPS__
o	au
p	f
g	g
h	__EPS__
e	e
h	h
e	o
u	b
e	e
n	n

__BEGIN__	__EPS__
w	w
i	i
d	d
e	e
r	r

__BEGIN__	__EPS__
s	s
o	o

__BEGIN__	__EPS__
m	me
y	i
n	n

__BEGIN__	__EPS__
v	u
n	n
d	d

__BEGIN__	__EPS__
s	se
i	i
n	n

__BEGIN__	__EPS__
d	t
o	o
n	n

__BEGIN__	__EPS__
m	m
i	i
r	r

__BEGIN__	__EPS__
u	ü
b	b
e	e
r	r

__BEGIN__	__EPS__
t	t
y	e
e	u
f	f
i	el

__BEGIN__	__EPS__
v	u
n	n
n	d

__BEGIN__	__EPS__
d	d
a	a
s	s
z	s

__BEGIN__	__EPS__
d	d
e	e
m	m

__BEGIN__	__EPS__
v	f
a	a
l	l
s	sc
h	h
e	e
r	__EPS__

__BEGIN__	__EPS__
e	i
m	h
e	m

__BEGIN__	__EPS__
d	d
a	a
s	s

__BEGIN__	__EPS__
v	v
e	e
r	r
w	w
u	u
n	nde
t	t
e	e
n	n

__BEGIN__	__EPS__
g	g
h	__EPS__
e	e
h	h
a	a
d	b
t	t

__BEGIN__	__EPS__
d	d
i	i
e	e

__BEGIN__	__EPS__
e	nich
n	t

__BEGIN__	__EPS__
v	f
r	r
e	a
g	g
e	__EPS__
t	t
e	e

__BEGIN__	__EPS__
d	d
e	e
r	r

__BEGIN__	__EPS__
m	m
i	i
c	c
h	h

__BEGIN__	__EPS__
d	d
e	e
n	n

__BEGIN__	__EPS__
v	u
n	n
d	d
e	__EPS__

__BEGIN__	__EPS__
e	e
z	s

__BEGIN__	__EPS__
n	n
y	ie

__BEGIN__	__EPS__
d	d
a	a
t	ss

__BEGIN__	__EPS__
m	m
a	an
n	n
i	i
g	g
u	f
a	a
l	l
t	t
i	i
g	g

__BEGIN__	__EPS__
v	v
o	o
n	n

__BEGIN__	__EPS__
h	h
a	a
b	b
e	e
n	n

__BEGIN__	__EPS__
e	e
r	r

__BEGIN__	__EPS__
s	s
i	ie

__BEGIN__	__EPS__
v	u
n	n
d	d

__BEGIN__	__EPS__
a	a
l	l
s	s

__BEGIN__	__EPS__
z	z
e	u

__BEGIN__	__EPS__
b	b
i	i
s	s
c	ch
o	o
f	f
f	__EPS__

__BEGIN__	__EPS__
d	d
a	a

__BEGIN__	__EPS__
u	u
n	n
d	d

__BEGIN__	__EPS__
m	me
i	i
n	n
e	e

__BEGIN__	__EPS__
a	a
l	l
s	s

__BEGIN__	__EPS__
d	d
i	i
e	e

__BEGIN__	__EPS__
d	d
o	a

__BEGIN__	__EPS__
d	d
i	i
r	r

__BEGIN__	__EPS__
i	i
n	n

__BEGIN__	__EPS__
v	v
a	a
d	t
e	e
r	r

__BEGIN__	__EPS__
d	d
a	a
s	ss

__BEGIN__	__EPS__
k	k
u	o
n	nn
d	t
e	e
n	n

__BEGIN__	__EPS__
s	se
i	i
n	n
e	e

__BEGIN__	__EPS__
d	d
a	a
t	s

__BEGIN__	__EPS__
v	u
n	n
n	__EPS__
d	d

__BEGIN__	__EPS__
w	w
i	i
r	r

__BEGIN__	__EPS__
m	m
e	e
i	i
n	n

__BEGIN__	__EPS__
s	s
i	i
c	c
h	h

__BEGIN__	__EPS__
l	l
i	i
e	e
s	s
z	s

__BEGIN__	__EPS__
m	m
u	u
t	t
t	t
e	e
r	r

__BEGIN__	__EPS__
f	f
r	r
a	a
w	u

__BEGIN__	__EPS__
s	se
y	i
n	n

__BEGIN__	__EPS__
w	w
a	a
n	nn

__BEGIN__	__EPS__
m	m
i	i
t	t

__BEGIN__	__EPS__
d	d
e	e
n	n

__BEGIN__	__EPS__
l	l
a	a
n	n
g	g

__BEGIN__	__EPS__
e	e
z	s

__BEGIN__	__EPS__
d	d
a	a
s	s

__BEGIN__	__EPS__
s	r
c	__EPS__
h	__EPS__
a	ä
c	u
h	b
e	e
r	r

__BEGIN__	__EPS__
m	me
i	i
n	n

__BEGIN__	__EPS__
v	f
o	ü
e	__EPS__
s	s
s	s
e	e

__BEGIN__	__EPS__
a	a
b	b
e	e
r	r

__BEGIN__	__EPS__
s	s
a	a
g	g
e	e

__BEGIN__	__EPS__
e	e
r	r

__BEGIN__	__EPS__
m	m
i	i
t	t

__BEGIN__	__EPS__
a	a
n	n
s	s
e	e
l	l
m	m
e	__EPS__

__BEGIN__	__EPS__
m	m
e	e
i	i
n	n
e	e
n	m

__BEGIN__	__EPS__
d	d
o	a

__BEGIN__	__EPS__
a	a
l	l
s	s
o	o

__BEGIN__	__EPS__
t	t
a	a
g	g
i	__EPS__
z	s

__BEGIN__	__EPS__
i	j
a	a

__BEGIN__	__EPS__
t	t
r	r
o	o
i	__EPS__
s	s
t	t

__BEGIN__	__EPS__
h	h
e	e
r	r
r	__EPS__
o	o
d	d
e	e
s	s

__BEGIN__	__EPS__
a	a
l	l
l	l
e	e
r	r

__BEGIN__	__EPS__
m	m
i	i
t	t

__BEGIN__	__EPS__
s	s
i	i
j	e

__BEGIN__	__EPS__
k	k
i	i
n	n
d	d

__BEGIN__	__EPS__
d	d
i	ie
t	s

__BEGIN__	__EPS__
l	le
i	i
b	b

__BEGIN__	__EPS__
v	u
n	n
d	d

__BEGIN__	__EPS__
j	j
o	o
h	h
a	a
n	n
n	n
e	e
s	s

__BEGIN__	__EPS__
e	e
y	i
m	n
e	em

__BEGIN__	__EPS__
u	u
m	m
b	__EPS__

__BEGIN__	__EPS__
s	s
o	o

__BEGIN__	__EPS__
v	u
n	n
d	d

__BEGIN__	__EPS__
v	f
r	r
a	a
g	g
e	e
n	n

__BEGIN__	__EPS__
s	s
t	t
y	i
m	mm
e	e
n	n

__BEGIN__	__EPS__
s	s
u	o
l	l
l	l
e	e
n	n

__BEGIN__	__EPS__
e	e
r	r

__BEGIN__	__EPS__
n	n
u	u
n	n

__BEGIN__	__EPS__
e	e
r	r

__BEGIN__	__EPS__
t	t
o	ö
t	t
e	e
n	n

__BEGIN__	__EPS__
m	m
e	e
i	i
n	n

__BEGIN__	__EPS__
a	a
l	l
s	s

__BEGIN__	__EPS__
k	k
i	i
n	n
d	d
t	__EPS__

__BEGIN__	__EPS__
z	z
w	w
e	e
n	i

__BEGIN__	__EPS__
s	se
i	i
n	n

__BEGIN__	__EPS__
e	e
r	r
d	d
e	e

__BEGIN__	__EPS__
d	d
e	e
r	r

__BEGIN__	__EPS__
s	s
o	o
e	h
n	n

__BEGIN__	__EPS__
p	p
y	i
l	l
a	a
t	t
u	u
s	s

__BEGIN__	__EPS__
d	d
i	i
e	e

__BEGIN__	__EPS__
k	k
r	r
e	e
w	u
t	__EPS__
z	z

__BEGIN__	__EPS__
p	p
r	r
i	i
e	e
s	s
t	t
e	e
r	r

__BEGIN__	__EPS__
d	d
i	i
e	e

__BEGIN__	__EPS__
a	a
n	n

__BEGIN__	__EPS__
i	ih
r	r

__BEGIN__	__EPS__
g	g
o	o
t	tt

__BEGIN__	__EPS__
i	i
n	n

__BEGIN__	__EPS__
s	s
i	i
e	e

__BEGIN__	__EPS__
e	e
r	r

__BEGIN__	__EPS__
g	g
i	i
e	__EPS__
n	n
g	g

__BEGIN__	__EPS__
s	se
i	i
n	n

__BEGIN__	__EPS__
h	h
e	e
r	rr

__BEGIN__	__EPS__
d	d
e	e
m	m

__BEGIN__	__EPS__
s	s
p	p
r	r
a	a
c	c
h	h

__BEGIN__	__EPS__
c	__EPS__
h	k
l	l
a	a
g	g
e	e
t	t

__BEGIN__	__EPS__
m	m
e	e
n	n
s	s
c	c
h	h
l	l
e	__EPS__
i	i
c	c
h	h

__BEGIN__	__EPS__
g	g
o	o
d	tte
s	s
s	s
o	o
n	h
e	n

__BEGIN__	__EPS__
d	d
o	a

__BEGIN__	__EPS__
t	t
h	__EPS__
u	u
o	__EPS__
n	n
d	__EPS__

__BEGIN__	__EPS__
v	v
i	ie
l	l

__BEGIN__	__EPS__
s	s
i	e
t	i
t	t
e	e
n	n

__BEGIN__	__EPS__
s	s
u	oh
n	n

__BEGIN__	__EPS__
s	s
u	oh
n	n

__BEGIN__	__EPS__
e	e
r	r

__BEGIN__	__EPS__
d	d
v	u
r	rch

__BEGIN__	__EPS__
i	i
n	n

__BEGIN__	__EPS__
w	w
o	o
r	r
d	d
e	e
n	n

__BEGIN__	__EPS__
h	h
a	a
w	u
s	s

__BEGIN__	__EPS__
w	w
u	u
r	r
d	d
e	e
n	n

__BEGIN__	__EPS__
z	z
u	u
s	s
a	a
m	mm
e	e
n	n

__BEGIN__	__EPS__
m	m
e	e
i	i
n	n

__BEGIN__	__EPS__
f	f
r	r
o	a
w	u
e	e
n	n
e	__EPS__
n	__EPS__

__BEGIN__	__EPS__
o	oh
n	ne

__BEGIN__	__EPS__
v	v
a	o
n	n

__BEGIN__	__EPS__
e	e
r	r
s	sch
l	l
a	a
g	g
e	e
n	n

__BEGIN__	__EPS__
g	g
o	o
t	tt
e	e
s	s

__BEGIN__	__EPS__
e	ehe

__BEGIN__	__EPS__
s	s
a	a
c	__EPS__
h	h

__BEGIN__	__EPS__
m	l
y	i
n	__EPS__
i	e
g	b
l	l
i	i
c	c
h	h
e	e
s	s

__BEGIN__	__EPS__
c	__EPS__
h	k
r	r
e	e
w	u
c	__EPS__
z	z
t	t
e	e
n	n

__BEGIN__	__EPS__
d	d
e	e
n	n

__BEGIN__	__EPS__
t	t
e	e
m	m
p	p
e	e
l	l

__BEGIN__	__EPS__
s	s
i	i
e	e

__BEGIN__	__EPS__
d	d
y	ie

__BEGIN__	__EPS__
d	d
u	u

__BEGIN__	__EPS__
c	c
e	e
t	t
e	e
r	r
a	a

__BEGIN__	__EPS__
w	w
o	oh
l	l

__BEGIN__	__EPS__
s	s
t	t
v	__EPS__
o	a
n	n
d	d
e	e
n	n

__BEGIN__	__EPS__
s	s
a	a
g	g
e	e

__BEGIN__	__EPS__
d	d
e	e
m	m

__BEGIN__	__EPS__
d	d
e	e
r	r

__BEGIN__	__EPS__
h	h
i	ie
l	l
d	t
e	e
n	n

__BEGIN__	__EPS__
m	m
i	i
c	c
h	h

__BEGIN__	__EPS__
g	g
e	e
s	s
a	a
g	g
e	__EPS__
t	t

__BEGIN__	__EPS__
m	q
ü	u
e	äl
t	te

__BEGIN__	__EPS__
a	a
l	l
l	l
e	e

__BEGIN__	__EPS__
t	t
a	a
g	g

__BEGIN__	__EPS__
d	d
e	e
r	r

__BEGIN__	__EPS__
a	a
n	n

__BEGIN__	__EPS__
d	d
e	e
m	m

__BEGIN__	__EPS__
s	s
o	o
e	__EPS__

__BEGIN__	__EPS__
l	l
a	a
u	u
t	t
e	e
r	r

__BEGIN__	__EPS__
n	n
i	i
c	c
h	h
t	t

__BEGIN__	__EPS__
v	v
a	a
t	t
e	e
r	r

__BEGIN__	__EPS__
i	i
c	c
h	h

__BEGIN__	__EPS__
d	d
y	u

__BEGIN__	__EPS__
d	d
i	i
e	e

__BEGIN__	__EPS__
y	ih
m	m

__BEGIN__	__EPS__
e	__EPS__
n	__EPS__
k	k
e	e
i	i
n	n
e	e
r	m

__BEGIN__	__EPS__
i	i
s	st

__BEGIN__	__EPS__
m	m
i	i
r	r

__BEGIN__	__EPS__
d	d
e	e
r	r

__BEGIN__	__EPS__
b	be
y	i

__BEGIN__	__EPS__
d	d
o	a

__BEGIN__	__EPS__
g	g
e	e
m	m
a	a
c	c
h	ht

__BEGIN__	__EPS__
s	s
p	p
r	r
a	a
c	c
h	h

__BEGIN__	__EPS__
w	w
a	a
r	re
n	n

__BEGIN__	__EPS__
g	g
e	e
s	s
a	a
g	g
t	t

__BEGIN__	__EPS__
n	n
o	ö
e	__EPS__
t	t
e	e
n	n

__BEGIN__	__EPS__
v	v
o	o
n	n

__BEGIN__	__EPS__
a	a
l	l
s	s

__BEGIN__	__EPS__
w	w
e	ei
s	ss
t	t

__BEGIN__	__EPS__
a	a
n	n

__BEGIN__	__EPS__
v	b
u	e
r	__EPS__
s	s
p	p
e	u
i	c
g	k
e	e
n	n

__BEGIN__	__EPS__
d	d
o	a

__BEGIN__	__EPS__
i	i
c	c
h	h

__BEGIN__	__EPS__
v	u
n	n
d	d

__BEGIN__	__EPS__
h	h
o	ö
i	__EPS__
r	r
t	t

__BEGIN__	__EPS__
v	u
n	n
d	d

__BEGIN__	__EPS__
d	d
a	as
s	s

__BEGIN__	__EPS__
a	a
n	n
s	s
h	__EPS__
e	e
l	l
m	m

__BEGIN__	__EPS__
v	u
n	n
d	d

__BEGIN__	__EPS__
i	ih
m	m

__BEGIN__	__EPS__
n	n
i	ich
t	t

__BEGIN__	__EPS__
e	e
i	i
n	n

__BEGIN__	__EPS__
s	s
e	e
i	i
n	n
e	e
r	r

__BEGIN__	__EPS__
v	u
n	n
d	d

__BEGIN__	__EPS__
a	a
l	l
s	s

__BEGIN__	__EPS__
d	d
i	i
e	e

__BEGIN__	__EPS__
v	b
n	i
t	__EPS__
z	s

__BEGIN__	__EPS__
d	d
e	e
r	r

__BEGIN__	n
e	ich
n	t

__BEGIN__	__EPS__
n	n
i	i
c	c
h	h
t	t

__BEGIN__	__EPS__
v	u
n	n
d	d

__BEGIN__	__EPS__
s	sch
l	l
a	a
f	f
f	__EPS__
e	e
n	n
d	d
e	__EPS__

__BEGIN__	__EPS__
d	d
o	a

__BEGIN__	__EPS__
e	e
r	r

__BEGIN__	__EPS__
d	d
a	a

__BEGIN__	__EPS__
w	w
a	a
s	r

__BEGIN__	__EPS__
i	i
u	u
g	g
u	u
n	m

__BEGIN__	__EPS__
s	s
e	e
i	i
n	n

__BEGIN__	__EPS__
b	be
y	i

__BEGIN__	__EPS__
m	me
i	i
n	n

__BEGIN__	__EPS__
g	g
e	e
v	f
r	r
a	a
g	g
e	__EPS__
t	t

__BEGIN__	__EPS__
g	g
e	e
s	s
c	c
h	h
r	r
i	i
e	e
b	b
e	e
n	n

__BEGIN__	__EPS__
i	e
d	__EPS__
t	s

__BEGIN__	__EPS__
a	a
n	n

__BEGIN__	__EPS__
y	je

__BEGIN__	__EPS__
w	w
o	oh
l	l

__BEGIN__	__EPS__
i	i
n	n

__BEGIN__	__EPS__
r	r
e	e
c	c
h	h
t	t
e	e
n	n

__BEGIN__	__EPS__
v	v
e	e
r	r
l	l
o	o
r	r
e	e
n	n

__BEGIN__	__EPS__
d	d
a	a
r	r
ü	a
s	u
z	s

__BEGIN__	__EPS__
w	w
y	i
r	r

__BEGIN__	__EPS__
v	v
o	o
e	__EPS__
r	r

__BEGIN__	__EPS__
d	t
r	r
i	i
n	n
c	__EPS__
k	ke

__BEGIN__	__EPS__
v	u
n	n
d	d

__BEGIN__	__EPS__
s	s
o	o

__BEGIN__	__EPS__
s	s
t	t
a	eh
t	t

__BEGIN__	__EPS__
h	h
o	a
t	t
t	t
e	e

__BEGIN__	__EPS__
h	h
a	a
d	t
d	t
e	e

__BEGIN__	__EPS__
s	s
a	a
g	g
t	t

__BEGIN__	__EPS__
g	__EPS__
e	__EPS__
k	k
r	re
u	u
c	__EPS__
z	z
i	i
g	g
t	t
e	e
n	n

__BEGIN__	__EPS__
d	d
a	a
s	ss

__BEGIN__	__EPS__
e	e
i	i
n	n

__BEGIN__	__EPS__
a	a
l	l
s	s

__BEGIN__	__EPS__
e	e
r	r

__BEGIN__	__EPS__
n	n
o	o
t	t

__BEGIN__	__EPS__
g	g
r	r
o	o
s	s
s	s
e	e
r	r

__BEGIN__	__EPS__
v	u
n	n
s	s
a	ä
g	g
e	__EPS__
l	l
i	i
c	c
h	h
e	e
r	r

__BEGIN__	__EPS__
a	a
n	n

__BEGIN__	__EPS__
d	de
i	i
n	n

__BEGIN__	__EPS__
w	w
e	e
r	r

__BEGIN__	__EPS__
a	a
l	l
s	s
o	o

__BEGIN__	__EPS__
d	d
i	i
e	e

__BEGIN__	__EPS__
u	v
i	ie
l	l

__BEGIN__	__EPS__
v	u
n	n
d	d

__BEGIN__	__EPS__
e	e
r	r

__BEGIN__	__EPS__
d	verr
o	ü
l	c
l	kt

__BEGIN__	__EPS__
m	m
o	o
c	c
h	h
t	te

__BEGIN__	__EPS__
z	z
ü	u

__BEGIN__	__EPS__
y	ih
m	m

__BEGIN__	__EPS__
d	d
i	i
e	e

__BEGIN__	__EPS__
a	a
n	n

__BEGIN__	__EPS__
v	v
o	e
r	r
l	l
a	a
s	s
s	s
e	e
n	n

__BEGIN__	__EPS__
g	g
r	r
o	o
s	s
z	s

__BEGIN__	__EPS__
e	e
r	r

__BEGIN__	__EPS__
m	m
i	i
c	c
h	h

__BEGIN__	__EPS__
w	w
a	a
r	r
t	d

__BEGIN__	__EPS__
v	v
o	o
n	n

__BEGIN__	__EPS__
a	a
l	l
l	l
e	e

__BEGIN__	__EPS__
m	m
e	e
i	i
s	s
t	t
e	e
r	r

__BEGIN__	__EPS__
s	s
a	a
h	h
e	e
n	n

__BEGIN__	__EPS__
d	d
a	a
s	s

__BEGIN__	__EPS__
d	d
r	r
e	e
i	i
e	__EPS__
n	__EPS__

__BEGIN__	__EPS__
k	k
i	i
n	n
t	d

__BEGIN__	__EPS__
g	g
e	e
n	n
e	e
s	s
e	e
n	n

__BEGIN__	__EPS__
i	i
c	c
h	h

__BEGIN__	__EPS__
m	me
i	i
n	n

__BEGIN__	__EPS__
l	l
e	e
i	i
b	b

__BEGIN__	__EPS__
v	v
i	ie
l	l

__BEGIN__	__EPS__
s	s
o	o
l	ll

__BEGIN__	__EPS__
d	d
a	as
z	s

__BEGIN__	__EPS__
e	e
y	i
n	n

__BEGIN__	__EPS__
v	v
o	o
l	l
l	l
i	k
g	__EPS__
k	o
l	m
i	m
c	e
h	n

__BEGIN__	__EPS__
w	w
i	i
e	e

__BEGIN__	__EPS__
d	d
o	a

__BEGIN__	__EPS__
d	d
e	e
i	i
n	n

__BEGIN__	__EPS__
l	l
a	a
n	n
g	g

__BEGIN__	__EPS__
i	i
c	c
h	h

__BEGIN__	__EPS__
v	u
n	n
d	d

__BEGIN__	__EPS__
m	m
i	i
c	c
h	h

__BEGIN__	__EPS__
w	w
i	i
r	r
t	d

__BEGIN__	__EPS__
h	h
e	a
t	t
t	te

__BEGIN__	__EPS__
f	f
r	r
a	a
w	u
o	__EPS__

__BEGIN__	__EPS__
k	k
o	a
f	u
f	f

__BEGIN__	__EPS__
s	s
i	e
j	i
n	n
e	e

__BEGIN__	__EPS__
a	a
l	l
l	l

__BEGIN__	__EPS__
p	b
e	e
i	__EPS__
t	ten

__BEGIN__	__EPS__
g	g
e	e
m	m
a	a
c	c
h	h
t	t

__BEGIN__	__EPS__
a	a
l	l
l	l
e	e
n	n

__BEGIN__	__EPS__
g	__EPS__
e	__EPS__
h	h
e	e
l	l
f	f
e	e
n	n
n	__EPS__

__BEGIN__	__EPS__
i	i
s	s
t	t

__BEGIN__	__EPS__
s	s
a	a
g	ge

__BEGIN__	__EPS__
s	s
p	p
r	r
e	e
c	c
h	h
e	e
n	n
d	d
e	__EPS__

__BEGIN__	__EPS__
m	m
e	e
i	i
n	n

__BEGIN__	__EPS__
c	__EPS__
z	z
ü	u

__BEGIN__	__EPS__
b	b
l	l
u	u
o	__EPS__
t	t

__BEGIN__	__EPS__
i	j
h	e
-	s
u	u

__BEGIN__	__EPS__
t	t
o	o
d	d
e	e
s	s

__BEGIN__	__EPS__
g	g
e	e
s	s
p	p
r	r
o	o
c	c
h	h
e	e
n	n

__BEGIN__	__EPS__
v	v
i	i
l	e
l	l

__BEGIN__	__EPS__
b	b
e	e
t	t
t	__EPS__
i	e
t	t

__BEGIN__	__EPS__
s	s
o	o
l	ll

__BEGIN__	__EPS__
m	m
a	a
r	r
i	i
a	a

__BEGIN__	__EPS__
e	e
y	i
n	n

__BEGIN__	__EPS__
v	ü
e	__EPS__
b	b
e	e
r	r

__BEGIN__	__EPS__
t	t
e	a
t	t
e	e
n	n

__BEGIN__	__EPS__
k	k
n	n
e	e
c	c
h	h
t	t

__BEGIN__	__EPS__
d	d
i	i
c	c
h	h

__BEGIN__	__EPS__
d	d
o	a

__BEGIN__	__EPS__
i	j
h	__EPS__
e	e
s	s
u	u
s	s

__BEGIN__	__EPS__
c	__EPS__
z	z
u	u

__BEGIN__	__EPS__
w	w
v	u
n	n
d	d
e	e
n	n

__BEGIN__	__EPS__
e	e
y	i
n	n

__BEGIN__	__EPS__
g	g
i	i
b	b

__BEGIN__	__EPS__
v	u
n	n
d	d

__BEGIN__	__EPS__
m	m
e	e
r	r
k	k
e	e
n	n

__BEGIN__	__EPS__
c	c
z	__EPS__
e	e
n	n
t	t
t	__EPS__
u	u
r	r
i	i
o	o
s	__EPS__

__BEGIN__	__EPS__
d	d
a	a
t	s
t	s

__BEGIN__	__EPS__
t	t
o	o
t	t

__BEGIN__	__EPS__
v	u
n	n
d	d

__BEGIN__	__EPS__
v	u
n	n
d	d

__BEGIN__	__EPS__
w	w
a	a
s	r

__BEGIN__	__EPS__
i	j
u	u
d	d
e	e
n	n

__BEGIN__	__EPS__
w	w
e	eh

__BEGIN__	__EPS__
a	a
n	n
s	s
e	e
l	l
m	m

__BEGIN__	__EPS__
m	m
i	i
c	c
h	h

__BEGIN__	__EPS__
z	zus
e	a
m	mmen

__BEGIN__	__EPS__
m	m
i	i
t	t

__BEGIN__	__EPS__
c	k
h	__EPS__
i	i
n	n
d	d
e	e
r	r

__BEGIN__	__EPS__
h	e
e	r

__BEGIN__	__EPS__
a	e
i	i
n	n

__BEGIN__	__EPS__
d	d
y	ie

__BEGIN__	__EPS__
s	s
i	i
c	t
z	z
e	en
t	d

__BEGIN__	__EPS__
n	n
i	i
c	c
h	h
t	t

__BEGIN__	__EPS__
g	g
i	i
e	__EPS__
n	n
g	g

__BEGIN__	__EPS__
w	w
u	u
r	r
d	d
e	e
n	n

__BEGIN__	__EPS__
m	m
e	e
i	i
n	n

__BEGIN__	__EPS__
i	i
s	s
t	t

__BEGIN__	__EPS__
d	d
a	as
z	s

__BEGIN__	__EPS__
m	m
e	ehr

__BEGIN__	__EPS__
s	s
i	i
e	e

__BEGIN__	__EPS__
w	w
e	e
y	i
n	n
e	__EPS__
t	t

__BEGIN__	__EPS__
h	h
e	e
l	l
y	i
a	a
m	m

__BEGIN__	__EPS__
y	ih
n	n

__BEGIN__	__EPS__
g	g
e	e
b	be

__BEGIN__	__EPS__
k	k
u	o
n	nn
d	t
e	e

__BEGIN__	__EPS__
i	ih
n	n

__BEGIN__	__EPS__
l	l
y	ie
b	b
e	e
n	n

__BEGIN__	__EPS__
n	n
a	a
c	c
h	h

__BEGIN__	__EPS__
f	f
r	re
u	u
n	n
t	d
l	l
i	i
c	c
h	h
e	e
n	n

__BEGIN__	__EPS__
m	m
ü	ö
g	g
e	e
n	n

__BEGIN__	__EPS__
h	h
e	e
r	r
t	__EPS__
z	z
e	e
n	n

__BEGIN__	__EPS__
m	m
u	o
c	c
h	h
t	t
e	e

__BEGIN__	__EPS__
m	me
i	i
n	n

__BEGIN__	__EPS__
s	s
p	p
r	r
i	i
c	c
h	h
e	__EPS__
s	s
t	t

__BEGIN__	__EPS__
l	l
a	a
s	s
s	s
e	e
n	n
n	__EPS__

__BEGIN__	__EPS__
n	n
u	un

__BEGIN__	__EPS__
d	d
o	a

__BEGIN__	__EPS__
o	a
v	u
c	c
h	h

__BEGIN__	__EPS__
i	ih
m	m

__BEGIN__	__EPS__
d	d
e	e
n	n

__BEGIN__	__EPS__
o	o
n	nt
d	d
a	o
e	e
n	n

__BEGIN__	__EPS__
h	h
a	a
b	be

__BEGIN__	__EPS__
h	h
e	e
r	r
z	z
e	e
n	n

__BEGIN__	__EPS__
z	z
w	u

__BEGIN__	__EPS__
m	m
o	o
i	__EPS__
c	c
h	h
t	t
e	e

__BEGIN__	__EPS__
v	u
n	n
d	d

__BEGIN__	__EPS__
d	d
i	i
e	e

__BEGIN__	__EPS__
d	d
a	a
r	__EPS__
n	n
a	a
c	c
h	h

__BEGIN__	__EPS__
m	m
i	i
c	c
h	h

__BEGIN__	__EPS__
o	o
s	s
t	t
e	e
r	r
t	t
a	a
g	g

__BEGIN__	__EPS__
e	e
r	r
s	s
c	c
h	h
u	ü
t	t
t	tert

__BEGIN__	__EPS__
m	m
e	e
i	i
n	n
e	e
r	r

__BEGIN__	__EPS__
h	h
u	u
n	n
d	d

__BEGIN__	__EPS__
b	b
e	e
t	t
r	r
u	ü
b	b
t	__EPS__
n	n
u	i
s	s
z	__EPS__

__BEGIN__	__EPS__
o	o
w	w
e	eh

__BEGIN__	__EPS__
m	me
i	i
n	n

__BEGIN__	__EPS__
d	d
e	e
n	n

__BEGIN__	__EPS__
v	u
n	n
d	d

__BEGIN__	__EPS__
w	w
a	a
r	r
t	d

__BEGIN__	__EPS__
g	g
l	l
a	a
u	u
b	b

__BEGIN__	__EPS__
o	oh

__BEGIN__	__EPS__
b	b
e	e
y	i

__BEGIN__	__EPS__
f	f
r	r
o	a
w	u

__BEGIN__	__EPS__
w	we
y	i
b	b

__BEGIN__	__EPS__
c	k
h	__EPS__
o	o
e	m
m	m
e	e
n	n

__BEGIN__	__EPS__
d	d
i	i
e	e

__BEGIN__	__EPS__
f	ü
r	b
a	e
y	__EPS__
d	r
i	__EPS__
c	__EPS__
h	__EPS__
a	m
y	u
t	t

__BEGIN__	__EPS__
g	g
r	r
e	ä
b	b
e	e
r	r

__BEGIN__	__EPS__
h	e
i	r

__BEGIN__	t
z	r
a	ä
h	n
e	e
r	__EPS__
r	__EPS__
n	n

__BEGIN__	__EPS__
i	i
c	c
h	h

__BEGIN__	__EPS__
s	s
o	o
l	ll
d	t
e	e

__BEGIN__	__EPS__
k	k
u	a
m	m
e	e
n	n

__BEGIN__	__EPS__
d	d
i	e
e	i
n	n
e	e
n	m

__BEGIN__	__EPS__
e	e
r	r

__BEGIN__	h
i	ie
r	r

__BEGIN__	__EPS__
a	a
r	r
m	m
e	e

__BEGIN__	__EPS__
g	g
e	e
r	r
n	n

__BEGIN__	__EPS__
d	d
a	a

__BEGIN__	__EPS__
i	i
c	c
h	h

__BEGIN__	__EPS__
v	u
n	n
d	d

__BEGIN__	__EPS__
w	w
a	a
s	r

__BEGIN__	__EPS__
h	h
a	a
n	n
t	d

__BEGIN__	__EPS__
i	i
n	n

__BEGIN__	__EPS__
r	r
e	e
u	u

__BEGIN__	__EPS__
k	k
l	l
a	a
g	ge

__BEGIN__	__EPS__
m	m
e	e
n	n
s	sc
h	h
e	e
n	n

__BEGIN__	__EPS__
v	u
n	n
d	d

__BEGIN__	__EPS__
v	u
n	n
n	d

__BEGIN__	__EPS__
d	d
y	i
r	r

__BEGIN__	__EPS__
d	d
e	e
r	r

__BEGIN__	__EPS__
w	w
a	a
r	re
n	n

__BEGIN__	__EPS__
g	g
e	e
l	l
o	a
u	u
f	f
f	__EPS__
e	e
n	n

__BEGIN__	__EPS__
b	b
e	e
d	d
a	e
c	c
k	k
t	t

__BEGIN__	__EPS__
f	f
u	üh
r	r
t	t
e	e
n	n

__BEGIN__	__EPS__
v	f
i	e
e	i
n	n
t	d

__BEGIN__	__EPS__
g	g
e	e
v	f
o	ü
i	g
t	t

__BEGIN__	__EPS__
w	w
a	a
t	s

__BEGIN__	__EPS__
l	l
u	u
e	__EPS__
f	f
t	t

__BEGIN__	__EPS__
p	b
l	l
u	u
t	t

__BEGIN__	__EPS__
d	d
e	e
m	m

__BEGIN__	__EPS__
i	ih
r	r

__BEGIN__	__EPS__
h	h
e	e
r	r
t	__EPS__
z	z
e	__EPS__

__BEGIN__	__EPS__
c	k
h	__EPS__
o	a
m	m

__BEGIN__	__EPS__
p	p
i	i
l	l
a	a
t	t
u	u
s	s

__BEGIN__	__EPS__
y	ih
n	n

__BEGIN__	__EPS__
d	d
a	a
r	r
e	e
i	i
n	n

__BEGIN__	__EPS__
w	w
a	a
r	r
d	d

__BEGIN__	__EPS__
s	s
o	o

__BEGIN__	__EPS__
l	l
a	a
s	s
z	s

__BEGIN__	__EPS__
n	n
a	ah
m	m
e	e
n	n

__BEGIN__	__EPS__
v	u
n	n
d	d

__BEGIN__	__EPS__
g	__EPS__
e	__EPS__
s	s
e	e
c	__EPS__
h	h
e	e
n	n

__BEGIN__	__EPS__
b	b
e	e
d	d
ä	e
c	c
h	k
t	t

__BEGIN__	__EPS__
e	i
m	h
e	m

__BEGIN__	__EPS__
e	e
i	i
u	u
s	s

__BEGIN__	__EPS__
i	j
a	a
m	mm
e	e
r	r

__BEGIN__	__EPS__
v	u
n	n
d	d

__BEGIN__	__EPS__
d	d
o	a

__BEGIN__	__EPS__
m	m
i	i
t	t

__BEGIN__	__EPS__
d	d
a	a
r	r

__BEGIN__	__EPS__
v	v
o	o
n	n

__BEGIN__	__EPS__
a	a
l	l
l	l
e	e

__BEGIN__	__EPS__
b	be
y	i

__BEGIN__	__EPS__
v	__EPS__
e	__EPS__
r	__EPS__
w	w
u	u
n	n
c	de
z	s

__BEGIN__	__EPS__
m	m
i	i
t	t

