__BEGIN__	__EPS__
e	__EPS__
n	__EPS__
h	k
e	e
i	i
n	n

__BEGIN__	__EPS__
a	a
u	u
f	f

__BEGIN__	__EPS__
d	d
e	e
s	s

__BEGIN__	__EPS__
d	d
i	i
u	e

__BEGIN__	__EPS__
t	t
o	o
r	r

__BEGIN__	__EPS__
a	a
l	l
s	s
o	o

__BEGIN__	__EPS__
d	d
a	a
s	ss

__BEGIN__	__EPS__
d	d
i	i
e	e

__BEGIN__	__EPS__
w	w
v	u
n	n
d	d
e	e
n	n

__BEGIN__	__EPS__
h	h
e	a
t	t

__BEGIN__	__EPS__
w	wi
e	e
d	d
i	e
r	r

__BEGIN__	__EPS__
m	me
y	i
n	n

__BEGIN__	__EPS__
s	s
e	ä
u	u
l	le

__BEGIN__	__EPS__
s	s
c	c
h	h
i	i
n	n
d	d
e	e
t	t

__BEGIN__	__EPS__
v	v
o	o
r	r

__BEGIN__	__EPS__
d	d
y	i
r	r

__BEGIN__	__EPS__
h	h
e	a
t	tt
e	e
n	n
d	__EPS__

__BEGIN__	__EPS__
d	d
o	a

__BEGIN__	__EPS__
c	__EPS__
h	k
l	l
a	a
g	g
t	t

__BEGIN__	__EPS__
d	d
i	ie

__BEGIN__	__EPS__
d	d
a	a
i	__EPS__
r	r
u	u
m	m
b	__EPS__

__BEGIN__	__EPS__
k	k
i	i
n	n
t	d

__BEGIN__	__EPS__
i	i
n	n

__BEGIN__	__EPS__
d	d
i	i
e	e

__BEGIN__	__EPS__
m	m
e	e
i	i
n	n
e	e
s	s

__BEGIN__	__EPS__
a	o
d	d
e	e
r	r

__BEGIN__	__EPS__
w	w
a	a
z	r

__BEGIN__	__EPS__
d	d
o	a

__BEGIN__	__EPS__
k	k
i	i
n	n
t	d

__BEGIN__	__EPS__
a	a
n	n

__BEGIN__	__EPS__
d	d
y	ie

__BEGIN__	__EPS__
w	w
a	a
r	r
f	f

__BEGIN__	__EPS__
d	d
e	e
m	m

__BEGIN__	__EPS__
d	d
o	a

__BEGIN__	__EPS__
m	m
e	eh
r	r

__BEGIN__	__EPS__
d	d
e	e
n	n

__BEGIN__	__EPS__
d	d
e	e
r	r

__BEGIN__	__EPS__
v	u
i	__EPS__
n	n
s	s

__BEGIN__	__EPS__
u	b
e	e
r	s
l	c
e	h
i	ul
d	d
e	i
n	g
t	t

__BEGIN__	__EPS__
i	i
c	c
h	h

__BEGIN__	__EPS__
z	z
u	u
o	__EPS__

__BEGIN__	__EPS__
s	s
p	p
r	r
a	a
c	c
h	h

__BEGIN__	__EPS__
a	a
l	l
z	s

__BEGIN__	__EPS__
g	g
e	e
s	s
e	e
s	s
s	s
e	e
n	n

__BEGIN__	__EPS__
i	ih
n	n

__BEGIN__	__EPS__
s	s
c	c
h	h
i	i
e	e
d	d

__BEGIN__	__EPS__
d	d
e	e
r	r

__BEGIN__	__EPS__
v	u
n	n
n	d

__BEGIN__	__EPS__
h	h
a	a
n	n
t	d

__BEGIN__	__EPS__
d	d
o	a

__BEGIN__	__EPS__
m	m
a	a
l	l
e	__EPS__
n	__EPS__

__BEGIN__	__EPS__
i	i
c	c
h	h

__BEGIN__	__EPS__
a	e
i	i
n	n
e	e
r	r

__BEGIN__	__EPS__
g	ge
o	he
n	n

__BEGIN__	__EPS__
d	d
e	eh
n	n
t	t
e	e
n	n

__BEGIN__	__EPS__
a	a
l	l
l	l

__BEGIN__	__EPS__
g	ge
r	r
i	i
c	c
h	h
t	t
e	__EPS__
s	s

__BEGIN__	__EPS__
m	m
u	u
s	ss
t	t

__BEGIN__	__EPS__
c	k
h	__EPS__
l	l
a	a
g	g
e	e

__BEGIN__	__EPS__
b	b
e	e
t	t
t	__EPS__
e	e

__BEGIN__	__EPS__
g	g
r	r
o	o
e	s
z	s

__BEGIN__	__EPS__
v	v
e	e
r	r
r	r
a	a
t	t
e	e
n	n

__BEGIN__	__EPS__
i	i
c	c
h	h

__BEGIN__	__EPS__
d	d
a	a
s	s

__BEGIN__	__EPS__
d	d
e	e
n	n

__BEGIN__	__EPS__
d	d
u	u

__BEGIN__	__EPS__
b	b
e	e
s	s
t	t
a	a
d	tt
e	e
n	n

__BEGIN__	__EPS__
d	d
a	a
r	__EPS__
n	n
a	ach

__BEGIN__	__EPS__
e	ih
n	n

__BEGIN__	__EPS__
h	h
a	e
i	i
s	ss
t	t

__BEGIN__	__EPS__
v	u
n	n
d	d

__BEGIN__	__EPS__
a	a
r	r
m	m
e	e

__BEGIN__	__EPS__
a	a
u	u
c	c
h	h

__BEGIN__	__EPS__
d	d
e	e
n	n

__BEGIN__	__EPS__
m	m
v	ö
e	__EPS__
g	g
e	e
n	n

__BEGIN__	__EPS__
h	h
e	a
t	t

__BEGIN__	__EPS__
a	a
l	l
l	l
e	e
t	s

__BEGIN__	__EPS__
y	j
e	e
c	t
z	z
u	__EPS__
n	__EPS__
t	t

__BEGIN__	__EPS__
v	v
o	o
u	__EPS__
l	l
c	__EPS__
k	k

__BEGIN__	__EPS__
g	g
e	e
l	l
e	e
i	i
t	t

__BEGIN__	__EPS__
a	a
u	u
c	c
h	h

__BEGIN__	__EPS__
g	g
a	a
b	b

__BEGIN__	__EPS__
d	d
i	i
n	n
g	g

__BEGIN__	__EPS__
e	e
m	m
p	p
h	f
a	a
n	n
g	g
e	e
n	n

__BEGIN__	__EPS__
d	d
i	i
e	e

__BEGIN__	__EPS__
d	d
e	e
m	m

__BEGIN__	__EPS__
r	r
i	i
e	e
f	f
f	__EPS__

__BEGIN__	__EPS__
e	e
t	t
w	w
a	a
s	s

__BEGIN__	__EPS__
a	a
n	n

__BEGIN__	__EPS__
b	b
e	e
w	w
a	e
i	i
n	n
t	t
e	e
n	n

__BEGIN__	__EPS__
z	z
v	u
e	__EPS__

__BEGIN__	__EPS__
d	d
e	e
n	n

__BEGIN__	__EPS__
m	m
y	i
t	t

__BEGIN__	__EPS__
i	ih
n	n

__BEGIN__	__EPS__
s	s
p	p
r	r
a	a
c	c
h	h
e	e
n	n

__BEGIN__	__EPS__
a	e
i	i
n	nem

__BEGIN__	__EPS__
g	g
e	e
g	g
e	e
u	b
e	e
n	n

__BEGIN__	__EPS__
k	k
y	i
n	n
d	d
e	e
s	s

__BEGIN__	__EPS__
a	a
l	ll
a	e
i	i
n	n

__BEGIN__	__EPS__
d	d
o	a

__BEGIN__	__EPS__
s	s
e	e
i	i
n	n
e	e
m	m

__BEGIN__	__EPS__
d	d
e	e
r	r

__BEGIN__	__EPS__
w	w
a	a
s	s

__BEGIN__	__EPS__
s	s
ü	oh
n	n

__BEGIN__	__EPS__
a	a
l	ll

__BEGIN__	__EPS__
l	l
e	e
i	i
b	b
e	e

__BEGIN__	__EPS__
d	d
i	i
e	e

__BEGIN__	__EPS__
m	me
i	i
n	n

__BEGIN__	__EPS__
n	n
i	ich
t	t

__BEGIN__	__EPS__
d	t
e	ä
d	t
e	e

__BEGIN__	__EPS__
i	e
s	s

__BEGIN__	__EPS__
m	m
e	e
i	i
n	n

__BEGIN__	__EPS__
m	m
o	u
i	s
s	s
t	t

__BEGIN__	__EPS__
v	v
o	o
r	r

__BEGIN__	__EPS__
l	l
i	i
e	e
s	s
s	s
e	e
n	n

__BEGIN__	__EPS__
m	m
i	i
c	c
h	h

__BEGIN__	__EPS__
w	wu
n	n
d	d
e	e
r	r
n	n

__BEGIN__	__EPS__
w	w
o	o
r	r
t	t

__BEGIN__	__EPS__
d	d
a	as
z	s

__BEGIN__	__EPS__
a	a
l	l
l	l
e	e

__BEGIN__	__EPS__
m	me
y	i
n	n
e	e

__BEGIN__	__EPS__
e	e
r	r
z	z
a	e
i	i
g	g
e	__EPS__
t	t

__BEGIN__	__EPS__
s	s
a	a
n	n
d	kt

__BEGIN__	__EPS__
g	g
e	e
t	t
a	a
n	n

__BEGIN__	__EPS__
g	g
e	e
b	b
e	ä
r	r
d	d
e	e

__BEGIN__	__EPS__
s	s
t	t
o	ö
e	__EPS__
s	s
s	s
e	e

__BEGIN__	__EPS__
d	d
e	e
m	m

__BEGIN__	__EPS__
z	z
e	e
r	r
m	m
u	al
s	m
t	t
e	e
n	n

__BEGIN__	__EPS__
v	u
n	n
d	d

__BEGIN__	__EPS__
d	d
i	i
e	e

__BEGIN__	__EPS__
w	w
a	a
i	h
r	r

__BEGIN__	__EPS__
l	l
a	a
t	t
t	__EPS__
e	e
i	i
n	n
y	i
s	s
c	c
h	h

__BEGIN__	__EPS__
w	w
i	i
e	e

__BEGIN__	__EPS__
w	w
v	u
r	r
d	d
e	e
n	n

__BEGIN__	__EPS__
m	m
e	e
i	i
n	n

__BEGIN__	__EPS__
c	k
r	r
u	e
i	u
c	__EPS__
z	z

__BEGIN__	__EPS__
s	s
i	i
c	c
h	h

__BEGIN__	__EPS__
s	s
y	ie

__BEGIN__	__EPS__
s	s
p	p
r	r
a	a
c	c
h	h

__BEGIN__	__EPS__
w	w
a	a
r	r
e	e
n	n

__BEGIN__	__EPS__
d	d
o	a
e	__EPS__

__BEGIN__	__EPS__
d	d
a	as
z	s

__BEGIN__	__EPS__
s	s
a	a
h	h
e	e
n	n

__BEGIN__	__EPS__
d	d
e	e
n	n

__BEGIN__	__EPS__
k	k
y	i
n	n
t	d

__BEGIN__	__EPS__
d	d
a	a

__BEGIN__	__EPS__
b	b
u	a
n	n
d	d
e	e
n	n

__BEGIN__	__EPS__
n	n
i	i
e	m
m	m
e	e
r	r

__BEGIN__	__EPS__
s	s
c	c
h	h
r	r
e	e
y	ie

__BEGIN__	__EPS__
v	v
o	o
n	n

__BEGIN__	__EPS__
v	u
n	n
s	s
z	__EPS__

__BEGIN__	__EPS__
n	n
a	a
c	c
h	h

__BEGIN__	__EPS__
e	e
r	r

__BEGIN__	__EPS__
m	m
e	e
n	n
s	s
c	c
h	h
l	l
i	i
c	c
h	he
z	s

__BEGIN__	__EPS__
l	l
i	i
e	e
u	b
e	e
n	n

__BEGIN__	__EPS__
f	f
u	üh
r	r
t	t

__BEGIN__	__EPS__
u	u
n	n
d	d

__BEGIN__	__EPS__
d	d
i	i
c	c
h	h

__BEGIN__	__EPS__
s	s
a	a
g	g
s	s
t	t

__BEGIN__	__EPS__
s	s
o	o

__BEGIN__	__EPS__
m	m
i	i
t	t

__BEGIN__	__EPS__
p	b
i	i
s	s
c	c
h	h
o	o
f	f
f	__EPS__

__BEGIN__	__EPS__
n	n
u	un

__BEGIN__	__EPS__
d	d
i	i
c	c
h	h

__BEGIN__	__EPS__
m	m
e	e
i	i
n	n

__BEGIN__	__EPS__
e	e
r	r

__BEGIN__	__EPS__
g	g
e	e
d	t
r	r
a	a
g	g
h	__EPS__
e	e
n	n

__BEGIN__	__EPS__
h	h
e	e
r	r
c	__EPS__
z	z
e	e
n	n

__BEGIN__	__EPS__
d	d
i	i
e	e
s	s
e	e
n	n

__BEGIN__	__EPS__
i	j
h	__EPS__
e	e
s	s
u	u
s	s

__BEGIN__	__EPS__
h	h
e	ä
t	tte

__BEGIN__	__EPS__
i	i
c	c
h	h

__BEGIN__	__EPS__
d	d
o	a

__BEGIN__	__EPS__
d	d
i	i
e	e

__BEGIN__	__EPS__
d	d
i	i
n	n
c	g
h	__EPS__

__BEGIN__	__EPS__
b	b
a	a
l	l
d	d
e	__EPS__

__BEGIN__	__EPS__
d	d
o	a

__BEGIN__	__EPS__
d	d
i	i
e	e

__BEGIN__	__EPS__
d	d
e	e
n	n

__BEGIN__	__EPS__
s	o
u	h
n	n
d	__EPS__
e	e
r	__EPS__

__BEGIN__	__EPS__
y	i
m	h
e	m

__BEGIN__	__EPS__
s	s
p	p
r	r
a	a
c	c
h	h

__BEGIN__	__EPS__
d	d
i	i
r	r

__BEGIN__	__EPS__
n	n
a	ah
m	m
e	e
n	n

__BEGIN__	__EPS__
l	l
i	i
e	e
b	be
s	s

__BEGIN__	__EPS__
m	m
a	a
l	l
e	__EPS__

__BEGIN__	__EPS__
s	se
y	i
n	ne
s	s

__BEGIN__	__EPS__
d	d
e	e
r	r

__BEGIN__	__EPS__
n	n
a	ac
h	h

__BEGIN__	__EPS__
a	a
n	n
t	t
w	w
u	o
e	__EPS__
r	r
t	t
e	e
n	n

__BEGIN__	__EPS__
s	s
ü	o
n	n
d	d
e	e
r	rn

__BEGIN__	__EPS__
p	p
r	r
i	i
n	n
c	z
e	e
n	n

__BEGIN__	__EPS__
m	m
e	e
i	i
n	n
e	e
n	m

__BEGIN__	__EPS__
l	l
i	i
e	e
s	f
e	e
n	n

__BEGIN__	__EPS__
s	s
e	a
g	g
g	__EPS__
h	__EPS__
e	e
n	n

__BEGIN__	__EPS__
g	g
r	r
a	a
b	b

__BEGIN__	__EPS__
z	z
u	uc
h	h
t	t

__BEGIN__	__EPS__
g	g
u	u
t	t
i	e
n	n

__BEGIN__	__EPS__
m	me
i	i
m	n
e	em

__BEGIN__	__EPS__
m	m
i	i
t	t

__BEGIN__	__EPS__
e	e
i	i
n	n

__BEGIN__	__EPS__
d	d
o	a

__BEGIN__	__EPS__
d	d
u	u

__BEGIN__	__EPS__
a	a
l	l
l	l
e	e

__BEGIN__	__EPS__
n	n
a	a
c	c
h	h
t	t

__BEGIN__	__EPS__
m	m
a	a
n	n

__BEGIN__	__EPS__
a	a
u	u
s	s

__BEGIN__	__EPS__
d	d
e	e
n	n

__BEGIN__	__EPS__
v	v
o	o
n	n

__BEGIN__	se
p	i
h	d
e	e
l	n
l	ze
o	u
l	g

__BEGIN__	__EPS__
p	p
a	a
r	r
a	a
d	d
i	ie
s	s

__BEGIN__	__EPS__
m	m
e	e
n	n
s	s
c	c
h	h
e	e
n	n

__BEGIN__	__EPS__
m	m
i	i
t	t

__BEGIN__	__EPS__
g	g
e	e
b	b
e	e
n	n

__BEGIN__	__EPS__
l	l
a	a
t	t
t	e
i	i
n	n

__BEGIN__	__EPS__
d	t
e	a
t	t

__BEGIN__	__EPS__
a	a
n	n
t	t
w	w
o	o
r	r
t	tet

__BEGIN__	__EPS__
d	d
a	a
z	ss

__BEGIN__	__EPS__
s	s
o	o

__BEGIN__	__EPS__
d	d
o	a
n	n
o	a
c	c
h	h

__BEGIN__	__EPS__
i	ih
m	m

__BEGIN__	__EPS__
d	d
o	o
c	c
h	h

__BEGIN__	__EPS__
g	g
e	e
d	t
a	a
i	__EPS__
n	n

__BEGIN__	__EPS__
a	a
l	l
s	s
o	o

__BEGIN__	__EPS__
d	d
o	a

__BEGIN__	__EPS__
i	i
c	c
h	h

__BEGIN__	__EPS__
i	ih
m	m

__BEGIN__	__EPS__
v	u
n	n
d	d

__BEGIN__	__EPS__
m	m
i	i
t	t

__BEGIN__	__EPS__
s	s
p	p
r	r
a	a
c	c
h	h

__BEGIN__	__EPS__
w	w
a	a
s	r

__BEGIN__	__EPS__
e	e
r	r

__BEGIN__	__EPS__
d	d
e	e
s	s

__BEGIN__	__EPS__
c	k
h	__EPS__
r	r
e	e
v	u
t	__EPS__
z	z
e	e
n	n

__BEGIN__	__EPS__
p	b
a	__EPS__
e	ä
c	c
h	h
e	e
n	n

__BEGIN__	__EPS__
k	k
a	a
m	men

__BEGIN__	__EPS__
i	j
e	e
s	s
u	u
m	s

__BEGIN__	__EPS__
i	i
c	c
h	h

__BEGIN__	__EPS__
m	m
i	i
e	__EPS__
r	r

__BEGIN__	__EPS__
e	nich
n	t

__BEGIN__	__EPS__
g	g
e	e
w	w
a	a
n	n
d	d

__BEGIN__	__EPS__
w	w
i	i
e	e

__BEGIN__	__EPS__
g	g
e	e
t	t
a	e
i	i
l	l
t	t

__BEGIN__	__EPS__
k	k
i	i
n	n
t	d

__BEGIN__	__EPS__
y	ih
r	r

__BEGIN__	__EPS__
s	s
p	p
r	r
a	a
c	c
h	h

__BEGIN__	__EPS__
g	g
e	e
w	w
a	a
n	nn

__BEGIN__	__EPS__
g	g
e	e
r	r
i	i
c	c
h	h
t	t

__BEGIN__	__EPS__
w	w
i	ie
d	d
e	e
r	r
m	m
a	a
c	c
h	h
e	e
n	n

__BEGIN__	__EPS__
e	e
r	r

__BEGIN__	__EPS__
h	h
a	a
d	t
d	t
e	e
s	s
t	t

__BEGIN__	__EPS__
g	g
e	e
w	w
a	a
n	n
t	d

__BEGIN__	__EPS__
s	s
o	oh
n	n

__BEGIN__	__EPS__
k	k
u	on
n	n
d	t
e	e

__BEGIN__	__EPS__
e	e
n	n
g	g
i	e
l	l

__BEGIN__	__EPS__
v	v
o	o
r	r

__BEGIN__	__EPS__
d	t
a	a
g	g
e	e

__BEGIN__	a
v	u
f	f

__BEGIN__	__EPS__
d	d
e	e
r	r

__BEGIN__	__EPS__
v	v
e	e
r	r
l	l
e	e
n	ih
e	e

__BEGIN__	__EPS__
d	d
e	e
m	m

__BEGIN__	__EPS__
d	d
u	u

__BEGIN__	__EPS__
y	ih
m	m

__BEGIN__	__EPS__
e	e
i	i
n	n

__BEGIN__	__EPS__
c	__EPS__
z	z
w	w
e	e
n	__EPS__
e	i

__BEGIN__	__EPS__
v	u
m	m
b	__EPS__
e	__EPS__

__BEGIN__	__EPS__
t	__EPS__
z	z
o	u
s	s
a	a
m	mm
e	e
n	n

__BEGIN__	__EPS__
a	a
l	l
s	s

__BEGIN__	__EPS__
i	ih
m	m

__BEGIN__	__EPS__
p	b
i	i
s	s
c	c
h	h
o	o
l	__EPS__
f	f
e	__EPS__
s	s

__BEGIN__	__EPS__
c	__EPS__
z	z
u	u

__BEGIN__	__EPS__
m	m
e	e
n	n
s	s
c	c
h	h
e	e
n	n

__BEGIN__	__EPS__
m	m
a	a
r	r
i	i
a	a

__BEGIN__	__EPS__
v	u
n	n
d	d

__BEGIN__	__EPS__
m	m
i	i
c	c
h	h

__BEGIN__	__EPS__
d	d
u	u
r	r
c	c
h	h

__BEGIN__	__EPS__
v	u
m	m
b	__EPS__
h	h
a	a
n	n
g	g

__BEGIN__	__EPS__
m	m
e	e
r	r
b	d
i	or
n	ne
z	n

__BEGIN__	__EPS__
v	u
n	n
d	d

__BEGIN__	__EPS__
i	j
ü	u
d	d
e	e
n	n

__BEGIN__	__EPS__
d	d
e	e
m	m

__BEGIN__	__EPS__
m	m
i	i
e	__EPS__
r	r

__BEGIN__	__EPS__
g	g
e	e
s	s
c	c
h	h
a	a
c	__EPS__
h	h

__BEGIN__	__EPS__
w	w
i	i
e	e

__BEGIN__	__EPS__
w	w
i	i
s	s
s	s
e	e
n	n

__BEGIN__	__EPS__
x	x
x	x
x	x

__BEGIN__	__EPS__
n	n
a	ah
m	m
e	e
n	n
d	__EPS__

__BEGIN__	__EPS__
n	n
i	i
c	c
h	h
t	t

__BEGIN__	__EPS__
v	u
n	n
d	d

__BEGIN__	__EPS__
v	v
e	e
r	r
l	l
o	e
e	u
g	gn
e	e
n	n

__BEGIN__	__EPS__
v	u
n	n
d	d

__BEGIN__	__EPS__
s	s
e	e
i	i
n	n
e	e
r	r

__BEGIN__	__EPS__
w	we
r	r
f	f
e	e

__BEGIN__	__EPS__
d	d
a	a

__BEGIN__	__EPS__
d	d
e	e
n	n

__BEGIN__	__EPS__
b	b
e	e
u	f
e	e
y	h
l	l
e	e
n	n

__BEGIN__	__EPS__
p	b
u	a
n	n
t	__EPS__
t	d
e	e
n	n

__BEGIN__	__EPS__
d	d
i	i
e	e

__BEGIN__	__EPS__
v	f
r	r
o	a
w	u
e	e
n	n

__BEGIN__	__EPS__
g	g
e	e
r	r
e	e
c	c
h	h
t	t
e	e
n	n

__BEGIN__	__EPS__
i	j
a	a
c	c
o	o
b	b
u	u
s	s

__BEGIN__	__EPS__
n	n
o	o
c	c
h	h

__BEGIN__	__EPS__
d	d
a	as
s	s

__BEGIN__	__EPS__
a	e
i	i
n	n
e	e
m	m

__BEGIN__	__EPS__
d	d
u	u

__BEGIN__	__EPS__
b	b
a	a
n	n
d	d

__BEGIN__	__EPS__
d	d
e	e
m	m

__BEGIN__	__EPS__
p	b
e	__EPS__
l	l
i	ie
b	b
t	t

__BEGIN__	a
v	u
f	f

__BEGIN__	__EPS__
s	s
o	oh
n	n

__BEGIN__	__EPS__
i	ih
n	n

__BEGIN__	__EPS__
a	a
n	n
t	t
l	l
i	i
t	tz

__BEGIN__	__EPS__
i	i
n	n

__BEGIN__	__EPS__
m	m
u	u
o	__EPS__
t	t
t	t
e	e
r	r

__BEGIN__	__EPS__
g	g
a	eh
i	e
n	n

__BEGIN__	__EPS__
d	d
v	u

__BEGIN__	__EPS__
d	d
a	a
s	ss

__BEGIN__	__EPS__
v	u
n	n
d	d

__BEGIN__	__EPS__
h	h
o	a
u	u
p	p
t	t

__BEGIN__	__EPS__
s	s
e	e
i	i
n	n

__BEGIN__	__EPS__
s	s
a	a
c	__EPS__
h	h

__BEGIN__	__EPS__
n	n
u	u
n	n

__BEGIN__	__EPS__
m	m
a	a
r	r
i	i
a	a

__BEGIN__	__EPS__
s	s
p	p
r	r
a	a
c	c
h	h

__BEGIN__	__EPS__
m	me
i	i
n	n
e	e
m	m

__BEGIN__	__EPS__
d	d
e	e
r	r

__BEGIN__	__EPS__
d	d
o	a

__BEGIN__	__EPS__
g	g
e	e
d	t
a	a
y	__EPS__
n	n

__BEGIN__	__EPS__
l	l
a	a
n	n
g	g
e	e

__BEGIN__	__EPS__
m	m
e	e
i	i
n	n

__BEGIN__	__EPS__
s	s
p	p
o	ö
e	t
t	t
l	__EPS__
i	is
c	c
h	h

__BEGIN__	__EPS__
v	u
n	n
d	d

__BEGIN__	__EPS__
w	w
a	a
s	r

__BEGIN__	__EPS__
d	d
i	i
e	e

__BEGIN__	__EPS__
v	u
n	n
d	d

__BEGIN__	__EPS__
h	h
i	i
n	n

__BEGIN__	__EPS__
m	m
a	a
l	l

__BEGIN__	__EPS__
i	j
h	__EPS__
e	e
s	s
u	u
s	s

__BEGIN__	__EPS__
d	de
i	i
n	n

__BEGIN__	__EPS__
d	d
e	e
m	m

__BEGIN__	__EPS__
k	k
y	i
n	n
t	d

__BEGIN__	__EPS__
m	m
e	ehr

__BEGIN__	__EPS__
d	d
i	i
e	e
s	s
e	e
n	n

__BEGIN__	__EPS__
i	j
a	a
m	mm
e	e
r	r

__BEGIN__	__EPS__
d	d
u	ü
n	n
k	k
e	__EPS__
t	t

__BEGIN__	__EPS__
m	m
e	e
i	i
n	n

__BEGIN__	__EPS__
d	d
o	a

__BEGIN__	__EPS__
d	d
o	o
r	r
n	n

__BEGIN__	__EPS__
p	p
f	f
l	l
e	e
g	g
e	e
r	r

__BEGIN__	__EPS__
a	a
l	l
l	l
e	e

__BEGIN__	__EPS__
r	re
i	i
c	c
h	h

__BEGIN__	__EPS__
s	s
o	o
l	l
d	lt
e	e

__BEGIN__	__EPS__
c	__EPS__
z	z
a	e
i	i
c	c
h	h
e	e
n	n

__BEGIN__	__EPS__
g	g
e	e
s	s
i	i
c	c
h	h
t	t
e	__EPS__

__BEGIN__	__EPS__
s	s
p	p
r	r
a	a
c	c
h	h

__BEGIN__	__EPS__
a	a
l	l
l	l

__BEGIN__	__EPS__
m	me
i	i
n	n

__BEGIN__	__EPS__
e	ehe

__BEGIN__	__EPS__
w	w
a	a
r	r
t	d

__BEGIN__	__EPS__
v	u
n	n
d	d

__BEGIN__	__EPS__
n	n
i	i
c	c
h	h
t	t

__BEGIN__	__EPS__
r	r
o	oc
k	k

__BEGIN__	__EPS__
s	s
c	c
h	h
a	e
i	i
t	t
e	e
l	l

__BEGIN__	__EPS__
k	k
e	e
i	i
n	n

__BEGIN__	__EPS__
v	ü
e	__EPS__
b	b
e	e
r	r

__BEGIN__	__EPS__
d	d
a	an
n	n

__BEGIN__	__EPS__
s	s
e	e
i	i
n	n

__BEGIN__	__EPS__
v	u
n	n
d	d

__BEGIN__	__EPS__
m	m
o	__EPS__
e	e
n	n
s	s
c	c
h	h

__BEGIN__	__EPS__
w	w
a	a
r	r
d	d

__BEGIN__	__EPS__
m	m
e	e
r	r
c	k
h	e

__BEGIN__	__EPS__
s	s
y	i
m	m
e	e
o	o
n	n
i	__EPS__
s	s

__BEGIN__	__EPS__
v	u
n	n
d	d

__BEGIN__	__EPS__
s	s
y	ie

__BEGIN__	__EPS__
t	t
e	a
t	t
e	est

__BEGIN__	__EPS__
v	ü
b	b
e	e
r	r

__BEGIN__	__EPS__
n	n
i	i
c	c
h	h
t	t

__BEGIN__	__EPS__
d	d
e	e
i	i
n	n

__BEGIN__	__EPS__
d	d
e	e
m	m

__BEGIN__	__EPS__
s	s
t	t
u	a
e	__EPS__
n	n
d	d

__BEGIN__	__EPS__
m	m
e	e
i	i
n	n

__BEGIN__	__EPS__
s	s
e	e
y	i
t	t
e	e
n	n

__BEGIN__	__EPS__
s	s
a	a
s	s
s	s
e	e
n	n
d	__EPS__

__BEGIN__	__EPS__
p	p
y	i
l	l
a	a
t	tu
o	s

__BEGIN__	__EPS__
w	w
a	a
r	r
t	d

__BEGIN__	__EPS__
m	m
a	a
n	n

__BEGIN__	__EPS__
i	ih
n	n

__BEGIN__	__EPS__
v	u
n	n
d	d

__BEGIN__	__EPS__
d	d
o	a

__BEGIN__	__EPS__
i	j
h	__EPS__
e	e
s	s
u	u
n	s

__BEGIN__	__EPS__
f	f
i	i
d	d
e	e

__BEGIN__	__EPS__
s	s
a	a
g	g
t	t

__BEGIN__	__EPS__
d	d
a	as
z	s

__BEGIN__	__EPS__
w	w
e	e
y	i
s	s
e	e
n	n

__BEGIN__	__EPS__
a	a
l	l
l	l
e	e
m	m

__BEGIN__	__EPS__
n	n
a	ah
m	m
e	e
n	n

__BEGIN__	__EPS__
l	le
i	i
p	b

__BEGIN__	__EPS__
b	b
l	l
u	u
t	t

__BEGIN__	__EPS__
d	d
e	e
n	n

__BEGIN__	__EPS__
n	n
u	um

__BEGIN__	__EPS__
g	g
e	e
l	l
e	i
d	tt
e	e
n	n

__BEGIN__	__EPS__
r	r
a	e
i	i
n	n
i	e
u	__EPS__

__BEGIN__	__EPS__
s	s
p	p
r	r
a	a
c	c
h	h

__BEGIN__	__EPS__
v	u
n	n
d	d

__BEGIN__	__EPS__
g	g
a	a
b	b

__BEGIN__	__EPS__
g	g
r	r
o	o
s	ss

__BEGIN__	__EPS__
n	n
a	ä
e	h
m	me
s	st

__BEGIN__	__EPS__
a	e
i	i
n	n

__BEGIN__	__EPS__
n	n
i	i
c	c
h	h
t	t

__BEGIN__	__EPS__
v	u
n	n
d	d

__BEGIN__	__EPS__
v	u
n	n
d	d

__BEGIN__	__EPS__
h	h
e	a
t	t

__BEGIN__	__EPS__
d	d
e	e
r	r

__BEGIN__	__EPS__
i	ih
m	m

__BEGIN__	__EPS__
v	u
n	n
d	d

__BEGIN__	__EPS__
v	u
n	n
d	d

__BEGIN__	__EPS__
v	u
m	m
b	__EPS__

__BEGIN__	__EPS__
g	g
e	e
w	w
e	e
s	s
e	e
n	n

__BEGIN__	__EPS__
d	d
e	e
n	m

__BEGIN__	__EPS__
m	m
.	.
c	c
.	.
c	c
.	.
c	c
.	.
c	c
.	.
c	c
.	.
x	x
i	i
i	i
i	i
j	j

__BEGIN__	__EPS__
e	e
n	n
t	t
h	h
a	a
u	u
p	p
t	t
e	e
t	te

__BEGIN__	__EPS__
y	ih
n	n

__BEGIN__	__EPS__
l	l
i	ie
f	f

__BEGIN__	__EPS__
h	h
a	a
s	s
t	t

__BEGIN__	__EPS__
d	d
y	i
e	e

__BEGIN__	__EPS__
l	l
a	a
z	ss
e	e
n	n
e	__EPS__

__BEGIN__	__EPS__
d	d
r	r
u	ü
c	c
k	k
e	__EPS__
t	t
e	e

__BEGIN__	__EPS__
i	i
c	c
h	h

__BEGIN__	__EPS__
v	u
n	n
d	d

__BEGIN__	__EPS__
w	w
o	u
n	n
d	d
e	e
n	n

__BEGIN__	__EPS__
d	d
a	as
s	s

__BEGIN__	a
v	u
f	f

__BEGIN__	__EPS__
z	z
e	e
r	r
s	s
c	c
h	h
l	l
a	a
c	__EPS__
h	g
e	e
n	n

__BEGIN__	__EPS__
e	e
i	i
n	n
e	e
r	r

__BEGIN__	__EPS__
g	g
e	e
s	s
c	c
h	h
i	i
c	eh
k	t

__BEGIN__	__EPS__
p	p
y	i
l	l
a	a
t	t
u	u
s	s

__BEGIN__	__EPS__
s	s
t	t
u	a
n	n
d	d

__BEGIN__	__EPS__
d	d
a	a

__BEGIN__	__EPS__
s	se
i	i
d	t

__BEGIN__	__EPS__
l	l
a	a
n	n
d	d
s	s
y	i
t	tt
e	e
n	n

__BEGIN__	__EPS__
l	l
e	e
d	d
i	i
g	g

__BEGIN__	__EPS__
s	s
i	i
c	c
h	h

__BEGIN__	__EPS__
g	g
e	e
l	l
e	e
y	g
t	t
e	e
n	n
d	__EPS__

__BEGIN__	__EPS__
g	__EPS__
e	__EPS__
t	d
o	u
e	__EPS__
r	r
f	f
t	t
e	e

__BEGIN__	__EPS__
k	k
e	a
y	i
s	s
e	e
r	r
s	s

__BEGIN__	__EPS__
b	b
e	e
d	t
r	rä
o	u
p	f
e	el
n	t

__BEGIN__	__EPS__
a	a
l	l
s	s
o	o

__BEGIN__	__EPS__
v	u
n	n
d	d

__BEGIN__	__EPS__
k	k
i	i
n	n
t	d

__BEGIN__	__EPS__
g	g
e	e
s	s
u	ü
n	n
d	di
e	g
t	t

__BEGIN__	__EPS__
y	ih
r	r

__BEGIN__	__EPS__
s	s
t	t
a	ad
t	t

__BEGIN__	__EPS__
i	i
s	s
t	t

__BEGIN__	__EPS__
i	i
n	n

__BEGIN__	__EPS__
d	d
e	e
s	s
t	t
e	o

__BEGIN__	__EPS__
a	a
l	l
l	l
e	e

__BEGIN__	__EPS__
d	d
e	e
i	i
n	n
e	e
m	m

__BEGIN__	__EPS__
g	g
o	o
t	tt

__BEGIN__	__EPS__
y	ih
n	n

__BEGIN__	__EPS__
i	ih
m	m

__BEGIN__	__EPS__
i	als
o	o

__BEGIN__	__EPS__
h	h
a	a
b	b
a	__EPS__
t	t

__BEGIN__	__EPS__
n	n
i	ich
t	t

__BEGIN__	__EPS__
v	v
o	o
n	n

__BEGIN__	__EPS__
m	m
e	e
i	i
n	n

__BEGIN__	__EPS__
f	f
r	r
o	a
u	u
w	__EPS__

__BEGIN__	__EPS__
g	g
e	e
s	s
c	c
h	h
i	i
e	eh
t	t

__BEGIN__	__EPS__
k	k
e	e
i	i
n	n

__BEGIN__	__EPS__
g	g
e	e
g	g
r	r
u	ü
e	__EPS__
z	s
z	s
e	__EPS__
t	t

__BEGIN__	__EPS__
d	d
o	a

__BEGIN__	__EPS__
i	i
c	c
h	h

__BEGIN__	__EPS__
e	e
y	i
a	__EPS__

__BEGIN__	__EPS__
w	w
i	i
l	ll

__BEGIN__	__EPS__
y	ih
n	n

__BEGIN__	__EPS__
d	d
a	a
t	ss

__BEGIN__	__EPS__
g	g
i	i
e	__EPS__
n	n
g	g

__BEGIN__	__EPS__
v	u
n	n
d	d

__BEGIN__	__EPS__
n	n
y	ie
d	d
e	e
r	r

__BEGIN__	__EPS__
z	z
u	u

__BEGIN__	__EPS__
d	d
o	o
c	c
h	h

__BEGIN__	__EPS__
l	l
a	a
n	n
g	g
e	e

__BEGIN__	__EPS__
n	n
e	eh
m	m
e	e
n	n

__BEGIN__	__EPS__
d	d
e	e
m	m

__BEGIN__	__EPS__
i	ih
m	m

__BEGIN__	__EPS__
s	s
o	o

__BEGIN__	__EPS__
i	ih
m	m

__BEGIN__	__EPS__
r	r
i	i
f	e
f	f
e	e
n	n

__BEGIN__	__EPS__
v	u
n	n
n	__EPS__
d	d

__BEGIN__	__EPS__
z	z
a	a
r	r
t	t
e	e
r	r

__BEGIN__	__EPS__
s	s
c	c
h	h
e	ö
p	p
p	f
e	e
r	r

__BEGIN__	__EPS__
v	u
n	n
d	d

__BEGIN__	__EPS__
f	f
r	r
o	oh

__BEGIN__	__EPS__
h	h
e	e
r	r
a	a
b	b

__BEGIN__	__EPS__
m	m
a	a
n	n

__BEGIN__	__EPS__
i	i
n	h
n	n

__BEGIN__	__EPS__
k	k
y	i
n	n
t	d

__BEGIN__	__EPS__
f	f
u	üh
r	r
t	t
e	e
n	n

__BEGIN__	__EPS__
e	e
r	r
s	s
t	t

__BEGIN__	__EPS__
i	i
c	c
h	h

__BEGIN__	__EPS__
d	d
a	ah
r	in

__BEGIN__	__EPS__
i	ih
m	m

__BEGIN__	__EPS__
l	l
i	i
e	e
b	b
e	e
r	r

__BEGIN__	__EPS__
d	d
o	a

__BEGIN__	__EPS__
m	m
i	i
c	c
h	h

__BEGIN__	__EPS__
s	s
p	p
r	r
a	a
c	c
h	h

__BEGIN__	__EPS__
m	m
a	a
g	g

__BEGIN__	__EPS__
z	s
e	o
h	gl
a	e
n	ic
t	h

__BEGIN__	__EPS__
b	b
e	e
g	g
ü	a
n	n
d	n

__BEGIN__	__EPS__
s	s
a	a
n	n
d	kt

__BEGIN__	__EPS__
g	g
e	e
w	w
a	oh
n	n
h	h
e	e
i	i
t	t

__BEGIN__	__EPS__
o	o
w	w
e	eh

__BEGIN__	__EPS__
b	b
e	e
s	s
s	s
e	e
r	r

__BEGIN__	__EPS__
e	e
r	r
d	de

__BEGIN__	__EPS__
n	n
u	un

__BEGIN__	__EPS__
v	u
n	n
d	d

__BEGIN__	__EPS__
w	w
o	u
n	n
d	d
e	e
n	n

__BEGIN__	__EPS__
m	m
i	i
t	t

__BEGIN__	__EPS__
s	s
e	e
i	i
n	n

__BEGIN__	__EPS__
v	v
e	e
r	r
t	t
r	r
i	ie
b	b
e	e
n	n

__BEGIN__	__EPS__
s	s
c	c
h	h
a	ä
c	c
h	h
e	e
r	r

__BEGIN__	__EPS__
h	__EPS__
e	__EPS__
r	__EPS__
z	__EPS__
e	__EPS__
l	l
i	i
e	e
b	b
v	__EPS__
i	e

__BEGIN__	__EPS__
m	m
e	e
n	n
s	s
c	c
h	he
n	n

__BEGIN__	__EPS__
i	i
c	c
h	h

__BEGIN__	__EPS__
a	a
u	u
c	c
h	h

__BEGIN__	__EPS__
d	d
e	e
s	s

__BEGIN__	__EPS__
n	n
u	un

__BEGIN__	__EPS__
v	v
o	o
n	n

__BEGIN__	__EPS__
m	m
i	i
t	t

__BEGIN__	__EPS__
v	v
o	o
n	n

__BEGIN__	__EPS__
v	u
n	n
d	d

__BEGIN__	__EPS__
m	m
i	i
t	t

__BEGIN__	__EPS__
w	w
i	i
e	e

__BEGIN__	__EPS__
l	l
e	e
i	i
b	b

__BEGIN__	__EPS__
s	sch
w	w
e	e
r	r
t	t

__BEGIN__	__EPS__
d	d
o	o
c	c
h	h

__BEGIN__	__EPS__
w	w
a	ah
r	r

__BEGIN__	__EPS__
v	u
n	n
d	d

__BEGIN__	__EPS__
d	d
r	re
y	i
e	__EPS__
n	__EPS__

__BEGIN__	__EPS__
s	s
e	e
l	l
i	i
k	g

__BEGIN__	__EPS__
a	a
l	l
l	l
e	e
m	m

__BEGIN__	__EPS__
e	e
i	i
n	n

__BEGIN__	__EPS__
o	o
f	b
f	__EPS__

__BEGIN__	__EPS__
v	u
m	m
b	__EPS__

__BEGIN__	__EPS__
d	d
a	a
s	s

__BEGIN__	__EPS__
i	j
u	ü
n	n
g	g
e	e
r	r

__BEGIN__	__EPS__
b	b
a	a
t	t

__BEGIN__	__EPS__
e	e
i	i
n	n
e	e
m	m

__BEGIN__	__EPS__
h	h
e	e
i	i
l	l
i	i
g	g
i	__EPS__
s	s
t	t
e	e

__BEGIN__	__EPS__
h	h
o	a
u	u
p	p
t	t

__BEGIN__	__EPS__
c	k
r	r
a	a
c	c
h	h
t	t
e	e
n	n

__BEGIN__	__EPS__
i	i
c	c
h	h

__BEGIN__	__EPS__
g	g
e	e
l	l
e	e
i	g
t	t

__BEGIN__	__EPS__
d	d
o	a

__BEGIN__	__EPS__
w	w
a	a
r	r
d	d

__BEGIN__	__EPS__
w	w
a	a
z	s
z	s
e	e
r	r

__BEGIN__	__EPS__
s	sch
l	l
a	a
f	f
f	__EPS__
e	__EPS__

__BEGIN__	__EPS__
k	k
o	a
m	m

__BEGIN__	__EPS__
r	r
a	e
i	i
n	n
e	e
v	__EPS__

__BEGIN__	__EPS__
a	a
u	u
f	f
f	__EPS__

__BEGIN__	__EPS__
m	m
i	i
r	r

__BEGIN__	__EPS__
v	u
m	m
b	__EPS__

__BEGIN__	__EPS__
a	a
u	u
f	f

__BEGIN__	__EPS__
m	m
a	a
r	r
t	t
e	e
r	r

__BEGIN__	__EPS__
r	r
e	e
c	c
h	h
t	t

__BEGIN__	__EPS__
s	s
e	ä
u	u
g	g
e	__EPS__
t	t

__BEGIN__	__EPS__
v	u
n	n
d	d

__BEGIN__	__EPS__
s	s
p	p
r	r
a	a
c	c
h	h

__BEGIN__	__EPS__
v	u
n	n
d	d

__BEGIN__	__EPS__
w	w
i	i
e	e

__BEGIN__	__EPS__
c	__EPS__
z	z
u	u

__BEGIN__	__EPS__
e	e
r	r

__BEGIN__	__EPS__
e	e
r	r
s	s
c	c
h	h
e	e
i	i
n	ne

__BEGIN__	__EPS__
t	t
o	o
d	d
e	__EPS__

__BEGIN__	__EPS__
w	w
y	i
r	r

__BEGIN__	__EPS__
t	t
a	a
g	g
e	e
s	s

__BEGIN__	__EPS__
s	se
i	i
n	n
e	e

__BEGIN__	__EPS__
s	s
p	p
r	r
a	a
c	c
h	h

__BEGIN__	__EPS__
d	d
v	u
r	r
c	c
h	h

__BEGIN__	__EPS__
a	a
l	l
l	l
e	e
s	s

__BEGIN__	__EPS__
o	o
w	w
e	eh

__BEGIN__	__EPS__
d	k
e	e
h	__EPS__
a	__EPS__
i	i
n	n
e	e
r	r

__BEGIN__	__EPS__
v	f
r	r
a	a
g	g
h	__EPS__
e	__EPS__
d	t
e	e

__BEGIN__	__EPS__
m	m
i	i
r	r

__BEGIN__	__EPS__
d	d
o	a

__BEGIN__	__EPS__
g	g
i	i
n	n
g	g
e	e
n	n

__BEGIN__	__EPS__
e	e
s	s

__BEGIN__	__EPS__
g	g
a	a
r	r

__BEGIN__	__EPS__
e	e
r	r

__BEGIN__	__EPS__
a	a
n	n

__BEGIN__	__EPS__
c	__EPS__
z	z
u	u

__BEGIN__	__EPS__
i	i
n	n

__BEGIN__	__EPS__
d	d
e	e
m	m

__BEGIN__	__EPS__
p	b
e	e
r	r
c	__EPS__
k	g

__BEGIN__	__EPS__
a	a
r	r
m	m

__BEGIN__	__EPS__
m	m
e	e
i	i
n	n

__BEGIN__	__EPS__
p	b
r	r
a	a
c	c
h	h
t	te

__BEGIN__	__EPS__
b	b
r	r
u	u
n	nn
e	e
n	n

__BEGIN__	__EPS__
n	n
o	o
n	n

__BEGIN__	__EPS__
g	g
r	r
o	o
s	s
s	s
e	e

__BEGIN__	__EPS__
d	d
a	a
s	ss

__BEGIN__	__EPS__
d	d
y	i
r	r

__BEGIN__	__EPS__
w	w
a	a
r	r
d	d

__BEGIN__	__EPS__
c	k
h	__EPS__
i	i
n	n
d	d

__BEGIN__	__EPS__
e	e
n	n
d	d
e	e

__BEGIN__	__EPS__
n	n
e	eh
m	m
t	t

__BEGIN__	__EPS__
c	k
h	__EPS__
l	l
a	a
g	g
e	e
n	n

__BEGIN__	__EPS__
g	g
e	e
n	n
o	o
m	mm
e	e
n	n

__BEGIN__	__EPS__
v	u
n	n
d	d

__BEGIN__	__EPS__
s	s
o	o

__BEGIN__	__EPS__
d	d
i	ie
t	s

__BEGIN__	__EPS__
h	h
e	a
t	t

__BEGIN__	__EPS__
d	d
a	a
z	ss

__BEGIN__	__EPS__
e	e
r	r

__BEGIN__	__EPS__
c	__EPS__
z	z
a	e
i	i
c	c
h	h
e	e
n	n

__BEGIN__	__EPS__
d	d
o	o
c	c
h	h

__BEGIN__	__EPS__
v	u
n	n
d	d

__BEGIN__	__EPS__
v	v
o	o
r	r

__BEGIN__	__EPS__
v	u
n	n
d	d

__BEGIN__	__EPS__
a	a
l	ll
a	e
y	i
n	n

__BEGIN__	__EPS__
r	r
a	e
i	in
s	s
t	t
e	e
w	__EPS__

__BEGIN__	__EPS__
f	f
a	a
l	l
s	s
c	c
h	h
e	e
n	n

__BEGIN__	__EPS__
i	ih
n	n

__BEGIN__	__EPS__
g	g
e	e
r	r
n	n

__BEGIN__	__EPS__
f	v
u	o
r	r

__BEGIN__	__EPS__
v	u
n	n
d	d

__BEGIN__	__EPS__
v	v
a	o
n	n

__BEGIN__	__EPS__
d	d
i	i
e	e

__BEGIN__	__EPS__
w	w
i	il
l	l

__BEGIN__	__EPS__
a	a
l	l
s	s
e	__EPS__

__BEGIN__	__EPS__
a	a
l	l
s	s

__BEGIN__	__EPS__
h	h
e	e
y	i
l	li
g	g
e	e
n	n

__BEGIN__	__EPS__
g	g
a	a
n	n
c	g
h	__EPS__

__BEGIN__	__EPS__
v	u
n	n
d	d

__BEGIN__	__EPS__
a	a
u	u
f	f

__BEGIN__	__EPS__
d	d
e	e
r	r

__BEGIN__	__EPS__
d	d
e	e
m	m

__BEGIN__	__EPS__
a	a
l	l
l	l
e	e
n	n

__BEGIN__	__EPS__
e	e
z	s

__BEGIN__	__EPS__
d	d
a	a

__BEGIN__	__EPS__
i	i
c	c
h	h

__BEGIN__	__EPS__
k	k
r	r
e	e
w	u
c	__EPS__
z	z
i	i
g	g
e	e
n	n

__BEGIN__	__EPS__
w	w
i	i
s	s
s	s
t	t

__BEGIN__	__EPS__
m	m
e	e
i	i
n	n

__BEGIN__	__EPS__
d	d
o	a

__BEGIN__	__EPS__
h	e
i	r

__BEGIN__	__EPS__
g	s
e	ä
s	__EPS__
u	u
g	gt
e	e
n	n

__BEGIN__	__EPS__
w	w
e	e
n	nn

__BEGIN__	__EPS__
a	a
n	n

__BEGIN__	__EPS__
v	u
n	n
d	d

__BEGIN__	__EPS__
d	d
e	e
r	r

__BEGIN__	__EPS__
b	b
a	a
l	l
d	d
e	__EPS__

__BEGIN__	__EPS__
v	u
n	n
d	d

__BEGIN__	__EPS__
n	n
a	a
c	c
h	h
t	t
r	r
a	a
g	g
e	e
n	n

__BEGIN__	__EPS__
v	v
o	o
n	n

__BEGIN__	__EPS__
m	m
a	a
r	r
i	i
a	a

__BEGIN__	__EPS__
r	r
i	i
t	t
t	t
e	e
r	r

__BEGIN__	__EPS__
m	m
i	i
t	t

__BEGIN__	__EPS__
h	h
e	a
t	tt
e	e
n	n

__BEGIN__	__EPS__
g	g
r	r
o	o
s	ss
e	e
r	r

__BEGIN__	__EPS__
d	d
o	a

__BEGIN__	__EPS__
v	u
n	n
d	d

__BEGIN__	__EPS__
g	w
e	ah
w	rh
a	a
r	ftige

__BEGIN__	__EPS__
i	j
e	e
r	r
e	e
m	m
i	i
a	a
s	s

__BEGIN__	__EPS__
h	h
o	ö
e	__EPS__
r	r
e	e

__BEGIN__	__EPS__
d	d
e	e
r	r

__BEGIN__	__EPS__
p	p
y	i
l	l
a	a
t	t
o	us

__BEGIN__	__EPS__
i	ih
m	m

__BEGIN__	__EPS__
v	v
o	o
n	n

__BEGIN__	__EPS__
d	d
i	i
e	e

__BEGIN__	__EPS__
s	s
u	u
c	c
h	h
t	t
e	e

__BEGIN__	__EPS__
g	g
e	e
w	w
a	ah
r	r

__BEGIN__	__EPS__
a	a
u	u
f	f
f	__EPS__
g	g
e	e
r	r
i	i
c	c
h	h
t	tet

__BEGIN__	__EPS__
v	u
n	n
d	d

__BEGIN__	__EPS__
s	s
p	p
r	r
a	a
c	c
h	h

__BEGIN__	__EPS__
p	b
e	__EPS__
l	l
e	e
y	i
b	b
e	e
n	n

__BEGIN__	__EPS__
d	d
e	e
r	r

__BEGIN__	__EPS__
s	s
e	e
i	i
n	n

__BEGIN__	__EPS__
m	m
i	i
c	c
h	h

__BEGIN__	__EPS__
d	d
i	ie
t	s

__BEGIN__	__EPS__
m	m
i	i
c	c
h	h

__BEGIN__	__EPS__
p	b
e	e
r	r
g	g
e	e
n	n

__BEGIN__	__EPS__
d	d
a	as
s	s

__BEGIN__	__EPS__
a	a
n	n

__BEGIN__	__EPS__
i	ih
n	n

__BEGIN__	__EPS__
c	__EPS__
z	z
u	u

__BEGIN__	__EPS__
a	e
i	i
g	g
e	e
n	n

__BEGIN__	__EPS__
s	se
i	i
n	n
e	e
n	n

__BEGIN__	__EPS__
r	r
e	e
w	ue

__BEGIN__	__EPS__
v	u
n	n
d	d

__BEGIN__	__EPS__
d	d
a	a
s	ss

__BEGIN__	__EPS__
a	a
n	n

__BEGIN__	__EPS__
s	s
y	ie

__BEGIN__	__EPS__
d	d
v	i
i	e

__BEGIN__	__EPS__
d	d
u	u

__BEGIN__	__EPS__
i	i
c	c
h	h

__BEGIN__	__EPS__
s	s
c	c
h	h
e	ö
p	p
p	f
e	e
r	r

__BEGIN__	__EPS__
d	d
a	as
z	s

__BEGIN__	__EPS__
m	m
i	i
c	c
h	h

__BEGIN__	__EPS__
d	d
o	a

__BEGIN__	__EPS__
m	m
u	u
n	n
d	d

__BEGIN__	__EPS__
g	g
e	e
m	m
e	e
i	i
n	n
e	e

__BEGIN__	__EPS__
w	w
a	a
z	r

__BEGIN__	i
s	st

__BEGIN__	__EPS__
d	d
a	a
z	s

__BEGIN__	__EPS__
m	me
i	i
n	n
e	e
m	m

__BEGIN__	__EPS__
v	v
e	e
r	r
c	k
h	__EPS__
a	a
u	u
f	f
f	__EPS__
t	t

__BEGIN__	__EPS__
y	ih
r	re
m	m
e	__EPS__

__BEGIN__	__EPS__
w	w
e	e
r	r
d	de

__BEGIN__	__EPS__
d	d
a	a
s	ss

__BEGIN__	__EPS__
b	b
e	e
g	g
r	r
u	ü
e	__EPS__
b	be

__BEGIN__	__EPS__
v	v
o	o
n	n

__BEGIN__	__EPS__
e	e
r	r

__BEGIN__	__EPS__
g	g
a	a
r	r

__BEGIN__	__EPS__
w	w
e	e
r	r

__BEGIN__	__EPS__
c	k
r	r
e	e
u	u
c	__EPS__
z	z

__BEGIN__	__EPS__
b	be
y	i

__BEGIN__	__EPS__
e	e
r	r
f	f
u	ü
l	ll
t	t

__BEGIN__	__EPS__
d	d
i	i
e	e

__BEGIN__	__EPS__
d	d
i	i
e	e

__BEGIN__	__EPS__
p	p
h	f
e	e
n	n
n	n
y	i
g	g
e	e

__BEGIN__	__EPS__
g	g
i	i
e	__EPS__
n	n
g	g

__BEGIN__	__EPS__
d	d
o	a

__BEGIN__	__EPS__
h	e
e	r

__BEGIN__	__EPS__
v	v
e	e
r	r
g	g
i	i
b	b

__BEGIN__	__EPS__
s	s
i	ie
b	b
e	e
n	n
d	t
e	e
n	n

__BEGIN__	__EPS__
t	t
u	u
a	a
n	__EPS__

__BEGIN__	__EPS__
i	j
e	e
m	m
a	a
n	nd

__BEGIN__	__EPS__
w	w
a	a
r	r
t	t
e	e
t	t

__BEGIN__	__EPS__
g	g
i	i
n	n
g	g
e	e
n	n

__BEGIN__	__EPS__
k	k
o	ö
n	n
i	i
g	g

__BEGIN__	__EPS__
w	w
a	a
s	r

__BEGIN__	__EPS__
s	s
c	c
h	h
a	a
f	f
f	f
e	e
n	n

__BEGIN__	__EPS__
f	f
r	r
o	__EPS__
e	e
w	u
e	e
n	n

__BEGIN__	__EPS__
e	e
r	r
c	q
h	u
u	i
c	c
h	k
t	t
e	e

__BEGIN__	__EPS__
s	s
p	p
r	r
a	a
c	c
h	h
e	e
n	n

__BEGIN__	__EPS__
m	m
u	u
t	tt
e	e
r	r

__BEGIN__	__EPS__
n	n
i	i
c	c
h	h
t	t

__BEGIN__	__EPS__
a	a
b	b
e	e
r	r

__BEGIN__	__EPS__
s	s
p	p
r	r
e	ä
c	c
h	h
e	e

__BEGIN__	__EPS__
d	d
e	e
r	r

__BEGIN__	__EPS__
y	j
u	u
d	d
e	e
n	n

__BEGIN__	__EPS__
d	d
o	a

__BEGIN__	__EPS__
d	d
e	e
r	r

__BEGIN__	__EPS__
w	w
a	a
r	r
d	d

__BEGIN__	__EPS__
e	e
r	r

__BEGIN__	__EPS__
v	v
o	o
l	l
l	l
e	__EPS__
k	k
o	o
m	mmen

__BEGIN__	__EPS__
e	e
r	r

__BEGIN__	__EPS__
m	me
y	i
n	n
e	e
r	r

__BEGIN__	__EPS__
m	m
i	i
t	t

__BEGIN__	__EPS__
v	u
n	n
d	d

__BEGIN__	__EPS__
d	d
e	e
m	m

__BEGIN__	__EPS__
d	d
o	a

__BEGIN__	__EPS__
l	l
i	i
e	e
s	s
s	s

__BEGIN__	__EPS__
v	u
n	n
d	d

__BEGIN__	__EPS__
v	v
a	o
n	n

__BEGIN__	__EPS__
d	d
c	as

__BEGIN__	__EPS__
b	b
a	a
n	n
d	d

__BEGIN__	__EPS__
d	d
o	a

__BEGIN__	__EPS__
g	g
r	r
o	o
s	s
s	s
e	e
m	m

__BEGIN__	__EPS__
t	__EPS__
z	z
v	u

__BEGIN__	__EPS__
h	h
a	a
i	b
n	e
t	n

__BEGIN__	__EPS__
h	e
i	r

__BEGIN__	__EPS__
e	e
r	r
w	w
e	e
c	c
k	k
e	__EPS__
t	t
e	e

__BEGIN__	__EPS__
a	a
u	u
c	c
h	h

__BEGIN__	__EPS__
d	d
a	a
t	s
t	s

__BEGIN__	__EPS__
w	w
e	ä
r	re

__BEGIN__	__EPS__
e	e
r	r
t	d
r	re
i	i
c	c
h	h

__BEGIN__	__EPS__
e	e
r	r
l	l
o	ö
s	s
t	t

__BEGIN__	__EPS__
d	d
e	e
i	i
n	n
e	e
r	r

__BEGIN__	__EPS__
h	h
o	o
f	f
f	f
n	n
u	u
n	n
g	g

__BEGIN__	__EPS__
d	d
o	o
r	r
n	n
e	e
n	n

__BEGIN__	__EPS__
w	w
a	a
s	s

__BEGIN__	__EPS__
a	a
n	n
t	t
l	l
v	i
t	t
z	z
e	e

__BEGIN__	__EPS__
d	d
e	e
r	r

__BEGIN__	__EPS__
q	k
u	__EPS__
a	a
m	m
e	e
n	n

__BEGIN__	__EPS__
a	a
u	u
c	c
h	h

__BEGIN__	__EPS__
i	i
c	c
h	h

__BEGIN__	__EPS__
a	e
i	i
n	n
e	e
n	n

__BEGIN__	__EPS__
d	d
o	a

__BEGIN__	__EPS__
m	m
i	i
r	r

__BEGIN__	__EPS__
l	l
e	e
d	d
i	i
g	g
t	t

__BEGIN__	__EPS__
v	b
n	i
s	s
z	__EPS__

__BEGIN__	__EPS__
c	k
h	__EPS__
l	l
a	a
g	ge

__BEGIN__	__EPS__
n	n
u	u
r	r

__BEGIN__	__EPS__
i	i
c	c
h	h

__BEGIN__	__EPS__
m	m
i	i
c	c
h	h

__BEGIN__	__EPS__
s	s
y	i
m	m
e	e
o	o
n	n
i	__EPS__
s	s

__BEGIN__	__EPS__
w	w
a	a
s	r

__BEGIN__	__EPS__
m	m
o	o
c	c
h	h
t	te

__BEGIN__	__EPS__
i	j
a	ah
r	r

__BEGIN__	__EPS__
b	b
a	a
r	r
r	r
a	a
b	b
a	a
n	s

__BEGIN__	__EPS__
d	t
r	r
o	u
i	__EPS__
c	__EPS__
h	g

__BEGIN__	__EPS__
v	u
n	n
s	s

__BEGIN__	__EPS__
k	k
e	e
i	i
n	n

__BEGIN__	__EPS__
s	se
i	i
n	n

__BEGIN__	__EPS__
k	k
y	i
n	n
t	d

__BEGIN__	__EPS__
y	ih
m	m

__BEGIN__	__EPS__
e	e
r	r

__BEGIN__	__EPS__
b	b
a	a
l	l
d	d

__BEGIN__	__EPS__
a	a
u	u
c	c
h	h

__BEGIN__	__EPS__
d	d
i	i
e	e

__BEGIN__	__EPS__
z	z
e	u

__BEGIN__	__EPS__
e	e
r	r

__BEGIN__	__EPS__
s	s
e	e
l	l
b	b
e	e
n	n

__BEGIN__	__EPS__
v	u
n	n
n	__EPS__
d	d

__BEGIN__	__EPS__
j	j
o	u
e	__EPS__
d	d
e	e
n	n

__BEGIN__	__EPS__
b	b
e	e
s	s
e	e
h	h
e	e
n	n

__BEGIN__	__EPS__
f	f
u	ü
e	__EPS__
r	r

__BEGIN__	__EPS__
h	h
e	e
r	r
c	__EPS__
z	z

__BEGIN__	__EPS__
m	m
y	i
r	r

__BEGIN__	__EPS__
e	e
i	i
n	n

__BEGIN__	__EPS__
a	a
l	l
l	__EPS__
s	s
o	o

__BEGIN__	__EPS__
m	m
a	a
z	ss
e	e

__BEGIN__	__EPS__
i	i
n	n

__BEGIN__	__EPS__
w	w
a	a
s	r

__BEGIN__	__EPS__
h	h
e	a
t	t
t	__EPS__

__BEGIN__	__EPS__
d	d
v	ie

__BEGIN__	__EPS__
d	d
o	a

__BEGIN__	__EPS__
h	h
e	e
r	r
z	z
e	e
l	l
e	e
i	i
t	d

__BEGIN__	__EPS__
u	u
n	n
d	d

__BEGIN__	__EPS__
w	w
e	ei
n	n
t	t
e	e

__BEGIN__	__EPS__
a	a
b	b
e	e
r	r

__BEGIN__	__EPS__
l	l
a	a
c	c
r	r
i	i
m	m
e	e

__BEGIN__	e
v	u
c	c
h	h

__BEGIN__	__EPS__
v	u
n	n
d	d

__BEGIN__	__EPS__
s	se
i	i
t	t

__BEGIN__	__EPS__
n	n
e	e
m	h
p	m
t	t

__BEGIN__	__EPS__
e	e
r	r

__BEGIN__	__EPS__
e	e
r	r
s	s
c	c
h	h
r	r
a	a
c	__EPS__
k	k
e	e
n	n

__BEGIN__	__EPS__
h	h
i	i
n	n

__BEGIN__	__EPS__
d	d
e	e
m	m

__BEGIN__	__EPS__
g	g
e	e
s	s
c	c
h	h
a	a
c	__EPS__
h	h

__BEGIN__	__EPS__
a	a
b	b
s	sch
l	l
u	u
g	g

__BEGIN__	__EPS__
h	h
e	e
r	r
z	z
e	__EPS__

__BEGIN__	__EPS__
v	u
n	n
d	d

__BEGIN__	__EPS__
k	k
a	a
m	m
e	e
n	n
t	__EPS__

__BEGIN__	__EPS__
v	v
e	e
r	r
d	d
i	i
e	e
n	n
t	t

__BEGIN__	__EPS__
g	g
e	e
t	t
o	öt
e	e
d	t

__BEGIN__	__EPS__
d	d
e	e
n	n

__BEGIN__	__EPS__
w	w
o	o
l	ll
t	te

__BEGIN__	__EPS__
v	ü
e	__EPS__
b	b
e	e
r	r

__BEGIN__	__EPS__
s	s
e	e
l	l
b	b
i	__EPS__
g	__EPS__
e	e
n	__EPS__

__BEGIN__	__EPS__
d	d
e	e
r	r

__BEGIN__	__EPS__
d	d
i	i
c	c
k	k
e	__EPS__

__BEGIN__	__EPS__
c	k
h	__EPS__
l	l
a	a
g	ge

__BEGIN__	__EPS__
d	d
e	e
n	n

__BEGIN__	__EPS__
l	l
e	ä
s	s
t	t
e	e
r	r
l	l
i	i
c	c
h	h
e	e
n	n

__BEGIN__	d
v	u

__BEGIN__	__EPS__
d	d
y	i
r	r

__BEGIN__	__EPS__
d	d
i	i
e	e

__BEGIN__	__EPS__
w	w
a	ä
r	re

__BEGIN__	__EPS__
d	d
u	u

__BEGIN__	__EPS__
v	u
n	n
d	d

__BEGIN__	__EPS__
p	p
h	f
e	e
n	n
n	n
y	i
g	g
e	e

__BEGIN__	__EPS__
d	d
u	u
r	r
c	c
h	h
s	s
t	t
o	o
e	__EPS__
z	s
z	s
e	e
n	n

__BEGIN__	__EPS__
e	e
r	r

__BEGIN__	__EPS__
y	ih
m	m

__BEGIN__	__EPS__
s	s
i	ie

__BEGIN__	__EPS__
a	a
l	l
s	s

__BEGIN__	__EPS__
k	k
r	r
o	o
n	ne

__BEGIN__	__EPS__
v	u
n	n
d	d

__BEGIN__	__EPS__
d	d
e	e
m	m

__BEGIN__	d
u	u

__BEGIN__	__EPS__
k	k
u	ö
n	n
i	i
g	g

__BEGIN__	__EPS__
s	s
i	i
c	c
h	h

__BEGIN__	__EPS__
h	ha
u	u
s	s

__BEGIN__	__EPS__
t	t
o	o
d	d

__BEGIN__	__EPS__
g	g
o	o
t	tt

__BEGIN__	__EPS__
v	u
n	n
d	d

__BEGIN__	__EPS__
n	n
i	i
c	c
h	h
t	t
z	s

__BEGIN__	__EPS__
d	d
o	a

__BEGIN__	__EPS__
g	__EPS__
e	__EPS__
s	s
e	e
i	i
n	n

__BEGIN__	__EPS__
y	ih
n	n

__BEGIN__	__EPS__
w	w
a	a
z	r

__BEGIN__	__EPS__
d	d
u	u
r	r
c	c
h	h

__BEGIN__	__EPS__
d	d
o	a

__BEGIN__	__EPS__
s	s
o	o

__BEGIN__	__EPS__
a	a
n	n

__BEGIN__	__EPS__
h	h
a	a
s	s
t	t

__BEGIN__	__EPS__
t	d
e	e
n	n

__BEGIN__	__EPS__
m	m
e	e
i	i
n	n
e	e
n	m

__BEGIN__	__EPS__
t	t
u	u
t	t

__BEGIN__	__EPS__
o	o
d	d
e	e
r	r

__BEGIN__	d
ü	u

__BEGIN__	__EPS__
d	d
u	u
r	r
c	c
h	h

__BEGIN__	__EPS__
e	e
s	s

__BEGIN__	__EPS__
t	t
u	u
n	n
t	__EPS__

__BEGIN__	__EPS__
s	s
e	e
r	h
e	r

__BEGIN__	__EPS__
b	b
e	e
g	g
a	an
i	ge
n	n

__BEGIN__	__EPS__
b	be
y	i

__BEGIN__	__EPS__
s	s
p	p
r	r
a	a
c	c
h	h

__BEGIN__	__EPS__
m	m
a	a
r	r
i	i
a	a

__BEGIN__	__EPS__
b	be
y	i

__BEGIN__	__EPS__
s	s
e	a
i	g
t	t
e	e
n	n

__BEGIN__	__EPS__
e	e
n	m
p	p
h	f
a	a
n	n
g	g
e	e
n	n

__BEGIN__	__EPS__
m	m
i	i
t	t

__BEGIN__	__EPS__
s	s
i	i
c	e
h	h

__BEGIN__	__EPS__
h	h
e	ö
l	l
l	le

__BEGIN__	__EPS__
w	w
ü	u
n	n
d	d
e	e
r	r

__BEGIN__	__EPS__
b	b
i	i
s	s
t	t

__BEGIN__	__EPS__
e	e
r	r
l	le
v	u
i	c
h	h
t	t
e	e
t	t

__BEGIN__	__EPS__
d	d
o	a
h	h
i	i
n	n

__BEGIN__	__EPS__
s	s
y	ie

__BEGIN__	__EPS__
e	e
r	r
l	l
o	a
u	u
p	b
t	te

__BEGIN__	__EPS__
d	d
o	a

__BEGIN__	__EPS__
v	u
n	n
d	d

__BEGIN__	__EPS__
i	j
h	__EPS__
e	e
s	s
u	u
s	s

__BEGIN__	__EPS__
w	w
a	a
n	nn

__BEGIN__	__EPS__
d	d
y	ie

__BEGIN__	__EPS__
a	a
n	n
l	l
e	e
g	g
e	e
n	n

__BEGIN__	__EPS__
g	g
e	e
f	f
a	a
n	n
g	g
e	e
n	n

__BEGIN__	__EPS__
v	u
n	n
n	d

__BEGIN__	__EPS__
s	se
y	i
n	n

__BEGIN__	__EPS__
s	s
t	t
a	ad
t	t

__BEGIN__	__EPS__
e	e
s	s

__BEGIN__	__EPS__
p	p
i	i
l	l
a	a
t	t
u	u
s	s

__BEGIN__	__EPS__
d	d
o	a

__BEGIN__	__EPS__
s	s
o	o

__BEGIN__	__EPS__
a	a
n	n
d	d
e	e
r	r
e	e
n	n

__BEGIN__	__EPS__
l	l
i	i
n	n
c	__EPS__
k	k
e	e
n	n

__BEGIN__	__EPS__
s	s
i	ie

__BEGIN__	__EPS__
d	d
e	e
m	m

__BEGIN__	__EPS__
v	u
n	n
d	d

__BEGIN__	__EPS__
e	e
r	r
l	l
e	a
u	u
b	b
e	__EPS__
s	s
t	t

__BEGIN__	__EPS__
g	g
i	i
e	__EPS__
n	n
g	g
t	__EPS__
e	e
n	n

__BEGIN__	__EPS__
b	b
r	r
i	i
e	e
f	f
f	__EPS__

__BEGIN__	__EPS__
k	k
i	i
n	n
t	d
h	__EPS__

__BEGIN__	__EPS__
d	d
e	e
n	n
n	n
e	__EPS__

__BEGIN__	__EPS__
i	ih
n	n

__BEGIN__	__EPS__
d	d
e	e
r	r

__BEGIN__	__EPS__
y	ih
n	n

__BEGIN__	__EPS__
t	t
o	ö
e	__EPS__
t	t
t	__EPS__
e	e

__BEGIN__	__EPS__
m	m
i	i
t	t

__BEGIN__	__EPS__
h	h
e	a
t	t
t	t
e	e
n	n

__BEGIN__	__EPS__
y	je

__BEGIN__	__EPS__
d	d
i	i
e	e

__BEGIN__	__EPS__
k	k
r	r
a	a
f	__EPS__
f	f
t	t

__BEGIN__	__EPS__
h	e
e	r

__BEGIN__	__EPS__
f	f
u	ü
i	h
r	r
e	__EPS__
t	t

__BEGIN__	__EPS__
n	n
a	a
c	c
h	h

__BEGIN__	__EPS__
b	b
o	o
t	t

__BEGIN__	__EPS__
d	d
i	i
e	e

__BEGIN__	__EPS__
v	u
n	n
d	d

__BEGIN__	__EPS__
e	e
r	r
s	s
t	t
u	a
n	n
d	d

__BEGIN__	__EPS__
d	d
e	e
r	r

__BEGIN__	__EPS__
a	e
i	i
n	n
e	e
n	n

__BEGIN__	__EPS__
y	ih
m	m

__BEGIN__	__EPS__
s	sch
w	w
e	ö
r	re
n	n

__BEGIN__	__EPS__
s	s
t	t
u	u
n	n
d	de

__BEGIN__	__EPS__
s	s
i	i
c	c
h	h

__BEGIN__	__EPS__
h	h
e	a
t	t

__BEGIN__	__EPS__
s	s
o	ol
l	l
t	t

__BEGIN__	__EPS__
s	s
c	c
h	h
w	w
e	e
r	r
t	t

__BEGIN__	__EPS__
i	i
n	n

__BEGIN__	__EPS__
s	s
e	e
i	i
n	n

__BEGIN__	__EPS__
s	s
t	t
a	ä
t	tte

__BEGIN__	__EPS__
d	d
a	a
s	s

__BEGIN__	__EPS__
d	d
u	u

__BEGIN__	__EPS__
b	b
e	__EPS__
l	l
e	e
i	i
b	b
e	e
n	n

__BEGIN__	__EPS__
d	d
o	a

__BEGIN__	__EPS__
w	w
a	a
t	s

__BEGIN__	__EPS__
p	p
i	i
l	l
a	a
t	t
u	u
s	s

__BEGIN__	__EPS__
s	s
o	o

__BEGIN__	__EPS__
w	w
a	a
s	r

__BEGIN__	__EPS__
t	t
u	u
e	e
n	n
t	d

__BEGIN__	__EPS__
d	d
o	a

__BEGIN__	__EPS__
p	p
y	i
l	l
a	a
t	t
u	u
s	s

__BEGIN__	__EPS__
g	g
e	e
b	b
e	e
n	n

__BEGIN__	__EPS__
i	i
c	c
h	h

__BEGIN__	__EPS__
d	d
y	ie

__BEGIN__	__EPS__
s	s
o	o

__BEGIN__	__EPS__
i	u
n	n
d	d

__BEGIN__	__EPS__
w	w
u	u
r	r
d	de
t	t

__BEGIN__	__EPS__
g	g
e	e
s	s
e	e
t	t
z	z
e	__EPS__
d	__EPS__
e	__EPS__

__BEGIN__	__EPS__
l	l
e	e
g	g
t	t
e	e
n	n

__BEGIN__	__EPS__
v	u
n	n
d	d

__BEGIN__	__EPS__
b	b
e	e
g	g
ü	a
n	n
d	__EPS__
e	n

__BEGIN__	__EPS__
i	ih
m	m

__BEGIN__	__EPS__
t	__EPS__
z	z
o	u
s	s
p	p
r	r
e	e
c	c
h	h
e	e
n	n

__BEGIN__	__EPS__
d	t
o	ö
d	t
e	e
n	n

__BEGIN__	__EPS__
m	m
e	e
i	i
n	n

__BEGIN__	__EPS__
a	a
b	b
l	l
e	e
g	g
e	e
n	n

__BEGIN__	__EPS__
s	s
p	p
r	r
a	a
c	c
h	h

__BEGIN__	__EPS__
i	ih
n	n
e	e
n	n

__BEGIN__	__EPS__
v	u
n	n
d	t
e	e
r	r

__BEGIN__	__EPS__
l	l
a	ä
s	ss
t	t

__BEGIN__	__EPS__
l	la
u	u
d	t
e	e
r	r

__BEGIN__	__EPS__
d	d
i	i
e	e

__BEGIN__	__EPS__
h	h
i	i
e	e
s	s
z	s

__BEGIN__	__EPS__
v	u
n	n
d	d

__BEGIN__	__EPS__
s	s
o	oh
n	n

__BEGIN__	__EPS__
s	s
p	p
r	r
a	ac
h	h
e	e
n	n

__BEGIN__	__EPS__
a	a
n	n
d	d
e	e
r	re
n	n

__BEGIN__	__EPS__
p	p
y	i
l	l
a	a
t	t
o	us

__BEGIN__	__EPS__
e	e
r	r
f	f
v	ü
i	__EPS__
l	l
l	l
e	__EPS__
t	t

__BEGIN__	__EPS__
d	d
e	e
s	s

__BEGIN__	__EPS__
n	g
a	est
e	e
c	__EPS__
h	r
t	n

__BEGIN__	__EPS__
s	s
y	ie

__BEGIN__	__EPS__
d	d
o	a

__BEGIN__	__EPS__
m	m
i	i
t	t

