__BEGIN__	__EPS__
m	m
a	a
g	g

__BEGIN__	__EPS__
d	d
a	a
r	r
a	a
u	u
f	f
f	__EPS__

__BEGIN__	__EPS__
m	m
i	i
t	t

__BEGIN__	__EPS__
e	e
r	r
h	h
u	__EPS__
o	o
b	b

__BEGIN__	__EPS__
s	s
a	a
c	__EPS__
h	h
e	e
n	n

__BEGIN__	__EPS__
l	l
i	i
e	e
u	b
e	e

__BEGIN__	__EPS__
e	e
y	i
n	n
z	z
u	u
n	n
e	e
h	h
m	m
e	e
n	n

__BEGIN__	__EPS__
g	g
i	i
e	__EPS__
n	n
g	g

__BEGIN__	__EPS__
d	da
z	s

__BEGIN__	__EPS__
d	d
a	a
z	s

__BEGIN__	__EPS__
g	g
e	e
l	l
o	a
f	u
f	f
e	e
n	n

__BEGIN__	__EPS__
d	d
w	u

__BEGIN__	__EPS__
d	d
e	e
r	r

__BEGIN__	__EPS__
s	s
e	e
i	i
n	n

__BEGIN__	__EPS__
s	s
y	ie

__BEGIN__	__EPS__
a	a
u	u
s	s
f	f
u	ü
e	h
r	r
t	t

__BEGIN__	__EPS__
m	m
o	o
c	c
h	h
t	t
e	e

__BEGIN__	__EPS__
w	w
o	o
u	ll
d	t
e	e

__BEGIN__	__EPS__
h	h
i	i
e	__EPS__
n	n
g	g

__BEGIN__	__EPS__
d	d
e	e
n	n

__BEGIN__	__EPS__
p	p
y	i
l	l
a	a
t	t
u	u
s	s

__BEGIN__	__EPS__
d	d
a	a
z	s

__BEGIN__	__EPS__
s	s
e	e
l	l
b	b
i	__EPS__
g	__EPS__
e	e
n	__EPS__

__BEGIN__	__EPS__
d	d
y	ie

__BEGIN__	__EPS__
i	ih
m	m

__BEGIN__	__EPS__
w	w
o	o
l	l
l	l
e	e
n	n

__BEGIN__	__EPS__
d	d
o	a

__BEGIN__	__EPS__
d	d
o	a

__BEGIN__	__EPS__
v	v
i	i
e	e
r	r

__BEGIN__	__EPS__
v	v
o	o
n	n

__BEGIN__	__EPS__
h	h
i	i
n	n
d	t
e	e
r	r

__BEGIN__	__EPS__
m	m
e	e
i	i
n	n

__BEGIN__	__EPS__
s	s
o	o
e	l
l	l
t	t
e	e

__BEGIN__	__EPS__
c	__EPS__
h	k
a	a
w	u
m	m

__BEGIN__	__EPS__
d	d
e	e
m	m

__BEGIN__	__EPS__
v	u
n	n
d	d
e	__EPS__

__BEGIN__	__EPS__
v	u
n	n
d	d
e	__EPS__

__BEGIN__	__EPS__
s	s
i	e
e	i
n	n
e	e
s	s
z	__EPS__

__BEGIN__	__EPS__
n	n
u	un

__BEGIN__	__EPS__
g	g
e	e
k	k
r	r
e	ä
w	h
e	__EPS__
t	t

__BEGIN__	__EPS__
v	f
o	ü
e	__EPS__
s	s
s	s
e	e

__BEGIN__	__EPS__
m	m
i	i
t	t

__BEGIN__	__EPS__
w	w
a	a
s	r

__BEGIN__	__EPS__
d	d
o	a

__BEGIN__	__EPS__
g	g
e	e
r	r
i	i
c	c
h	h
t	t
e	__EPS__

__BEGIN__	__EPS__
y	ih
n	n

__BEGIN__	__EPS__
h	h
u	ü
t	t
e	e
n	n

__BEGIN__	__EPS__
s	s
i	i
c	c
h	h

__BEGIN__	__EPS__
s	s
c	c
h	h
r	r
i	i
e	e
n	n

__BEGIN__	__EPS__
b	b
i	i
s	s
z	__EPS__

__BEGIN__	__EPS__
e	e
r	r

__BEGIN__	__EPS__
v	v
o	o
n	n

__BEGIN__	__EPS__
d	d
u	u

__BEGIN__	__EPS__
w	w
e	ä
r	re

__BEGIN__	__EPS__
s	s
o	o

__BEGIN__	__EPS__
c	k
h	o
o	m
m	m
e	e
n	n

__BEGIN__	__EPS__
d	d
e	e
r	r

__BEGIN__	__EPS__
b	be
i	i

__BEGIN__	__EPS__
e	e
r	r

__BEGIN__	__EPS__
b	b
a	a
l	l
d	d

__BEGIN__	__EPS__
l	l
i	i
e	e
b	b

__BEGIN__	__EPS__
m	m
a	a
r	r
i	i
a	a

__BEGIN__	__EPS__
m	m
i	i
t	t

__BEGIN__	__EPS__
d	d
o	a

__BEGIN__	__EPS__
s	s
t	t
o	ö
r	r
e	e
r	r

__BEGIN__	__EPS__
s	s
p	p
r	r
a	a
c	c
h	h

__BEGIN__	__EPS__
s	s
e	e
i	i
n	n

__BEGIN__	__EPS__
d	d
i	i
n	n
c	g
h	__EPS__

__BEGIN__	__EPS__
m	m
u	u
t	tt
e	e
r	r

__BEGIN__	__EPS__
a	a
n	n

__BEGIN__	__EPS__
d	d
e	e
i	i
n	n
e	e
r	r

__BEGIN__	__EPS__
e	e
r	r

__BEGIN__	__EPS__
i	ih
m	m

__BEGIN__	__EPS__
d	d
e	e
n	n

__BEGIN__	__EPS__
v	v
o	o
n	n

__BEGIN__	__EPS__
e	e
i	i
n	n
e	e
r	r

__BEGIN__	__EPS__
b	be
y	i

__BEGIN__	__EPS__
c	__EPS__
z	z
u	u

__BEGIN__	__EPS__
r	r
a	e
i	i
n	n
i	e
u	__EPS__

__BEGIN__	__EPS__
s	s
e	eh
r	r
e	__EPS__

__BEGIN__	__EPS__
s	s
p	p
i	a
l	l
t	tete

__BEGIN__	__EPS__
s	s
i	i
e	e

__BEGIN__	__EPS__
s	s
o	ol
l	l

__BEGIN__	__EPS__
v	u
n	n
d	d

__BEGIN__	__EPS__
w	w
e	e
r	r
f	__EPS__
f	f
e	e
n	n
t	__EPS__

__BEGIN__	__EPS__
s	s
e	ee
l	le

__BEGIN__	__EPS__
v	u
n	n
d	d

__BEGIN__	__EPS__
v	f
i	i
n	n
d	de

__BEGIN__	__EPS__
s	s
c	c
h	h
w	w
e	e
r	r
t	t

__BEGIN__	__EPS__
c	__EPS__
z	z
u	u

__BEGIN__	__EPS__
v	u
n	n
d	d

__BEGIN__	__EPS__
s	s
u	o
n	nne

__BEGIN__	__EPS__
e	e
r	r
g	g
i	i
e	__EPS__
n	n
g	g

__BEGIN__	__EPS__
p	b
l	l
u	u
o	__EPS__
t	t

__BEGIN__	__EPS__
b	g
e	e
n	n
ü	ü
g	g
e	__EPS__
t	t
e	e

__BEGIN__	__EPS__
o	a
u	u
c	c
h	h

__BEGIN__	__EPS__
h	h
e	e
l	l
f	f
f	__EPS__
i	e
n	n

__BEGIN__	__EPS__
d	d
o	o
c	c
h	h

__BEGIN__	__EPS__
h	h
a	a
t	t
t	t
e	e
n	n
t	__EPS__

__BEGIN__	__EPS__
d	d
y	ie

__BEGIN__	__EPS__
e	ih
n	n

__BEGIN__	__EPS__
b	b
i	i
t	t
t	t
e	e
r	r
l	l
i	i
c	c
h	h
e	e
n	n

__BEGIN__	__EPS__
v	__EPS__
e	e
r	r
h	l
e	a
n	u
g	b
t	t

__BEGIN__	__EPS__
w	w
e	ei
s	ss
t	t

__BEGIN__	__EPS__
h	h
a	abe
n	n

__BEGIN__	__EPS__
w	w
e	ä
r	re

__BEGIN__	__EPS__
l	le
u	u
d	t
e	e

__BEGIN__	__EPS__
p	w
a	a
i	r
t	t
e	e
n	n

__BEGIN__	__EPS__
k	k
e	e
i	i
n	n

__BEGIN__	__EPS__
g	g
a	a
r	r

__BEGIN__	__EPS__
n	n
v	un

__BEGIN__	__EPS__
f	f
r	r
a	a
g	g
e	__EPS__
t	t

__BEGIN__	__EPS__
m	m
e	e
i	i
n	n

__BEGIN__	__EPS__
d	da
z	ss

__BEGIN__	__EPS__
m	m
o	o
c	c
h	h
t	t
e	e

__BEGIN__	__EPS__
g	g
a	a
b	b

__BEGIN__	__EPS__
d	d
v	u

__BEGIN__	__EPS__
w	w
o	ol
l	l
t	t
e	e
n	n

__BEGIN__	__EPS__
d	d
e	e
z	s

__BEGIN__	__EPS__
k	k
i	i
n	n
t	d

__BEGIN__	__EPS__
e	n
n	icht

__BEGIN__	__EPS__
d	d
o	a

__BEGIN__	__EPS__
s	s
p	p
r	r
a	a
c	c
h	h

__BEGIN__	__EPS__
s	se
y	i
n	n
e	e

__BEGIN__	__EPS__
y	ih
n	n

__BEGIN__	__EPS__
d	d
a	a
s	ss

__BEGIN__	__EPS__
v	ü
b	b
e	e
r	r

__BEGIN__	__EPS__
a	a
l	l
l	l
e	e

__BEGIN__	__EPS__
w	w
a	a
r	r
t	d

__BEGIN__	__EPS__
w	w
a	ah
r	r
h	h
a	e
i	i
t	t

__BEGIN__	__EPS__
w	w
y	i
r	r

__BEGIN__	__EPS__
s	se
i	i
n	n

__BEGIN__	__EPS__
v	u
n	n
d	d

__BEGIN__	__EPS__
i	ih
r	re
n	n

__BEGIN__	__EPS__
a	a
n	n

__BEGIN__	__EPS__
d	d
o	a

__BEGIN__	__EPS__
s	se
y	i
n	n
e	e

__BEGIN__	__EPS__
m	me
i	i
n	n

__BEGIN__	__EPS__
v	v
e	e
r	r
b	b
o	o
r	r
g	g
e	e
n	n

__BEGIN__	__EPS__
g	g
e	e
m	m
a	a
c	c
h	h
t	t

__BEGIN__	__EPS__
z	z
a	a
r	r
t	t
v	__EPS__
i	e

__BEGIN__	__EPS__
d	d
o	a

__BEGIN__	__EPS__
y	ih
n	n

__BEGIN__	__EPS__
a	a
n	n
s	s
h	__EPS__
e	e
l	l
m	m

__BEGIN__	__EPS__
v	u
n	n
d	d

__BEGIN__	__EPS__
a	a
l	l
s	s
o	o

__BEGIN__	__EPS__
w	w
e	e
r	__EPS__
l	l
d	t
e	__EPS__

__BEGIN__	__EPS__
d	d
a	a
n	nn

__BEGIN__	__EPS__
k	k
r	r
u	__EPS__
i	e
t	u
z	z

__BEGIN__	__EPS__
k	k
i	i
n	n
t	d

__BEGIN__	__EPS__
r	r
a	e
i	i
n	n
e	__EPS__
s	s
t	t

__BEGIN__	__EPS__
v	f
a	a
d	d
e	e
m	n

__BEGIN__	__EPS__
s	s
c	c
h	h
r	r
u	i
w	__EPS__
e	e
n	n

__BEGIN__	__EPS__
s	s
v	o
l	llte
n	n

__BEGIN__	__EPS__
d	d
a	a

__BEGIN__	__EPS__
a	a
l	l
l	l
e	e
r	r
l	l
i	ie
b	b
s	s
t	t
e	e

__BEGIN__	__EPS__
s	se
i	i
n	n

__BEGIN__	__EPS__
g	g
e	e
s	s
c	c
h	h
a	a
c	__EPS__
h	h

__BEGIN__	__EPS__
s	s
c	c
h	h
r	r
i	i
r	__EPS__
e	e
n	n

__BEGIN__	__EPS__
v	u
n	n
d	d

__BEGIN__	__EPS__
d	d
e	e
r	r

__BEGIN__	__EPS__
d	d
y	i
r	r

__BEGIN__	__EPS__
d	d
o	a

__BEGIN__	__EPS__
c	k
r	r
o	o
n	ne

__BEGIN__	__EPS__
b	b
l	l
o	u
i	__EPS__
d	t
e	__EPS__

__BEGIN__	__EPS__
s	s
e	e
i	i
n	n
e	e
n	n

__BEGIN__	__EPS__
t	t
r	r
o	ö
s	s
t	t
e	e
n	n

__BEGIN__	__EPS__
d	d
a	a
r	r
v	a
s	u
s	s

__BEGIN__	__EPS__
v	u
n	n
d	d

__BEGIN__	__EPS__
f	f
r	r
o	__EPS__
i	e
w	u
e	__EPS__
t	t

__BEGIN__	__EPS__
s	s
a	o
l	ll
t	t

__BEGIN__	__EPS__
w	wi
e	e
d	d
e	e
r	r

__BEGIN__	__EPS__
s	se
y	i
n	n
e	e

__BEGIN__	__EPS__
e	e
r	r

__BEGIN__	__EPS__
d	d
y	ie

__BEGIN__	__EPS__
i	ih
n	n

__BEGIN__	__EPS__
r	r
i	i
e	e
f	f
f	__EPS__
e	e
n	n

__BEGIN__	__EPS__
h	h
i	i
m	mm
e	e
l	l

__BEGIN__	__EPS__
d	d
a	a
s	ss

__BEGIN__	__EPS__
a	a
l	l
l	l
e	e

__BEGIN__	__EPS__
e	e
r	r

__BEGIN__	__EPS__
g	g
e	e
t	t
a	a
n	n

__BEGIN__	__EPS__
h	h
e	a
t	t

__BEGIN__	__EPS__
r	r
e	e
c	c
h	h
t	t

__BEGIN__	__EPS__
f	f
i	i
l	l
y	y
s	s

__BEGIN__	__EPS__
d	d
e	e
r	r

__BEGIN__	__EPS__
w	w
o	oh
l	l

__BEGIN__	__EPS__
h	h
e	e
b	b

__BEGIN__	__EPS__
z	z
e	u

__BEGIN__	__EPS__
i	j
o	o
h	h
a	a
n	n
n	n
e	e
s	s

__BEGIN__	__EPS__
b	b
e	e
y	i

__BEGIN__	__EPS__
o	au
c	c
h	h

__BEGIN__	__EPS__
s	sä
v	u
l	le

__BEGIN__	__EPS__
h	h
e	e
r	r
a	a
u	u
s	s

__BEGIN__	__EPS__
v	u
n	n
s	s

__BEGIN__	__EPS__
d	d
i	i
r	r

__BEGIN__	__EPS__
a	e
i	i
n	nen

__BEGIN__	__EPS__
m	me
y	i
n	n
e	e
s	s

__BEGIN__	__EPS__
d	d
u	u

__BEGIN__	__EPS__
d	d
i	ie
s	s

__BEGIN__	__EPS__
m	m
a	a
n	n

__BEGIN__	__EPS__
w	w
e	e
r	r
d	de

__BEGIN__	__EPS__
v	u
n	n
d	d

__BEGIN__	__EPS__
m	m
i	i
t	t

__BEGIN__	__EPS__
s	s
e	e
i	i
n	n

__BEGIN__	__EPS__
d	d
e	e
i	i
n	n

__BEGIN__	__EPS__
v	v
o	o
r	r

__BEGIN__	__EPS__
l	l
e	eh
r	r
e	e

__BEGIN__	__EPS__
s	se
y	i
n	n

__BEGIN__	__EPS__
d	d
y	i
e	e

__BEGIN__	__EPS__
v	v
o	o
n	n

__BEGIN__	__EPS__
m	me
i	i
n	n

__BEGIN__	__EPS__
d	d
u	u

__BEGIN__	__EPS__
w	w
a	a
t	s

__BEGIN__	__EPS__
k	k
r	r
a	a
n	n
k	k
c	__EPS__
h	h
a	e
i	i
d	t

__BEGIN__	__EPS__
t	t
r	r
o	o
s	s
t	t

__BEGIN__	__EPS__
s	s
y	ie

__BEGIN__	__EPS__
d	d
e	e
n	n
n	n
e	__EPS__

__BEGIN__	__EPS__
b	b
a	a
l	l
d	d
e	__EPS__

__BEGIN__	__EPS__
i	ih
r	r

__BEGIN__	__EPS__
d	d
a	a
i	__EPS__
r	__EPS__

__BEGIN__	__EPS__
a	a
n	n
t	t
w	w
u	o
r	r
t	t
e	e
s	s
t	t

__BEGIN__	__EPS__
d	d
a	a
t	ss

__BEGIN__	__EPS__
w	w
o	o

__BEGIN__	__EPS__
d	d
y	i
e	e

__BEGIN__	__EPS__
e	e
r	r
t	d
r	re
i	i
c	c
h	h

__BEGIN__	__EPS__
d	d
i	i
e	e

__BEGIN__	__EPS__
n	n
i	i
c	c
h	h
t	t

__BEGIN__	__EPS__
v	u
n	n
d	d

__BEGIN__	__EPS__
s	s
i	i
c	c
h	h

__BEGIN__	__EPS__
z	d
e	e
r	__EPS__
s	h
p	__EPS__
a	__EPS__
n	n
t	t
e	e
n	n

__BEGIN__	__EPS__
h	h
e	__EPS__
b	a
b	b
e	e
n	n

__BEGIN__	__EPS__
m	m
a	a
n	n

__BEGIN__	__EPS__
w	w
a	a
n	n
n	n
e	__EPS__

__BEGIN__	__EPS__
d	d
e	e
n	n

__BEGIN__	__EPS__
e	e
i	i
n	n

__BEGIN__	__EPS__
s	s
a	a
n	nk
t	t

__BEGIN__	__EPS__
e	e
r	r

__BEGIN__	__EPS__
v	u
n	n
d	d

__BEGIN__	__EPS__
g	g
o	o
t	tte
s	s
s	s
u	oh
n	n

__BEGIN__	__EPS__
i	je
d	d
o	o
c	c
h	h

__BEGIN__	__EPS__
t	t
r	r
a	a
g	g
e	e
n	n

__BEGIN__	__EPS__
w	w
a	a
n	nn

__BEGIN__	__EPS__
m	m
u	ö
g	g
e	e
n	n

__BEGIN__	__EPS__
d	d
a	as
s	s

__BEGIN__	__EPS__
d	d
i	i
e	e

__BEGIN__	__EPS__
d	d
r	r
e	e
y	i
e	e
r	r
h	l
a	e
n	i
t	__EPS__

__BEGIN__	__EPS__
d	d
a	a
r	__EPS__
n	n
o	a
c	c
h	h

__BEGIN__	d
u	u

__BEGIN__	__EPS__
v	v
o	o
n	n

__BEGIN__	__EPS__
a	a
l	l
l	l
e	e
n	n

__BEGIN__	__EPS__
i	i
c	c
h	h

__BEGIN__	__EPS__
d	d
o	a

__BEGIN__	__EPS__
n	n
a	a
g	g
e	e
l	l

__BEGIN__	__EPS__
y	i
n	n

__BEGIN__	__EPS__
d	d
a	a
z	ss

__BEGIN__	__EPS__
i	j
u	u
d	d
e	e
n	n

__BEGIN__	__EPS__
g	g
e	__EPS__
l	l
e	e
i	i
c	c
h	h

__BEGIN__	__EPS__
m	m
e	e
n	n
s	s
h	c
e	h
l	l
i	i
c	c
h	h

__BEGIN__	__EPS__
s	s
p	p
r	r
a	a
c	c
h	h

__BEGIN__	__EPS__
a	a
l	l
l	l
e	e
n	n

__BEGIN__	__EPS__
c	k
l	l
a	a
r	r

__BEGIN__	__EPS__
n	n
y	i
m	mm

__BEGIN__	__EPS__
i	i
n	n

__BEGIN__	__EPS__
s	s
e	e
i	i
n	n
e	e
n	n

__BEGIN__	__EPS__
v	v
o	o
r	r

__BEGIN__	__EPS__
g	üb
e	e
a	r
n	g
t	e
w	b
u	e
r	n
t	__EPS__

__BEGIN__	__EPS__
v	a
z	u
z	s

__BEGIN__	__EPS__
s	s
t	t
u	a
n	n
t	d

__BEGIN__	__EPS__
v	v
o	o
n	n

__BEGIN__	__EPS__
h	h
i	i
e	e
z	s
z	s

__BEGIN__	__EPS__
t	ta
v	u
s	s
e	e
n	n
t	d

__BEGIN__	__EPS__
i	ih
m	m

__BEGIN__	__EPS__
c	k
l	l
a	a
g	g
t	t

__BEGIN__	__EPS__
g	g
i	i
e	ng

__BEGIN__	__EPS__
c	__EPS__
z	z
u	u

__BEGIN__	__EPS__
m	m
i	i
t	t

__BEGIN__	__EPS__
i	i
c	c
h	h

__BEGIN__	__EPS__
i	ih
r	r
e	e

__BEGIN__	__EPS__
m	m
i	i
r	r

__BEGIN__	__EPS__
g	g
u	ü
e	__EPS__
t	t
l	l
i	i
c	c
h	h

__BEGIN__	__EPS__
s	s
e	e
n	n
d	d
e	e
t	t
e	e

__BEGIN__	__EPS__
s	s
i	i
e	e

__BEGIN__	__EPS__
r	re
i	i
e	__EPS__
c	c
h	h

__BEGIN__	__EPS__
d	d
a	a
z	s

__BEGIN__	__EPS__
w	w
i	ie
d	d
e	e
r	r

__BEGIN__	__EPS__
m	m
e	e
n	n
s	s
c	c
h	h
e	e
n	n

__BEGIN__	__EPS__
n	n
i	i
c	c
h	h
t	t

__BEGIN__	__EPS__
o	u
n	n
d	t
e	e
r	r

__BEGIN__	__EPS__
w	w
a	a
s	r
z	__EPS__

__BEGIN__	__EPS__
m	m
i	i
c	c
h	h

__BEGIN__	__EPS__
k	k
i	i
n	n
t	d

__BEGIN__	__EPS__
s	s
e	e
c	c
h	h
s	s
t	t
e	e
n	n

__BEGIN__	__EPS__
d	d
o	a

__BEGIN__	__EPS__
d	d
o	a

__BEGIN__	__EPS__
v	u
n	n
d	d

__BEGIN__	__EPS__
e	e
r	r

__BEGIN__	__EPS__
t	t
a	a
g	ge
s	s

__BEGIN__	__EPS__
d	d
o	a

__BEGIN__	__EPS__
d	d
i	i
e	e

__BEGIN__	__EPS__
i	j
e	e

__BEGIN__	__EPS__
w	w
i	i
r	r

__BEGIN__	__EPS__
m	m
i	i
t	t

__BEGIN__	__EPS__
f	f
r	r
a	a
w	u
e	__EPS__

__BEGIN__	__EPS__
d	d
a	a
t	ss

__BEGIN__	__EPS__
k	k
o	a
m	m
e	__EPS__

__BEGIN__	__EPS__
s	s
y	ie

__BEGIN__	__EPS__
v	f
i	i
e	__EPS__
n	n
g	g

__BEGIN__	__EPS__
f	f
u	üh
r	r
t	te

__BEGIN__	__EPS__
e	e
i	i
n	n

__BEGIN__	__EPS__
d	d
o	a

__BEGIN__	__EPS__
s	s
e	e
y	i

__BEGIN__	__EPS__
v	v
o	o
n	n

__BEGIN__	__EPS__
w	w
a	a
s	s

__BEGIN__	__EPS__
v	u
r	r
t	t
e	e
i	i
l	l

__BEGIN__	__EPS__
e	e
w	w
e	ig
l	l
i	i
c	c
k	h

__BEGIN__	__EPS__
a	a
l	l
l	l
e	e
s	s
z	__EPS__

__BEGIN__	__EPS__
s	s
t	t
r	r
a	a
f	f
t	t

__BEGIN__	__EPS__
v	u
n	n
d	d

__BEGIN__	__EPS__
w	w
a	a
s	r

__BEGIN__	__EPS__
f	f
r	r
a	a
u	u

__BEGIN__	__EPS__
m	m
e	ö
c	c
h	h
t	te

__BEGIN__	__EPS__
i	i
c	c
h	h

__BEGIN__	__EPS__
n	n
y	ie
m	m
a	a
n	n
d	d
e	__EPS__

__BEGIN__	__EPS__
e	e
i	i
n	n

__BEGIN__	__EPS__
m	m
e	e
n	n
s	sch
l	l
i	i
c	c
h	h

__BEGIN__	__EPS__
f	f
u	üh
r	r
t	t
e	e
n	n

__BEGIN__	__EPS__
m	m
i	i
c	c
h	h

__BEGIN__	__EPS__
s	s
e	e
h	h
e	e
n	n

__BEGIN__	__EPS__
i	ih
n	n

__BEGIN__	__EPS__
a	a
l	l
s	s
o	o

__BEGIN__	__EPS__
d	d
i	i
e	e

__BEGIN__	__EPS__
s	s
a	ag
t	t
e	e
n	n

__BEGIN__	__EPS__
m	m
e	e
y	i
n	n
e	e
n	n

__BEGIN__	__EPS__
g	g
h	__EPS__
e	e
b	b
e	e
n	n
e	e
d	d
i	e
j	i
t	t

__BEGIN__	__EPS__
e	e
y	i
n	n

__BEGIN__	__EPS__
e	e
r	r

__BEGIN__	__EPS__
l	l
a	e
i	i
d	d

__BEGIN__	__EPS__
g	g
a	a
n	n
t	__EPS__
z	z
e	e
n	n

__BEGIN__	__EPS__
s	s
t	t
y	i
m	mm
e	e

__BEGIN__	__EPS__
h	h
e	e
r	r
c	__EPS__
z	z
e	e
l	l
a	e
i	i
t	d

__BEGIN__	__EPS__
a	a
u	u
c	c
h	h

__BEGIN__	__EPS__
g	__EPS__
e	__EPS__
f	f
u	üh
r	r
t	t
e	e

__BEGIN__	__EPS__
i	i
c	c
h	h

__BEGIN__	__EPS__
s	s
e	i
w	e

__BEGIN__	__EPS__
v	u
n	n
r	r
a	e
i	i
n	n
e	e

__BEGIN__	__EPS__
i	ih
m	m

__BEGIN__	__EPS__
d	d
e	e
n	n

__BEGIN__	__EPS__
h	e
e	r

__BEGIN__	__EPS__
m	m
e	e
n	n
s	s
c	c
h	h

__BEGIN__	__EPS__
n	n
a	ä
e	h
m	me

__BEGIN__	__EPS__
s	s
p	p
r	r
a	a
c	c
h	h

__BEGIN__	__EPS__
d	d
e	e
n	n

__BEGIN__	__EPS__
s	s
y	ie

__BEGIN__	__EPS__
a	__EPS__
l	__EPS__
s	s
u	o
s	__EPS__

__BEGIN__	__EPS__
a	a
n	n

__BEGIN__	__EPS__
v	v
u	o
r	r

__BEGIN__	__EPS__
v	u
n	n
d	d

__BEGIN__	__EPS__
s	s
c	c
h	h
a	a
f	f
t	t

__BEGIN__	__EPS__
a	a
u	u
f	f
f	__EPS__

__BEGIN__	__EPS__
s	s
p	p
r	r
a	a
c	c
h	h

__BEGIN__	__EPS__
d	d
e	e
r	r

__BEGIN__	__EPS__
a	a
n	n
t	t
w	w
o	o
e	__EPS__
r	r
d	t
e	e

__BEGIN__	__EPS__
z	ze
i	i
t	t
e	e
n	n

__BEGIN__	__EPS__
i	i
n	n

__BEGIN__	__EPS__
l	l
i	i
e	e
b	b
e	e
s	s

__BEGIN__	__EPS__
h	h
e	e
r	r
c	__EPS__
z	z

__BEGIN__	__EPS__
m	me
y	i
n	n

__BEGIN__	__EPS__
s	s
c	c
h	h
e	e
i	i
t	t
e	e
l	l

__BEGIN__	__EPS__
m	m
e	e
i	i
n	n

__BEGIN__	__EPS__
v	v
o	o
n	n

__BEGIN__	__EPS__
f	f
r	r
e	e
w	u
t	t
e	e

__BEGIN__	__EPS__
a	a
l	l
l	l
e	e
s	s

__BEGIN__	__EPS__
w	w
a	a
s	s
s	s
e	e
r	r

__BEGIN__	__EPS__
b	b
i	i
t	tt
e	e
r	r
l	l
i	i
c	c
h	h

__BEGIN__	__EPS__
p	b
e	e
g	g
i	i
n	n
g	g
e	e
n	n

__BEGIN__	__EPS__
m	m
e	e
i	i
n	n

__BEGIN__	__EPS__
e	e
i	i
n	n

__BEGIN__	__EPS__
y	ih
m	m

__BEGIN__	__EPS__
e	e
n	m
p	p
h	f
i	eh
l	l
c	e
h	__EPS__

__BEGIN__	__EPS__
s	se
i	i
n	n

__BEGIN__	__EPS__
k	k
u	ö
n	ni
c	g

__BEGIN__	__EPS__
v	u
n	n
d	d

__BEGIN__	__EPS__
v	ü
b	b
e	e
r	r

__BEGIN__	__EPS__
g	g
e	e
w	w
a	a
n	n
t	d

__BEGIN__	__EPS__
e	e
r	r

__BEGIN__	__EPS__
p	b
e	e
l	l
e	e
g	g
t	t
e	e
n	n

__BEGIN__	__EPS__
v	u
n	n
d	d

__BEGIN__	__EPS__
d	d
e	e
z	s

__BEGIN__	__EPS__
n	n
i	ic
h	h
t	t

__BEGIN__	__EPS__
m	m
e	e
i	i
n	n

__BEGIN__	__EPS__
m	m
i	i
t	t

__BEGIN__	__EPS__
m	m
i	i
r	r

__BEGIN__	__EPS__
g	g
i	i
e	__EPS__
n	n
c	__EPS__
k	g

__BEGIN__	__EPS__
a	a
n	n
s	s
c	c
h	h
l	l
e	ä
g	g
k	t

__BEGIN__	__EPS__
a	a
r	r
m	m
e	e
n	n

__BEGIN__	__EPS__
b	b
i	i
s	s
t	t

__BEGIN__	__EPS__
o	o
b	b

__BEGIN__	__EPS__
s	s
p	p
o	ö
t	t
l	t
i	is
c	c
h	h

__BEGIN__	__EPS__
m	m
e	e
i	i
n	n

__BEGIN__	__EPS__
j	j
o	o
h	h
a	a
n	n
n	n
e	e
s	s

__BEGIN__	be
s	s
u	o
n	n
d	d
e	e
r	r
l	__EPS__
i	__EPS__
c	__EPS__
h	__EPS__
e	e
n	n

__BEGIN__	__EPS__
n	n
i	ich
t	t

__BEGIN__	__EPS__
v	u
n	n
d	d

__BEGIN__	__EPS__
l	l
a	a
n	n
t	d

__BEGIN__	__EPS__
c	k
r	r
e	e
a	a
t	t
u	u
r	r

__BEGIN__	__EPS__
v	u
n	n
d	d

__BEGIN__	__EPS__
b	b
e	e
g	g
r	r
a	a
b	b
e	e
n	n

__BEGIN__	__EPS__
s	s
a	a
n	nk
t	t

__BEGIN__	__EPS__
i	i
c	c
h	h

__BEGIN__	__EPS__
l	a
u	n
i	m
z	u
l	t
i	i
h	g
i	__EPS__
s	s
t	te

__BEGIN__	__EPS__
d	d
o	a
e	__EPS__

__BEGIN__	__EPS__
d	de
i	i
n	n
e	e
r	r

__BEGIN__	__EPS__
s	s
t	t
e	e
i	i
n	n
e	__EPS__

__BEGIN__	__EPS__
w	w
a	a
r	r
e	e
n	n

__BEGIN__	__EPS__
d	d
a	a
z	s

__BEGIN__	__EPS__
d	d
i	ie

__BEGIN__	__EPS__
s	s
p	p
r	r
a	a
c	c
h	h

__BEGIN__	__EPS__
d	d
e	e
r	r

__BEGIN__	__EPS__
z	z
w	w
e	e
n	i

__BEGIN__	__EPS__
v	v
o	o
n	n

__BEGIN__	__EPS__
h	h
o	a
e	u
p	p
t	t

__BEGIN__	__EPS__
m	m
i	i
t	t

__BEGIN__	__EPS__
d	d
a	a
s	s

__BEGIN__	__EPS__
d	d
a	a
z	s

__BEGIN__	__EPS__
v	v
e	e
r	r
s	s
c	c
h	h
v	u
l	lde
t	t

__BEGIN__	__EPS__
a	a
n	n
s	s
e	e
l	l
m	m
u	__EPS__
s	__EPS__

__BEGIN__	__EPS__
m	me
i	i
n	n

__BEGIN__	__EPS__
a	a
l	l
l	l

__BEGIN__	__EPS__
a	a
n	n

__BEGIN__	__EPS__
d	d
a	a
z	s

__BEGIN__	__EPS__
w	w
y	i
e	e

__BEGIN__	__EPS__
d	d
e	e
n	n

__BEGIN__	__EPS__
k	k
i	i
n	n
t	d

__BEGIN__	__EPS__
s	s
p	p
r	r
a	a
c	c
h	h

__BEGIN__	__EPS__
m	me
y	i
n	n

__BEGIN__	__EPS__
w	w
a	a
r	r
e	e
n	n

__BEGIN__	__EPS__
h	e
e	r

__BEGIN__	__EPS__
m	m
i	i
t	t

__BEGIN__	__EPS__
m	m
e	a
n	n

__BEGIN__	__EPS__
v	u
n	n
d	d

__BEGIN__	__EPS__
e	e
r	r

__BEGIN__	__EPS__
a	a
u	u
f	f
f	__EPS__
g	g
e	e
s	s
t	t
a	a
n	n
d	d
e	e
n	n

__BEGIN__	__EPS__
g	g
r	r
o	o
t	ss
e	e
n	n

__BEGIN__	__EPS__
h	h
u	o
e	__EPS__
b	b

__BEGIN__	__EPS__
c	k
r	r
e	e
u	u
c	__EPS__
z	z

__BEGIN__	__EPS__
d	t
r	r
i	i
j	e
u	b
e	e
n	n

__BEGIN__	__EPS__
s	s
a	a
g	g
e	e

__BEGIN__	__EPS__
e	e
r	r

__BEGIN__	__EPS__
w	w
e	e
i	i
s	s
z	s

__BEGIN__	__EPS__
y	ih
r	r

__BEGIN__	__EPS__
l	l
a	a
c	g

__BEGIN__	__EPS__
f	f
u	ü
o	h
r	r
t	t

__BEGIN__	__EPS__
g	g
v	ö
n	n
n	n
e	e
n	n

__BEGIN__	__EPS__
e	e
s	s

__BEGIN__	__EPS__
m	me
i	i
n	n

__BEGIN__	__EPS__
v	u
n	n
d	d

__BEGIN__	__EPS__
d	d
a	a
r	__EPS__
n	n
a	a
c	c
h	h

__BEGIN__	__EPS__
d	d
e	e
r	r

__BEGIN__	__EPS__
d	d
e	e
r	r

__BEGIN__	__EPS__
d	d
a	a
s	ss

__BEGIN__	__EPS__
d	d
o	a

__BEGIN__	__EPS__
h	h
i	i
n	n

__BEGIN__	__EPS__
l	l
o	ö
e	__EPS__
s	s
e	e
n	n

__BEGIN__	__EPS__
d	d
e	e
n	nn

__BEGIN__	__EPS__
r	r
v	u
f	f
t	t
e	__EPS__

__BEGIN__	__EPS__
w	we
i	i
l	le

__BEGIN__	__EPS__
a	a
l	l
s	s
o	o

__BEGIN__	__EPS__
k	k
l	l
a	a
g	g
t	t
e	e
n	n

__BEGIN__	__EPS__
d	d
i	i
e	e

__BEGIN__	__EPS__
s	s
v	e
i	i
n	n

__BEGIN__	__EPS__
i	j
o	o
h	ha
-	nne
s	s

__BEGIN__	__EPS__
w	w
e	ä
r	r
e	e

__BEGIN__	__EPS__
d	d
i	i
e	e

__BEGIN__	__EPS__
v	u
n	n
d	d

__BEGIN__	__EPS__
a	a
l	l
s	s

__BEGIN__	d
u	u

__BEGIN__	__EPS__
a	a
n	n

__BEGIN__	__EPS__
i	i
c	c
h	h

__BEGIN__	__EPS__
v	u
n	n
d	d

__BEGIN__	__EPS__
v	v
o	o
n	n

__BEGIN__	__EPS__
k	k
o	ö
e	__EPS__
n	n
y	i
n	__EPS__
c	__EPS__
k	g

__BEGIN__	__EPS__
z	z
o	u

__BEGIN__	__EPS__
s	s
c	c
h	h
i	i
e	e
d	d

__BEGIN__	__EPS__
w	w
a	a
n	nn

__BEGIN__	__EPS__
d	d
e	e
n	n
n	n
e	__EPS__

__BEGIN__	__EPS__
v	u
n	n
d	d

__BEGIN__	__EPS__
d	d
i	i
e	e

__BEGIN__	__EPS__
g	g
r	r
o	o
z	ss
e	e
s	s

__BEGIN__	__EPS__
v	u
n	n
d	d

__BEGIN__	__EPS__
d	d
w	u

__BEGIN__	__EPS__
m	m
i	i
r	r

__BEGIN__	__EPS__
d	d
i	i
e	e

__BEGIN__	__EPS__
g	g
e	e
w	w
a	a
l	l
t	t

__BEGIN__	__EPS__
i	ih
n	n

__BEGIN__	__EPS__
e	e
r	r

__BEGIN__	__EPS__
v	u
n	n
d	d

__BEGIN__	__EPS__
v	u
n	n
d	d

__BEGIN__	__EPS__
a	a
n	n

__BEGIN__	__EPS__
v	u
n	n
f	f
r	r
u	u
c	c
h	h
t	t
b	b
a	a
r	r
r	e
n	n

__BEGIN__	__EPS__
d	d
a	a
r	r
v	u
m	m
b	__EPS__

__BEGIN__	__EPS__
h	h
a	a
n	be

__BEGIN__	__EPS__
l	l
a	a
i	__EPS__
s	s
s	s
e	e
n	n

__BEGIN__	__EPS__
s	s
a	a
h	h
e	e
n	n

__BEGIN__	__EPS__
s	s
a	a
g	g
e	e

__BEGIN__	__EPS__
d	d
e	e
m	m

__BEGIN__	__EPS__
a	a
l	l
s	s
o	o

__BEGIN__	__EPS__
a	a
n	n

__BEGIN__	__EPS__
i	i
p	p
-	__EPS__
i	i
u	__EPS__
s	__EPS__

__BEGIN__	__EPS__
e	e
i	i
n	n
e	e
n	n

__BEGIN__	__EPS__
d	d
o	a

__BEGIN__	__EPS__
b	b
e	e
s	s
e	e
s	s
s	s
e	e
n	n

__BEGIN__	__EPS__
d	d
a	a
z	ss

__BEGIN__	__EPS__
s	s
c	__EPS__
h	o
o	l
l	l
t	t

__BEGIN__	__EPS__
k	k
y	i
n	n
t	d

__BEGIN__	__EPS__
w	w
i	i
e	e

__BEGIN__	__EPS__
i	i
c	c
h	h

__BEGIN__	__EPS__
d	d
i	i
e	e

__BEGIN__	__EPS__
d	d
i	i
e	e

__BEGIN__	__EPS__
s	s
o	o
e	__EPS__
l	l
l	l
e	e
n	n

__BEGIN__	__EPS__
v	v
o	o
n	n

__BEGIN__	__EPS__
s	s
t	t
e	e
i	i
n	n
e	e

__BEGIN__	a
v	u
f	f

__BEGIN__	__EPS__
d	d
r	r
i	i
t	t
t	t
e	e
n	n

__BEGIN__	__EPS__
m	m
u	u
o	__EPS__
t	t
t	t
e	e
r	r

__BEGIN__	__EPS__
d	d
v	u

__BEGIN__	__EPS__
d	d
u	u

__BEGIN__	__EPS__
p	p
i	i
l	l
a	a
t	t
u	u
s	s

__BEGIN__	__EPS__
s	s
u	o
l	l
l	l
e	e
n	n

__BEGIN__	__EPS__
e	e
i	i
n	n
e	e
n	n

__BEGIN__	__EPS__
d	d
i	i
e	e

__BEGIN__	__EPS__
d	t
e	ä
d	t
e	e

__BEGIN__	__EPS__
d	d
o	a

__BEGIN__	__EPS__
v	u
n	n
d	d

__BEGIN__	__EPS__
d	d
e	e
n	n

__BEGIN__	__EPS__
s	s
a	a
n	nk
t	t

__BEGIN__	__EPS__
h	e
i	__EPS__
e	r

__BEGIN__	__EPS__
d	d
a	a
t	s

__BEGIN__	__EPS__
c	c
r	r
u	u
c	c
i	i
f	f
i	i
g	g
e	e

__BEGIN__	__EPS__
s	s
p	p
r	r
a	a
c	c
h	h

__BEGIN__	__EPS__
h	h
e	e
r	r
e	r

__BEGIN__	__EPS__
k	k
a	e
i	i
n	n

__BEGIN__	__EPS__
s	s
e	a
n	n
f	f
t	t
e	__EPS__
m	m
v	ü
i	t
t	i
e	g
k	k
e	e
i	i
t	t

__BEGIN__	__EPS__
c	__EPS__
z	z
w	u

__BEGIN__	__EPS__
s	s
o	o

__BEGIN__	__EPS__
v	u
m	m
b	__EPS__
g	g
r	r
e	e
i	i
f	f
e	e
n	n

__BEGIN__	__EPS__
v	v
o	o
n	n

__BEGIN__	__EPS__
m	m
a	a
r	r
i	i
a	a

__BEGIN__	__EPS__
i	ih
n	n

__BEGIN__	__EPS__
h	e
i	__EPS__
e	r

__BEGIN__	__EPS__
a	a
n	n

__BEGIN__	__EPS__
g	g
o	ö
e	t
t	t
l	l
i	i
c	c
h	h

__BEGIN__	__EPS__
d	d
e	e
s	s

__BEGIN__	__EPS__
m	m
i	i
c	c
h	h

__BEGIN__	__EPS__
d	d
a	a
z	ss

__BEGIN__	__EPS__
l	l
e	e
u	u
t	t
t	e

__BEGIN__	__EPS__
h	h
e	e
r	r
t	__EPS__
z	z

__BEGIN__	__EPS__
p	p
e	e
t	t
r	r
u	u
s	s

__BEGIN__	__EPS__
v	v
o	o
n	n

__BEGIN__	__EPS__
e	e
s	s
z	__EPS__

__BEGIN__	__EPS__
s	s
c	c
h	h
a	ä
c	c
h	he
r	r

__BEGIN__	__EPS__
i	j
u	ün
g	g
e	e
r	r
n	n

__BEGIN__	__EPS__
w	w
o	o
l	ll
t	t

__BEGIN__	__EPS__
s	sch
w	w
r	__EPS__
i	i
c	e
h	g

__BEGIN__	__EPS__
h	h
e	a
t	t

__BEGIN__	__EPS__
s	s
a	a
n	n
d	kt

__BEGIN__	__EPS__
v	u
n	n
d	d

__BEGIN__	__EPS__
a	e
i	i
n	n
e	e
n	n

__BEGIN__	__EPS__
i	ih
r	r
e	e

__BEGIN__	__EPS__
e	e
n	n
d	de

__BEGIN__	__EPS__
w	w
e	e
r	__EPS__
l	l
d	t

__BEGIN__	__EPS__
d	d
e	e
m	m

__BEGIN__	__EPS__
o	o
c	__EPS__
h	h

__BEGIN__	__EPS__
h	h
e	e
y	i
m	m

__BEGIN__	__EPS__
m	m
o	o
c	c
h	hte
s	s
t	t

__BEGIN__	__EPS__
l	l
i	i
e	e
b	b
i	e

__BEGIN__	__EPS__
d	d
e	e
r	r

__BEGIN__	__EPS__
h	h
e	e
r	rr

__BEGIN__	__EPS__
s	s
t	t
a	ä
t	tte

__BEGIN__	__EPS__
o	o
b	b

__BEGIN__	__EPS__
b	b
i	i
d	t
t	tet

__BEGIN__	__EPS__
y	ih
n	n

__BEGIN__	__EPS__
v	u
n	n
d	d

__BEGIN__	__EPS__
b	b
e	e
n	n
o	o
m	mmen

__BEGIN__	__EPS__
b	b
e	e
c	k
h	__EPS__
o	a
m	m

__BEGIN__	__EPS__
s	s
a	a
h	h
e	e
n	n

__BEGIN__	__EPS__
d	d
e	e
r	r

__BEGIN__	__EPS__
w	w
e	e
s	s
e	e
n	n

__BEGIN__	__EPS__
d	d
o	a

__BEGIN__	__EPS__
r	r
e	e
c	c
h	h
t	t
e	e
n	n

__BEGIN__	__EPS__
i	i
c	c
h	h

__BEGIN__	__EPS__
e	e
r	r

__BEGIN__	__EPS__
s	s
o	o

__BEGIN__	__EPS__
p	p
e	u
l	r
l	p
e	u
r	rnen

__BEGIN__	__EPS__
m	m
i	i
t	t

__BEGIN__	__EPS__
g	g
u	ü
e	__EPS__
d	t
e	i
r	g
t	__EPS__
i	__EPS__
e	e
r	r
e	__EPS__
n	__EPS__
d	__EPS__
e	__EPS__

__BEGIN__	__EPS__
d	d
i	i
e	e

__BEGIN__	__EPS__
n	n
o	ö
t	t
e	e
n	n

__BEGIN__	__EPS__
c	__EPS__
z	z
e	e
i	i
c	c
h	h
e	e
n	n

__BEGIN__	__EPS__
v	u
n	n
d	d

__BEGIN__	d
u	u

__BEGIN__	__EPS__
t	t
u	u
e	e
n	n
t	d

__BEGIN__	__EPS__
g	g
a	e
i	i
s	ss
e	e
l	l
t	t
e	e
n	n

__BEGIN__	__EPS__
y	ih
m	m

__BEGIN__	__EPS__
z	r
e	ech
s	t
e	e
m	n

__BEGIN__	__EPS__
v	w
a	a
n	nn

__BEGIN__	__EPS__
v	u
n	n
d	d
e	__EPS__

__BEGIN__	__EPS__
m	me
i	i
n	n
e	e
n	n

__BEGIN__	__EPS__
b	b
e	e
d	d
e	e
k	c
e	__EPS__
n	k
t	t

__BEGIN__	__EPS__
v	u
m	m
b	__EPS__
v	f
i	i
e	__EPS__
n	n
g	g

__BEGIN__	__EPS__
n	ni
u	m
m	m
e	e
r	r

__BEGIN__	__EPS__
v	u
n	n
d	d

__BEGIN__	__EPS__
b	b
l	l
ü	u
o	__EPS__
t	t
t	__EPS__

__BEGIN__	__EPS__
v	u
n	n
n	d

__BEGIN__	__EPS__
t	t
u	u
n	n

__BEGIN__	__EPS__
v	v
o	o
n	n

__BEGIN__	__EPS__
d	d
e	e
r	r

__BEGIN__	__EPS__
b	b
e	e
y	i
n	n
e	e

__BEGIN__	__EPS__
m	m
a	a
r	r
i	i
a	a

__BEGIN__	__EPS__
p	b
e	e
g	g
r	r
a	a
b	b
e	e
n	n

__BEGIN__	__EPS__
i	i
n	n

__BEGIN__	__EPS__
h	h
e	e
r	r
z	z
e	__EPS__

__BEGIN__	__EPS__
d	d
e	e
n	n

__BEGIN__	__EPS__
z	z
u	er
b	b
r	r
e	e
c	c
h	h
e	e
n	n

__BEGIN__	__EPS__
i	j
o	o
h	h
a	a
n	n
n	n
e	e
s	s

__BEGIN__	__EPS__
h	h
e	a
t	t

__BEGIN__	__EPS__
d	d
u	u

__BEGIN__	__EPS__
l	l
e	e
d	d
i	i
g	g

__BEGIN__	__EPS__
d	d
a	a
z	ss

__BEGIN__	__EPS__
r	r
y	ie
m	m
e	e
n	n

__BEGIN__	__EPS__
e	e
r	r

__BEGIN__	__EPS__
a	a
n	n

__BEGIN__	__EPS__
k	k
u	o
n	nn
t	te

__BEGIN__	__EPS__
m	m
i	i
r	r

__BEGIN__	__EPS__
m	m
e	e
i	i
n	n
e	e
s	s

__BEGIN__	__EPS__
t	__EPS__
z	z
o	u

__BEGIN__	a
v	u
p	f

__BEGIN__	__EPS__
m	m
e	e
i	i
n	n

__BEGIN__	__EPS__
v	f
o	ü
e	s
t	s
e	e
n	n

__BEGIN__	__EPS__
v	u
n	n
d	d

__BEGIN__	__EPS__
r	r
e	e
i	i
n	n
e	e
n	n

__BEGIN__	__EPS__
d	da
z	ss

__BEGIN__	__EPS__
d	d
a	a
z	s

__BEGIN__	__EPS__
g	g
o	ot
t	t

__BEGIN__	__EPS__
s	s
c	c
h	h
a	ä
c	c
h	h
e	e
r	r
n	n

__BEGIN__	__EPS__
s	s
i	i
c	c
h	h

__BEGIN__	__EPS__
g	g
e	e
t	t
r	r
a	a
g	g
e	e
n	n

__BEGIN__	__EPS__
f	f
u	üh
r	r
t	t
e	e
n	n

__BEGIN__	__EPS__
d	d
e	e
n	n

__BEGIN__	__EPS__
v	u
n	n
d	d

__BEGIN__	__EPS__
v	u
n	n
t	d
z	__EPS__

__BEGIN__	__EPS__
i	i
s	s
t	t

__BEGIN__	__EPS__
n	n
e	eh
m	m
e	__EPS__
n	t
d	__EPS__

__BEGIN__	__EPS__
s	sch
l	l
o	u
i	__EPS__
g	g
e	e
n	n

__BEGIN__	__EPS__
s	s
c	c
h	h
r	re
i	i
b	b
e	e
n	n

__BEGIN__	__EPS__
g	__EPS__
e	__EPS__
h	h
o	ö
e	__EPS__
r	r
e	e
n	n
t	d

__BEGIN__	__EPS__
g	g
e	e
s	s
p	p
r	r
o	o
c	c
h	h
e	e
n	n

__BEGIN__	__EPS__
d	d
o	a

__BEGIN__	__EPS__
v	u
n	n
d	d

__BEGIN__	__EPS__
a	a
b	b
e	e
r	r

__BEGIN__	__EPS__
d	d
e	e
r	r

__BEGIN__	__EPS__
m	m
a	a
n	n

__BEGIN__	__EPS__
l	l
a	ass
i	e
n	n

__BEGIN__	__EPS__
d	d
a	a
r	__EPS__

__BEGIN__	__EPS__
l	l
o	ö
s	s
e	e

__BEGIN__	__EPS__
r	r
e	e
c	c
h	h
t	t
e	e
r	r

__BEGIN__	__EPS__
d	d
o	a

__BEGIN__	__EPS__
v	v
o	o
n	n

__BEGIN__	__EPS__
d	d
u	u
r	r
c	c
h	h

__BEGIN__	__EPS__
v	v
o	o
l	ll
p	b
r	r
a	a
c	c
h	h
t	t
t	__EPS__

__BEGIN__	__EPS__
a	a
l	l
l	l
e	e
n	n
n	__EPS__

__BEGIN__	__EPS__
t	t
e	a
t	t
e	e
n	n

__BEGIN__	__EPS__
m	m
e	e
i	i
n	n

__BEGIN__	__EPS__
i	j
h	__EPS__
e	e
s	s
u	u
m	s

__BEGIN__	__EPS__
d	d
a	a
s	ss

__BEGIN__	__EPS__
a	a
n	n

__BEGIN__	__EPS__
a	a
n	n
s	s
e	e
l	l
m	m
e	__EPS__

__BEGIN__	__EPS__
v	v
o	o
n	n

__BEGIN__	__EPS__
s	s
a	a
c	__EPS__
h	h

__BEGIN__	__EPS__
d	d
a	a
r	r

__BEGIN__	__EPS__
e	e
r	r

__BEGIN__	__EPS__
v	v
a	o
n	n

__BEGIN__	__EPS__
l	l
e	e
i	i
c	c
h	h
n	n
a	a
m	m

__BEGIN__	__EPS__
z	z
c	__EPS__
u	u

__BEGIN__	__EPS__
b	be
i	i

__BEGIN__	__EPS__
e	e
r	r

__BEGIN__	__EPS__
e	e
r	r

__BEGIN__	__EPS__
w	w
i	i
e	e

__BEGIN__	__EPS__
v	u
n	n
s	s
c	c
h	h
u	u
l	l
d	d
i	i
c	g
l	__EPS__
i	__EPS__
c	__EPS__
h	__EPS__
i	__EPS__
n	__EPS__

__BEGIN__	__EPS__
h	h
e	e
r	rr
e	e
n	n

__BEGIN__	__EPS__
d	d
i	i
e	e

__BEGIN__	__EPS__
d	d
a	a
m	m
i	i
t	t

__BEGIN__	__EPS__
e	eh
e	e

__BEGIN__	__EPS__
d	d
i	i
e	e

__BEGIN__	__EPS__
s	s
e	e
i	i
n	n

__BEGIN__	__EPS__
a	a
l	l
l	l
e	e
n	n

__BEGIN__	__EPS__
v	u
n	n
d	d
e	__EPS__

__BEGIN__	__EPS__
i	ih
r	r

__BEGIN__	__EPS__
d	d
y	i
s	e
z	s

__BEGIN__	__EPS__
o	o
w	w
e	eh

__BEGIN__	__EPS__
p	p
i	i
l	l
a	a
t	t
u	u
s	s

__BEGIN__	__EPS__
d	d
i	i
e	e

__BEGIN__	__EPS__
v	u
n	n
d	d

__BEGIN__	__EPS__
v	u
n	n
d	d

__BEGIN__	__EPS__
v	u
n	n
d	d

__BEGIN__	__EPS__
b	b
r	r
i	i
e	e
f	__EPS__
f	f

__BEGIN__	__EPS__
l	l
i	i
e	e
u	b
e	e

__BEGIN__	__EPS__
f	f
u	ü
i	__EPS__
r	r
s	s
p	p
r	r
e	e
c	c
h	her

__BEGIN__	__EPS__
d	d
a	a
t	ss

__BEGIN__	__EPS__
g	g
r	r
o	o
s	ss

__BEGIN__	__EPS__
d	d
a	a
v	v
o	o
n	n

__BEGIN__	__EPS__
s	s
o	o

__BEGIN__	__EPS__
d	d
e	e
n	n

__BEGIN__	__EPS__
w	w
i	ir

__BEGIN__	__EPS__
v	a
y	u
s	s
s	__EPS__
z	z
o	o
i	__EPS__
g	g
e	e
n	n

__BEGIN__	__EPS__
e	__EPS__
n	ü
p	b
h	e
i	r
l	g
i	e
c	b
h	e

__BEGIN__	__EPS__
l	l
y	ie
s	ss

__BEGIN__	__EPS__
g	g
u	ü
t	t
l	l
i	i
c	c
h	h
e	e
n	n

__BEGIN__	__EPS__
d	d
e	e
n	n

__BEGIN__	__EPS__
g	g
r	r
o	o
s	s
z	s
e	e

__BEGIN__	__EPS__
d	d
u	u
r	r
c	c
h	h

__BEGIN__	__EPS__
d	d
a	a

__BEGIN__	__EPS__
c	c
r	r
v	u
c	c
i	i
s	s

__BEGIN__	__EPS__
u	u
n	n
d	d

__BEGIN__	__EPS__
l	l
i	i
e	e
u	b
e	e

__BEGIN__	__EPS__
e	e
r	r

__BEGIN__	__EPS__
a	e
i	i
n	n

__BEGIN__	__EPS__
d	d
o	a

__BEGIN__	__EPS__
d	d
a	a
t	s

__BEGIN__	__EPS__
m	m
u	u
t	tt
e	e
r	r

__BEGIN__	__EPS__
v	v
o	o
n	n

__BEGIN__	__EPS__
h	h
e	e
r	r
c	__EPS__
z	z

__BEGIN__	__EPS__
v	u
n	n
d	d

__BEGIN__	__EPS__
i	i
c	c
h	h

__BEGIN__	__EPS__
n	n
i	ich
t	t

__BEGIN__	__EPS__
e	e
r	r

__BEGIN__	__EPS__
g	g
r	r
o	o
z	s
z	s
e	e
m	m

__BEGIN__	__EPS__
n	n
o	o
t	t

__BEGIN__	__EPS__
h	e
e	r

__BEGIN__	__EPS__
v	u
n	n
d	d

__BEGIN__	__EPS__
m	m
i	i
c	c
h	h

__BEGIN__	__EPS__
e	e
y	i
n	n

__BEGIN__	__EPS__
h	h
e	a
t	t
t	__EPS__

__BEGIN__	__EPS__
r	r
i	i
e	e
p	f

__BEGIN__	__EPS__
m	m
e	e
i	i
n	n

__BEGIN__	__EPS__
p	b
l	l
u	u
t	t
e	e
s	s

__BEGIN__	__EPS__
i	i
s	s
t	t

__BEGIN__	__EPS__
a	oh
n	ne

__BEGIN__	__EPS__
v	f
a	a
l	l
s	s
c	c
h	h
e	e

__BEGIN__	__EPS__
m	m
u	u
n	n
d	d
e	__EPS__

__BEGIN__	__EPS__
t	t
e	a
t	t
e	e
n	n

__BEGIN__	__EPS__
d	d
r	r
i	i
t	t
t	t
e	e
n	n

__BEGIN__	__EPS__
h	h
e	e
r	r
o	o
d	d
e	es

__BEGIN__	__EPS__
s	sch
w	w
e	e
s	s
t	t
e	e
r	r

__BEGIN__	__EPS__
v	u
n	n
d	d

__BEGIN__	__EPS__
h	h
i	ä
e	t
t	te

__BEGIN__	__EPS__
s	s
t	t
u	u
o	h
l	l

__BEGIN__	__EPS__
d	d
i	i
c	c
k	k
e	__EPS__

__BEGIN__	__EPS__
e	e
s	s

__BEGIN__	__EPS__
i	ih
n	n

__BEGIN__	__EPS__
y	i
m	h
e	m

__BEGIN__	__EPS__
v	u
n	n
s	s

__BEGIN__	__EPS__
a	a
l	l
s	s
o	o

__BEGIN__	__EPS__
d	d
a	a
z	ss

__BEGIN__	__EPS__
w	w
i	i
l	ll
s	st

__BEGIN__	__EPS__
s	s
i	ie

__BEGIN__	__EPS__
v	u
n	n
d	d

__BEGIN__	__EPS__
n	n
i	ic
h	h
t	t

__BEGIN__	__EPS__
h	h
a	a
b	b
e	e
n	n
t	__EPS__

__BEGIN__	__EPS__
i	i
c	c
h	h

__BEGIN__	__EPS__
l	l
e	e
i	ide
t	t

__BEGIN__	__EPS__
i	ih
n	n

__BEGIN__	__EPS__
w	w
e	e
g	g

__BEGIN__	__EPS__
m	me
i	i
n	n

__BEGIN__	__EPS__
k	k
i	i
n	n
d	d

__BEGIN__	__EPS__
p	p
y	i
l	l
a	a
t	t
u	u
s	s

__BEGIN__	__EPS__
i	j
h	__EPS__
e	e
r	r
u	u
s	s
a	a
l	l
e	e
m	m

__BEGIN__	__EPS__
g	g
e	e
l	l
e	e
g	g
t	t

__BEGIN__	__EPS__
k	k
i	i
n	n
d	d

__BEGIN__	__EPS__
v	v
o	o
n	n

__BEGIN__	__EPS__
q	b
u	ö
a	s
d	e
e	n

__BEGIN__	__EPS__
r	r
o	ö
e	m
m	i
s	s
c	c
h	h
e	e

__BEGIN__	__EPS__
g	g
o	o
t	tt

__BEGIN__	__EPS__
e	e
n	m
p	p
h	f
a	a
n	n
g	g
e	e
n	n

__BEGIN__	__EPS__
d	d
a	a
s	ss

__BEGIN__	__EPS__
d	d
a	a
t	ss

__BEGIN__	__EPS__
s	s
p	p
r	r
a	a
c	c
h	h

__BEGIN__	__EPS__
c	k
h	__EPS__
i	i
n	n
t	d

__BEGIN__	__EPS__
h	e
e	r

__BEGIN__	__EPS__
d	d
a	a
r	__EPS__
n	n
a	a
c	c
h	h

__BEGIN__	__EPS__
h	h
i	i
n	n

__BEGIN__	__EPS__
s	s
u	o
n	n
d	d
e	e
r	rn

__BEGIN__	__EPS__
d	d
e	e
n	n

__BEGIN__	__EPS__
s	s
e	e
i	i
n	n

__BEGIN__	__EPS__
i	i
c	c
h	h

__BEGIN__	__EPS__
o	o
b	b

__BEGIN__	__EPS__
i	u
n	n
d	d

__BEGIN__	__EPS__
v	u
n	n
d	d

__BEGIN__	__EPS__
s	s
t	t
o	a
i	__EPS__
n	n
t	d

__BEGIN__	__EPS__
i	ih
r	r

__BEGIN__	__EPS__
s	s
e	e
i	i
n	n
e	e
m	m

__BEGIN__	__EPS__
m	m
i	i
r	r

__BEGIN__	__EPS__
d	d
a	a
r	__EPS__
n	n
a	a
c	c
h	h

__BEGIN__	__EPS__
d	d
i	i
e	e

__BEGIN__	__EPS__
e	e
z	s

__BEGIN__	__EPS__
i	ih
r	r
e	e
n	n

__BEGIN__	__EPS__
t	t
a	a
g	g

__BEGIN__	__EPS__
e	i
m	h
e	m

__BEGIN__	__EPS__
g	g
e	e
w	w
a	a
n	n
t	d

__BEGIN__	__EPS__
m	m
u	u
e	t
t	t
e	e
r	r

__BEGIN__	__EPS__
i	i
c	c
h	h

__BEGIN__	__EPS__
s	s
a	a
m	m

__BEGIN__	__EPS__
v	v
e	e
r	r
m	d
o	o
r	r
d	b
e	e
n	n
l	__EPS__
i	__EPS__
c	__EPS__
h	__EPS__
e	e

__BEGIN__	__EPS__
v	u
n	n
d	d

__BEGIN__	__EPS__
d	d
i	i
e	e

__BEGIN__	__EPS__
d	d
o	o
c	c
h	h

__BEGIN__	__EPS__
d	d
a	a

__BEGIN__	__EPS__
i	ih
m	m

__BEGIN__	__EPS__
i	ih
r	r

__BEGIN__	__EPS__
l	l
e	e
y	i
d	d
e	e

__BEGIN__	__EPS__
a	e
i	i
n	n
e	e
n	n

__BEGIN__	__EPS__
s	s
y	ie

__BEGIN__	h
e	e
r	r
a	a
b	b

__BEGIN__	__EPS__
v	u
n	n
d	d

__BEGIN__	__EPS__
m	m
i	i
c	c
h	h

__BEGIN__	__EPS__
c	__EPS__
z	z
u	u

__BEGIN__	__EPS__
i	i
n	n

__BEGIN__	__EPS__
d	d
o	a

__BEGIN__	__EPS__
z	z
u	u
o	__EPS__

__BEGIN__	__EPS__
w	w
o	o
l	ll
t	t

__BEGIN__	__EPS__
i	i
s	s
t	t

__BEGIN__	__EPS__
i	j
a	ä
m	mm
e	e
r	r
l	l
i	i
c	ch

__BEGIN__	__EPS__
t	__EPS__
z	z
o	u

__BEGIN__	__EPS__
g	g
e	e
s	s
a	a
g	g
e	__EPS__
t	t

__BEGIN__	__EPS__
d	d
e	e
s	s

__BEGIN__	__EPS__
e	e
r	r

__BEGIN__	__EPS__
a	e
i	i
n	n
e	e
n	n

__BEGIN__	__EPS__
s	s
t	t
a	eh
n	n

__BEGIN__	__EPS__
k	k
y	i
n	n
t	d

__BEGIN__	__EPS__
i	i
c	c
h	h

__BEGIN__	__EPS__
s	s
c	c
h	h
l	l
u	u
o	__EPS__
g	g
e	e
n	n
t	__EPS__

__BEGIN__	__EPS__
g	g
e	e
s	s
t	t
e	e
y	i
n	n
t	__EPS__
z	__EPS__
e	__EPS__

__BEGIN__	__EPS__
e	ä
g	g
i	y
p	p
t	t
e	e
n	n

__BEGIN__	__EPS__
h	h
e	e
l	l
i	i
a	a
s	s

__BEGIN__	__EPS__
a	a
l	l
s	s
o	o

__BEGIN__	__EPS__
v	f
i	ie
l	l

__BEGIN__	__EPS__
h	e
e	r

__BEGIN__	__EPS__
m	me
i	i
n	n

__BEGIN__	__EPS__
s	s
p	p
r	r
a	a
c	c
h	h

__BEGIN__	__EPS__
a	a
l	l
s	s

__BEGIN__	__EPS__
d	t
e	ä
d	t
e	e

__BEGIN__	__EPS__
v	u
n	n
d	d

__BEGIN__	__EPS__
d	d
e	e
m	m

__BEGIN__	__EPS__
v	v
o	o
n	n

__BEGIN__	__EPS__
d	t
e	ä
d	t
e	e

__BEGIN__	__EPS__
l	l
i	ie
f	f

__BEGIN__	__EPS__
l	a
u	n
i	m
z	u
l	t
i	i
h	g
i	__EPS__
s	s
t	te

__BEGIN__	__EPS__
s	s
y	ie

__BEGIN__	__EPS__
d	d
a	as
z	s

__BEGIN__	__EPS__
h	h
a	a
n	n
d	d

__BEGIN__	__EPS__
t	t
o	o
t	t
e	e
n	n

__BEGIN__	__EPS__
a	a
l	l
s	s
o	o

__BEGIN__	__EPS__
d	d
e	e
r	r

__BEGIN__	__EPS__
m	m
a	a
n	n

__BEGIN__	__EPS__
d	d
i	i
n	n
g	g

__BEGIN__	__EPS__
d	d
a	a
s	s

__BEGIN__	__EPS__
s	s
y	ie

__BEGIN__	__EPS__
y	ih
n	n

__BEGIN__	__EPS__
d	d
a	a
z	s

__BEGIN__	__EPS__
a	a
l	l
l	l
e	e
r	r

__BEGIN__	__EPS__
d	d
o	a

__BEGIN__	__EPS__
p	p
e	e
t	t
r	r
u	u
s	s

__BEGIN__	__EPS__
d	d
e	e
s	s
z	__EPS__

__BEGIN__	__EPS__
d	d
i	i
e	e

__BEGIN__	__EPS__
g	g
o	o
t	tt

__BEGIN__	__EPS__
h	h
ö	ö
r	r
t	t

__BEGIN__	__EPS__
k	k
i	i
n	n
d	de
s	s

__BEGIN__	__EPS__
g	g
e	e
r	r
e	ede
t	t

__BEGIN__	__EPS__
t	t
o	o
d	d
e	__EPS__

__BEGIN__	__EPS__
i	i
s	s
t	t

__BEGIN__	__EPS__
v	ü
b	b
e	e
r	r

__BEGIN__	__EPS__
g	g
e	e
w	w
a	a
n	n
t	d

__BEGIN__	__EPS__
b	b
e	e
r	r
a	e
i	i
t	t
i	e
n	n
d	__EPS__

__BEGIN__	__EPS__
t	d
u	u

__BEGIN__	__EPS__
m	a
a	u
l	ss
a	ät
r	z
y	i
s	g
c	e
h	r

__BEGIN__	__EPS__
d	d
e	e
i	i
n	n

__BEGIN__	__EPS__
m	m
a	a
r	r
i	i
a	a

__BEGIN__	__EPS__
l	l
i	ie
b	b
e	e
r	r

__BEGIN__	__EPS__
s	s
p	p
r	r
a	a
c	c
h	h
e	e
n	n

__BEGIN__	__EPS__
d	d
i	i
r	r

__BEGIN__	__EPS__
m	m
e	e
y	i
s	s
t	t
e	e
r	r

__BEGIN__	__EPS__
d	d
i	i
e	e

__BEGIN__	__EPS__
d	d
e	e
n	n

__BEGIN__	__EPS__
c	__EPS__
z	z
u	ü
e	__EPS__
c	c
h	h
t	t
i	i
g	g
i	e
n	n

__BEGIN__	__EPS__
k	k
o	o
m	mm
e	e

__BEGIN__	__EPS__
m	m
i	i
c	c
h	h

__BEGIN__	__EPS__
g	g
e	e
r	r
i	i
c	c
h	h
t	t

__BEGIN__	__EPS__
a	a
n	n

__BEGIN__	__EPS__
s	s
e	ee
l	l
e	e

__BEGIN__	__EPS__
g	g
e	e
r	r
i	i
c	c
h	h
t	t
e	e

__BEGIN__	__EPS__
k	k
i	i
n	n
t	d

__BEGIN__	__EPS__
h	e
e	r

__BEGIN__	__EPS__
g	g
e	e
s	s
e	e
c	t
z	z

__BEGIN__	__EPS__
v	u
n	n
d	d

__BEGIN__	__EPS__
m	m
i	i
t	t

__BEGIN__	__EPS__
f	f
r	r
a	a
g	g
e	e

__BEGIN__	__EPS__
o	o
f	b
f	__EPS__

__BEGIN__	__EPS__
t	t
e	e
m	m
p	p
i	e
l	l

__BEGIN__	__EPS__
d	d
a	a
s	s

__BEGIN__	__EPS__
d	d
a	a
s	ss

__BEGIN__	__EPS__
b	b
e	e
d	d
e	e
n	n
c	__EPS__
k	k
e	e

__BEGIN__	__EPS__
w	w
a	a
n	nn

__BEGIN__	__EPS__
p	b
l	l
u	u
e	__EPS__
t	t

__BEGIN__	__EPS__
m	m
e	e
i	i
n	n

__BEGIN__	__EPS__
w	w
o	o
l	ll
t	t

__BEGIN__	__EPS__
p	pf
o	o
r	r
t	t
e	e
n	n

__BEGIN__	__EPS__
w	w
a	a
n	n
e	n
e	__EPS__
r	__EPS__

__BEGIN__	__EPS__
d	d
e	e
r	r

__BEGIN__	__EPS__
w	w
a	a
z	r

__BEGIN__	d
u	u

__BEGIN__	__EPS__
i	ih
r	r
e	e
m	m

__BEGIN__	__EPS__
d	d
e	e
i	i
n	n

__BEGIN__	__EPS__
p	b
e	e
y	i

__BEGIN__	__EPS__
d	d
e	e
m	m

__BEGIN__	__EPS__
n	n
y	i
r	r
g	g
e	e
n	nds

__BEGIN__	__EPS__
l	l
e	e
g	g
t	t
e	e
n	n

__BEGIN__	__EPS__
d	d
e	e
n	n

__BEGIN__	__EPS__
o	o

__BEGIN__	__EPS__
d	d
i	i
r	r

__BEGIN__	__EPS__
v	v
o	o
n	n

__BEGIN__	__EPS__
v	ü
b	b
e	e
r	r

__BEGIN__	__EPS__
s	s
a	a
h	h

__BEGIN__	__EPS__
e	e
r	r

__BEGIN__	__EPS__
m	m
e	e
i	i
n	n
e	e
m	m

__BEGIN__	__EPS__
s	s
o	o

__BEGIN__	__EPS__
b	b
i	i
t	t
t	t
e	e
r	r
k	k
e	e
i	i
t	t

__BEGIN__	__EPS__
w	w
i	i
l	l
l	l
l	__EPS__
e	e
n	n

__BEGIN__	__EPS__
v	f
r	re
o	u
d	d
e	e

__BEGIN__	__EPS__
w	w
a	a
s	r

__BEGIN__	__EPS__
d	d
e	e
i	i
n	n

__BEGIN__	__EPS__
d	d
a	a
s	s

__BEGIN__	__EPS__
g	__EPS__
e	__EPS__
w	w
a	ah
r	r
e	e
r	r

__BEGIN__	__EPS__
d	d
e	e
n	n

__BEGIN__	__EPS__
i	i
s	s
t	t

__BEGIN__	__EPS__
v	u
n	n
s	s
a	ä
e	__EPS__
g	g
l	l
i	i
c	c
h	h

__BEGIN__	__EPS__
g	g
l	l
a	a
w	u
b	b

__BEGIN__	__EPS__
d	d
e	e
r	r

__BEGIN__	__EPS__
r	re
i	i
c	c
h	h

__BEGIN__	__EPS__
d	d
o	a

__BEGIN__	__EPS__
k	k
y	i
r	r
c	c
h	h
e	e
n	n

__BEGIN__	__EPS__
z	z
w	we
n	i

__BEGIN__	__EPS__
e	e
i	i
n	n

__BEGIN__	__EPS__
d	d
e	e
n	n

__BEGIN__	__EPS__
h	h
y	ies
s	s

__BEGIN__	__EPS__
m	m
a	a
i	__EPS__
c	c
h	h
t	t
e	e

__BEGIN__	__EPS__
v	v
a	a
d	t
e	e
r	r

__BEGIN__	__EPS__
k	k
a	a
y	i
s	s
e	e
r	r

__BEGIN__	__EPS__
a	a
l	l
z	s

__BEGIN__	__EPS__
d	d
o	a

__BEGIN__	__EPS__
m	m
e	e
i	i
n	n
e	e
n	n

__BEGIN__	__EPS__
w	w
a	a
r	r
e	e
n	n

__BEGIN__	__EPS__
t	t
a	e
i	i
l	l

__BEGIN__	__EPS__
a	a
u	u
f	f

__BEGIN__	__EPS__
d	d
v	u
r	rc
h	h

__BEGIN__	__EPS__
o	o
s	s
t	t
e	e
r	r
l	l
a	a
m	mm

__BEGIN__	__EPS__
v	u
n	n
d	d

__BEGIN__	__EPS__
w	w
o	o
l	ll
t	t

__BEGIN__	__EPS__
n	n
u	un

__BEGIN__	__EPS__
i	ih
r	r
e	e
n	n

__BEGIN__	__EPS__
s	s
a	a
n	nk
t	t

__BEGIN__	__EPS__
k	k
a	a
n	nn

__BEGIN__	__EPS__
h	h
o	o
c	c
h	h

__BEGIN__	__EPS__
d	d
e	e
s	s

__BEGIN__	__EPS__
e	e
r	r

__BEGIN__	__EPS__
d	d
e	e
n	n

__BEGIN__	__EPS__
d	d
a	a
r	__EPS__
n	n
a	a
c	c
h	h

__BEGIN__	__EPS__
m	m
y	e
e	e
r	r
p	b
i	i
n	n
s	s
e	e
n	n

__BEGIN__	__EPS__
v	u
n	n
d	d

__BEGIN__	__EPS__
v	f
r	r
o	a
w	u
e	__EPS__

__BEGIN__	__EPS__
d	d
a	a
z	s

__BEGIN__	__EPS__
h	h
a	a
i	__EPS__
t	t

__BEGIN__	__EPS__
w	w
a	a
r	r
u	u
m	m
b	__EPS__

__BEGIN__	__EPS__
i	ih
m	m

__BEGIN__	__EPS__
n	n
u	un

__BEGIN__	__EPS__
d	di
e	e
s	s
e	e

__BEGIN__	__EPS__
s	s
c	c
h	h
w	w
a	a
n	n
g	g
e	e
r	r

__BEGIN__	__EPS__
e	i
m	h
e	m

__BEGIN__	__EPS__
v	u
n	n
d	d

__BEGIN__	__EPS__
i	ih
n	n

__BEGIN__	__EPS__
a	a
l	l
l	l
e	e
n	n

__BEGIN__	__EPS__
d	d
i	i
e	e

__BEGIN__	__EPS__
w	w
i	i
d	e
d	d
e	e
r	r

__BEGIN__	__EPS__
i	i
c	c
h	h

__BEGIN__	__EPS__
m	m
a	a
g	g

__BEGIN__	__EPS__
f	f
u	üh
r	r
t	t
e	e

__BEGIN__	__EPS__
s	s
p	p
r	r
a	a
c	c
h	h

__BEGIN__	__EPS__
m	m
i	i
t	t

__BEGIN__	__EPS__
v	u
n	n
s	s
c	c
h	h
u	u
l	l
d	d
i	i
g	g

__BEGIN__	__EPS__
a	a
n	n

__BEGIN__	__EPS__
s	s
e	ee
l	le

