__BEGIN__	__EPS__
a	a
l	l
l	l
e	e
r	r
l	l
i	i
e	e
b	b
s	s
t	t
e	e

__BEGIN__	__EPS__
d	d
a	a
r	r
u	u
m	m
b	__EPS__

__BEGIN__	__EPS__
s	s
p	p
r	r
a	a
c	c
h	h

__BEGIN__	__EPS__
i	i
n	n

__BEGIN__	__EPS__
b	b
i	e
e	i

__BEGIN__	__EPS__
d	d
a	a
z	s

__BEGIN__	__EPS__
s	s
a	a
n	nd
t	te

__BEGIN__	__EPS__
s	s
p	p
r	r
a	a
c	c
h	h

__BEGIN__	__EPS__
d	d
o	a

__BEGIN__	__EPS__
m	m
e	e
i	i
n	n

__BEGIN__	__EPS__
m	me
i	i
n	n

__BEGIN__	__EPS__
g	g
e	e
s	s
e	e
l	l
l	l
e	e
n	n

__BEGIN__	__EPS__
a	a
n	n

__BEGIN__	__EPS__
a	a
n	n
d	d
e	e
r	rer

__BEGIN__	__EPS__
d	d
e	e
r	r

__BEGIN__	__EPS__
m	m
i	i
t	t

__BEGIN__	__EPS__
s	s
y	ie

__BEGIN__	__EPS__
w	w
a	a
s	r
z	__EPS__

__BEGIN__	__EPS__
w	w
y	ie

__BEGIN__	__EPS__
a	a
l	l
z	s

__BEGIN__	__EPS__
h	h
e	at
t	t
e	e
n	n

__BEGIN__	__EPS__
a	a
n	n

__BEGIN__	__EPS__
h	h
e	e
i	i
l	l
i	i
g	g
e	e
n	n

__BEGIN__	__EPS__
d	d
e	e
n	n

__BEGIN__	__EPS__
n	n
i	ich
t	t

__BEGIN__	__EPS__
d	d
o	a

__BEGIN__	__EPS__
w	w
a	a
s	r

__BEGIN__	__EPS__
e	e
r	r

__BEGIN__	__EPS__
q	k
u	__EPS__
e	ä
m	m
e	e
n	n

__BEGIN__	__EPS__
m	me
i	in

__BEGIN__	__EPS__
a	a
l	l
s	s

__BEGIN__	__EPS__
k	k
r	r
o	o
n	ne

__BEGIN__	__EPS__
e	e
s	s
z	__EPS__

__BEGIN__	__EPS__
a	a
n	n

__BEGIN__	__EPS__
a	e
i	i
n	n
e	e
n	m

__BEGIN__	__EPS__
v	u
n	n
d	d

__BEGIN__	__EPS__
y	j
e	e

__BEGIN__	__EPS__
a	a
b	b

__BEGIN__	__EPS__
w	w
o	oh
l	l

__BEGIN__	__EPS__
q	k
u	__EPS__
a	a
m	m

__BEGIN__	__EPS__
t	t
r	r
u	u
o	__EPS__
g	g
e	e
n	n

__BEGIN__	__EPS__
s	s
o	o

__BEGIN__	__EPS__
v	v
a	o
n	n

__BEGIN__	__EPS__
d	d
o	a

__BEGIN__	__EPS__
v	u
n	n
d	d

__BEGIN__	__EPS__
s	s
v	oh
n	n

__BEGIN__	__EPS__
a	a
l	l
s	s

__BEGIN__	__EPS__
s	s
p	p
r	r
i	i
c	c
h	h
t	t

__BEGIN__	__EPS__
v	u
i	__EPS__
n	n
s	s
e	e
r	re

__BEGIN__	__EPS__
h	h
e	e
r	r
o	o
d	d
e	e
s	s

__BEGIN__	__EPS__
m	me
i	i
n	n

__BEGIN__	__EPS__
m	m
i	i
r	r
a	a
k	k
e	e
l	l

__BEGIN__	__EPS__
n	n
a	a
c	c
h	h

__BEGIN__	__EPS__
s	s
e	i
u	e

__BEGIN__	__EPS__
v	u
n	n
d	d

__BEGIN__	e
v	u
c	c
h	h

__BEGIN__	__EPS__
s	s
t	t
a	eh
i	e
n	n

__BEGIN__	__EPS__
w	w
i	i
l	ll

__BEGIN__	__EPS__
n	n
a	ah
m	m
e	e
n	n

__BEGIN__	__EPS__
s	s
e	e
c	__EPS__
h	h
t	t

__BEGIN__	__EPS__
d	d
e	e
r	r

__BEGIN__	__EPS__
c	__EPS__
z	z
e	e
i	i
c	c
h	h
e	e
n	n

__BEGIN__	__EPS__
n	n
a	ah
m	m
e	e
n	n

__BEGIN__	__EPS__
m	m
a	a
n	nc
g	h
e	e
r	r
h	l
a	e
n	i
d	__EPS__

__BEGIN__	__EPS__
r	r
e	e
c	c
h	h
t	t
e	e

__BEGIN__	__EPS__
m	me
i	i
n	n

__BEGIN__	__EPS__
v	v
a	o
n	n

__BEGIN__	__EPS__
v	v
a	o
n	n

__BEGIN__	__EPS__
c	__EPS__
z	z
u	u

__BEGIN__	__EPS__
v	u
n	n
d	d

__BEGIN__	__EPS__
e	e
r	r
p	b
u	o
t	t
e	e
n	n

__BEGIN__	__EPS__
d	d
o	a

__BEGIN__	__EPS__
m	me
y	i
n	n

__BEGIN__	__EPS__
s	s
a	a
n	nk
t	t

__BEGIN__	__EPS__
m	m
i	i
c	c
h	h

__BEGIN__	__EPS__
g	__EPS__
e	__EPS__
h	h
i	i
e	e
s	s
z	s

__BEGIN__	__EPS__
e	e
r	r

__BEGIN__	__EPS__
e	e
r	r
s	s
c	c
h	h
r	r
a	a
c	__EPS__
k	k
e	e
n	n
t	__EPS__

__BEGIN__	__EPS__
i	ih
m	m

__BEGIN__	__EPS__
d	da
z	ss

__BEGIN__	__EPS__
s	sch
l	l
o	o
s	s
z	s

__BEGIN__	__EPS__
o	a
u	u
f	f

__BEGIN__	__EPS__
g	g
e	e
m	m
e	e
i	i
n	n
e	e
n	n

__BEGIN__	__EPS__
v	u
n	n
d	d

__BEGIN__	__EPS__
s	s
ü	oh
n	n

__BEGIN__	e
s	s

__BEGIN__	__EPS__
v	u
n	n
d	d

__BEGIN__	__EPS__
k	k
o	a
m	m

__BEGIN__	__EPS__
m	m
o	o
c	c
h	h
t	t
e	e

__BEGIN__	__EPS__
p	b
i	i
s	s
t	t

__BEGIN__	__EPS__
i	i
n	n

__BEGIN__	__EPS__
h	h
a	a
b	b

__BEGIN__	__EPS__
d	d
a	a

__BEGIN__	__EPS__
m	m
i	i
r	r

__BEGIN__	__EPS__
v	b
n	i
z	s

__BEGIN__	__EPS__
g	g
e	e
d	t
o	ö
t	t
t	__EPS__
e	e
t	t

__BEGIN__	__EPS__
m	m
a	a
g	g
d	d
a	a
l	l
e	e
n	n
a	a

__BEGIN__	__EPS__
w	w
i	i
d	d
e	e
r	r
s	s
a	a
g	g
t	t

__BEGIN__	__EPS__
d	d
e	e
m	m

__BEGIN__	__EPS__
d	d
e	e
m	m

__BEGIN__	__EPS__
d	d
o	a

__BEGIN__	__EPS__
w	w
a	e
i	i
n	n
e	e
n	n

__BEGIN__	__EPS__
a	e
i	i
n	n
e	e
r	r

__BEGIN__	__EPS__
m	m
i	i
t	t

__BEGIN__	__EPS__
z	z
u	u

__BEGIN__	__EPS__
d	d
a	a

__BEGIN__	__EPS__
i	ih
n	n

__BEGIN__	__EPS__
d	d
o	a

__BEGIN__	__EPS__
m	m
i	i
r	r

__BEGIN__	__EPS__
i	i
c	c
h	h

__BEGIN__	__EPS__
r	r
o	o
t	t

__BEGIN__	__EPS__
w	w
a	a
s	r

__BEGIN__	__EPS__
t	z
z	e
o	r
s	s
p	p
l	l
i	i
j	z
s	__EPS__
s	__EPS__
e	e
n	n

__BEGIN__	__EPS__
w	w
a	a
r	r
d	d

__BEGIN__	__EPS__
d	d
o	a

__BEGIN__	__EPS__
n	n
a	ah
m	m

__BEGIN__	__EPS__
s	se
i	i

__BEGIN__	__EPS__
s	s
c	c
h	h
r	r
e	i
y	e

__BEGIN__	__EPS__
h	h
i	i
e	e
z	ss

__BEGIN__	__EPS__
a	e
i	i
n	n

__BEGIN__	__EPS__
p	p
i	i
l	l
a	a
t	t
o	us

__BEGIN__	__EPS__
y	i
n	n

__BEGIN__	__EPS__
w	w
i	i
l	ll

__BEGIN__	__EPS__
g	b
e	e
r	r
v	ü
e	h
r	r
e	e
n	n

__BEGIN__	__EPS__
d	d
e	e
r	r

__BEGIN__	__EPS__
g	__EPS__
e	__EPS__
n	n
e	eh
m	m
e	e
n	n

__BEGIN__	__EPS__
v	u
n	n
r	r
a	e
i	i
n	n
e	e
n	n

__BEGIN__	__EPS__
n	n
u	u
e	__EPS__
r	r

__BEGIN__	__EPS__
s	s
p	p
r	r
a	a
c	c
h	h

__BEGIN__	__EPS__
v	u
n	n
d	d

__BEGIN__	__EPS__
s	s
ü	ü
s	s
s	s
e	e

__BEGIN__	__EPS__
n	n
u	u
n	n

__BEGIN__	__EPS__
n	n
o	ö
t	t
e	e
n	n

__BEGIN__	__EPS__
h	h
y	ies
s	s

__BEGIN__	__EPS__
d	t
o	o
d	d
e	__EPS__

__BEGIN__	__EPS__
s	s
o	oh
n	n

__BEGIN__	__EPS__
k	k
o	a
m	m
e	e
n	n

__BEGIN__	__EPS__
y	j
e	e
t	t
z	zt

__BEGIN__	__EPS__
s	s
a	a
g	__EPS__
h	h
e	e
n	n

__BEGIN__	__EPS__
e	e
r	r

__BEGIN__	__EPS__
g	g
e	e
b	b
e	e
t	t
h	__EPS__

__BEGIN__	__EPS__
d	d
e	e
m	m

__BEGIN__	__EPS__
i	ih
m	m

__BEGIN__	__EPS__
v	u
n	n
s	s

__BEGIN__	__EPS__
c	__EPS__
z	z
a	a
r	r
t	t
e	e

__BEGIN__	__EPS__
w	w
o	a
n	n

__BEGIN__	__EPS__
h	h
e	e
r	r
c	__EPS__
z	z

__BEGIN__	__EPS__
i	i
n	n

__BEGIN__	__EPS__
r	r
u	üc
k	k
c	e
h	n

__BEGIN__	__EPS__
e	e
i	i
n	n

__BEGIN__	__EPS__
m	m
a	__EPS__
e	e
n	n
s	s
c	c
h	h
e	e
n	n

__BEGIN__	__EPS__
g	g
r	r
o	o
s	s
z	s
e	e
n	n

__BEGIN__	__EPS__
v	u
n	n
s	s

__BEGIN__	__EPS__
d	d
e	e
m	m

__BEGIN__	__EPS__
z	z
v	u
e	__EPS__

__BEGIN__	__EPS__
b	b
r	r
u	u
n	n
n	n
e	e
n	n

__BEGIN__	__EPS__
d	d
u	u
r	r
c	c
h	h

__BEGIN__	__EPS__
k	k
r	r
a	o
n	ne

__BEGIN__	__EPS__
c	k
r	r
u	e
c	u
e	z

__BEGIN__	__EPS__
d	d
a	a
z	s

__BEGIN__	__EPS__
s	s
e	e
y	i
t	t
t	__EPS__
e	e
n	n

__BEGIN__	__EPS__
d	d
a	a
s	ss

__BEGIN__	__EPS__
s	s
ü	oh
n	n

__BEGIN__	__EPS__
w	w
e	e
l	l
t	t

__BEGIN__	__EPS__
e	i
m	h
e	m

__BEGIN__	__EPS__
s	s
o	o

__BEGIN__	__EPS__
l	l
a	a
n	n
g	g

__BEGIN__	__EPS__
l	l
e	e
i	i
d	de

__BEGIN__	__EPS__
g	__EPS__
e	__EPS__
a	a
n	n
t	t
w	w
u	o
r	r
t	t
e	e
n	n

__BEGIN__	__EPS__
s	o
u	h
n	n
d	__EPS__
e	e
r	__EPS__

__BEGIN__	i
e	h
n	n

__BEGIN__	__EPS__
c	k
h	__EPS__
l	l
a	a
g	ge

__BEGIN__	__EPS__
g	g
o	o
t	tt

__BEGIN__	__EPS__
l	l
e	e
i	i
b	b
e	__EPS__

__BEGIN__	__EPS__
l	l
e	e
y	i
t	d

__BEGIN__	__EPS__
d	d
a	a
s	s

__BEGIN__	__EPS__
b	b
e	e
y	i
n	n

__BEGIN__	__EPS__
e	e
i	i
n	n

__BEGIN__	__EPS__
m	m
e	e
r	r
k	k
e	e
n	n

__BEGIN__	__EPS__
d	d
a	a
s	ss

__BEGIN__	__EPS__
h	h
e	ä
n	n
d	de

__BEGIN__	__EPS__
k	k
u	ö
n	ni
k	g
r	re
i	i
c	c
h	h

__BEGIN__	__EPS__
d	d
i	i
e	e

__BEGIN__	__EPS__
d	d
a	a
r	__EPS__
n	n
a	a
c	c
h	h

__BEGIN__	__EPS__
d	d
o	a
r	r
v	u
m	m
e	__EPS__

__BEGIN__	__EPS__
e	e
r	r
b	b
e	e
b	b
e	__EPS__
t	t
e	e

__BEGIN__	__EPS__
y	ih
m	m

__BEGIN__	__EPS__
h	h
e	a
t	t

__BEGIN__	__EPS__
c	c
e	e
n	n
t	t
u	u
r	r
i	i
o	o

__BEGIN__	__EPS__
z	z
e	u

__BEGIN__	__EPS__
k	k
u	u
n	n
t	d

__BEGIN__	__EPS__
k	k
i	i
n	n
t	d

__BEGIN__	__EPS__
d	d
e	e
n	n

__BEGIN__	__EPS__
s	s
i	ie

__BEGIN__	__EPS__
n	n
i	i
c	c
h	h
t	t

__BEGIN__	__EPS__
w	w
a	a
t	s

__BEGIN__	__EPS__
d	d
a	a

__BEGIN__	__EPS__
b	b
u	u
o	s
s	s
z	e

__BEGIN__	__EPS__
s	s
i	i
c	c
h	h

__BEGIN__	__EPS__
h	h
o	o
f	f
f	f
n	n
u	u
n	n
g	g

__BEGIN__	__EPS__
s	s
p	p
r	r
a	a
c	c
h	h

__BEGIN__	__EPS__
m	m
o	o
c	c
h	h
t	te

__BEGIN__	__EPS__
l	le
i	i
b	b

__BEGIN__	__EPS__
z	z
e	e
i	i
c	c
h	h
e	e
n	n

__BEGIN__	__EPS__
s	s
y	i
n	n
t	d

__BEGIN__	__EPS__
v	u
n	n
d	d
e	__EPS__

__BEGIN__	__EPS__
e	e
i	i
n	n

__BEGIN__	__EPS__
m	m
e	a
n	n

__BEGIN__	__EPS__
g	__EPS__
e	__EPS__
t	t
r	r
o	ö
e	__EPS__
s	s
t	t
e	e
n	n

__BEGIN__	__EPS__
s	s
p	p
r	r
e	e
c	c
h	h
e	e
n	n

__BEGIN__	__EPS__
d	d
o	a

__BEGIN__	d
u	u

__BEGIN__	__EPS__
d	d
a	as
s	s

__BEGIN__	__EPS__
h	h
a	ä
n	n
g	g
e	__EPS__
t	t

__BEGIN__	__EPS__
z	z
u	u

__BEGIN__	__EPS__
d	d
o	a

__BEGIN__	__EPS__
m	m
a	a
l	l

__BEGIN__	__EPS__
k	k
i	i
n	n
d	d
e	__EPS__

__BEGIN__	__EPS__
h	e
e	r

__BEGIN__	__EPS__
f	f
r	r
o	a
w	u

__BEGIN__	__EPS__
n	n
a	ah
m	m
e	e
n	n

__BEGIN__	__EPS__
d	d
o	o
c	c
h	h

__BEGIN__	__EPS__
p	p
y	i
l	l
a	a
t	t
u	u
s	s

__BEGIN__	__EPS__
e	e
r	r

__BEGIN__	__EPS__
w	w
o	ah
r	r

__BEGIN__	__EPS__
g	g
e	e
m	m
a	a
c	c
h	h
t	t

__BEGIN__	__EPS__
d	d
a	a
s	ss

__BEGIN__	__EPS__
i	ih
m	m

__BEGIN__	__EPS__
m	m
a	o
c	c
h	h
t	te

__BEGIN__	__EPS__
a	al
l	l
a	e
i	i
n	n

__BEGIN__	__EPS__
a	a
l	l
s	s

__BEGIN__	__EPS__
w	w
a	a
r	r
e	e
n	n

__BEGIN__	__EPS__
m	m
a	an
n	n
i	i
g	g
u	f
a	a
l	l
t	t
i	i
g	g

__BEGIN__	__EPS__
o	o
f	f
f	f
i	e
n	n
b	b
a	a
r	r

__BEGIN__	__EPS__
m	m
a	a
r	r
t	t
e	e
r	r

__BEGIN__	__EPS__
h	h
e	e
r	r
o	o
d	d
e	e
z	s

__BEGIN__	__EPS__
v	v
o	o
n	n

__BEGIN__	__EPS__
d	de
i	i
n	n
e	e
r	r

__BEGIN__	__EPS__
p	p
y	i
l	l
a	a
t	t
u	u
s	s

__BEGIN__	__EPS__
g	g
r	r
o	o
s	s
z	s
e	e
s	s
z	__EPS__

__BEGIN__	__EPS__
t	t
a	e
i	i
l	l
t	t
e	e
n	n

__BEGIN__	__EPS__
s	s
c	c
h	h
w	w
ü	a
m	mm

__BEGIN__	__EPS__
v	u
n	n
d	d

__BEGIN__	__EPS__
d	t
a	a
g	g
e	e

__BEGIN__	__EPS__
d	d
e	e
n	n

__BEGIN__	__EPS__
d	d
i	i
e	e

__BEGIN__	__EPS__
i	i
c	c
h	h

__BEGIN__	__EPS__
e	a
l	l
l	l
v	__EPS__
i	e

__BEGIN__	__EPS__
s	s
t	t
a	ät
t	te

__BEGIN__	__EPS__
e	e
z	s

__BEGIN__	__EPS__
m	me
i	i
n	n

__BEGIN__	__EPS__
e	e
i	i
n	n

__BEGIN__	__EPS__
i	ih
n	n

__BEGIN__	__EPS__
s	s
o	oh
n	n
e	__EPS__

__BEGIN__	__EPS__
r	r
o	o
m	m

__BEGIN__	__EPS__
k	k
o	o
m	mm
e	e
n	n

__BEGIN__	__EPS__
d	d
e	e
n	n

__BEGIN__	__EPS__
i	u
n	n
d	d

__BEGIN__	n
e	ich
n	t

__BEGIN__	__EPS__
h	h
e	e
r	r
o	o
d	d
e	e
s	s
z	__EPS__

__BEGIN__	__EPS__
d	d
a	a

__BEGIN__	__EPS__
m	m
o	ö
g	g
e	e
n	n

__BEGIN__	__EPS__
o	o
b	b

__BEGIN__	__EPS__
i	ih
n	n

__BEGIN__	__EPS__
v	a
f	u
f	f

__BEGIN__	__EPS__
v	u
n	n
d	d
e	__EPS__

__BEGIN__	__EPS__
k	k
o	a
m	m

__BEGIN__	__EPS__
i	i
c	c
h	h

__BEGIN__	__EPS__
s	s
p	p
o	o
t	t
t	t
e	e
t	t
e	e
n	n

__BEGIN__	__EPS__
d	d
o	a

__BEGIN__	__EPS__
s	s
p	p
r	r
a	a
c	c
h	h

__BEGIN__	__EPS__
d	d
y	ie

__BEGIN__	__EPS__
z	z
u	u
o	__EPS__

__BEGIN__	__EPS__
e	a
l	l
l	l
v	__EPS__
i	e

__BEGIN__	__EPS__
e	e
r	r

__BEGIN__	__EPS__
i	j
e	äm
m	m
e	e
r	r
l	l
i	i
c	c
h	h
e	e
n	n

__BEGIN__	__EPS__
i	i
c	c
h	h

__BEGIN__	__EPS__
d	d
u	u

__BEGIN__	__EPS__
v	u
n	n
d	d

__BEGIN__	__EPS__
d	d
i	i
e	e

__BEGIN__	__EPS__
e	e
r	r

__BEGIN__	__EPS__
c	__EPS__
z	z
u	u

__BEGIN__	__EPS__
i	ih
m	m

__BEGIN__	__EPS__
s	s
a	a
g	g

__BEGIN__	__EPS__
d	d
a	a
s	s
z	s

__BEGIN__	__EPS__
d	d
a	a
i	__EPS__
r	__EPS__
v	f
u	ü
r	r

__BEGIN__	__EPS__
v	u
n	n
d	d

__BEGIN__	__EPS__
o	a
u	u
c	c
h	h

__BEGIN__	__EPS__
h	__EPS__
e	e
r	r

__BEGIN__	__EPS__
s	sä
v	u
l	le

__BEGIN__	__EPS__
m	m
e	e
r	r
k	k
e	e

__BEGIN__	__EPS__
m	m
e	e
n	n
s	sc
h	h
e	e
n	n

__BEGIN__	__EPS__
b	b
e	e
u	f
e	eh
l	l
e	e

__BEGIN__	__EPS__
d	d
a	a
s	ss

__BEGIN__	__EPS__
l	le
i	i
c	c
h	h
n	n
a	a
m	m

__BEGIN__	__EPS__
k	k
a	a
u	u
f	f
f	__EPS__

__BEGIN__	__EPS__
d	d
a	a
t	ss

__BEGIN__	__EPS__
l	le
i	i
b	b

__BEGIN__	__EPS__
d	d
v	u

__BEGIN__	__EPS__
e	__EPS__
n	__EPS__
b	__EPS__
i	i
s	s
z	s

__BEGIN__	__EPS__
h	h
u	ü
l	l
f	f
e	e
n	n

__BEGIN__	__EPS__
v	v
a	a
d	t
e	e
r	r

__BEGIN__	__EPS__
b	b
e	e
s	s
p	p
r	r
e	e
n	n
g	g
t	t

__BEGIN__	e
a	r
b	b
a	a
r	r
m	m
e	__EPS__
t	t
e	e
n	n

__BEGIN__	__EPS__
d	d
o	a

__BEGIN__	__EPS__
l	le
i	i
b	b
e	__EPS__

__BEGIN__	__EPS__
s	s
c	c
h	h
e	e
i	i
n	n

__BEGIN__	__EPS__
m	m
e	ehr

__BEGIN__	__EPS__
v	u
n	n
s	s

__BEGIN__	__EPS__
e	e
r	r
l	l
o	a
b	u
e	b
s	s
t	t

__BEGIN__	__EPS__
e	e
y	i
n	n

__BEGIN__	__EPS__
e	e
r	r
s	s
a	a
h	h
e	e
n	n

__BEGIN__	__EPS__
d	d
o	a

__BEGIN__	__EPS__
a	a
n	n

__BEGIN__	__EPS__
a	a
u	u
c	c
h	h

__BEGIN__	__EPS__
k	k
u	u
r	r
c	__EPS__
z	z

__BEGIN__	__EPS__
k	k
i	i
n	n
d	d
e	__EPS__

__BEGIN__	__EPS__
s	s
p	p
r	r
e	e
c	c
h	h
e	e
n	n

__BEGIN__	__EPS__
v	u
n	n
d	d

__BEGIN__	__EPS__
d	d
e	e
n	n

__BEGIN__	__EPS__
e	u
n	nd

__BEGIN__	__EPS__
d	d
o	a

__BEGIN__	__EPS__
d	d
o	a

__BEGIN__	__EPS__
s	s
c	ch
a	ä
n	n
d	d
e	__EPS__
l	l
i	i
k	ch
e	e
r	r

__BEGIN__	__EPS__
w	w
a	a
s	r

__BEGIN__	__EPS__
d	d
o	a

__BEGIN__	__EPS__
h	h
i	i
e	e
s	ss

__BEGIN__	__EPS__
i	j
h	__EPS__
e	e
s	s
u	us

__BEGIN__	__EPS__
d	d
a	a
z	s

__BEGIN__	__EPS__
m	m
i	i
r	r

__BEGIN__	__EPS__
w	w
a	e
i	i
n	n
d	__EPS__
e	e
n	n
t	d

__BEGIN__	__EPS__
a	a
l	l
l	l
e	e

__BEGIN__	__EPS__
d	d
o	a

__BEGIN__	__EPS__
g	g
o	o
t	tt
e	e
s	s

__BEGIN__	__EPS__
d	d
i	i
s	e
s	s

__BEGIN__	__EPS__
w	w
y	i
r	r

__BEGIN__	__EPS__
d	d
a	a
r	r
u	u
n	m

__BEGIN__	__EPS__
g	g
o	o
t	t
t	t

__BEGIN__	__EPS__
h	h
o	ö
r	r
t	t
e	e

__BEGIN__	__EPS__
e	u
n	n
d	d
e	__EPS__

__BEGIN__	__EPS__
h	h
o	ö
r	r
e	e

__BEGIN__	__EPS__
n	n
o	o
i	__EPS__
t	t

__BEGIN__	__EPS__
f	f
r	r
a	a
w	u

__BEGIN__	__EPS__
l	l
i	i
e	e
b	b
i	e

__BEGIN__	__EPS__
e	e
r	r

__BEGIN__	__EPS__
n	n
y	i
e	e

__BEGIN__	__EPS__
v	u
n	n
d	d

__BEGIN__	__EPS__
w	w
i	i
r	r

__BEGIN__	__EPS__
d	d
a	a

__BEGIN__	__EPS__
d	d
i	i
e	e

__BEGIN__	__EPS__
n	n
ü	ich
t	t
z	s

__BEGIN__	__EPS__
z	z
c	__EPS__
u	u

__BEGIN__	__EPS__
a	a
n	n
s	s
h	__EPS__
e	e
l	l
m	m
e	__EPS__

__BEGIN__	__EPS__
h	h
e	e
r	rr

__BEGIN__	__EPS__
h	h
e	e
r	r
c	__EPS__
z	z

__BEGIN__	__EPS__
a	a
l	l
s	s
o	o

__BEGIN__	__EPS__
a	a
u	u
f	f
f	__EPS__

__BEGIN__	__EPS__
l	l
e	e
i	i
c	c
h	h
n	n
a	a
m	m
s	s

__BEGIN__	__EPS__
a	a
n	n

__BEGIN__	__EPS__
s	s
p	p
r	r
a	a
c	c
h	h

__BEGIN__	__EPS__
a	a
n	n

__BEGIN__	__EPS__
a	a
n	n

__BEGIN__	__EPS__
d	d
a	a
z	ss

__BEGIN__	__EPS__
s	s
e	ä
u	u
g	g
e	e
n	n
t	__EPS__

__BEGIN__	__EPS__
m	me
y	i
n	n

__BEGIN__	__EPS__
h	h
a	a
t	t

__BEGIN__	__EPS__
i	j
h	e
-	s
m	us

__BEGIN__	__EPS__
a	a
l	l
s	s
o	o

__BEGIN__	__EPS__
d	d
o	a

__BEGIN__	__EPS__
d	d
e	e
s	s

__BEGIN__	__EPS__
s	s
c	c
h	h
u	u
l	l
d	d
i	i
g	g

__BEGIN__	__EPS__
d	d
a	a
z	ss

__BEGIN__	__EPS__
a	a
n	n

__BEGIN__	__EPS__
s	s
y	i
c	c
i	i
o	o

__BEGIN__	__EPS__
s	s
a	a
g	h
i	e
n	n

__BEGIN__	__EPS__
v	u
n	n
d	d
e	__EPS__

__BEGIN__	__EPS__
i	ih
m	m

__BEGIN__	__EPS__
w	w
i	i
e	e

__BEGIN__	__EPS__
m	m
i	i
r	r

__BEGIN__	__EPS__
d	d
a	a
s	s

__BEGIN__	__EPS__
w	w
a	a
s	r

__BEGIN__	__EPS__
d	d
e	e
r	r

__BEGIN__	__EPS__
d	t
e	a
t	t

__BEGIN__	__EPS__
m	m
a	a
n	n

__BEGIN__	__EPS__
e	e
r	r

__BEGIN__	__EPS__
g	g
e	e
r	r
n	n

__BEGIN__	__EPS__
d	d
i	i
e	e

__BEGIN__	__EPS__
n	n
i	i
c	c
h	h
t	t

__BEGIN__	__EPS__
a	a
n	n
t	t
l	l
i	it
z	z

__BEGIN__	__EPS__
s	s
o	o

__BEGIN__	__EPS__
s	s
e	e
l	l
i	i
g	g
k	k
e	e
i	i
t	t

__BEGIN__	__EPS__
v	u
n	n
d	d

__BEGIN__	__EPS__
v	u
n	n
d	t
e	e
r	r
n	__EPS__
e	__EPS__
n	m

__BEGIN__	__EPS__
d	d
v	u

__BEGIN__	__EPS__
s	s
e	e
i	i
n	n

__BEGIN__	__EPS__
w	w
e	e
r	r
f	f
e	e
n	n

__BEGIN__	__EPS__
i	e
n	n
t	t
g	g
a	eh
i	e
n	n

__BEGIN__	__EPS__
b	b
e	e
s	s
c	c
h	h
a	a
f	f
f	f
e	e
n	n

__BEGIN__	__EPS__
l	l
e	e
i	i
p	b

__BEGIN__	__EPS__
h	h
e	e
r	r
t	__EPS__
z	z
e	__EPS__

__BEGIN__	__EPS__
a	oh
n	n
e	e

__BEGIN__	__EPS__
g	g
a	a
r	r

__BEGIN__	__EPS__
a	oh
n	ne

__BEGIN__	__EPS__
g	g
e	e
s	s
e	e
l	lle

__BEGIN__	__EPS__
d	d
a	a
s	ss

__BEGIN__	__EPS__
d	d
i	i
e	e

__BEGIN__	__EPS__
d	d
a	a
t	ss

__BEGIN__	__EPS__
s	s
e	e
i	i
n	n

__BEGIN__	__EPS__
s	s
t	t
e	e
i	i
n	n

__BEGIN__	__EPS__
w	w
u	u
n	n
d	d
e	e
n	n

__BEGIN__	__EPS__
s	s
y	ie

__BEGIN__	__EPS__
i	i
n	n

__BEGIN__	__EPS__
r	red
e	e
t	t

__BEGIN__	__EPS__
i	i
n	n

__BEGIN__	__EPS__
m	m
a	a
n	n

__BEGIN__	__EPS__
d	d
i	i
e	e

__BEGIN__	__EPS__
d	d
e	e
n	n

__BEGIN__	__EPS__
i	i
c	c
h	h

__BEGIN__	__EPS__
b	b
a	a
n	n
t	d

__BEGIN__	__EPS__
w	w
i	i
l	l
l	l
e	e
n	n

__BEGIN__	__EPS__
d	d
e	e
r	r

__BEGIN__	__EPS__
h	h
a	a
t	__EPS__
t	t

__BEGIN__	__EPS__
y	ih
n	n

__BEGIN__	__EPS__
d	d
i	i
c	c
h	h

__BEGIN__	__EPS__
m	m
u	u
o	__EPS__
t	t
t	t
e	e
r	r

__BEGIN__	__EPS__
s	s
p	p
o	o
t	t
t	t
o	e
t	t
e	e
n	n
t	__EPS__

__BEGIN__	__EPS__
a	a
n	n

__BEGIN__	__EPS__
m	me
y	i
n	n

__BEGIN__	__EPS__
d	d
a	as
s	s

__BEGIN__	__EPS__
v	u
n	n
d	d

__BEGIN__	__EPS__
t	t
h	__EPS__
u	ue

__BEGIN__	__EPS__
d	d
e	e
s	s

__BEGIN__	__EPS__
d	d
o	a

__BEGIN__	__EPS__
g	g
e	e
i	i
s	s
t	t

__BEGIN__	__EPS__
v	v
i	ie
l	l

__BEGIN__	__EPS__
n	n
a	a
c	c
h	h

__BEGIN__	__EPS__
s	s
o	o

__BEGIN__	__EPS__
s	s
p	p
r	r
a	a
c	c
h	h

__BEGIN__	__EPS__
d	d
u	o
r	r
n	n
e	e
n	n
c	k
h	__EPS__
r	r
o	o
n	n
e	e

__BEGIN__	__EPS__
h	h
e	e
r	r
r	r
e	__EPS__

__BEGIN__	__EPS__
s	s
t	t
ü	a
n	n
d	d

__BEGIN__	__EPS__
d	d
a	a
s	s

__BEGIN__	__EPS__
t	z
r	o
e	__EPS__
c	__EPS__
k	g
t	__EPS__

__BEGIN__	__EPS__
s	s
c	c
h	h
o	u
i	__EPS__
l	l
t	d

__BEGIN__	__EPS__
d	d
o	a

__BEGIN__	__EPS__
s	s
p	p
r	r
a	a
c	c
h	h

__BEGIN__	__EPS__
i	ih
m	m

__BEGIN__	__EPS__
w	w
i	i
l	ll

__BEGIN__	__EPS__
s	r
c	__EPS__
h	__EPS__
a	ä
c	u
h	b
e	e
r	r

__BEGIN__	__EPS__
v	v
a	a
t	t
e	e
r	r

__BEGIN__	__EPS__
e	ih
n	n

__BEGIN__	__EPS__
d	d
e	e
i	i
n	n

__BEGIN__	__EPS__
c	__EPS__
h	k
r	r
a	a
n	n
k	k
c	__EPS__
h	h
a	e
i	i
t	t

__BEGIN__	__EPS__
g	g
a	a
r	r

__BEGIN__	__EPS__
d	d
e	e
i	i
m	n
e	em

__BEGIN__	__EPS__
h	h
e	ä
t	t
t	t
e	e

__BEGIN__	__EPS__
e	e
r	r

__BEGIN__	__EPS__
b	b
e	e
g	g
u	a
n	n
d	n
e	__EPS__

__BEGIN__	__EPS__
i	i
n	n

__BEGIN__	__EPS__
i	i
n	n

__BEGIN__	__EPS__
e	e
n	i
m	n
i	i
g	g
e	e
n	n

__BEGIN__	__EPS__
w	w
a	a
n	n
n	n

__BEGIN__	__EPS__
f	f
r	r
e	e
ü	u
d	d
e	e

__BEGIN__	__EPS__
p	b
e	e
r	r
g	g
e	e
n	n

__BEGIN__	__EPS__
d	d
e	e
n	n
n	n
e	__EPS__

__BEGIN__	__EPS__
g	g
e	__EPS__
l	li
e	e
d	d
e	er

__BEGIN__	__EPS__
s	s
i	i
c	c
h	h

__BEGIN__	__EPS__
e	e
y	i
n	n

__BEGIN__	__EPS__
m	m
o	o
r	r
g	g
e	e
n	n

__BEGIN__	__EPS__
d	d
e	e
s	s

__BEGIN__	__EPS__
v	v
o	o
n	n

__BEGIN__	__EPS__
r	r
u	o
m	m
e	__EPS__

__BEGIN__	__EPS__
v	u
n	n
d	d

__BEGIN__	__EPS__
d	d
o	a

__BEGIN__	__EPS__
e	eh
r	r
i	e
n	n

__BEGIN__	__EPS__
l	l
a	a
g	g

__BEGIN__	__EPS__
g	g
e	e
r	r
n	n

__BEGIN__	__EPS__
g	g
e	e
w	w
a	a
n	n
t	d

__BEGIN__	__EPS__
d	d
a	a
u	v
i	i
d	d

__BEGIN__	__EPS__
z	z
w	__EPS__
a	a
r	r
t	t
t	__EPS__
e	e

__BEGIN__	__EPS__
i	i
c	c
h	h

__BEGIN__	__EPS__
v	u
n	n
n	d

__BEGIN__	__EPS__
s	s
a	a
h	h
e	e
n	n

__BEGIN__	__EPS__
g	g
r	r
a	a
b	b

__BEGIN__	__EPS__
s	s
e	e
i	i
n	n
e	e
m	m

__BEGIN__	__EPS__
i	e
z	s

__BEGIN__	__EPS__
c	k
r	r
u	e
c	u
e	z

__BEGIN__	__EPS__
b	b
y	i
s	s
z	__EPS__

__BEGIN__	__EPS__
s	s
y	ie

__BEGIN__	__EPS__
y	ih
r	r

__BEGIN__	__EPS__
e	e
r	r
k	q
u	uic
k	k
t	t

__BEGIN__	__EPS__
a	a
n	n
s	s
a	a
c	__EPS__
h	h

__BEGIN__	__EPS__
d	d
a	a

__BEGIN__	__EPS__
d	d
o	a

__BEGIN__	__EPS__
g	g
e	e
b	b
e	e
i	i
n	n
e	e

__BEGIN__	__EPS__
r	r
e	e
c	c
h	h
t	t
e	__EPS__

__BEGIN__	__EPS__
g	g
e	e
l	l
e	e
d	d
i	i
g	g
t	t

__BEGIN__	__EPS__
s	s
p	p
r	r
a	a
c	c
h	h

__BEGIN__	__EPS__
e	e
r	r

__BEGIN__	__EPS__
w	w
a	a
n	n
g	g
e	e
n	n

__BEGIN__	__EPS__
o	a
u	u
f	f

__BEGIN__	__EPS__
w	w
a	a
r	r
t	t
e	e
n	n

__BEGIN__	__EPS__
n	n
i	i
c	c
h	h
t	t

__BEGIN__	__EPS__
h	h
e	e
r	r
t	__EPS__
z	ze
n	n
l	l
i	i
e	e
b	b
e	e
s	s

__BEGIN__	__EPS__
a	a
l	l
l	l
e	e
r	r

__BEGIN__	__EPS__
v	v
o	o
n	n

__BEGIN__	__EPS__
s	s
u	oh
n	n

__BEGIN__	__EPS__
i	je
r	rusa
l	l
-	e
m	m

__BEGIN__	__EPS__
e	e
r	r
l	l
i	i
t	tt
e	e
n	n

__BEGIN__	__EPS__
m	m
a	a
n	n

__BEGIN__	__EPS__
v	v
e	e
r	r
l	l
e	e
ü	u
g	g
e	__EPS__
n	ne
t	t

__BEGIN__	__EPS__
d	d
a	a
s	ss

__BEGIN__	a
v	u
f	f

__BEGIN__	__EPS__
v	v
e	e
s	s
t	t
i	i
m	m
e	e
n	n
t	t
a	a

__BEGIN__	__EPS__
s	s
p	p
i	i
e	e
s	ss

__BEGIN__	__EPS__
r	re
i	i
c	c
h	h
e	e

__BEGIN__	__EPS__
s	s
c	c
h	h
e	ä
c	c
h	h
e	e
r	r
n	n

__BEGIN__	__EPS__
s	s
e	e
h	h
t	t

__BEGIN__	__EPS__
t	__EPS__
z	z
o	u

__BEGIN__	__EPS__
t	d
ü	ü
r	r
r	r
e	__EPS__

__BEGIN__	__EPS__
w	w
o	oh
l	l

__BEGIN__	__EPS__
f	f
r	r
a	a
g	g
t	t

__BEGIN__	__EPS__
i	ih
m	m

__BEGIN__	__EPS__
l	l
i	i
e	e
p	b
l	l
e	__EPS__
i	i
c	c
h	h

__BEGIN__	__EPS__
g	g
e	e
t	t
r	r
a	a
g	g
e	e
n	n

__BEGIN__	__EPS__
z	z
e	e
i	i
t	t

__BEGIN__	__EPS__
a	a
l	l
l	l
e	e
r	r
l	l
i	i
e	e
b	b
s	s
t	t
e	e

__BEGIN__	__EPS__
d	d
a	as
z	s

__BEGIN__	__EPS__
h	i
e	h
m	m

__BEGIN__	d
u	u

__BEGIN__	__EPS__
k	k
r	r
o	o
n	ne

__BEGIN__	__EPS__
w	w
e	e
r	r
d	d
e	e
n	n

__BEGIN__	__EPS__
m	m
e	e
i	i
n	n
e	e
n	m

__BEGIN__	__EPS__
m	m
i	i
c	c
h	h

__BEGIN__	__EPS__
m	m
e	e
n	n
s	s
c	c
h	h
e	e
n	n

__BEGIN__	__EPS__
h	h
e	a
t	t

__BEGIN__	__EPS__
h	h
e	e
r	rre
n	n

__BEGIN__	__EPS__
i	i
c	ch

__BEGIN__	__EPS__
n	n
y	ich
t	t

__BEGIN__	__EPS__
w	w
i	i
r	r

__BEGIN__	__EPS__
a	a
u	u
s	s
e	e
i	i
n	n
a	a
n	n
d	d
e	e
r	r

__BEGIN__	__EPS__
s	s
u	oh
n	n

__BEGIN__	__EPS__
d	d
i	i
c	c
h	h

__BEGIN__	__EPS__
r	re
i	i
k	ch
e	e

__BEGIN__	__EPS__
l	l
e	e
i	i
p	b

__BEGIN__	__EPS__
i	ih
n	n

__BEGIN__	__EPS__
d	d
a	a
s	ss

__BEGIN__	__EPS__
f	f
r	r
a	a
w	u

__BEGIN__	__EPS__
d	d
e	e
m	m

__BEGIN__	__EPS__
c	__EPS__
h	k
o	a
m	m
e	e
n	n

__BEGIN__	__EPS__
i	j
o	u
e	__EPS__
d	d
e	e
n	n

__BEGIN__	__EPS__
d	d
y	ie
s	s
e	e
l	l
b	b
e	e
n	n

__BEGIN__	__EPS__
s	se
i	i
n	n

__BEGIN__	__EPS__
w	w
a	o
i	h
l	l
l	__EPS__

__BEGIN__	__EPS__
d	d
o	a

__BEGIN__	__EPS__
m	m
e	eh
r	r

__BEGIN__	__EPS__
w	w
z	ar

__BEGIN__	__EPS__
a	a
n	n
t	t
w	w
o	o
e	__EPS__
r	r
d	t
e	e

__BEGIN__	__EPS__
s	s
o	o

__BEGIN__	__EPS__
s	s
p	p
r	r
a	a
c	c
h	h

__BEGIN__	__EPS__
d	d
r	re
i	i
s	s
s	s
i	i
g	g
e	__EPS__

__BEGIN__	__EPS__
i	ih
n	n

__BEGIN__	__EPS__
n	n
ü	un

__BEGIN__	__EPS__
a	a
n	n
s	s
e	e
l	l
m	m
e	__EPS__

__BEGIN__	__EPS__
m	m
a	oc
h	h
t	t
e	e

__BEGIN__	__EPS__
s	s
i	i
e	e

__BEGIN__	__EPS__
s	s
i	e
j	i
n	n

__BEGIN__	__EPS__
v	u
n	n
n	d

__BEGIN__	__EPS__
a	a
n	n

__BEGIN__	__EPS__
d	d
e	e
r	r

__BEGIN__	__EPS__
d	d
i	i
e	e

__BEGIN__	__EPS__
e	e
i	i
n	n
e	e
n	n

__BEGIN__	__EPS__
s	r
c	__EPS__
h	ä
a	u
c	__EPS__
h	b
e	e
r	r

__BEGIN__	__EPS__
g	g
e	e
s	s
a	a
g	g
t	t

__BEGIN__	__EPS__
a	a
n	n

__BEGIN__	__EPS__
d	d
a	a
z	ss

__BEGIN__	__EPS__
i	j
h	es
-	u
s	s

__BEGIN__	__EPS__
m	m
i	i
t	t

__BEGIN__	__EPS__
n	n
o	o
c	c
h	h

__BEGIN__	__EPS__
s	s
o	o

__BEGIN__	__EPS__
r	r
a	a
n	nn

__BEGIN__	__EPS__
w	w
o	o
l	ll
t	t

__BEGIN__	__EPS__
m	m
i	i
s	sse
d	t
a	a
i	__EPS__
t	t

__BEGIN__	__EPS__
e	e
r	r
d	de

__BEGIN__	__EPS__
l	l
e	e
i	i
b	b
e	__EPS__

__BEGIN__	__EPS__
v	v
o	o
n	n

__BEGIN__	__EPS__
v	u
n	n
d	d

__BEGIN__	__EPS__
g	g
a	a
l	__EPS__
l	l
i	i
l	l
e	e
a	a

__BEGIN__	__EPS__
w	b
e	e
s	s
u	o
n	n
d	d
e	e
r	r
e	e
n	n

__BEGIN__	__EPS__
m	m
i	i
c	c
h	h

__BEGIN__	__EPS__
c	k
h	o
o	m
m	m
e	e
n	n
t	d

__BEGIN__	__EPS__
d	d
e	e
r	r

__BEGIN__	__EPS__
d	d
a	a
t	s

__BEGIN__	__EPS__
o	o
d	d
e	e
r	r

__BEGIN__	__EPS__
g	g
e	e
h	h
a	a
n	n
g	g
e	e
n	n

__BEGIN__	__EPS__
m	m
i	i
r	r

__BEGIN__	__EPS__
v	u
n	n
d	d

__BEGIN__	__EPS__
a	a
n	n
s	s
e	e
l	l
m	m
i	s

__BEGIN__	__EPS__
m	me
y	i
n	n

__BEGIN__	__EPS__
a	a
n	n
t	t
w	w
u	o
r	r
t	tete

__BEGIN__	__EPS__
m	m
o	o
c	c
h	h
t	t
e	e

__BEGIN__	__EPS__
g	g
o	u
i	__EPS__
t	t

__BEGIN__	__EPS__
i	i
c	c
h	h

__BEGIN__	__EPS__
s	s
i	i
c	c
h	h

__BEGIN__	__EPS__
v	u
n	n
d	d

__BEGIN__	__EPS__
v	ü
i	__EPS__
b	b
e	e
r	r

__BEGIN__	__EPS__
o	ü
u	b
e	e
r	r
b	b
l	l
i	i
j	e
u	b
e	e
n	n

__BEGIN__	__EPS__
o	oh

__BEGIN__	__EPS__
v	u
n	n
d	d

__BEGIN__	__EPS__
d	d
u	u

__BEGIN__	__EPS__
i	j
a	a

__BEGIN__	__EPS__
a	a
r	r
m	m

__BEGIN__	__EPS__
s	s
i	ie

__BEGIN__	__EPS__
c	__EPS__
h	k
a	a
m	m

__BEGIN__	__EPS__
n	n
e	eh
m	me

__BEGIN__	__EPS__
d	d
u	u

__BEGIN__	__EPS__
c	k
h	__EPS__
a	a
m	m

__BEGIN__	__EPS__
d	d
e	e
n	n

__BEGIN__	__EPS__
s	s
p	p
r	r
a	a
c	c
h	h

__BEGIN__	__EPS__
d	d
a	as
s	s

__BEGIN__	__EPS__
a	a
l	l
l	l
e	e

__BEGIN__	__EPS__
c	k
h	__EPS__
i	i
n	n
d	d

__BEGIN__	__EPS__
i	i
c	c
h	h

__BEGIN__	__EPS__
g	g
e	e
e	a
n	n
t	t
w	w
i	o
r	r
t	tet

__BEGIN__	__EPS__
d	d
e	e
z	s

__BEGIN__	__EPS__
d	d
o	a

__BEGIN__	__EPS__
n	n
o	o
c	c
h	h

__BEGIN__	__EPS__
g	g
i	in
e	g

__BEGIN__	__EPS__
s	s
c	c
h	h
r	r
e	e
y	i
b	b
e	__EPS__
t	t

__BEGIN__	__EPS__
i	ih
m	m

__BEGIN__	__EPS__
m	me
y	i
n	n

__BEGIN__	__EPS__
d	d
a	a
z	ss

__BEGIN__	__EPS__
s	s
e	e
i	i
n	n
e	e
n	m

__BEGIN__	__EPS__
b	b
l	l
u	u
o	__EPS__
t	t

__BEGIN__	__EPS__
g	g
r	r
o	o
z	s
z	s
e	e
n	n

__BEGIN__	__EPS__
a	a
n	n

__BEGIN__	__EPS__
a	o
d	d
e	e
r	r

__BEGIN__	__EPS__
k	k
o	a
m	m

__BEGIN__	__EPS__
e	e
r	r

__BEGIN__	__EPS__
d	d
i	ie
t	s

__BEGIN__	__EPS__
s	s
t	t
u	a
n	n
d	d

__BEGIN__	__EPS__
d	d
i	i
e	e

__BEGIN__	__EPS__
d	d
e	e
r	r

__BEGIN__	__EPS__
f	f
i	i
l	l
i	i
a	a

__BEGIN__	__EPS__
s	s
o	ol
l	l

__BEGIN__	__EPS__
k	k
i	i
n	n
d	d

__BEGIN__	__EPS__
m	m
e	e
i	i
n	n
e	e
r	r

__BEGIN__	__EPS__
l	l
e	e
y	i
d	d
e	e
n	n

__BEGIN__	__EPS__
c	k
h	__EPS__
l	l
a	a
g	ge

__BEGIN__	__EPS__
p	b
o	o
t	t
t	__EPS__
e	e
n	n

__BEGIN__	__EPS__
s	s
t	t
y	i
m	mm
e	e

__BEGIN__	__EPS__
d	d
a	a
r	r
u	u
m	m
b	__EPS__

__BEGIN__	__EPS__
i	ih
n	n

__BEGIN__	__EPS__
m	m
e	e
i	i
n	n

__BEGIN__	__EPS__
e	e
r	r
d	d
e	e

__BEGIN__	__EPS__
d	d
o	a

__BEGIN__	__EPS__
d	d
u	u
r	r
c	c
h	h

__BEGIN__	__EPS__
d	d
o	a

__BEGIN__	__EPS__
r	r
ü	u
f	f
f	__EPS__
t	t

__BEGIN__	__EPS__
m	m
y	i
c	c
h	h

__BEGIN__	__EPS__
m	m
a	a
g	g
t	d
a	a
l	l
e	e
n	n
a	a

__BEGIN__	__EPS__
d	d
i	i
r	r

__BEGIN__	__EPS__
c	k
l	l
e	e
y	i
d	d
e	e
r	r
e	__EPS__

__BEGIN__	__EPS__
s	s
p	p
r	r
a	a
c	c
h	h

__BEGIN__	__EPS__
d	d
o	a

__BEGIN__	__EPS__
v	u
n	n
d	d

__BEGIN__	__EPS__
h	h
o	o
c	c
h	h
t	__EPS__
z	z
e	e
i	i
t	t
l	l
e	__EPS__
i	i
c	c
h	h

__BEGIN__	__EPS__
e	e
r	r

__BEGIN__	__EPS__
v	u
n	n
d	d

__BEGIN__	__EPS__
w	w
a	a
s	r

__BEGIN__	__EPS__
i	ih
m	m

__BEGIN__	__EPS__
d	d
a	a
s	ss

__BEGIN__	__EPS__
b	b
r	r
i	i
e	e
f	f
f	__EPS__

__BEGIN__	__EPS__
m	m
ö	ö
c	c
h	h
t	te

__BEGIN__	__EPS__
k	k
a	e
i	i
n	n

__BEGIN__	__EPS__
d	d
u	u

__BEGIN__	__EPS__
a	a
n	n

__BEGIN__	__EPS__
d	d
o	a

__BEGIN__	__EPS__
v	u
n	n
f	f
l	l
a	a
i	__EPS__
t	t

__BEGIN__	__EPS__
h	h
e	a
t	t

__BEGIN__	__EPS__
f	f
r	r
a	a
w	u
e	e
n	n

__BEGIN__	__EPS__
a	a
r	r
b	b
e	e
i	i
t	t
e	e
n	n

__BEGIN__	__EPS__
e	e
i	i
n	n

__BEGIN__	__EPS__
o	o
d	d
e	e
r	r

__BEGIN__	__EPS__
m	m
a	a
c	c
h	h
o	__EPS__
t	te

__BEGIN__	__EPS__
d	d
a	a

__BEGIN__	__EPS__
a	a
l	l
l	l
e	e
r	r

__BEGIN__	__EPS__
d	de
i	i
n	n

__BEGIN__	__EPS__
n	n
i	i
c	c
h	h
t	t

__BEGIN__	__EPS__
p	p
l	l
o	o
r	r
a	a
ü	v
i	i
t	t

__BEGIN__	__EPS__
n	n
a	ah
m	m

__BEGIN__	__EPS__
i	i
n	n

__BEGIN__	__EPS__
v	u
n	n
d	d

__BEGIN__	__EPS__
i	j
u	ü
n	n
g	g
e	e
r	r
e	__EPS__
n	n

__BEGIN__	__EPS__
n	n
i	ic
e	h
t	t

__BEGIN__	__EPS__
h	h
i	i
e	e
c	s
z	s
e	e
n	n

__BEGIN__	__EPS__
f	f
r	r
a	a
g	g
t	t

__BEGIN__	__EPS__
h	h
o	ö
e	__EPS__
r	r
e	e

__BEGIN__	__EPS__
a	a
n	n
s	s
h	__EPS__
e	e
l	l
m	m
u	__EPS__
s	__EPS__

__BEGIN__	__EPS__
d	d
e	e
r	r

__BEGIN__	__EPS__
s	s
y	ie

__BEGIN__	__EPS__
b	b
l	l
o	u
e	__EPS__
t	t

__BEGIN__	__EPS__
i	i
c	c
h	h

__BEGIN__	__EPS__
m	m
a	a
r	r
i	i
a	a

__BEGIN__	__EPS__
v	u
n	n
d	t
e	e
r	r

__BEGIN__	__EPS__
g	g
r	r
o	o
s	s
z	s
e	e
n	n

__BEGIN__	__EPS__
g	g
e	e
p	b
e	e
t	t

__BEGIN__	__EPS__
d	d
o	a

__BEGIN__	be
s	s
ü	o
n	n
d	d
e	e
r	r
l	__EPS__
i	__EPS__
c	__EPS__
h	__EPS__
e	e
n	__EPS__

__BEGIN__	__EPS__
s	s
u	oh
n	n

__BEGIN__	__EPS__
e	e
r	r

__BEGIN__	__EPS__
s	s
y	ie

__BEGIN__	__EPS__
m	m
i	i
r	r

__BEGIN__	__EPS__
k	k
i	i
n	n
t	d

__BEGIN__	__EPS__
m	m
i	i
r	r

__BEGIN__	__EPS__
e	e
i	i
n	ni
g	g
e	e
n	n

__BEGIN__	__EPS__
d	d
e	e
m	m

__BEGIN__	__EPS__
b	b
ü	u
c	c
h	h

__BEGIN__	__EPS__
h	h
a	a
t	t
t	t
e	e

__BEGIN__	__EPS__
g	g
e	e
p	b
a	e
i	i
n	n

__BEGIN__	__EPS__
m	m
e	e
i	i
n	n

__BEGIN__	__EPS__
v	u
n	n
d	d

__BEGIN__	__EPS__
w	w
a	a
n	nn

__BEGIN__	__EPS__
g	g
e	e
e	a
n	n
t	t
w	w
i	o
r	r
t	tet

__BEGIN__	__EPS__
w	w
e	a
s	s

__BEGIN__	__EPS__
h	h
o	o
f	f
f	f
e	e
n	n

__BEGIN__	__EPS__
s	s
p	p
r	r
a	a
c	c
h	h

__BEGIN__	__EPS__
v	u
n	n
d	d

__BEGIN__	__EPS__
w	w
o	o
l	l
d	lt
e	e

__BEGIN__	__EPS__
m	me
y	i
n	n

__BEGIN__	__EPS__
z	ze
i	i
t	t

__BEGIN__	__EPS__
s	se
y	i
n	n
e	e
m	m

__BEGIN__	__EPS__
d	d
a	a
n	n
n	n
e	en

__BEGIN__	__EPS__
i	i
n	n

__BEGIN__	__EPS__
r	r
a	o
t	t
e	e
s	s

__BEGIN__	__EPS__
l	l
e	e
y	i
c	c
h	h
n	n
a	a
m	m

__BEGIN__	__EPS__
m	m
i	i
r	r

__BEGIN__	__EPS__
w	w
a	a
s	r

__BEGIN__	__EPS__
h	e
e	r

__BEGIN__	__EPS__
w	w
a	a
r	r
t	d

__BEGIN__	__EPS__
m	me
i	in

__BEGIN__	__EPS__
c	__EPS__
z	z
w	u

__BEGIN__	__EPS__
y	ih
m	m

__BEGIN__	__EPS__
c	k
h	__EPS__
r	r
a	a
n	n
c	k
h	h
e	e
i	i
t	t

__BEGIN__	__EPS__
k	k
u	ö
e	__EPS__
n	n
i	i
g	g
r	r
e	e
i	i
c	c
h	h

__BEGIN__	__EPS__
p	p
i	i
l	l
a	a
t	t
u	u
s	s
z	__EPS__

__BEGIN__	__EPS__
w	w
a	a
n	nn

__BEGIN__	__EPS__
a	a
n	n

__BEGIN__	__EPS__
v	v
o	o
n	n

__BEGIN__	__EPS__
n	n
u	un

__BEGIN__	__EPS__
h	h
i	i
m	mm
e	e
l	l

__BEGIN__	__EPS__
a	a
l	l
s	s
o	o

__BEGIN__	__EPS__
g	g
e	e
r	r
n	n

__BEGIN__	__EPS__
d	d
o	a
r	__EPS__
n	n
o	a
c	c
h	h

__BEGIN__	__EPS__
n	n
e	e
e	i
n	n

__BEGIN__	__EPS__
m	m
o	u
d	tt
e	e
r	r

__BEGIN__	__EPS__
s	s
p	p
r	r
a	a
c	c
h	h

__BEGIN__	__EPS__
i	ih
n	n

__BEGIN__	__EPS__
n	n
i	ich
t	t

__BEGIN__	__EPS__
b	b
e	e
g	g
r	r
a	a
b	b
e	e

__BEGIN__	__EPS__
e	e
r	r
l	l
e	e
i	i
d	d
e	e
n	n

__BEGIN__	__EPS__
d	d
i	i
e	e

__BEGIN__	__EPS__
v	u
n	n
d	d

__BEGIN__	__EPS__
m	me
y	i
n	n
e	e
r	r

__BEGIN__	__EPS__
w	w
i	i
l	l
l	l
e	e

__BEGIN__	__EPS__
g	g
r	r
o	o
i	__EPS__
s	s
z	s

__BEGIN__	__EPS__
d	d
e	e
r	r

__BEGIN__	__EPS__
m	m
e	e
i	i
n	n

__BEGIN__	__EPS__
i	e
d	__EPS__
t	s

__BEGIN__	__EPS__
d	d
v	u
r	r
i	__EPS__
c	c
h	h

__BEGIN__	__EPS__
g	g
e	e
t	t
r	r
a	a
u	u
w	__EPS__
e	__EPS__
t	t

__BEGIN__	__EPS__
g	g
i	i
e	__EPS__
n	n
g	g

__BEGIN__	__EPS__
g	g
l	l
e	e
i	i
c	c
h	h

__BEGIN__	__EPS__
v	v
i	ie
l	l

__BEGIN__	__EPS__
e	e
r	r
l	l
a	o
s	s
c	c
h	h

__BEGIN__	__EPS__
s	s
c	c
h	h
r	r
a	e
i	ie

__BEGIN__	__EPS__
s	s
i	i
e	e

__BEGIN__	__EPS__
i	ih
m	m

__BEGIN__	__EPS__
p	b
r	r
a	a
c	c
h	h
t	te

__BEGIN__	__EPS__
t	t
o	o
t	t
t	__EPS__

__BEGIN__	__EPS__
s	s
e	e
e	h
r	r
e	__EPS__

__BEGIN__	__EPS__
e	e
r	r
f	f
u	ü
l	l
l	l
t	t

__BEGIN__	__EPS__
i	ih
n	n

__BEGIN__	__EPS__
n	n
a	a
t	t
u	u
r	r

__BEGIN__	__EPS__
d	d
o	a

__BEGIN__	__EPS__
d	d
i	ie
s	s
e	e

__BEGIN__	__EPS__
v	u
n	n
d	d

__BEGIN__	__EPS__
w	w
a	a
s	r
z	__EPS__

__BEGIN__	__EPS__
s	s
i	i
e	e

__BEGIN__	__EPS__
h	h
a	ah
n	n
e	ens
k	ch
r	r
a	e
i	i
t	__EPS__

__BEGIN__	__EPS__
d	d
e	e
r	r

__BEGIN__	__EPS__
s	s
e	e
l	l
b	b
e	e
r	r

__BEGIN__	__EPS__
i	ih
n	n

__BEGIN__	__EPS__
v	u
n	n
d	d

__BEGIN__	__EPS__
s	s
a	o
l	ll
t	t

__BEGIN__	__EPS__
k	k
u	a
m	m
e	e
n	n

__BEGIN__	__EPS__
s	s
t	t
y	i
m	m
m	me

__BEGIN__	__EPS__
s	s
p	p
e	ee
r	r

__BEGIN__	__EPS__
a	a
d	d
a	a
m	m

__BEGIN__	__EPS__
p	p
i	i
l	l
a	a
t	t
u	u
s	s

__BEGIN__	__EPS__
m	m
a	an
n	n

__BEGIN__	__EPS__
s	s
p	p
r	r
a	a
c	c
h	h

__BEGIN__	__EPS__
s	s
y	ie

__BEGIN__	__EPS__
d	d
c	ass

__BEGIN__	__EPS__
v	f
r	r
e	a
g	g
e	__EPS__
t	t
e	e

__BEGIN__	__EPS__
s	s
i	i
c	c
h	h

__BEGIN__	__EPS__
n	n
u	un

__BEGIN__	__EPS__
h	h
a	a
t	t

__BEGIN__	__EPS__
m	m
i	i
t	t

__BEGIN__	__EPS__
n	n
o	o
c	c
h	h

__BEGIN__	__EPS__
m	m
u	u
t	t
t	t
e	e
r	r

__BEGIN__	__EPS__
w	w
a	a
z	r

__BEGIN__	__EPS__
i	ih
m	m

__BEGIN__	__EPS__
m	m
e	e
n	n
s	sch
l	l
i	i
c	c
h	h

__BEGIN__	__EPS__
h	h
a	a
u	u
b	p
t	t

__BEGIN__	__EPS__
w	w
e	e
n	nn

__BEGIN__	__EPS__
v	u
n	n
d	d

__BEGIN__	__EPS__
a	a
l	lle
z	s

__BEGIN__	__EPS__
m	m
i	i
e	__EPS__
r	r

__BEGIN__	__EPS__
d	d
e	e
m	m

__BEGIN__	__EPS__
a	a
l	ll
a	e
i	i
n	n

__BEGIN__	__EPS__
d	d
e	e
n	n

__BEGIN__	__EPS__
d	d
e	e
r	r

__BEGIN__	__EPS__
w	w
i	i
e	e

__BEGIN__	__EPS__
v	u
n	n
d	d

__BEGIN__	__EPS__
d	d
o	a

__BEGIN__	__EPS__
i	i
c	c
h	h

__BEGIN__	__EPS__
c	k
r	r
e	e
u	u
c	__EPS__
z	z

__BEGIN__	__EPS__
l	l
i	i
e	e
f	f

__BEGIN__	__EPS__
f	f
l	l
o	o
c	__EPS__
h	h

__BEGIN__	__EPS__
v	u
m	m

__BEGIN__	__EPS__
i	j
o	o
h	h
a	a
n	n
n	n
e	e
s	s

__BEGIN__	__EPS__
g	g
e	e
f	f
u	üh
r	r
t	t

__BEGIN__	__EPS__
m	m
a	a
n	n

__BEGIN__	__EPS__
m	m
i	i
t	t

__BEGIN__	__EPS__
s	s
p	p
r	r
a	a
c	c
h	h

__BEGIN__	__EPS__
t	__EPS__
r	b
a	e
u	t
r	r
i	__EPS__
g	ü
k	__EPS__
l	__EPS__
e	__EPS__
i	b
c	t
h	__EPS__

__BEGIN__	__EPS__
g	g
e	e
m	m
a	e
i	i
n	n
e	e
n	n

__BEGIN__	__EPS__
p	p
i	i
l	l
a	a
t	t
o	us

__BEGIN__	__EPS__
g	g
e	e
s	s
e	e
l	l
l	le

__BEGIN__	__EPS__
d	d
o	a

__BEGIN__	__EPS__
g	g
r	r
o	o
s	s
s	s
e	e
m	m

__BEGIN__	__EPS__
m	m
i	i
r	r

__BEGIN__	__EPS__
w	wu
n	n
d	d
e	en

__BEGIN__	__EPS__
w	w
i	i
e	e

__BEGIN__	__EPS__
t	s
z	__EPS__
o	o
h	gl
a	e
n	i
t	ch

__BEGIN__	__EPS__
m	m
i	i
c	c
h	h

__BEGIN__	__EPS__
e	a
n	u
p	f
h	n
a	e
h	hm
e	e
n	n

__BEGIN__	__EPS__
c	k
h	__EPS__
i	i
n	n
d	d

__BEGIN__	__EPS__
w	w
a	a
n	n
g	ge

__BEGIN__	__EPS__
t	__EPS__
z	__EPS__
o	__EPS__
s	s
p	pa
l	lt
e	e
i	__EPS__
s	t
s	__EPS__
e	e
n	n

__BEGIN__	a
v	u
f	f

__BEGIN__	__EPS__
s	s
i	i
c	c
h	h

__BEGIN__	__EPS__
g	g
e	e
g	g
r	r
u	ü
e	__EPS__
z	s
z	s
e	__EPS__
t	t

__BEGIN__	__EPS__
g	g
v	ü
o	__EPS__
t	t
i	e

__BEGIN__	__EPS__
d	d
a	a
s	s
z	s

__BEGIN__	__EPS__
d	d
c	as

__BEGIN__	__EPS__
d	d
i	i
e	e

__BEGIN__	__EPS__
v	f
r	r
o	a
w	u
e	__EPS__

__BEGIN__	__EPS__
z	z
a	a
r	r
t	t
i	__EPS__
u	e

__BEGIN__	__EPS__
t	t
u	u
g	g
e	e
n	n
t	d
l	h
i	a
c	f
h	t
e	e

__BEGIN__	__EPS__
e	e
r	r
f	f
ü	ü
l	l
l	l
t	t

__BEGIN__	__EPS__
d	d
e	e
m	m

__BEGIN__	__EPS__
a	a
n	n

__BEGIN__	__EPS__
l	l
i	i
e	e
b	b
e	e
s	s

__BEGIN__	__EPS__
m	m
e	e
i	i
n	n

__BEGIN__	__EPS__
t	t
v	u
c	c
h	h

__BEGIN__	__EPS__
d	d
a	a
z	ss

__BEGIN__	__EPS__
m	m
e	e
i	i
n	n

__BEGIN__	__EPS__
h	h
e	a
u	u
z	s

__BEGIN__	__EPS__
v	__EPS__
e	e
r	r
l	l
o	ö
s	s
t	t

__BEGIN__	__EPS__
d	d
o	a

__BEGIN__	__EPS__
d	d
a	a

__BEGIN__	__EPS__
t	t
a	e
i	i
l	l

__BEGIN__	__EPS__
v	v
i	ie
l	l

__BEGIN__	__EPS__
k	k
e	eh
r	r
e	e
n	n

__BEGIN__	__EPS__
w	w
a	a
z	s

__BEGIN__	__EPS__
t	t
r	r
o	o
s	s
t	t

__BEGIN__	__EPS__
h	h
a	a
b	be

__BEGIN__	__EPS__
h	h
o	ö
r	r
t	t

__BEGIN__	__EPS__
v	u
n	n
d	d

__BEGIN__	__EPS__
d	d
i	i
e	e

__BEGIN__	__EPS__
i	u
n	n
d	d

__BEGIN__	__EPS__
n	n
a	a
c	c
h	h
t	t

__BEGIN__	__EPS__
e	e
z	s

__BEGIN__	__EPS__
w	w
i	i
e	e

__BEGIN__	__EPS__
n	n
i	i
c	c
h	h
t	t

__BEGIN__	__EPS__
a	a
l	l
s	s
o	o

__BEGIN__	__EPS__
h	e
e	r

__BEGIN__	__EPS__
i	i
c	c
h	h

__BEGIN__	__EPS__
m	me
i	i
n	n

__BEGIN__	__EPS__
w	w
i	i
e	e

__BEGIN__	__EPS__
p	p
e	e
t	t
e	r
r	us

__BEGIN__	__EPS__
d	d
o	a

__BEGIN__	__EPS__
d	d
o	a
e	__EPS__

__BEGIN__	__EPS__
n	n
u	un

__BEGIN__	__EPS__
i	j
o	o
h	h
a	a
-	nne
s	s

__BEGIN__	__EPS__
k	k
i	i
n	n
d	d
e	e
s	s

__BEGIN__	__EPS__
i	ih
m	m

__BEGIN__	__EPS__
h	h
e	a
t	t

__BEGIN__	__EPS__
v	v
o	o
n	n

__BEGIN__	__EPS__
s	s
p	p
o	o
t	tt
e	e
s	s

__BEGIN__	__EPS__
p	p
i	i
l	l
a	a
t	t
o	us

__BEGIN__	__EPS__
d	d
u	u

__BEGIN__	__EPS__
e	e
s	s

__BEGIN__	__EPS__
i	ih
m	m

__BEGIN__	__EPS__
v	f
r	r
o	a
w	u
e	__EPS__

__BEGIN__	__EPS__
w	w
a	a
s	r

__BEGIN__	__EPS__
n	n
i	i
c	c
h	h
t	t

__BEGIN__	__EPS__
d	d
e	e
r	r

__BEGIN__	__EPS__
w	w
a	a
s	r
z	__EPS__

__BEGIN__	__EPS__
h	h
a	a
n	be

__BEGIN__	__EPS__
c	__EPS__
h	k
r	r
u	ü
n	p
p	p
e	e
n	l

__BEGIN__	__EPS__
d	d
e	e
m	m

__BEGIN__	__EPS__
m	m
e	e
n	n
s	s
c	c
h	h
e	e
n	n

__BEGIN__	__EPS__
g	g
e	e
d	t
o	ö
d	t
e	e
t	t

__BEGIN__	__EPS__
i	i
n	n

__BEGIN__	__EPS__
s	s
e	e
i	i
n	n
e	e
r	r

__BEGIN__	__EPS__
h	e
i	r

__BEGIN__	__EPS__
m	m
i	i
t	t

__BEGIN__	__EPS__
e	e
y	i
n	n
r	e
e	r

__BEGIN__	__EPS__
k	k
o	o
m	m
m	m
e	e
n	n

__BEGIN__	__EPS__
d	d
e	e
r	r

__BEGIN__	__EPS__
d	d
i	i
e	e

__BEGIN__	__EPS__
a	a
b	b
e	e
r	r

__BEGIN__	__EPS__
f	f
u	ü
r	r
s	s
p	p
r	r
e	e
c	c
h	her

__BEGIN__	__EPS__
d	d
a	a

__BEGIN__	__EPS__
d	d
e	e
r	r

__BEGIN__	__EPS__
s	s
p	p
r	r
a	a
c	c
h	h

__BEGIN__	__EPS__
e	e
r	r
f	f
u	ü
l	ll
t	t

__BEGIN__	__EPS__
i	ih
r	r
e	e
n	n

__BEGIN__	__EPS__
s	s
o	oh
n	n

__BEGIN__	__EPS__
s	e
z	s

__BEGIN__	__EPS__
r	r
i	i
c	c
h	h
t	t
e	e
n	n

__BEGIN__	__EPS__
s	se
i	i
n	n

__BEGIN__	__EPS__
w	w
a	a
r	r
t	d

__BEGIN__	__EPS__
d	da
z	ss

__BEGIN__	__EPS__
w	w
o	o
r	r
t	t

__BEGIN__	__EPS__
d	d
o	u
e	rc
r	h
s	sch
l	l
e	a
g	g
h	__EPS__
e	e
n	n

__BEGIN__	__EPS__
s	s
t	t
e	e
y	i
n	n
e	e
n	n

__BEGIN__	__EPS__
a	a
n	n

__BEGIN__	__EPS__
d	d
a	a
s	ss

__BEGIN__	__EPS__
m	m
e	e
i	i
n	n

__BEGIN__	__EPS__
v	v
e	e
r	r
l	l
a	e
u	u
k	g
e	__EPS__
n	ne
t	t

__BEGIN__	__EPS__
s	s
e	e
i	i
n	n
e	e
s	s

__BEGIN__	__EPS__
f	f
r	r
o	oh
l	l
o	o
c	c
k	k
t	t
e	e
n	n

__BEGIN__	__EPS__
g	__EPS__
e	__EPS__
p	p
r	r
o	o
p	p
h	h
e	e
t	__EPS__
c	__EPS__
z	z
i	e
r	i
t	t
h	__EPS__

__BEGIN__	__EPS__
l	l
a	e
y	i
d	d

__BEGIN__	__EPS__
s	se
i	i
n	n

__BEGIN__	__EPS__
w	w
i	i
e	e

__BEGIN__	__EPS__
d	d
a	a
s	s

__BEGIN__	__EPS__
i	i
n	n

__BEGIN__	__EPS__
y	ih
m	m

__BEGIN__	__EPS__
h	h
e	e
r	r
c	__EPS__
z	z

__BEGIN__	__EPS__
d	d
a	a
s	s

__BEGIN__	__EPS__
i	i
c	c
h	h

__BEGIN__	__EPS__
s	s
e	e
i	i
n	n

__BEGIN__	__EPS__
s	s
i	i
e	e

__BEGIN__	__EPS__
e	e
r	r

__BEGIN__	__EPS__
l	l
i	i
e	e
z	ss

__BEGIN__	__EPS__
i	i
c	c
h	h

__BEGIN__	__EPS__
b	b
e	e
y	i
d	d
e	e

__BEGIN__	__EPS__
n	n
a	a
c	c
h	h

__BEGIN__	__EPS__
l	le
i	i
b	b

__BEGIN__	__EPS__
d	d
a	a
t	ss

__BEGIN__	__EPS__
d	d
o	a
m	m
i	i
t	__EPS__
t	t
e	__EPS__

__BEGIN__	__EPS__
s	s
a	a
n	nd
t	t
e	e

__BEGIN__	__EPS__
w	w
a	a
n	nn

__BEGIN__	__EPS__
y	ih
n	n

__BEGIN__	__EPS__
n	n
u	un

__BEGIN__	__EPS__
a	a
n	n
s	s
h	__EPS__
e	e
l	l
m	m
u	__EPS__
s	__EPS__

__BEGIN__	__EPS__
s	s
u	o
l	l
l	l
e	e

__BEGIN__	__EPS__
v	v
o	o
n	n

__BEGIN__	__EPS__
w	w
a	a
n	n
t	de

__BEGIN__	__EPS__
d	d
o	a

__BEGIN__	__EPS__
d	d
e	e
n	n

__BEGIN__	__EPS__
m	m
e	e
i	i
n	n
e	e
s	s

__BEGIN__	__EPS__
v	u
n	n
d	d

__BEGIN__	__EPS__
k	k
i	i
n	n
t	d

__BEGIN__	__EPS__
w	w
a	a
s	r

__BEGIN__	__EPS__
d	d
a	a
s	s

__BEGIN__	__EPS__
c	__EPS__
z	z
y	i
n	n
s	s

__BEGIN__	__EPS__
d	d
r	r
e	e
i	i
e	e
r	r
l	l
a	e
y	i

__BEGIN__	__EPS__
f	v
u	o
r	r

__BEGIN__	__EPS__
i	j
u	u
d	d
e	e
n	n

__BEGIN__	__EPS__
d	d
u	u
r	r
c	c
h	h

__BEGIN__	__EPS__
h	__EPS__
e	e
r	r

__BEGIN__	__EPS__
y	ih
n	n

__BEGIN__	__EPS__
s	s
o	o

__BEGIN__	__EPS__
t	zu

__BEGIN__	__EPS__
i	ih
m	m

__BEGIN__	__EPS__
s	s
e	e
i	i
n	n

__BEGIN__	__EPS__
t	t
a	a
g	g

__BEGIN__	__EPS__
w	w
y	i
r	r

__BEGIN__	__EPS__
v	u
n	n
d	d

__BEGIN__	__EPS__
d	d
a	a
s	ss

__BEGIN__	__EPS__
i	i
c	c
h	h

__BEGIN__	__EPS__
v	v
o	o
n	n

__BEGIN__	e
v	u
r	r
m	e
e	m

__BEGIN__	__EPS__
v	u
n	n
d	d

