__BEGIN__	__EPS__
s	se
y	i
m	n
e	em

__BEGIN__	__EPS__
v	v
i	ie
l	l

__BEGIN__	__EPS__
o	u
i	__EPS__
r	r
l	l
o	a
i	u
f	b
f	__EPS__

__BEGIN__	__EPS__
l	l
e	e
b	b
i	e
n	n

__BEGIN__	__EPS__
l	l
a	a
g	g

__BEGIN__	__EPS__
p	p
y	i
l	l
a	a
t	t
u	u
s	s

__BEGIN__	__EPS__
k	k
o	o
m	m
m	m
i	__EPS__
s	s
t	t

__BEGIN__	__EPS__
w	w
a	a
z	r

__BEGIN__	__EPS__
m	m
i	i
r	r

__BEGIN__	__EPS__
g	g
r	r
o	o
z	s
z	s
e	e
m	m

__BEGIN__	__EPS__
k	k
o	ö
e	__EPS__
n	n
y	i
n	__EPS__
g	g
i	i
n	__EPS__
n	n
e	__EPS__

__BEGIN__	__EPS__
m	m
i	i
t	t

__BEGIN__	__EPS__
w	w
a	a
r	r
t	d

__BEGIN__	__EPS__
d	d
a	a

__BEGIN__	e
v	u
c	c
h	h

__BEGIN__	__EPS__
w	w
a	a
t	s

__BEGIN__	__EPS__
t	t
a	a
g	g

__BEGIN__	__EPS__
v	u
n	n
d	d

__BEGIN__	__EPS__
e	e
r	r

__BEGIN__	__EPS__
p	b
e	e
s	sch
l	l
o	o
s	s
s	s
e	e
n	n

__BEGIN__	__EPS__
f	f
r	r
a	a
w	u

__BEGIN__	__EPS__
e	u
n	n
d	d
e	__EPS__

__BEGIN__	__EPS__
d	d
o	o
o	__EPS__
r	r
n	n
e	e
n	n
c	k
r	r
o	o
n	n
e	e

__BEGIN__	__EPS__
i	ih
n	n

__BEGIN__	__EPS__
v	u
n	n
d	d

__BEGIN__	__EPS__
d	d
a	as
z	s

__BEGIN__	__EPS__
z	z
u	u
o	__EPS__

__BEGIN__	__EPS__
c	__EPS__
h	k
i	i
n	n
d	d
e	__EPS__

__BEGIN__	__EPS__
a	a
l	l
s	s

__BEGIN__	__EPS__
s	s
t	t
u	u
n	n
t	de

__BEGIN__	__EPS__
v	u
n	n
d	d

__BEGIN__	__EPS__
v	u
n	n
d	d

__BEGIN__	__EPS__
w	w
a	ah
r	r
e	e
r	r

__BEGIN__	__EPS__
l	l
e	e
i	i
b	b
e	e
s	s

__BEGIN__	__EPS__
i	j
e	ä
m	mm
e	e
r	r
l	l
i	i
c	c
h	h

__BEGIN__	__EPS__
w	w
a	a
s	s
z	__EPS__

__BEGIN__	__EPS__
e	e
i	i
n	n

__BEGIN__	__EPS__
d	d
a	a
s	ss

__BEGIN__	__EPS__
a	a
l	l
l	l
e	e
y	i
n	n

__BEGIN__	__EPS__
s	s
e	e
l	l
b	b
s	st

__BEGIN__	__EPS__
v	v
o	o
r	r

__BEGIN__	__EPS__
i	i
c	c
h	h

__BEGIN__	__EPS__
m	m
e	e
i	i
n	n

__BEGIN__	__EPS__
g	g
e	e
s	s
c	c
h	h
r	r
i	ie
b	b
e	e
n	n

__BEGIN__	__EPS__
v	f
i	i
n	n
d	d
e	e

__BEGIN__	__EPS__
d	d
a	a
n	nn

__BEGIN__	__EPS__
m	m
i	i
t	t

__BEGIN__	__EPS__
g	g
e	e
s	sch
l	l
a	a
g	g
e	e
n	n

__BEGIN__	__EPS__
e	e
r	r

__BEGIN__	__EPS__
s	s
e	e
h	h
t	t

__BEGIN__	__EPS__
g	g
e	e
b	b
e	e
n	n

__BEGIN__	__EPS__
d	d
i	i
e	e

__BEGIN__	__EPS__
e	e
r	r
h	h
a	ä
n	n
c	__EPS__
k	g
t	te

__BEGIN__	__EPS__
v	u
n	n
d	d

__BEGIN__	__EPS__
d	d
u	u
r	r
c	c
h	h

__BEGIN__	__EPS__
w	w
o	a
n	nn

__BEGIN__	__EPS__
v	u
n	n
d	d
e	__EPS__

__BEGIN__	__EPS__
v	u
n	n
d	d

__BEGIN__	__EPS__
s	s
y	ie

__BEGIN__	__EPS__
e	e
r	r
g	g
i	i
e	__EPS__
n	n
g	g

__BEGIN__	__EPS__
n	n
a	ah
m	m

__BEGIN__	__EPS__
i	j
u	u
d	d
e	e
n	n

__BEGIN__	__EPS__
e	e
o	o

__BEGIN__	__EPS__
t	t
y	i
t	t
u	u
s	s

__BEGIN__	__EPS__
z	z
e	e
r	r
b	b
r	r
e	e
c	c
h	h
e	e
n	n
t	__EPS__

__BEGIN__	__EPS__
i	i
n	n

__BEGIN__	__EPS__
s	sch
m	m
e	e
r	r
t	__EPS__
z	z
e	__EPS__

__BEGIN__	__EPS__
i	ih
n	n
e	e
n	n

__BEGIN__	__EPS__
r	r
i	i
e	e
f	f
f	__EPS__
e	e
n	n

__BEGIN__	__EPS__
t	t
o	o
d	d

__BEGIN__	__EPS__
g	g
e	e
g	g
a	an
i	ge
n	n

__BEGIN__	__EPS__
v	u
n	n
d	d

__BEGIN__	__EPS__
b	b
e	e
s	sch
l	l
o	o
z	s
z	s
e	e
n	n

__BEGIN__	__EPS__
w	w
i	i
l	lle

__BEGIN__	__EPS__
e	e
r	r

__BEGIN__	__EPS__
h	h
e	e
r	r
c	__EPS__
z	z

__BEGIN__	__EPS__
v	v
a	o
n	n

__BEGIN__	__EPS__
n	n
a	ah
m	m

__BEGIN__	__EPS__
s	s
p	p
r	r
a	ac
h	h
e	e
n	n

__BEGIN__	__EPS__
s	s
p	p
r	r
a	a
c	c
h	h

__BEGIN__	__EPS__
n	n
v	un

__BEGIN__	__EPS__
e	e
r	r
p	b
a	a
r	r
m	m
u	u
n	ng

__BEGIN__	__EPS__
d	d
a	as
z	s

__BEGIN__	__EPS__
p	b
a	a
t	t

__BEGIN__	__EPS__
s	s
o	o
u	ll
d	t
e	e

__BEGIN__	__EPS__
g	g
e	e
h	h
a	e
i	i
s	s
s	s
e	e
n	n

__BEGIN__	__EPS__
r	r
a	an
n	n

__BEGIN__	__EPS__
a	a
w	u
s	s

__BEGIN__	__EPS__
d	d
a	as
z	s

__BEGIN__	__EPS__
g	g
i	i
n	n
g	g

__BEGIN__	__EPS__
m	m
i	i
t	t

__BEGIN__	__EPS__
h	h
y	i
n	n
n	n
e	en

__BEGIN__	__EPS__
d	d
i	i
e	e

__BEGIN__	__EPS__
n	n
a	ac
h	h
t	t

__BEGIN__	__EPS__
h	h
i	i
e	e
l	l
d	t
e	e
n	n

__BEGIN__	__EPS__
i	i
c	c
h	h

__BEGIN__	__EPS__
d	d
a	a
s	s

__BEGIN__	__EPS__
d	d
o	a

__BEGIN__	__EPS__
t	t
a	a
g	g

__BEGIN__	__EPS__
k	k
a	a
i	i
s	s
e	e
r	r

__BEGIN__	__EPS__
d	d
a	as
z	s

__BEGIN__	__EPS__
m	m
a	a
n	n

__BEGIN__	__EPS__
f	f
u	üh
r	r
e	e
n	n

__BEGIN__	__EPS__
l	l
e	ä
s	s
t	t
e	e
r	r
l	l
e	__EPS__
i	i
c	c
h	h

__BEGIN__	__EPS__
h	__EPS__
i	i
n	n

__BEGIN__	__EPS__
w	w
u	u
r	r
d	d
e	e
n	n

__BEGIN__	__EPS__
n	n
i	i
e	e
r	__EPS__

__BEGIN__	__EPS__
d	d
e	e
i	i
n	n

__BEGIN__	__EPS__
t	zu

__BEGIN__	__EPS__
v	f
u	ü
r	r

__BEGIN__	__EPS__
g	g
v	ö
e	t
n	t
l	l
i	i
c	c
h	h
e	__EPS__

__BEGIN__	__EPS__
s	sch
w	w
e	e
i	i
c	g
h	e

__BEGIN__	__EPS__
a	a
l	l
s	s

__BEGIN__	__EPS__
a	a
l	l
s	s

__BEGIN__	__EPS__
k	k
e	e
i	i
n	n

__BEGIN__	__EPS__
n	n
i	ie
d	d
e	e
r	r

__BEGIN__	__EPS__
l	l
e	e
i	i
b	b
e	e
s	s

__BEGIN__	__EPS__
j	j
o	u
e	__EPS__
d	d
e	e
n	n

__BEGIN__	__EPS__
e	e
s	s
s	s
i	__EPS__
t	t

__BEGIN__	__EPS__
w	w
a	a
t	s

__BEGIN__	__EPS__
s	s
e	e
l	l
b	b
e	e
n	r

__BEGIN__	__EPS__
d	d
a	a
z	ss

__BEGIN__	__EPS__
d	d
u	u
r	r
c	c
h	h

__BEGIN__	__EPS__
e	e
n	m
p	p
f	f
a	a
n	n
g	g
e	e
n	n

__BEGIN__	__EPS__
a	a
l	l
s	s
z	__EPS__

__BEGIN__	__EPS__
d	d
e	e
m	m

__BEGIN__	__EPS__
d	d
e	e
r	r

__BEGIN__	__EPS__
n	n
i	i
e	ch
t	t

__BEGIN__	__EPS__
h	h
e	e
r	r
c	__EPS__
z	z

__BEGIN__	__EPS__
e	e
r	r

__BEGIN__	__EPS__
h	h
a	a
b	b
e	e
n	n

__BEGIN__	__EPS__
y	ih
n	n

__BEGIN__	__EPS__
s	s
i	i
b	b
i	i

__BEGIN__	__EPS__
d	d
a	a

__BEGIN__	__EPS__
s	s
i	i
c	c
h	h

__BEGIN__	__EPS__
v	v
o	o
n	n

__BEGIN__	__EPS__
c	k
r	r
e	e
u	u
t	__EPS__
z	z
i	i
g	ge

__BEGIN__	__EPS__
e	e
r	r

__BEGIN__	d
u	u

__BEGIN__	__EPS__
l	l
e	e
u	u
t	te

__BEGIN__	__EPS__
m	m
e	e
i	i
n	n

__BEGIN__	__EPS__
g	g
e	e
r	r
e	ede
t	t

__BEGIN__	__EPS__
v	u
n	n
d	d

__BEGIN__	__EPS__
d	d
a	a
r	r
v	a
s	u
s	s

__BEGIN__	__EPS__
d	d
e	e
m	m

__BEGIN__	__EPS__
m	m
e	e
i	i
n	n

__BEGIN__	__EPS__
m	m
e	e
i	i
n	n

__BEGIN__	__EPS__
i	ih
m	m

__BEGIN__	__EPS__
s	s
e	e
i	i
n	n

__BEGIN__	__EPS__
a	a
b	b
e	e
r	r

__BEGIN__	__EPS__
c	k
r	re
u	u
c	__EPS__
z	z
i	i
g	g
i	__EPS__
t	t

__BEGIN__	__EPS__
o	o
b	b

__BEGIN__	__EPS__
d	d
e	e
z	s

__BEGIN__	__EPS__
v	u
n	n
d	d

__BEGIN__	__EPS__
v	au
p	f

__BEGIN__	__EPS__
g	__EPS__
e	__EPS__
s	s
p	p
r	r
e	e
c	c
h	h
e	e
n	n

__BEGIN__	__EPS__
s	s
p	p
r	r
i	i
c	c
h	h
t	t

__BEGIN__	__EPS__
w	w
o	oh
l	l

__BEGIN__	__EPS__
t	d
r	r
e	e
y	i
e	e
n	n

__BEGIN__	__EPS__
v	u
n	n
d	d

__BEGIN__	__EPS__
h	h
e	ä
t	t
t	t
e	e

__BEGIN__	__EPS__
h	h
a	a
d	t
d	t
e	e

__BEGIN__	__EPS__
t	t
o	o
r	r

__BEGIN__	__EPS__
i	ih
n	n

__BEGIN__	__EPS__
d	d
u	u
r	r
c	c
h	h

__BEGIN__	__EPS__
n	n
i	i
e	ch
t	t

__BEGIN__	__EPS__
s	s
c	c
h	h
a	ä
c	c
h	h
e	e
r	r
n	n

__BEGIN__	__EPS__
y	i
m	h
e	m

__BEGIN__	__EPS__
v	u
n	n
d	d

__BEGIN__	__EPS__
h	h
u	o
b	b

__BEGIN__	__EPS__
f	f
u	ü
e	__EPS__
s	s
s	s
e	e
n	n

__BEGIN__	__EPS__
a	a
l	l
s	s
o	o

__BEGIN__	__EPS__
u	u
n	n
d	d

__BEGIN__	__EPS__
s	s
p	p
r	r
a	a
c	c
h	h

__BEGIN__	__EPS__
a	a
l	l
l	le

__BEGIN__	__EPS__
s	s
y	ie

__BEGIN__	__EPS__
s	s
i	ie

__BEGIN__	__EPS__
y	ih
m	m

__BEGIN__	__EPS__
s	s
o	o

__BEGIN__	__EPS__
v	v
a	o
n	n

__BEGIN__	__EPS__
k	k
l	l
a	a
r	r
h	h
e	e
i	i
t	t

__BEGIN__	__EPS__
n	n
a	a
c	c
h	h

__BEGIN__	__EPS__
y	ih
r	r

__BEGIN__	__EPS__
s	s
t	t
y	i
m	mm
e	e

__BEGIN__	__EPS__
s	s
a	e
i	i
l	l

__BEGIN__	__EPS__
h	h
e	e
r	rr

__BEGIN__	__EPS__
h	h
a	a
t	t

__BEGIN__	__EPS__
a	a
l	l
l	l

__BEGIN__	__EPS__
g	g
e	e
h	h
e	e
i	i
z	s
s	s
i	e
n	n

__BEGIN__	__EPS__
m	m
o	a
l	l

__BEGIN__	__EPS__
h	h
a	a
i	b
n	e
t	n

__BEGIN__	__EPS__
g	g
e	e
s	sch
l	l
a	a
g	g
e	e
n	n

__BEGIN__	__EPS__
g	g
e	e
t	t
a	a
n	n

__BEGIN__	__EPS__
h	h
e	e
w	u
t	te

__BEGIN__	__EPS__
d	d
e	e
r	r

__BEGIN__	__EPS__
s	s
y	ie

__BEGIN__	__EPS__
s	s
e	e
i	i
n	n

__BEGIN__	__EPS__
i	j
h	__EPS__
e	e
s	s
u	u
m	s

__BEGIN__	__EPS__
w	w
a	a
s	r

__BEGIN__	__EPS__
d	d
o	a

__BEGIN__	__EPS__
d	d
i	i
e	e

__BEGIN__	__EPS__
m	m
a	a
r	r
i	i
l	l
l	l
y	i
s	s

__BEGIN__	__EPS__
v	u
n	n
d	d

__BEGIN__	__EPS__
h	h
o	ö
i	__EPS__
r	r
t	t
e	e

__BEGIN__	__EPS__
m	m
e	e
i	i
n	n
e	e
n	m

__BEGIN__	__EPS__
g	__EPS__
e	__EPS__
w	w
a	e
i	i
n	n
e	e
n	n

__BEGIN__	__EPS__
h	d
o	r
e	ec
r	k

__BEGIN__	__EPS__
z	z
u	u

__BEGIN__	__EPS__
c	__EPS__
z	z
u	u
o	__EPS__

__BEGIN__	__EPS__
d	di
e	e
s	s
e	e

__BEGIN__	__EPS__
s	sch
w	w
e	e
r	r
t	t

__BEGIN__	__EPS__
d	d
i	i
e	e

__BEGIN__	__EPS__
d	d
i	i
c	c
h	h

__BEGIN__	__EPS__
d	d
a	a
t	ss

__BEGIN__	__EPS__
d	d
a	a
n	n
n	n

__BEGIN__	__EPS__
w	w
a	a
s	r

__BEGIN__	e
s	s

__BEGIN__	__EPS__
b	b
u	r
r	ü
s	s
t	t
e	e

__BEGIN__	__EPS__
e	e
s	s
z	__EPS__

__BEGIN__	__EPS__
a	a
l	l
s	s

__BEGIN__	__EPS__
h	h
o	ö
e	__EPS__
r	r
e	e

__BEGIN__	__EPS__
a	a
l	l
l	l
e	e
r	r
r	r
a	e
i	i
n	n
e	__EPS__
s	s
t	te

__BEGIN__	__EPS__
g	g
e	e
w	w
a	a
n	nn

__BEGIN__	__EPS__
h	h
a	a
b	b
t	t

__BEGIN__	__EPS__
d	d
e	e
m	m

__BEGIN__	__EPS__
s	s
i	i
c	c
h	h

__BEGIN__	__EPS__
d	d
a	a

__BEGIN__	__EPS__
a	a
l	l
s	s

__BEGIN__	__EPS__
r	r
u	ie
f	f
t	__EPS__
e	e
n	n

__BEGIN__	__EPS__
v	u
n	n
d	d

__BEGIN__	__EPS__
d	d
e	e
n	n

__BEGIN__	__EPS__
a	a
n	n
s	s
e	e
l	l
m	m
u	__EPS__
s	__EPS__

__BEGIN__	__EPS__
d	d
i	i
e	e

__BEGIN__	__EPS__
d	d
e	e
m	m

__BEGIN__	__EPS__
s	s
y	ie

__BEGIN__	__EPS__
n	n
u	un

__BEGIN__	__EPS__
s	s
i	ie

__BEGIN__	__EPS__
g	g
r	r
o	o
s	s
s	s
e	e
r	r

__BEGIN__	__EPS__
a	a
n	n
s	s
e	e
l	l
m	m
e	__EPS__

__BEGIN__	__EPS__
m	m
u	u
s	s
z	s

__BEGIN__	__EPS__
d	d
a	a
u	v
i	i
t	d

__BEGIN__	__EPS__
m	m
e	eh
r	r

__BEGIN__	__EPS__
a	__EPS__
w	ü
s	b
s	__EPS__
e	e
r	r
m	m
a	a
s	s
s	s
e	i
n	g

__BEGIN__	__EPS__
z	z
a	e
i	i
c	c
h	h
e	e
n	n

__BEGIN__	__EPS__
i	ih
n	n

__BEGIN__	__EPS__
v	u
m	m
e	__EPS__

__BEGIN__	__EPS__
d	d
o	o
c	c
h	h

__BEGIN__	__EPS__
o	o
w	w
e	eh

__BEGIN__	__EPS__
v	u
n	n
d	d

__BEGIN__	__EPS__
q	k
u	__EPS__
a	a
m	m
e	e
n	n

__BEGIN__	__EPS__
p	p
y	i
l	l
a	a
t	t
u	u
s	s

__BEGIN__	__EPS__
w	w
a	ah
r	r
h	h
a	e
i	i
t	t

__BEGIN__	__EPS__
d	d
i	i
e	e

__BEGIN__	__EPS__
e	e
i	i
n	n

__BEGIN__	__EPS__
d	d
e	e
r	r

__BEGIN__	__EPS__
s	se
y	i
n	n
e	e

__BEGIN__	__EPS__
k	k
i	i
n	n
t	d

__BEGIN__	__EPS__
m	l
i	i
n	e
i	b
c	__EPS__
h	__EPS__
l	l
e	__EPS__
i	i
c	c
h	her

__BEGIN__	__EPS__
k	k
i	i
n	n
t	d

__BEGIN__	__EPS__
l	l
e	ebe
n	n
t	d
i	i
g	g

__BEGIN__	__EPS__
a	a
l	l
l	l
i	e
t	s

__BEGIN__	__EPS__
b	b
e	e
d	d
a	a
c	c
h	h
t	t
e	e

__BEGIN__	__EPS__
o	oh

__BEGIN__	__EPS__
i	ih
n	n

__BEGIN__	__EPS__
r	r
e	e
c	c
h	h
t	t

__BEGIN__	__EPS__
b	b
e	e
g	g
a	an
i	ge
n	n

__BEGIN__	__EPS__
l	l
a	a
s	s
t	t
e	e
r	r

__BEGIN__	__EPS__
l	l
a	a
n	n
g	g
e	e

__BEGIN__	__EPS__
d	t
a	a
g	g
e	e

__BEGIN__	__EPS__
v	v
u	e
r	r
b	b
u	u
n	n
d	d
e	e
n	n

__BEGIN__	__EPS__
d	d
i	i
e	e

__BEGIN__	__EPS__
s	s
e	e
y	i
n	n

__BEGIN__	__EPS__
i	ih
n	n

__BEGIN__	__EPS__
s	s
a	a
g	g

__BEGIN__	__EPS__
h	h
i	i
e	e
s	s
z	s

__BEGIN__	__EPS__
d	d
a	a
n	n
c	__EPS__
k	k
e	e
n	n

__BEGIN__	__EPS__
v	u
n	n
s	s
c	c
h	h
u	u
l	l
d	d
i	i
g	ge
s	s

__BEGIN__	__EPS__
d	d
e	e
r	r

__BEGIN__	__EPS__
d	d
e	e
r	r

__BEGIN__	__EPS__
w	w
a	a
s	s
z	__EPS__

__BEGIN__	__EPS__
m	me
y	i
n	n

__BEGIN__	__EPS__
b	b
a	a
r	r
r	r
a	a
b	b
a	a
n	s

__BEGIN__	__EPS__
a	a
l	ll
s	s
o	o
w	w
e	e
e	h

__BEGIN__	__EPS__
c	k
a	a
y	i
p	p
h	h
a	a
s	s

__BEGIN__	__EPS__
s	se
y	i
n	ne
s	s

__BEGIN__	__EPS__
d	d
a	a

__BEGIN__	__EPS__
z	z
a	e
i	i
c	c
h	h
e	e
n	n

__BEGIN__	__EPS__
b	b
r	r
a	ac
h	h
t	te

__BEGIN__	__EPS__
m	me
y	i
n	n

__BEGIN__	__EPS__
a	a
l	l
s	s

__BEGIN__	__EPS__
d	d
a	a
z	s

__BEGIN__	__EPS__
w	w
i	i
e	e

__BEGIN__	__EPS__
h	h
o	a
e	__EPS__
f	u
f	p
d	t
e	__EPS__

__BEGIN__	__EPS__
d	d
o	a

__BEGIN__	__EPS__
v	v
a	o
n	n

__BEGIN__	__EPS__
k	k
u	__EPS__
e	ö
n	n
i	i
g	g

__BEGIN__	__EPS__
d	d
a	a

__BEGIN__	__EPS__
e	e
r	r

__BEGIN__	__EPS__
h	h
a	a
l	l
f	f

__BEGIN__	__EPS__
d	d
u	u

__BEGIN__	__EPS__
w	w
o	o
l	ll
d	t
e	e

__BEGIN__	__EPS__
g	g
e	e
h	h
a	e
y	i
s	s
s	s
e	e
n	n

__BEGIN__	__EPS__
h	e
e	r

__BEGIN__	__EPS__
d	d
e	e
n	n

__BEGIN__	__EPS__
m	m
i	i
e	__EPS__
r	r

__BEGIN__	__EPS__
v	u
n	n
g	g
e	__EPS__
l	le
i	i
c	c
h	h

__BEGIN__	__EPS__
v	u
n	n
d	d

__BEGIN__	__EPS__
m	m
i	i
t	t

__BEGIN__	__EPS__
w	w
a	a
r	r
t	d

__BEGIN__	__EPS__
i	ih
m	m

__BEGIN__	__EPS__
z	z
c	__EPS__
u	u

__BEGIN__	__EPS__
s	s
p	p
r	r
i	i
c	c
h	h
s	st

__BEGIN__	__EPS__
g	g
o	o
t	tt

__BEGIN__	__EPS__
m	m
a	a
n	n

__BEGIN__	__EPS__
k	k
i	i
n	n
d	d

__BEGIN__	__EPS__
e	e
r	r

__BEGIN__	__EPS__
m	m
a	ee
r	r
e	__EPS__

__BEGIN__	__EPS__
m	m
e	e
i	i
n	n

__BEGIN__	__EPS__
t	t
a	a
g	g

__BEGIN__	__EPS__
d	d
a	a
r	r
u	u
m	m
b	__EPS__

__BEGIN__	__EPS__
m	m
a	a
c	c
h	h
e	__EPS__
t	t

__BEGIN__	__EPS__
i	ih
n	n

__BEGIN__	__EPS__
m	m
e	e
i	i
n	n
e	e
s	s

__BEGIN__	__EPS__
e	e
t	t

__BEGIN__	__EPS__
d	d
e	e
r	r

__BEGIN__	__EPS__
d	d
o	a

__BEGIN__	__EPS__
e	e
t	t
t	__EPS__
l	l
i	i
c	c
h	he

__BEGIN__	__EPS__
w	w
a	a
s	r
.	__EPS__
v	__EPS__
n	__EPS__
d	__EPS__

__BEGIN__	__EPS__
d	d
i	i
e	e

__BEGIN__	__EPS__
s	s
p	p
r	r
i	i
c	c
h	h
t	t

__BEGIN__	__EPS__
m	m
e	e
i	i
n	n

__BEGIN__	__EPS__
y	ih
r	r

__BEGIN__	__EPS__
i	j
u	ü
e	__EPS__
n	n
g	g
l	l
i	i
n	n
g	g
s	s

__BEGIN__	__EPS__
e	e
r	r

__BEGIN__	__EPS__
a	a
n	n

__BEGIN__	__EPS__
d	d
o	a

__BEGIN__	__EPS__
l	l
a	a
i	__EPS__
s	s
s	s
e	e
n	n

__BEGIN__	__EPS__
m	m
e	e
i	i
n	n
e	e
s	s

__BEGIN__	__EPS__
i	i
c	c
h	h

__BEGIN__	__EPS__
l	le
u	u
d	t
e	e
n	n

__BEGIN__	__EPS__
g	g
r	r
o	o
s	s
s	s

__BEGIN__	__EPS__
s	s
a	a
c	__EPS__
h	h
e	en

__BEGIN__	__EPS__
y	ih
n	n

__BEGIN__	__EPS__
s	s
e	ee
l	le

__BEGIN__	__EPS__
i	i
c	c
h	h

__BEGIN__	__EPS__
v	u
n	n
d	d
e	__EPS__

__BEGIN__	__EPS__
s	s
e	e
h	h
e	__EPS__
t	t

__BEGIN__	__EPS__
d	d
i	ie
t	s

__BEGIN__	__EPS__
d	d
i	i
e	e

__BEGIN__	__EPS__
c	c
e	e
t	t
e	e
r	r
a	a

__BEGIN__	__EPS__
k	k
i	i
n	n
d	d

__BEGIN__	__EPS__
t	__EPS__
z	z
e	u

__BEGIN__	__EPS__
i	i
c	c
h	h

__BEGIN__	__EPS__
v	u
n	n
d	d

__BEGIN__	__EPS__
w	w
a	a
s	r

__BEGIN__	__EPS__
e	i
m	h
e	m

__BEGIN__	__EPS__
s	s
u	oh
n	n

__BEGIN__	__EPS__
s	s
t	t
u	a
n	n
t	d

__BEGIN__	__EPS__
m	m
i	i
t	t

__BEGIN__	__EPS__
s	s
i	ie

__BEGIN__	__EPS__
s	s
y	ie

__BEGIN__	__EPS__
w	w
a	a
s	r
z	__EPS__

__BEGIN__	__EPS__
m	m
o	oc
h	h
t	t
e	e

__BEGIN__	__EPS__
p	b
e	e
y	i

__BEGIN__	__EPS__
m	m
i	i
r	r

__BEGIN__	__EPS__
s	s
t	t
v	a
e	__EPS__
n	n
d	d
e	e
n	n

__BEGIN__	__EPS__
d	d
e	e
z	s

__BEGIN__	__EPS__
e	e
r	r

__BEGIN__	__EPS__
l	l
e	e
u	u
e	__EPS__
t	te

__BEGIN__	__EPS__
d	d
a	as
s	s

__BEGIN__	__EPS__
b	b
e	e
s	s
c	c
h	h
l	l
o	o
s	s
s	s
e	e
n	n

__BEGIN__	__EPS__
t	t
o	o
r	r

__BEGIN__	__EPS__
m	me
i	i
n	n
e	e
r	r

__BEGIN__	__EPS__
s	s
a	a
n	n
c	c
t	t
u	u
s	s

__BEGIN__	__EPS__
h	h
i	i
m	mm
e	e
l	l

__BEGIN__	__EPS__
n	n
a	a
c	c
h	h

__BEGIN__	__EPS__
a	e
i	i
n	n

__BEGIN__	__EPS__
f	f
u	ü
r	r
c	c
h	hte
s	s
t	t

__BEGIN__	__EPS__
m	m
e	e
i	i
n	n
e	e
m	m

__BEGIN__	__EPS__
a	a
l	l
l	l
e	e
s	s

__BEGIN__	__EPS__
d	__EPS__
w	w
u	usc
g	h

__BEGIN__	__EPS__
d	d
v	i
i	e

__BEGIN__	n
e	ich
n	t

__BEGIN__	__EPS__
v	v
o	o
n	n

__BEGIN__	__EPS__
h	h
o	a
u	u
p	p
t	t

__BEGIN__	__EPS__
k	k
o	om
m	m
e	e
n	n

__BEGIN__	__EPS__
s	s
e	e
i	i
n	n
e	e
m	m

__BEGIN__	__EPS__
v	v
o	o
r	r

__BEGIN__	__EPS__
w	w
a	a
r	r
t	d

__BEGIN__	__EPS__
s	s
t	t
i	i
l	l
l	l
e	e
n	n

__BEGIN__	__EPS__
i	j
u	u
d	d
a	a
s	s

__BEGIN__	__EPS__
f	f
r	re
y	i
t	t
a	a
g	g

__BEGIN__	__EPS__
d	d
o	a

__BEGIN__	__EPS__
d	d
o	a

__BEGIN__	__EPS__
i	i
c	c
h	h

__BEGIN__	__EPS__
m	m
o	u
e	t
d	t
e	e
r	r

__BEGIN__	__EPS__
w	w
o	oh
l	l

__BEGIN__	__EPS__
d	d
a	a
z	ss

__BEGIN__	__EPS__
c	k
r	r
u	e
i	u
t	__EPS__
z	z
e	__EPS__

__BEGIN__	__EPS__
e	e
r	r
s	s
t	t
e	e

__BEGIN__	__EPS__
n	n
a	ah
m	m

__BEGIN__	__EPS__
c	k
r	r
v	e
i	u
t	z
z	i
g	g
e	e
n	n

__BEGIN__	__EPS__
d	d
o	a

__BEGIN__	__EPS__
t	t
o	o
v	__EPS__
d	d

__BEGIN__	__EPS__
w	w
a	a
s	r

__BEGIN__	__EPS__
s	s
i	i
e	e
c	c
h	h
e	e
n	n

__BEGIN__	__EPS__
g	__EPS__
e	__EPS__
t	t
r	r
o	ö
e	__EPS__
s	s
t	t
e	e
n	n

__BEGIN__	__EPS__
v	__EPS__
e	__EPS__
r	__EPS__
s	s
c	c
h	h
m	m
e	a
c	c
h	h
t	__EPS__

__BEGIN__	__EPS__
i	j
u	u
d	d
e	e
n	n

__BEGIN__	a
v	u
s	s

__BEGIN__	__EPS__
v	u
n	n
d	d

__BEGIN__	__EPS__
d	d
a	a
s	ss

__BEGIN__	__EPS__
v	u
n	n
d	d

__BEGIN__	__EPS__
s	s
e	e
i	i
n	n

__BEGIN__	__EPS__
i	ih
r	re
m	m
e	__EPS__

__BEGIN__	__EPS__
s	s
t	t
i	i
l	l
l	l
e	e

__BEGIN__	__EPS__
d	d
i	ie
s	s
e	e
r	r

__BEGIN__	__EPS__
h	h
e	a
e	__EPS__
f	b
t	t

__BEGIN__	__EPS__
d	d
e	e
n	n

__BEGIN__	__EPS__
m	m
e	e
i	i
n	n

__BEGIN__	__EPS__
v	u
n	n
n	d

__BEGIN__	__EPS__
b	b
r	r
a	a
c	c
h	h
e	e
n	n
d	__EPS__

__BEGIN__	__EPS__
h	h
e	e
r	r
t	t
z	z

__BEGIN__	__EPS__
s	s
o	o

__BEGIN__	__EPS__
w	w
a	a
r	r
d	d

__BEGIN__	__EPS__
m	m
u	u
e	t
t	t
e	e
r	r

__BEGIN__	__EPS__
n	n
e	eh
m	m
e	e
n	n

__BEGIN__	__EPS__
i	ih
m	m

__BEGIN__	__EPS__
i	j
e	e
r	r
e	e
m	m
i	i
a	a
s	__EPS__

__BEGIN__	__EPS__
r	r
e	e
i	i
c	c
h	h

__BEGIN__	__EPS__
a	a
n	n
g	g
e	e
s	s
i	i
c	c
h	h
t	t

__BEGIN__	__EPS__
i	u
n	n
d	d

__BEGIN__	__EPS__
k	k
i	i
n	n
d	d

__BEGIN__	__EPS__
g	g
e	e
s	s
t	t
o	o
r	r
b	b
e	e
n	n

__BEGIN__	__EPS__
p	b
l	l
u	u
o	__EPS__
t	t
z	s
t	t
r	r
o	o
p	p
f	fe
f	n

__BEGIN__	__EPS__
d	d
a	a
z	ss

__BEGIN__	__EPS__
i	ih
n	n

__BEGIN__	__EPS__
z	z
u	u

__BEGIN__	__EPS__
w	w
e	i
d	d
e	e
r	r

__BEGIN__	__EPS__
s	sch
w	w
e	e
r	r
t	t

__BEGIN__	__EPS__
v	u
m	m
b	__EPS__
e	__EPS__
f	f
a	a
n	n
g	g
e	e
n	n

__BEGIN__	__EPS__
l	l
a	a
n	n
d	d
e	__EPS__

__BEGIN__	__EPS__
s	s
a	o
l	ll

__BEGIN__	__EPS__
s	s
o	o

__BEGIN__	__EPS__
s	s
i	i
e	e

__BEGIN__	__EPS__
d	d
o	a

__BEGIN__	__EPS__
z	z
e	ä
r	r
t	t
l	l
i	i
c	c
h	h
e	e
n	n

__BEGIN__	__EPS__
h	h
o	a
o	u
f	p
d	t
e	__EPS__

__BEGIN__	__EPS__
i	j
e	e
r	r
u	u
s	s
a	a
l	l
e	e
m	m

__BEGIN__	__EPS__
n	n
i	ich
t	t

__BEGIN__	__EPS__
d	d
i	i
e	e

__BEGIN__	__EPS__
m	m
a	a
n	n
e	n

__BEGIN__	__EPS__
h	h
e	e
r	r
c	__EPS__
z	z
e	e
n	n
l	l
a	e
y	i
d	d

__BEGIN__	__EPS__
v	u
n	n
d	d

__BEGIN__	__EPS__
w	w
a	a
s	r

__BEGIN__	__EPS__
v	u
n	n
d	d

__BEGIN__	__EPS__
g	g
i	i
n	n
g	g
e	e
n	n
t	__EPS__

__BEGIN__	__EPS__
l	l
i	i
e	e
b	b
e	e
s	s

__BEGIN__	__EPS__
h	h
e	a
t	t

__BEGIN__	__EPS__
y	ih
n	n

__BEGIN__	__EPS__
s	s
o	o
e	h
n	n

__BEGIN__	__EPS__
m	m
a	a
r	r
i	i
a	a

__BEGIN__	__EPS__
n	n
a	a
t	t
u	u
r	r

__BEGIN__	__EPS__
i	i
n	n

__BEGIN__	__EPS__
h	h
a	abe
n	n

__BEGIN__	__EPS__
d	d
i	i
e	e

__BEGIN__	__EPS__
n	n
i	i
c	c
h	h
t	t

__BEGIN__	__EPS__
v	v
o	o
n	n

__BEGIN__	__EPS__
v	u
n	n
d	d

__BEGIN__	__EPS__
d	d
a	a
z	ss

__BEGIN__	__EPS__
d	d
a	a

__BEGIN__	__EPS__
e	e
y	i
n	n

__BEGIN__	__EPS__
s	s
p	p
o	o
t	t
t	t
e	e
n	n

__BEGIN__	__EPS__
f	f
u	ü
e	__EPS__
r	r

__BEGIN__	__EPS__
d	d
e	e
n	n

__BEGIN__	__EPS__
v	u
n	n
d	d

__BEGIN__	__EPS__
v	u
n	n
t	z
z	e

__BEGIN__	__EPS__
r	r
i	i
e	e
m	m
e	e
n	n

__BEGIN__	__EPS__
n	n
i	ich
t	t

__BEGIN__	__EPS__
o	a
u	u
c	c
h	h

__BEGIN__	__EPS__
v	u
n	n
d	d
t	__EPS__

__BEGIN__	__EPS__
w	w
a	a
r	r
e	e
n	n

__BEGIN__	__EPS__
d	d
o	a

__BEGIN__	__EPS__
m	m
a	a
n	n

__BEGIN__	__EPS__
d	d
a	a
s	s

__BEGIN__	__EPS__
g	__EPS__
e	__EPS__
a	a
n	n
t	t
w	w
o	o
r	r
t	t
e	e
n	n

__BEGIN__	__EPS__
z	z
w	u
e	e
i	i
n	n
a	a
n	n
d	d
e	e
r	r

__BEGIN__	__EPS__
p	b
r	r
e	e
c	c
h	h
e	e
n	n

__BEGIN__	__EPS__
m	m
e	e
i	i
n	n

__BEGIN__	__EPS__
e	e
r	r

__BEGIN__	__EPS__
i	e
r	r
s	s
c	c
h	h
e	ei
n	n
e	e
n	n

__BEGIN__	__EPS__
m	m
u	u
s	ss
t	te

__BEGIN__	__EPS__
d	d
o	a

__BEGIN__	__EPS__
s	s
u	o
l	l
c	c
h	h
e	e
n	n

__BEGIN__	__EPS__
h	h
i	i
n	n
g	g
e	e
b	b
e	e
n	n

__BEGIN__	__EPS__
i	ih
r	re
n	n

__BEGIN__	__EPS__
d	d
o	a

__BEGIN__	__EPS__
i	j
e	e

__BEGIN__	__EPS__
v	u
n	n
d	d

__BEGIN__	__EPS__
v	u
n	n
d	d

__BEGIN__	__EPS__
i	i
c	c
h	h

__BEGIN__	__EPS__
m	m
e	e
i	i
n	n

__BEGIN__	__EPS__
s	s
p	p
r	r
a	a
c	c
h	h

__BEGIN__	__EPS__
m	m
i	i
t	t
e	e
y	i
n	n
a	a
n	n
d	d
e	e
r	r

__BEGIN__	__EPS__
i	ih
m	m

__BEGIN__	__EPS__
i	i
n	n

__BEGIN__	__EPS__
w	w
a	a
s	s

__BEGIN__	__EPS__
a	a
u	u
f	f

__BEGIN__	__EPS__
e	e
n	m
p	p
h	__EPS__
f	f
i	i
e	__EPS__
n	n
g	g

__BEGIN__	__EPS__
n	n
i	i
e	m
m	m
e	e
r	r

__BEGIN__	__EPS__
d	d
o	a

__BEGIN__	__EPS__
k	k
i	i
n	n
d	d

__BEGIN__	__EPS__
l	le
i	i
b	b
e	e
s	s

__BEGIN__	__EPS__
h	e
e	r

__BEGIN__	__EPS__
w	w
e	e
n	nn

__BEGIN__	__EPS__
v	f
r	r
o	a
w	u
e	__EPS__

__BEGIN__	__EPS__
w	w
a	a
r	r
d	d
t	__EPS__

__BEGIN__	__EPS__
m	l
i	i
n	e
n	b
i	e
g	v
k	o
l	l
i	l
c	e
h	__EPS__
s	s

__BEGIN__	__EPS__
g	__EPS__
e	__EPS__
s	s
c	c
h	h
r	r
i	i
f	f
t	t

__BEGIN__	__EPS__
i	i
n	n

__BEGIN__	__EPS__
m	m
e	e
i	i
s	s
t	t
e	e
r	r

__BEGIN__	__EPS__
w	w
i	i
e	e
d	d
e	e
r	r

__BEGIN__	__EPS__
d	d
e	e
n	n

__BEGIN__	__EPS__
n	n
e	eh
m	m
e	e
n	n
d	d

__BEGIN__	__EPS__
e	e
r	r

__BEGIN__	__EPS__
s	s
e	e
l	l
i	i
g	g

__BEGIN__	__EPS__
b	b
e	e
z	z
w	w
u	i
n	n
g	g
e	e
n	n
d	__EPS__

__BEGIN__	__EPS__
d	d
a	a
z	ss

__BEGIN__	__EPS__
g	g
a	a
r	r

__BEGIN__	__EPS__
i	i
n	n

__BEGIN__	__EPS__
s	s
i	i
n	n
c	__EPS__
k	k
e	e
n	n

__BEGIN__	__EPS__
s	sch
w	w
e	e
r	r
t	t

__BEGIN__	__EPS__
v	v
e	e
r	r
k	k
a	a
w	u
f	f
f	t

__BEGIN__	__EPS__
s	s
p	p
r	r
i	i
c	c
h	h
t	t

__BEGIN__	__EPS__
s	s
p	p
r	r
a	a
c	c
h	h
e	e
n	n

__BEGIN__	__EPS__
g	g
i	i
e	__EPS__
n	n
g	g

__BEGIN__	__EPS__
i	i
s	st

__BEGIN__	__EPS__
i	e
z	s

__BEGIN__	__EPS__
n	n
i	ich
t	t

__BEGIN__	__EPS__
i	j
o	o
h	h
a	a
n	nn
e	es

__BEGIN__	__EPS__
b	b
e	e
w	w
e	e
y	i
n	n
e	e
n	n

__BEGIN__	__EPS__
g	__EPS__
e	__EPS__
s	s
i	ie
g	g
t	t
e	e
n	n

__BEGIN__	__EPS__
h	h
a	a
d	t
d	t
e	e
n	n

__BEGIN__	__EPS__
n	n
i	i
r	r
g	g
e	e
n	nds

__BEGIN__	__EPS__
i	ih
m	m

__BEGIN__	__EPS__
v	u
n	n
n	d

__BEGIN__	__EPS__
b	b
a	a
n	n
d	d
e	e
n	n

__BEGIN__	__EPS__
i	j
u	ü
n	n
g	g
s	s
t	t
e	e
n	n

__BEGIN__	__EPS__
i	i
c	c
h	h

__BEGIN__	__EPS__
b	b
l	l
e	e
i	i
p	be

__BEGIN__	__EPS__
k	k
y	i
n	n
d	d
e	__EPS__

__BEGIN__	__EPS__
g	g
e	e
y	i
s	s
t	t

__BEGIN__	__EPS__
v	u
n	n
d	t
e	e
r	r

__BEGIN__	__EPS__
d	t
o	u
e	__EPS__
n	n

__BEGIN__	__EPS__
w	w
e	e
r	r

__BEGIN__	__EPS__
d	d
o	a

__BEGIN__	__EPS__
m	m
y	i
r	r

__BEGIN__	__EPS__
i	ih
m	m

__BEGIN__	__EPS__
a	a
n	n

__BEGIN__	__EPS__
m	m
e	e
i	i
n	n

__BEGIN__	__EPS__
p	p
l	l
o	o
r	r
a	a
u	vi
t	t

__BEGIN__	__EPS__
m	m
o	o
c	c
h	h
t	te

__BEGIN__	__EPS__
i	ih
n	n

__BEGIN__	__EPS__
g	g
e	e
f	f
a	a
n	n
g	g
e	e
n	n

__BEGIN__	__EPS__
d	d
i	i
e	e

__BEGIN__	__EPS__
i	i
e	m
m	m
e	e
r	r

__BEGIN__	__EPS__
h	h
o	ö
r	r
t	t

__BEGIN__	__EPS__
g	g
a	a
r	r

__BEGIN__	__EPS__
t	t
r	r
a	ä
n	n
e	e
n	n

__BEGIN__	__EPS__
a	a
u	u
s	s

__BEGIN__	__EPS__
t	t
a	a
g	g

__BEGIN__	__EPS__
l	l
i	i
e	e
b	b

__BEGIN__	__EPS__
a	a
r	r
m	m
v	u
o	__EPS__
t	t

__BEGIN__	__EPS__
s	s
o	o

__BEGIN__	__EPS__
i	i
n	n

__BEGIN__	__EPS__
v	u
n	n
d	d

__BEGIN__	__EPS__
s	se
i	i
n	n
e	e
m	m

__BEGIN__	__EPS__
h	h
e	e
r	r
r	r
e	__EPS__

__BEGIN__	__EPS__
i	i
c	c
h	h

__BEGIN__	__EPS__
v	v
o	o
n	n

__BEGIN__	__EPS__
d	d
o	u
e	rc
r	h
g	g
a	e
e	h
t	t

__BEGIN__	a
v	u
s	s
s	s
e	ä
t	t
z	z
i	i
g	g
e	e
n	n

__BEGIN__	__EPS__
i	i
c	c
h	h

__BEGIN__	__EPS__
v	v
o	o
n	n

__BEGIN__	__EPS__
z	s
e	ee
l	l
e	e

__BEGIN__	__EPS__
v	u
n	n
d	d

__BEGIN__	__EPS__
w	w
i	i
r	r

__BEGIN__	__EPS__
d	d
i	i
e	e

__BEGIN__	__EPS__
m	m
i	i
t	t

__BEGIN__	__EPS__
v	u
n	n
d	d

__BEGIN__	__EPS__
d	d
e	e
s	s

__BEGIN__	__EPS__
t	t
e	a
t	t
e	e
n	n

__BEGIN__	__EPS__
h	h
e	e
r	r
c	__EPS__
z	z
e	e
n	n

__BEGIN__	__EPS__
d	d
a	a
s	s

__BEGIN__	__EPS__
e	e
r	r

__BEGIN__	__EPS__
d	t
o	o
e	__EPS__
d	d
e	e
s	s

__BEGIN__	__EPS__
k	k
i	i
n	n
t	d

__BEGIN__	__EPS__
e	e
i	i
n	n

__BEGIN__	__EPS__
l	l
a	ass

__BEGIN__	__EPS__
b	b
e	e
y	i

__BEGIN__	__EPS__
s	s
p	p
r	r
e	ä
c	c
h	he

__BEGIN__	__EPS__
d	d
o	a
e	__EPS__

__BEGIN__	__EPS__
w	w
a	a
z	r

__BEGIN__	__EPS__
d	d
i	i
e	e

__BEGIN__	__EPS__
k	k
i	i
n	n
d	d

__BEGIN__	__EPS__
l	l
e	e
i	i
b	b

__BEGIN__	__EPS__
i	ih
n	n

__BEGIN__	__EPS__
c	__EPS__
z	z
e	ä
r	r
t	t
l	l
i	i
c	c
h	h

__BEGIN__	__EPS__
u	ü
b	b
e	e
r	r

__BEGIN__	__EPS__
r	r
e	e
i	i
n	n

__BEGIN__	__EPS__
d	d
o	a

__BEGIN__	__EPS__
s	s
o	o

__BEGIN__	__EPS__
d	d
o	a

__BEGIN__	__EPS__
a	e
i	i
n	n

__BEGIN__	__EPS__
i	i
n	n

__BEGIN__	__EPS__
w	w
e	e
r	r
d	d
e	e

__BEGIN__	__EPS__
g	k
h	__EPS__
e	e
y	i
n	n

__BEGIN__	__EPS__
d	d
e	e
s	s

__BEGIN__	__EPS__
g	g
o	ö
e	__EPS__
t	t
t	t
l	l
i	i
c	c
h	h
e	e
n	n

__BEGIN__	__EPS__
c	k
h	__EPS__
i	i
n	n
t	d

__BEGIN__	__EPS__
u	u
n	n
d	d

__BEGIN__	__EPS__
b	b
e	e
g	g
u	a
n	n
d	n
e	__EPS__

__BEGIN__	__EPS__
s	se
y	i
n	n
e	e
s	s

__BEGIN__	__EPS__
d	d
o	a

__BEGIN__	__EPS__
m	m
e	e
i	i
n	n

__BEGIN__	__EPS__
b	b
e	e
r	r
i	i
c	c
h	h
t	t
e	e

__BEGIN__	__EPS__
d	d
a	a
t	ss

__BEGIN__	__EPS__
w	w
a	a
s	s

__BEGIN__	__EPS__
g	g
e	e
n	n
a	a
s	s
z	__EPS__
e	__EPS__

__BEGIN__	__EPS__
d	d
r	r
i	it
t	t
e	e
n	n

__BEGIN__	__EPS__
i	i
n	n

__BEGIN__	__EPS__
f	f
i	i
l	l
i	i
a	a

__BEGIN__	__EPS__
d	d
a	a
s	ss

__BEGIN__	__EPS__
v	u
n	n
d	d

__BEGIN__	__EPS__
d	d
i	i
e	e

__BEGIN__	__EPS__
w	w
a	a
s	r

__BEGIN__	__EPS__
d	d
a	a
t	s

__BEGIN__	__EPS__
m	me
i	i
m	n
e	em

__BEGIN__	__EPS__
m	m
e	ehr

__BEGIN__	__EPS__
p	p
i	i
l	l
a	a
t	t
u	u
s	s

__BEGIN__	__EPS__
w	w
a	e
i	i
n	n
t	t

__BEGIN__	__EPS__
a	a
n	n
s	s
h	__EPS__
e	e
l	l
m	m
e	__EPS__

__BEGIN__	__EPS__
i	i
c	c
h	h

__BEGIN__	__EPS__
w	w
e	e
g	g

__BEGIN__	__EPS__
d	d
o	o
r	r
n	n
e	e
n	n

__BEGIN__	__EPS__
s	s
y	ie

__BEGIN__	__EPS__
p	p
i	i
l	l
a	a
t	t
u	u
s	s

__BEGIN__	__EPS__
d	d
a	a
s	s
s	s
e	e
l	l
b	b
e	e

__BEGIN__	__EPS__
m	m
i	i
r	r

__BEGIN__	__EPS__
d	d
e	e
r	r

__BEGIN__	__EPS__
d	d
e	e
s	s

__BEGIN__	__EPS__
m	me
i	i
n	n
e	e
n	n

__BEGIN__	__EPS__
s	s
o	oh
n	n

__BEGIN__	__EPS__
w	we
y	i
s	s
e	e

__BEGIN__	__EPS__
l	l
i	i
e	e
s	__EPS__
z	z

__BEGIN__	__EPS__
s	s
a	a
n	n
f	f
f	__EPS__
t	t
e	e
m	m

__BEGIN__	__EPS__
y	i
n	n

__BEGIN__	__EPS__
k	k
i	i
n	n
t	d

__BEGIN__	__EPS__
s	s
p	p
r	r
a	a
c	c
h	h

__BEGIN__	__EPS__
v	v
o	o
n	n

__BEGIN__	__EPS__
h	h
a	a
b	b
e	e

__BEGIN__	__EPS__
d	d
y	ie

__BEGIN__	__EPS__
d	d
a	a
z	s

__BEGIN__	__EPS__
d	d
i	i
c	c
h	h

__BEGIN__	__EPS__
e	e
r	r

__BEGIN__	__EPS__
m	m
e	e
n	n
s	s
c	c
h	h
e	e
n	n

__BEGIN__	__EPS__
w	w
o	o
l	ll
t	te

__BEGIN__	__EPS__
h	h
i	i
l	l
f	f
f	__EPS__

__BEGIN__	__EPS__
h	h
e	i
m	m
e	m
l	li
s	s
c	c
h	h
e	e

__BEGIN__	__EPS__
v	v
o	o
r	r

__BEGIN__	__EPS__
n	n
a	a
c	c
h	h

__BEGIN__	__EPS__
s	s
i	ie

__BEGIN__	__EPS__
v	v
o	o
n	n

__BEGIN__	__EPS__
i	e
r	r
z	ze
y	i
g	g
e	e
n	n

__BEGIN__	p
s	s
a	a
l	l
t	t
e	e
r	r

__BEGIN__	__EPS__
o	a
u	u
g	g
e	e
n	n

__BEGIN__	__EPS__
i	i
s	s
t	t

__BEGIN__	__EPS__
z	z
u	u
o	__EPS__

__BEGIN__	__EPS__
r	r
e	e
c	c
h	h
t	t
e	e
r	r

__BEGIN__	__EPS__
n	n
a	ah
m	m

__BEGIN__	__EPS__
s	s
e	e
i	i
n	n

__BEGIN__	__EPS__
v	v
o	o
n	n

__BEGIN__	__EPS__
h	h
a	a
b	b
e	e
n	n

__BEGIN__	__EPS__
k	k
u	ö
i	n
n	i
g	g

__BEGIN__	__EPS__
b	b
o	o
z	s
h	h
e	e
i	i
t	t

__BEGIN__	__EPS__
v	v
i	ie
l	l

__BEGIN__	__EPS__
e	e
r	r
l	l
o	ö
i	__EPS__
s	s
t	t

__BEGIN__	__EPS__
k	k
i	i
n	n
t	d

__BEGIN__	__EPS__
h	h
e	a
t	t
t	__EPS__

__BEGIN__	__EPS__
a	a
u	u
s	s
z	__EPS__
l	l
e	e
g	g
e	e
n	n

__BEGIN__	__EPS__
c	k
h	__EPS__
i	i
n	n
d	d
e	e
s	s

__BEGIN__	__EPS__
m	m
a	a
n	n

__BEGIN__	__EPS__
i	i
n	n

__BEGIN__	__EPS__
s	se
y	i
n	n

__BEGIN__	__EPS__
i	i
n	n
n	n
e	e

__BEGIN__	__EPS__
m	m
e	e
i	i
n	n

__BEGIN__	__EPS__
i	i
c	c
h	h

__BEGIN__	__EPS__
s	s
e	e
l	l
i	i
g	g

__BEGIN__	__EPS__
b	b
e	e
r	r
i	i
c	c
h	h
t	t
e	e

__BEGIN__	__EPS__
z	z
u	u

__BEGIN__	__EPS__
a	o
w	w
e	eh

__BEGIN__	__EPS__
d	d
e	e
n	n

__BEGIN__	__EPS__
m	m
i	i
t	t

__BEGIN__	__EPS__
m	m
u	u
s	ss
t	te

__BEGIN__	__EPS__
r	r
e	e
d	d
e	e

__BEGIN__	__EPS__
y	i
m	m
m	m
e	e
r	r

__BEGIN__	__EPS__
w	w
i	i
e	e

__BEGIN__	__EPS__
g	g
o	ot
t	t

__BEGIN__	__EPS__
r	r
i	i
c	c
h	h
t	t
e	e
n	n

__BEGIN__	__EPS__
e	e
r	r

__BEGIN__	__EPS__
v	u
n	n
d	d

__BEGIN__	__EPS__
g	g
e	ehe

__BEGIN__	__EPS__
d	d
i	i
e	e

__BEGIN__	__EPS__
a	a
l	l
l	l
e	e
s	s

__BEGIN__	__EPS__
k	k
e	e
i	i
n	__EPS__
n	n
e	e

__BEGIN__	__EPS__
g	g
i	i
e	__EPS__
n	n
g	g

__BEGIN__	__EPS__
s	se
y	i
n	n
e	e

__BEGIN__	__EPS__
g	g
e	e
d	d
y	ie
n	n
t	t

__BEGIN__	__EPS__
d	d
e	e
r	r

__BEGIN__	__EPS__
y	ih
n	n

__BEGIN__	__EPS__
d	d
o	a

__BEGIN__	__EPS__
p	p
i	i
l	l
a	a
t	t
u	u
s	s

__BEGIN__	__EPS__
d	d
e	e
r	r

__BEGIN__	__EPS__
h	h
o	ö
r	r
t	t
e	e
n	n

__BEGIN__	__EPS__
i	ih
m	m

__BEGIN__	__EPS__
w	w
e	e
r	r

__BEGIN__	__EPS__
d	d
i	i
c	c
h	h

__BEGIN__	__EPS__
g	__EPS__
e	__EPS__
s	s
p	p
r	r
e	e
c	c
h	h
e	e
n	n

__BEGIN__	__EPS__
c	__EPS__
z	z
u	u

__BEGIN__	__EPS__
e	e
r	r

__BEGIN__	__EPS__
d	d
o	a

__BEGIN__	__EPS__
g	g
e	e
f	f
l	l
o	o
s	s
s	s
e	e
n	n

__BEGIN__	__EPS__
d	d
i	i
r	e
r	s
e	er

__BEGIN__	__EPS__
w	w
u	o
n	nn
i	i
k	g
l	l
e	__EPS__
i	i
c	c
h	h

__BEGIN__	__EPS__
h	h
a	a
i	be
n	n

__BEGIN__	__EPS__
m	m
a	a
n	n

__BEGIN__	__EPS__
v	u
n	n
d	d

__BEGIN__	__EPS__
w	w
a	a
z	r

__BEGIN__	__EPS__
d	d
e	e
r	r

__BEGIN__	__EPS__
f	f
v	ü
m	n
f	f
c	__EPS__
z	z
e	eh
n	n

__BEGIN__	__EPS__
i	i
n	n

__BEGIN__	__EPS__
m	m
e	e
n	n
s	s
c	c
h	h
e	e
n	n

__BEGIN__	__EPS__
k	k
a	e
i	i
n	n

__BEGIN__	__EPS__
d	d
o	a
e	__EPS__

__BEGIN__	__EPS__
r	r
e	e
c	c
h	h
t	t

__BEGIN__	__EPS__
m	m
a	a
r	r
i	i
a	a

__BEGIN__	__EPS__
s	s
o	o

__BEGIN__	__EPS__
w	w
o	o
r	r
t	t

__BEGIN__	__EPS__
c	k
h	__EPS__
a	a
m	m

__BEGIN__	__EPS__
w	w
o	o
l	ll
t	t

__BEGIN__	__EPS__
o	o
w	w
e	eh

__BEGIN__	__EPS__
z	z
u	u

__BEGIN__	__EPS__
f	f
r	r
e	e
w	u
d	d
e	e
n	n

__BEGIN__	__EPS__
y	ih
n	n

__BEGIN__	__EPS__
h	h
i	i
e	er

__BEGIN__	__EPS__
v	u
n	n
d	d

__BEGIN__	__EPS__
p	p
y	i
l	l
a	a
t	t
u	u
s	s

__BEGIN__	__EPS__
a	a
n	n
s	s
a	a
c	__EPS__
h	h

__BEGIN__	__EPS__
s	s
a	a
g	g

__BEGIN__	__EPS__
m	m
e	e
i	i
n	n
e	e
m	m

__BEGIN__	__EPS__
h	h
e	e
r	rr

__BEGIN__	__EPS__
w	w
i	i
l	l
l	le
n	n

__BEGIN__	__EPS__
e	e
y	i
m	n
e	em

__BEGIN__	__EPS__
h	h
a	a
d	t
d	t
e	e
n	n

__BEGIN__	__EPS__
l	l
i	i
e	e
f	__EPS__
f	f
e	e
n	n

__BEGIN__	h
e	e
b	b
r	r
e	ä
y	i
s	s
c	c
h	h
e	e
n	n

__BEGIN__	__EPS__
e	e
u	u
r	r
e	e

__BEGIN__	__EPS__
f	f
r	r
a	a
g	g
t	t

__BEGIN__	__EPS__
h	h
u	ü
e	__EPS__
l	l
f	f
e	e
n	n

__BEGIN__	__EPS__
m	m
e	e
i	i
n	n

__BEGIN__	__EPS__
h	h
a	a
b	b
i	e
n	n

__BEGIN__	__EPS__
t	t
r	r
o	o
s	s
t	t

__BEGIN__	__EPS__
a	a
u	u
f	f

__BEGIN__	__EPS__
d	t
a	a
g	g
e	e
s	s

__BEGIN__	__EPS__
s	se
i	i
n	n

__BEGIN__	__EPS__
t	t
o	o
d	d

__BEGIN__	__EPS__
p	p
i	i
l	l
a	a
t	t
u	u
s	s
z	__EPS__

__BEGIN__	__EPS__
f	f
u	ü
o	h
r	r
t	t

__BEGIN__	__EPS__
g	g
r	r
o	o
s	ss
e	e
n	n

__BEGIN__	__EPS__
w	w
u	ü
e	__EPS__
r	r
d	d
e	e
n	n

__BEGIN__	__EPS__
i	j
e	e

__BEGIN__	__EPS__
i	j
a	ä
e	m
m	m
e	e
r	r
l	l
i	i
c	c
h	h
e	e
n	n

__BEGIN__	__EPS__
d	d
v	u
r	rch

__BEGIN__	__EPS__
w	w
e	e
i	i
z	__EPS__
s	s
e	e
r	r

__BEGIN__	__EPS__
d	d
a	a
z	s

__BEGIN__	__EPS__
a	a
r	r
m	m
v	u
o	__EPS__
t	t

__BEGIN__	__EPS__
h	h
o	a
u	u
p	p
t	t

__BEGIN__	__EPS__
g	g
e	e
t	t
e	e
i	i
l	l
e	__EPS__
t	t

__BEGIN__	__EPS__
e	e
r	r
f	f
u	ü
l	l
l	l
e	__EPS__
t	t

__BEGIN__	__EPS__
d	d
a	a

__BEGIN__	__EPS__
e	e
r	r

__BEGIN__	__EPS__
k	c
i	h
r	ri
s	s
t	t
e	e
n	n
d	t
u	u
m	m

__BEGIN__	__EPS__
d	d
e	e
n	n

__BEGIN__	__EPS__
n	n
ü	un

__BEGIN__	__EPS__
v	u
n	n
d	d

__BEGIN__	__EPS__
d	d
i	i
e	e

__BEGIN__	__EPS__
d	d
a	a
z	s

__BEGIN__	__EPS__
t	t
o	o
t	t

__BEGIN__	__EPS__
v	u
n	n
s	s
c	c
h	h
u	u
l	l
d	d

__BEGIN__	__EPS__
s	s
c	c
h	h
o	ö
n	nheit

__BEGIN__	__EPS__
g	__EPS__
e	__EPS__
s	s
p	p
r	r
e	e
c	c
h	h
e	e
n	n

__BEGIN__	__EPS__
f	f
r	r
o	a
g	g
t	t

__BEGIN__	__EPS__
s	s
e	ee
l	l
e	e

__BEGIN__	__EPS__
s	s
i	i
c	c
h	h

__BEGIN__	__EPS__
s	s
p	p
r	r
a	a
c	c
h	h

__BEGIN__	__EPS__
w	w
i	i
d	d
e	e
r	r

__BEGIN__	__EPS__
s	s
p	p
r	r
e	e
c	c
h	h
e	e
n	n
d	d
e	__EPS__

__BEGIN__	__EPS__
d	d
a	a
s	ss

__BEGIN__	__EPS__
g	g
i	i
e	__EPS__
n	n
c	g

__BEGIN__	__EPS__
g	g
r	r
o	o
s	s
s	s
e	e
r	r

__BEGIN__	__EPS__
v	u
n	n
d	t
e	e
r	r

__BEGIN__	__EPS__
h	f
o	e
c	__EPS__
h	i
z	__EPS__
e	e
i	r
t	tag

__BEGIN__	__EPS__
c	k
l	l
e	e
y	i
t	d

__BEGIN__	__EPS__
e	e
i	i
n	n

__BEGIN__	__EPS__
i	j
e	e
s	s
u	u
s	s

__BEGIN__	__EPS__
l	l
e	e
i	i
b	b

__BEGIN__	__EPS__
o	o
s	s
t	t
e	e
r	r

__BEGIN__	__EPS__
g	g
o	ö
t	tt
l	l
i	i
c	c
h	h
e	e
r	r

__BEGIN__	__EPS__
t	t
r	r
o	ö
i	s
s	te
t	t

__BEGIN__	__EPS__
m	m
a	a
n	n

__BEGIN__	__EPS__
d	t
e	ä
y	t
t	e

__BEGIN__	__EPS__
c	__EPS__
z	z
u	u

__BEGIN__	__EPS__
w	w
i	i
e	e

__BEGIN__	__EPS__
a	a
n	n

__BEGIN__	__EPS__
v	f
o	u
e	s
t	s

__BEGIN__	__EPS__
v	u
n	n
d	d

__BEGIN__	__EPS__
d	d
e	e
r	r

__BEGIN__	__EPS__
i	j
v	u
d	d
e	e
n	n

__BEGIN__	__EPS__
s	sch
n	n
o	ö
e	__EPS__
d	d
e	e
n	n

__BEGIN__	__EPS__
b	b
e	e
d	d
e	e
c	c
k	k
e	__EPS__
d	t
e	e

__BEGIN__	__EPS__
y	i
m	h
e	m

__BEGIN__	__EPS__
d	d
o	a

__BEGIN__	__EPS__
d	d
e	e
m	m

__BEGIN__	__EPS__
g	g
e	e
w	w
a	a
n	n
t	d

__BEGIN__	__EPS__
v	v
i	ie
l	l

__BEGIN__	__EPS__
a	ü
l	b
l	e
w	r
e	a
g	ll

__BEGIN__	__EPS__
s	s
c	c
h	h
l	l
e	ä
g	ge

__BEGIN__	__EPS__
m	m
a	a
r	r
i	i
a	a

__BEGIN__	__EPS__
a	e
i	i
n	n

__BEGIN__	__EPS__
h	h
i	i
n	n
g	g

__BEGIN__	__EPS__
n	n
i	i
c	c
h	h
t	t

__BEGIN__	__EPS__
d	d
e	e
r	r

__BEGIN__	__EPS__
c	k
h	__EPS__
i	i
n	n
t	d

__BEGIN__	__EPS__
u	u
n	n
d	d

__BEGIN__	__EPS__
d	d
e	e
m	m

__BEGIN__	__EPS__
s	s
e	e
i	i
n	n

__BEGIN__	__EPS__
h	h
a	a
n	be

__BEGIN__	__EPS__
d	d
u	u
r	r
c	c
h	h

__BEGIN__	__EPS__
v	v
o	o
l	l
c	__EPS__
k	k
s	s

__BEGIN__	__EPS__
h	h
i	i
n	n

__BEGIN__	__EPS__
v	u
n	n
d	d

__BEGIN__	__EPS__
s	s
c	c
h	h
m	m
a	a
c	c
h	h
e	__EPS__
y	__EPS__
t	__EPS__

__BEGIN__	__EPS__
n	n
a	ah
m	m

__BEGIN__	__EPS__
f	f
r	r
e	e
w	u
d	de

__BEGIN__	__EPS__
c	__EPS__
z	z
u	u
m	m

__BEGIN__	__EPS__
d	d
o	a

__BEGIN__	__EPS__
m	m
i	i
t	t

__BEGIN__	__EPS__
d	d
e	e
n	n

__BEGIN__	__EPS__
a	a
l	l
l	l
e	e
m	m

__BEGIN__	__EPS__
d	d
u	u
r	r
c	c
h	h

__BEGIN__	__EPS__
e	e
r	r

__BEGIN__	__EPS__
r	r
e	e
i	__EPS__
c	c
h	h
t	t

__BEGIN__	__EPS__
d	d
o	a

__BEGIN__	__EPS__
s	s
o	o

__BEGIN__	__EPS__
t	__EPS__
z	z
o	u

__BEGIN__	__EPS__
p	p
i	i
l	l
a	a
t	t
u	u
s	s
z	__EPS__

__BEGIN__	__EPS__
t	t
a	a
g	g

__BEGIN__	__EPS__
h	h
i	i
e	e
s	s
z	s

__BEGIN__	__EPS__
w	w
e	e
r	r
d	d
e	e
n	n

__BEGIN__	__EPS__
e	e
s	s

__BEGIN__	__EPS__
i	ih
n	n

__BEGIN__	__EPS__
n	n
a	ah
m	m
e	e
n	n

__BEGIN__	__EPS__
c	k
a	a
l	l
u	v
a	a
r	r
i	i
e	e

__BEGIN__	__EPS__
o	a
u	u
c	c
h	h

__BEGIN__	__EPS__
w	w
i	i
r	r
t	d

__BEGIN__	__EPS__
v	u
n	n
d	d

__BEGIN__	__EPS__
d	d
i	i
e	e

__BEGIN__	__EPS__
y	j
e	e
m	m
a	a
n	nd

__BEGIN__	__EPS__
d	d
a	a

__BEGIN__	__EPS__
m	m
e	e
i	i
n	n

__BEGIN__	__EPS__
s	s
a	a
n	nd
t	te

__BEGIN__	__EPS__
s	s
e	i
i	e

__BEGIN__	__EPS__
i	j
u	u
d	d
e	e
n	n

__BEGIN__	__EPS__
d	d
u	u
r	r
c	c
h	h

__BEGIN__	__EPS__
l	l
a	ä
e	__EPS__
t	s
s	s
t	t

__BEGIN__	__EPS__
d	d
e	e
s	s

__BEGIN__	__EPS__
k	k
y	i
n	n
d	d
e	__EPS__

__BEGIN__	__EPS__
m	me
i	i
n	n
e	e
m	m

__BEGIN__	__EPS__
h	h
a	a
s	s
t	t

__BEGIN__	__EPS__
h	e
e	r

__BEGIN__	__EPS__
v	u
n	n
d	d

__BEGIN__	__EPS__
d	d
o	a

__BEGIN__	__EPS__
d	d
o	a

__BEGIN__	__EPS__
l	l
e	e
i	i
b	b

__BEGIN__	__EPS__
e	e
i	i
n	n
e	e
n	n

__BEGIN__	__EPS__
h	h
e	e
r	r
o	o
d	d
a	e
s	s

__BEGIN__	__EPS__
d	d
i	i
c	c
h	h

__BEGIN__	__EPS__
n	n
i	ich
t	t

__BEGIN__	__EPS__
h	h
i	e
n	r
v	u
m	m
b	__EPS__

__BEGIN__	__EPS__
r	r
e	e
i	i
c	c
h	h

__BEGIN__	__EPS__
m	m
i	i
c	c
h	h

__BEGIN__	__EPS__
y	ih
m	m

__BEGIN__	__EPS__
w	w
u	ü
e	__EPS__
s	s
s	st
i	e
s	s
t	t

__BEGIN__	__EPS__
h	h
o	a
s	s
t	t

__BEGIN__	__EPS__
v	u
n	n
d	d

__BEGIN__	__EPS__
s	s
p	p
r	r
a	a
c	c
h	h

__BEGIN__	__EPS__
r	r
o	u
y	__EPS__
f	f
f	__EPS__
e	e
n	n

__BEGIN__	__EPS__
v	u
n	n
d	d

__BEGIN__	__EPS__
d	d
i	i
c	c
h	h

__BEGIN__	__EPS__
h	h
a	a
u	__EPS__
t	t

__BEGIN__	__EPS__
v	u
n	n
d	d

__BEGIN__	__EPS__
y	i
m	h
e	m

__BEGIN__	__EPS__
d	d
a	a
e	__EPS__

__BEGIN__	__EPS__
g	g
e	e
k	k
r	r
e	e
u	u
t	__EPS__
z	z
t	t
e	e
n	n

__BEGIN__	__EPS__
g	__EPS__
e	__EPS__
m	m
e	e
r	r
k	k
e	e
n	n

__BEGIN__	__EPS__
s	s
p	p
r	r
a	a
c	c
h	h

__BEGIN__	__EPS__
m	me
y	i
n	n
e	e
n	n

__BEGIN__	__EPS__
v	u
n	n
d	d

__BEGIN__	__EPS__
i	ih
n	n

__BEGIN__	__EPS__
k	k
o	a
m	m

__BEGIN__	__EPS__
v	__EPS__
n	__EPS__
m	m
e	a
z	s
z	sl
i	o
g	s
e	e

__BEGIN__	__EPS__
v	u
n	n
d	d

__BEGIN__	__EPS__
v	v
o	o
n	n

__BEGIN__	__EPS__
c	k
r	r
o	o
n	ne

__BEGIN__	__EPS__
s	s
t	t
a	ad
t	t

__BEGIN__	__EPS__
s	s
o	o

__BEGIN__	__EPS__
s	s
o	o

__BEGIN__	__EPS__
k	k
u	ö
n	ni
k	g
r	re
i	i
c	c
h	h

__BEGIN__	__EPS__
l	l
i	i
e	e
u	b
e	e
n	n

__BEGIN__	__EPS__
v	u
n	n
d	d

__BEGIN__	__EPS__
d	d
i	i
e	e

__BEGIN__	__EPS__
s	s
y	i
e	e

__BEGIN__	__EPS__
g	g
e	e
s	s
e	eh
y	e
n	n

__BEGIN__	__EPS__
m	m
y	i
t	t

__BEGIN__	__EPS__
v	u
n	n
d	d

__BEGIN__	__EPS__
d	d
a	a
s	s

__BEGIN__	__EPS__
l	l
e	e
y	i
d	d
e	e

__BEGIN__	__EPS__
s	s
p	p
r	r
i	i
c	c
h	h
e	__EPS__
t	t

__BEGIN__	__EPS__
i	ih
r	r

__BEGIN__	__EPS__
m	m
e	e
i	i
n	n

__BEGIN__	__EPS__
v	u
n	n
n	d

__BEGIN__	__EPS__
d	d
i	i
e	e

__BEGIN__	__EPS__
d	d
o	a

__BEGIN__	__EPS__
s	s
a	as
s	s

__BEGIN__	__EPS__
d	d
o	a

__BEGIN__	__EPS__
e	e
s	s

__BEGIN__	__EPS__
d	d
i	i
c	c
h	h

__BEGIN__	__EPS__
s	s
e	o
l	ll

__BEGIN__	__EPS__
d	d
o	a

__BEGIN__	__EPS__
f	f
u	ü
m	n
f	f
f	__EPS__

__BEGIN__	__EPS__
k	k
o	o
n	nn
t	te

__BEGIN__	__EPS__
v	v
o	o
n	n

__BEGIN__	__EPS__
s	s
e	e
i	i
l	l

__BEGIN__	__EPS__
g	g
r	r
o	o
z	s
z	s
e	e
s	s

__BEGIN__	__EPS__
n	n
o	o
c	c
h	h

__BEGIN__	__EPS__
i	i
s	s
t	t

__BEGIN__	__EPS__
d	d
e	e
r	r

__BEGIN__	__EPS__
d	d
i	i
e	e

__BEGIN__	__EPS__
m	m
e	e
i	i
n	n

__BEGIN__	__EPS__
m	m
i	i
t	t

__BEGIN__	__EPS__
s	sch
w	w
e	e
r	r
t	t

__BEGIN__	__EPS__
v	u
n	n
d	d

__BEGIN__	__EPS__
m	m
i	e
j	i
n	n

__BEGIN__	__EPS__
a	a
n	n
g	g
e	e
s	s
i	i
c	c
h	h
t	t

__BEGIN__	__EPS__
m	m
e	e
i	i
n	n

__BEGIN__	__EPS__
d	d
a	a
t	s

__BEGIN__	__EPS__
g	g
e	e
t	t
r	r
a	a
g	g
e	e
n	n

__BEGIN__	__EPS__
d	d
e	e
n	m

__BEGIN__	__EPS__
a	a
n	n

__BEGIN__	__EPS__
d	d
i	i
e	e

__BEGIN__	__EPS__
h	h
a	a
n	n
t	d

__BEGIN__	__EPS__
m	m
i	e
j	i
n	n

__BEGIN__	__EPS__
a	a
m	men

__BEGIN__	__EPS__
v	v
o	o
n	n

__BEGIN__	__EPS__
l	l
a	a
s	s
s	s
e	e
n	n

__BEGIN__	__EPS__
d	d
a	a
z	s

__BEGIN__	__EPS__
s	s
t	t
a	a
n	n
g	g
e	e
n	n

__BEGIN__	__EPS__
m	m
i	i
r	r

__BEGIN__	__EPS__
d	d
a	a
s	s

__BEGIN__	__EPS__
s	s
p	p
r	r
a	a
c	c
h	h

__BEGIN__	__EPS__
w	w
o	o
l	ll
t	t
e	e
n	n

__BEGIN__	__EPS__
d	d
a	as
s	s

__BEGIN__	__EPS__
i	j
o	u
e	__EPS__
d	d
e	e
n	n

__BEGIN__	__EPS__
t	t
o	ö
e	__EPS__
t	t
e	e
n	n

__BEGIN__	__EPS__
s	s
o	o
l	ll
t	t

__BEGIN__	__EPS__
i	ih
n	n

__BEGIN__	__EPS__
l	l
i	i
e	e
b	b
e	e
z	s

__BEGIN__	__EPS__
v	v
o	o
n	n

__BEGIN__	__EPS__
b	b
e	e
h	h
u	ü
o	__EPS__
t	t
e	e
n	n

__BEGIN__	__EPS__
g	g
e	e
n	n
v	ü
e	__EPS__
g	g
t	t

__BEGIN__	__EPS__
s	sch
w	w
e	e
s	s
t	t
e	e
r	r
r	__EPS__

__BEGIN__	__EPS__
a	a
l	l
l	l
e	e
r	r
l	l
i	i
e	e
b	b
s	s
t	t
e	e

__BEGIN__	__EPS__
n	n
i	ich
t	t

__BEGIN__	__EPS__
a	a
n	n
d	d
e	e
r	re

__BEGIN__	__EPS__
h	h
o	ö
r	r
t	t
e	e

__BEGIN__	__EPS__
m	m
e	e
n	n
s	s
c	c
h	h
e	e
n	n

__BEGIN__	__EPS__
w	w
e	e
r	r

__BEGIN__	__EPS__
d	d
e	e
r	r

__BEGIN__	__EPS__
l	le
i	i
b	b

__BEGIN__	__EPS__
i	j
h	__EPS__
e	e
r	r
u	u
s	s
a	a
l	l
e	e
m	m

