__BEGIN__	__EPS__
a	a
u	u
z	s

__BEGIN__	__EPS__
l	l
e	e
b	b
e	e
n	n
t	d
a	i
g	g

__BEGIN__	__EPS__
g	g
e	e
h	h
o	ö
i	__EPS__
r	r
t	t

__BEGIN__	__EPS__
y	j
e	e
t	t
z	zt

__BEGIN__	__EPS__
d	d
a	a

__BEGIN__	__EPS__
s	s
u	o
l	l
d	lt
e	e

__BEGIN__	__EPS__
w	w
i	i
l	ll

__BEGIN__	__EPS__
d	d
a	a
i	__EPS__
r	r
v	u
m	m
b	__EPS__

__BEGIN__	__EPS__
d	d
o	a

__BEGIN__	__EPS__
w	w
a	a
n	n
g	ge

__BEGIN__	__EPS__
w	w
e	e
r	r

__BEGIN__	__EPS__
v	v
e	e
r	r
l	l
a	__EPS__
e	e
u	u
g	g
e	__EPS__
n	ne
t	t

__BEGIN__	__EPS__
h	h
e	ä
t	tt
e	e
n	n

__BEGIN__	__EPS__
v	v
o	o
n	n

__BEGIN__	__EPS__
w	w
e	e
r	r
d	d
e	e
n	n

__BEGIN__	__EPS__
i	ih
n	n

__BEGIN__	__EPS__
b	b
e	e
r	r
i	i
c	c
h	h
t	t
e	e
n	n

__BEGIN__	__EPS__
m	l
i	ie
n	b
e	e
c	v
l	o
i	l
c	l
h	e
s	s

__BEGIN__	__EPS__
h	h
e	a
t	t

__BEGIN__	__EPS__
h	h
o	ö
e	r
r	e

__BEGIN__	__EPS__
s	s
p	p
r	r
a	a
c	c
h	h
e	e
n	n

__BEGIN__	__EPS__
e	e
r	r

__BEGIN__	__EPS__
t	t
o	o
e	__EPS__
d	t

__BEGIN__	__EPS__
w	w
e	eh

__BEGIN__	__EPS__
i	ih
n	n

__BEGIN__	__EPS__
e	e
r	r

__BEGIN__	__EPS__
v	u
n	n
d	d

__BEGIN__	__EPS__
s	s
u	ol
l	l
t	t

__BEGIN__	__EPS__
d	d
y	ie

__BEGIN__	__EPS__
f	f
ü	ü
r	r
s	s
t	t
e	e
n	n

__BEGIN__	__EPS__
a	a
u	u
z	s

__BEGIN__	__EPS__
a	a
n	n

__BEGIN__	__EPS__
i	i
c	c
h	h

__BEGIN__	__EPS__
s	s
p	p
r	r
i	i
c	c
h	h
s	st

__BEGIN__	__EPS__
s	s
o	o

__BEGIN__	__EPS__
s	se
y	i
n	n
e	e
m	m

__BEGIN__	__EPS__
n	n
u	un

__BEGIN__	__EPS__
e	e
r	r
f	f
u	ül
l	l
t	t

__BEGIN__	__EPS__
d	d
o	a

__BEGIN__	__EPS__
b	b
l	l
e	e
y	i
b	be

__BEGIN__	__EPS__
t	t
r	r
o	o
p	p
f	f
e	e
n	n

__BEGIN__	__EPS__
w	w
e	ä
r	re

__BEGIN__	__EPS__
w	w
a	a
s	r

__BEGIN__	__EPS__
t	__EPS__
z	z
o	u
n	n
g	g
e	e

__BEGIN__	__EPS__
t	z
o	u
t	__EPS__

__BEGIN__	__EPS__
g	g
r	r
o	o
s	ss

__BEGIN__	__EPS__
d	d
a	a
s	ss

__BEGIN__	__EPS__
t	t
h	__EPS__
u	u
n	n

__BEGIN__	__EPS__
w	w
a	ah
r	r
h	h
e	e
i	i
d	t
e	__EPS__

__BEGIN__	__EPS__
s	s
t	t
u	a
n	n
d	d

__BEGIN__	__EPS__
p	b
r	r
u	u
d	d
e	e
r	r

__BEGIN__	__EPS__
d	d
e	e
n	n

__BEGIN__	__EPS__
d	d
i	ie
r	se
r	r

__BEGIN__	__EPS__
n	n
a	a
t	t
u	u
r	r

__BEGIN__	__EPS__
p	p
y	i
l	l
a	a
t	t
u	u
s	s

__BEGIN__	__EPS__
v	v
o	o
n	n

__BEGIN__	__EPS__
d	d
a	a

__BEGIN__	__EPS__
t	z
z	e
y	i
t	t

__BEGIN__	__EPS__
d	d
e	e
n	n

__BEGIN__	__EPS__
k	k
i	i
n	n
d	d
e	e
s	s

__BEGIN__	__EPS__
p	p
y	i
l	l
a	a
t	t
u	u
s	s

__BEGIN__	__EPS__
d	d
e	e
m	m

__BEGIN__	__EPS__
d	d
e	e
r	r

__BEGIN__	__EPS__
a	a
b	b
e	e
r	r

__BEGIN__	__EPS__
c	k
l	l
a	a
g	g
t	t

__BEGIN__	__EPS__
s	s
p	p
r	r
a	a
c	c
h	h

__BEGIN__	__EPS__
d	d
o	o
c	c
h	h

__BEGIN__	__EPS__
w	w
i	i
e	e

__BEGIN__	__EPS__
v	u
n	n
d	d

__BEGIN__	__EPS__
v	u
n	n
d	d

__BEGIN__	__EPS__
e	e
r	r

__BEGIN__	__EPS__
s	se
y	i
n	n
e	e
n	n

__BEGIN__	__EPS__
w	w
a	a
z	r

__BEGIN__	__EPS__
d	d
i	i
e	e

__BEGIN__	__EPS__
m	m
e	e
i	i
n	n

__BEGIN__	__EPS__
h	h
e	e
r	r
c	__EPS__
z	z

__BEGIN__	__EPS__
a	a
l	l
l	l
e	e
r	r
s	s
c	c
h	h
o	ö
e	__EPS__
n	n
s	s
t	te

__BEGIN__	__EPS__
h	h
a	a
u	u
s	s
z	__EPS__

__BEGIN__	__EPS__
g	g
a	a
l	l
g	g
e	e
n	n

__BEGIN__	__EPS__
i	ih
m	m

__BEGIN__	__EPS__
d	d
o	a

__BEGIN__	__EPS__
s	s
p	p
i	i
e	e
z	ss

__BEGIN__	__EPS__
z	z
e	u

__BEGIN__	__EPS__
d	d
a	a
t	s

__BEGIN__	__EPS__
i	j
e	ä
m	mm
e	e
r	r
l	l
i	i
c	c
h	h
e	e
r	r

__BEGIN__	__EPS__
n	n
i	i
c	c
h	h
t	t

__BEGIN__	__EPS__
i	i
c	c
h	h

__BEGIN__	__EPS__
c	__EPS__
h	k
a	a
w	u
m	m

__BEGIN__	__EPS__
d	d
e	e
r	r

__BEGIN__	__EPS__
d	d
a	a
z	ss

__BEGIN__	__EPS__
b	b
l	l
u	u
t	t

__BEGIN__	__EPS__
d	t
r	r
u	u
g	g
e	__EPS__
s	st

__BEGIN__	__EPS__
z	z
a	e
i	i
c	c
h	h
e	e
n	n

__BEGIN__	__EPS__
h	h
a	a
u	u
p	p
t	t

__BEGIN__	__EPS__
s	s
o	o

__BEGIN__	__EPS__
n	n
o	o
t	t
h	__EPS__

__BEGIN__	__EPS__
h	h
e	e
r	r
e	r

__BEGIN__	__EPS__
d	d
a	a
s	ss

__BEGIN__	__EPS__
d	d
o	a
e	__EPS__

__BEGIN__	__EPS__
n	n
i	i
c	c
h	h
t	t

__BEGIN__	__EPS__
i	i
n	n

__BEGIN__	__EPS__
i	i
s	st

__BEGIN__	__EPS__
h	h
e	ä
n	n
g	g
i	__EPS__
t	t

__BEGIN__	__EPS__
v	v
o	o
n	n

__BEGIN__	__EPS__
a	a
ü	u
c	c
h	h

__BEGIN__	__EPS__
v	u
n	n
d	d

__BEGIN__	__EPS__
g	g
o	o
t	tt
e	e
s	s

__BEGIN__	__EPS__
d	d
o	a

__BEGIN__	__EPS__
s	s
p	p
r	r
a	a
c	c
h	h

__BEGIN__	__EPS__
k	k
i	i
n	n
t	d

__BEGIN__	__EPS__
h	h
e	e
y	i
m	m

__BEGIN__	__EPS__
a	a
u	u
c	c
h	h

__BEGIN__	__EPS__
a	a
n	n
d	d
e	e
r	re

__BEGIN__	__EPS__
v	ü
b	b
e	e
r	r

__BEGIN__	__EPS__
t	t
e	e
m	m
p	p
i	e
l	l

__BEGIN__	__EPS__
v	u
n	n
d	d

__BEGIN__	__EPS__
b	b
e	e
r	r
n	n
h	h
a	a
r	rd
t	t

__BEGIN__	__EPS__
t	t
a	a
g	g
e	e

__BEGIN__	__EPS__
d	d
a	a
t	s

__BEGIN__	__EPS__
g	g
o	ot
t	t

__BEGIN__	__EPS__
d	d
a	a
s	ss

__BEGIN__	__EPS__
d	d
u	u

__BEGIN__	__EPS__
e	e
r	r

__BEGIN__	__EPS__
m	m
i	i
r	r

__BEGIN__	__EPS__
h	h
e	e
r	r
c	__EPS__
z	z
e	e
n	n

__BEGIN__	__EPS__
g	g
e	e
r	r
n	n
e	e

__BEGIN__	__EPS__
c	ch
r	r
i	i
s	s
t	t
u	u
s	s

__BEGIN__	__EPS__
b	b
l	l
v	u
t	t
e	e
s	s

__BEGIN__	__EPS__
e	e
y	i
n	n
e	e
r	r

__BEGIN__	__EPS__
t	t
r	r
a	a
u	u
r	r
i	i
g	g
k	k
a	e
i	i
t	t

__BEGIN__	__EPS__
h	h
e	eg
t	t
e	e
n	n

__BEGIN__	__EPS__
i	j
e	ä
m	mm
e	e
r	r
c	__EPS__
h	__EPS__
l	l
e	__EPS__
i	i
c	c
h	h

__BEGIN__	__EPS__
a	a
n	n
s	s
e	e
l	l
m	m

__BEGIN__	__EPS__
t	__EPS__
z	z
o	u
v	v
o	o
r	r
e	__EPS__
n	__EPS__
s	__EPS__

__BEGIN__	__EPS__
d	d
a	a
r	r

__BEGIN__	__EPS__
e	e
r	r
h	h
a	ä
n	n
g	g
e	e
n	n

__BEGIN__	__EPS__
m	m
e	e
i	i
n	n
e	e
r	r

__BEGIN__	__EPS__
s	s
p	p
r	r
i	i
c	c
h	h
s	st

__BEGIN__	__EPS__
g	g
e	e
s	s
e	e
g	g
e	__EPS__
n	ne
t	t

__BEGIN__	__EPS__
n	n
i	i
c	c
h	h
t	t

__BEGIN__	__EPS__
m	m
a	a
r	r
i	i
a	a

__BEGIN__	__EPS__
s	s
o	o
l	ll

__BEGIN__	__EPS__
a	a
n	n

__BEGIN__	__EPS__
m	m
i	i
r	r

__BEGIN__	__EPS__
d	d
e	e
r	r

__BEGIN__	__EPS__
m	m
i	i
t	t

__BEGIN__	__EPS__
d	d
y	i
e	e

__BEGIN__	__EPS__
g	g
e	e
g	g
e	e
n	n

__BEGIN__	__EPS__
d	d
a	a
s	ss

__BEGIN__	__EPS__
m	m
e	ä
r	r
e	__EPS__

__BEGIN__	__EPS__
t	t
o	ö
e	__EPS__
t	t
e	e
n	n

__BEGIN__	__EPS__
e	e
i	i
n	n

__BEGIN__	__EPS__
v	f
a	a
z	ss

__BEGIN__	__EPS__
s	s
a	a
c	__EPS__
h	h

__BEGIN__	__EPS__
h	h
a	a
d	t
d	t
e	e
n	n

__BEGIN__	__EPS__
v	u
n	n
d	d

__BEGIN__	__EPS__
k	k
e	e
i	i
n	n
e	e
n	n

__BEGIN__	__EPS__
d	d
u	u

__BEGIN__	__EPS__
s	s
i	i
c	c
h	h

__BEGIN__	__EPS__
v	u
n	n
d	d

__BEGIN__	__EPS__
i	i
s	s
t	t

__BEGIN__	__EPS__
d	d
y	ie

__BEGIN__	__EPS__
g	g
v	ü
i	__EPS__
n	t
l	__EPS__
i	__EPS__
c	__EPS__
h	__EPS__
i	e

__BEGIN__	__EPS__
p	p
i	i
l	l
a	a
t	t
u	u
s	s

__BEGIN__	__EPS__
d	d
o	a

__BEGIN__	__EPS__
i	i
c	c
h	h

__BEGIN__	__EPS__
v	u
n	n
d	d

__BEGIN__	__EPS__
d	d
y	i
b	es

__BEGIN__	__EPS__
w	w
i	i
r	r

__BEGIN__	__EPS__
a	a
u	u
f	f
f	__EPS__

__BEGIN__	__EPS__
w	w
a	a
n	nn

__BEGIN__	__EPS__
v	u
m	m
b	__EPS__

__BEGIN__	__EPS__
v	u
n	n
d	d

__BEGIN__	__EPS__
a	a
b	b
e	e
r	r

__BEGIN__	__EPS__
k	k
i	i
n	n
d	d

__BEGIN__	__EPS__
g	g
e	e
r	r
i	i
c	c
h	h
t	t

__BEGIN__	__EPS__
t	t
r	r
u	e
w	u
e	e
n	n

__BEGIN__	__EPS__
w	w
e	u
s	ss
t	t
e	e

__BEGIN__	__EPS__
d	d
e	e
r	r

__BEGIN__	__EPS__
a	a
l	l
l	__EPS__
s	s
o	o

__BEGIN__	__EPS__
d	d
e	e
r	r

__BEGIN__	__EPS__
v	u
n	n
d	d

__BEGIN__	__EPS__
s	s
t	t
u	a
n	n
t	d

__BEGIN__	__EPS__
s	s
y	i
e	e

__BEGIN__	__EPS__
d	d
o	a

__BEGIN__	__EPS__
e	ih
r	r
e	e
n	n

__BEGIN__	__EPS__
i	i
c	c
h	h

__BEGIN__	__EPS__
a	a
l	l
s	s

__BEGIN__	__EPS__
a	a
n	n

__BEGIN__	__EPS__
g	g
r	r
o	o
s	s
s	s
e	e
r	r

__BEGIN__	__EPS__
d	d
a	a
s	ss

__BEGIN__	__EPS__
v	v
e	e
r	r
n	n
o	o
m	mm
e	e
n	n

__BEGIN__	__EPS__
a	a
l	l
s	s
z	__EPS__

__BEGIN__	__EPS__
d	d
a	as
s	s

__BEGIN__	__EPS__
g	g
i	i
e	__EPS__
n	n
g	g
e	e
n	n

__BEGIN__	__EPS__
i	i
c	c
h	h

__BEGIN__	__EPS__
v	u
n	n
n	d

__BEGIN__	__EPS__
d	d
a	a

__BEGIN__	__EPS__
d	d
e	e
r	r

__BEGIN__	__EPS__
w	w
a	a
s	r

__BEGIN__	__EPS__
d	d
a	a
z	s

__BEGIN__	__EPS__
e	e
r	r
l	l
o	ö
s	s
e	e
n	n

__BEGIN__	__EPS__
h	h
e	e
i	i
m	m

__BEGIN__	__EPS__
c	__EPS__
h	k
r	r
a	a
n	n
k	k
c	__EPS__
h	__EPS__

__BEGIN__	__EPS__
d	d
e	e
m	m

__BEGIN__	__EPS__
s	s
e	e
r	h
e	r

__BEGIN__	__EPS__
h	h
e	i
m	m
e	m
l	li
s	s
c	c
h	h
e	e
n	n

__BEGIN__	__EPS__
i	ih
m	m

__BEGIN__	__EPS__
d	d
i	i
e	e

__BEGIN__	__EPS__
s	s
c	c
h	h
u	uh

__BEGIN__	__EPS__
y	ih
n	n

__BEGIN__	__EPS__
d	d
e	e
r	r

__BEGIN__	__EPS__
g	__EPS__
e	__EPS__
s	s
i	a
g	g
t	t
e	e
n	n
d	__EPS__

__BEGIN__	__EPS__
f	f
r	r
a	a
w	u
e	e
n	n

__BEGIN__	__EPS__
i	ih
r	r
e	e
w	__EPS__

__BEGIN__	__EPS__
v	v
o	o
r	r
g	g
e	e
s	s
a	a
i	g
t	t

__BEGIN__	__EPS__
i	i
c	c
h	h

__BEGIN__	__EPS__
s	s
p	p
r	r
a	a
c	c
h	h

__BEGIN__	__EPS__
h	h
a	a
t	tt
e	e
n	n

__BEGIN__	__EPS__
s	s
o	o

__BEGIN__	__EPS__
d	d
o	a

__BEGIN__	__EPS__
d	d
e	e
r	r

__BEGIN__	__EPS__
f	f
u	ü
e	s
z	se

__BEGIN__	__EPS__
i	ih
m	m

__BEGIN__	__EPS__
h	h
i	ä
e	t
t	te

__BEGIN__	__EPS__
m	m
e	e
y	i
n	n
e	e
m	m

__BEGIN__	__EPS__
w	w
i	i
e	__EPS__
r	r

__BEGIN__	__EPS__
h	h
i	i
e	__EPS__
n	n
g	g
e	e
n	n

__BEGIN__	__EPS__
a	a
l	l
s	s
e	__EPS__

__BEGIN__	__EPS__
v	u
n	n
d	d

__BEGIN__	__EPS__
z	z
a	a
r	r
t	t
e	e
s	s

__BEGIN__	__EPS__
s	sch
w	w
e	e
r	r
e	e

__BEGIN__	__EPS__
d	d
o	a

__BEGIN__	__EPS__
g	g
e	eh
e	e
n	n

__BEGIN__	__EPS__
s	s
a	a
g	g
e	e
n	n

__BEGIN__	__EPS__
v	u
n	n
d	d

__BEGIN__	__EPS__
d	d
i	i
e	e

__BEGIN__	__EPS__
o	o
w	w
e	eh

__BEGIN__	__EPS__
i	i
n	n

__BEGIN__	__EPS__
j	j
e	ä
m	mm
e	e
r	r
l	l
i	i
c	c
h	h
e	e
n	n

__BEGIN__	__EPS__
p	p
i	i
l	l
a	a
t	t
u	u
s	s

__BEGIN__	__EPS__
k	k
i	i
n	n
d	d
t	__EPS__

__BEGIN__	__EPS__
p	p
y	i
l	l
a	a
t	t
o	us

__BEGIN__	__EPS__
d	d
e	e
s	s

__BEGIN__	__EPS__
w	w
a	a
r	re
n	n

__BEGIN__	__EPS__
w	w
u	u
r	r
d	d
e	e
n	n

__BEGIN__	__EPS__
d	d
a	a
s	ss

__BEGIN__	__EPS__
y	j
e	e

__BEGIN__	__EPS__
d	d
a	a
s	ss

__BEGIN__	__EPS__
c	k
r	r
e	e
u	u
t	__EPS__
z	z
i	i
g	g
e	__EPS__
t	t
h	__EPS__
e	e
n	n

__BEGIN__	__EPS__
v	u
n	n
d	d

__BEGIN__	__EPS__
w	w
i	i
r	r

__BEGIN__	__EPS__
d	d
a	a
s	s
z	s

__BEGIN__	__EPS__
a	a
b	b
n	n
e	eh
m	m
e	e
n	n
n	__EPS__

__BEGIN__	__EPS__
v	ü
i	__EPS__
b	b
e	e
r	r
g	g
o	o
s	s
z	s

__BEGIN__	__EPS__
d	d
a	a
s	s

__BEGIN__	__EPS__
c	k
l	l
e	ä
g	g
e	__EPS__
l	l
i	i
c	c
h	h
i	e
n	n

__BEGIN__	__EPS__
m	me
y	i
n	n

__BEGIN__	__EPS__
d	d
a	a

__BEGIN__	__EPS__
c	k
r	r
o	o
n	n
e	e

__BEGIN__	__EPS__
m	m
u	u
t	tt
e	e
r	r

__BEGIN__	__EPS__
z	z
u	u

__BEGIN__	__EPS__
w	w
a	a
r	r
d	d

__BEGIN__	__EPS__
w	w
a	a
r	r
t	d

__BEGIN__	__EPS__
s	s
e	eh
r	r
e	__EPS__

__BEGIN__	__EPS__
l	l
i	i
e	e
b	b
e	e

__BEGIN__	__EPS__
v	u
n	n
d	d

__BEGIN__	__EPS__
d	d
e	e
n	n

__BEGIN__	__EPS__
z	z
u	u

__BEGIN__	__EPS__
d	d
o	a

__BEGIN__	__EPS__
i	i
n	n

__BEGIN__	__EPS__
n	n
a	ah
m	m
e	e
n	n

__BEGIN__	__EPS__
d	d
e	e
r	r

__BEGIN__	__EPS__
d	d
a	a
s	s

__BEGIN__	__EPS__
d	d
o	a

__BEGIN__	__EPS__
h	h
e	a
t	t

__BEGIN__	__EPS__
o	o
b	b

__BEGIN__	__EPS__
m	m
i	i
t	t

__BEGIN__	__EPS__
c	k
r	r
u	e
t	u
z	z

__BEGIN__	__EPS__
m	m
i	i
t	t

__BEGIN__	__EPS__
d	d
o	a

__BEGIN__	__EPS__
e	e
r	r

__BEGIN__	__EPS__
c	k
h	__EPS__
i	i
n	n
d	d

__BEGIN__	__EPS__
v	u
n	n
d	d

__BEGIN__	__EPS__
s	se
y	i
n	n
e	e

__BEGIN__	__EPS__
e	e
r	r
h	h
o	ö
r	r
t	t
e	e

__BEGIN__	__EPS__
n	n
y	i
c	k
o	o
d	d
e	e
m	m
u	u
s	s

__BEGIN__	__EPS__
w	w
a	a
s	r
z	__EPS__

__BEGIN__	__EPS__
s	s
o	o
i	__EPS__
l	l
l	l
e	e
n	n
t	__EPS__

__BEGIN__	__EPS__
g	g
a	a
b	b
e	e
n	n

__BEGIN__	__EPS__
g	g
h	__EPS__
e	e
l	li
e	e
u	f
e	e
r	r
t	t

__BEGIN__	__EPS__
d	d
e	e
r	r

__BEGIN__	__EPS__
l	l
a	a
g	g

__BEGIN__	__EPS__
d	t
e	a
t	t
h	__EPS__

__BEGIN__	__EPS__
d	d
a	a
s	s

__BEGIN__	__EPS__
w	w
o	ol
l	l
t	t

__BEGIN__	__EPS__
k	k
e	a
y	i
s	s
e	e
r	r
s	s

__BEGIN__	__EPS__
i	i
c	c
h	h

__BEGIN__	__EPS__
g	g
o	o
t	tt

__BEGIN__	__EPS__
z	z
u	u

__BEGIN__	__EPS__
d	d
e	e
r	r

__BEGIN__	__EPS__
e	e
r	r

__BEGIN__	__EPS__
o	o
b	b

__BEGIN__	__EPS__
w	w
a	e
i	i
s	ss
t	t

__BEGIN__	__EPS__
e	e
r	r

__BEGIN__	__EPS__
m	me
i	i
n	n

__BEGIN__	e
i	i
n	n
g	g
a	eh
e	e
n	n

__BEGIN__	__EPS__
b	b
e	e
s	sch
l	l
o	os
z	s

__BEGIN__	__EPS__
v	v
o	o
n	n

__BEGIN__	__EPS__
d	d
a	a
s	ss

__BEGIN__	__EPS__
d	d
a	a

__BEGIN__	__EPS__
n	n
y	ie
d	d
e	e
r	r

__BEGIN__	__EPS__
d	d
e	e
r	r

__BEGIN__	__EPS__
w	w
z	ar

__BEGIN__	__EPS__
d	de
i	i
n	n

__BEGIN__	__EPS__
e	e
i	i
n	n
e	e
n	n

__BEGIN__	__EPS__
e	e
r	r

__BEGIN__	__EPS__
d	d
a	a

__BEGIN__	__EPS__
b	be
y	i

__BEGIN__	__EPS__
d	d
o	a

__BEGIN__	__EPS__
x	chr
c	istus

__BEGIN__	__EPS__
d	d
e	e
n	n
n	n

__BEGIN__	__EPS__
d	d
i	i
e	e

__BEGIN__	__EPS__
w	w
e	ä
r	r
e	e
z	__EPS__

__BEGIN__	__EPS__
l	l
a	ass

__BEGIN__	__EPS__
d	d
e	e
r	r

__BEGIN__	__EPS__
a	a
m	m
e	e
n	n

__BEGIN__	__EPS__
e	e
i	i
n	n

__BEGIN__	__EPS__
d	d
i	i
r	r

__BEGIN__	__EPS__
w	w
a	a
r	r
t	d

__BEGIN__	__EPS__
i	i
n	n

__BEGIN__	__EPS__
h	h
e	e
r	r
o	o
d	d
e	e
s	s

__BEGIN__	__EPS__
d	d
u	u

__BEGIN__	__EPS__
s	s
e	e
i	i
n	n
e	e

__BEGIN__	__EPS__
w	w
i	i
s	s
s	s
e	e

__BEGIN__	__EPS__
m	m
i	i
t	t

__BEGIN__	__EPS__
o	o
w	w
e	eh

__BEGIN__	__EPS__
h	h
e	e
r	rr
e	e
n	n

__BEGIN__	__EPS__
s	s
p	p
r	r
a	a
c	c
h	h

__BEGIN__	__EPS__
s	s
y	ie

__BEGIN__	__EPS__
o	o
w	w
e	eh

__BEGIN__	__EPS__
s	s
p	p
r	r
a	a
c	c
h	h

__BEGIN__	__EPS__
y	j
e	e

__BEGIN__	__EPS__
d	d
e	er

__BEGIN__	__EPS__
a	a
l	l
l	l
e	e
r	r

__BEGIN__	__EPS__
i	i
s	s
t	t

__BEGIN__	__EPS__
h	h
e	e
r	r
c	__EPS__
z	z

__BEGIN__	__EPS__
v	v
o	o
r	r
e	__EPS__

__BEGIN__	__EPS__
w	w
i	i
r	r

__BEGIN__	__EPS__
s	s
i	i
e	e

__BEGIN__	__EPS__
a	e
i	i
n	nz
i	i
g	g
e	e
r	r

__BEGIN__	__EPS__
h	h
a	a
w	u
b	p
t	t

__BEGIN__	__EPS__
d	d
u	u

__BEGIN__	__EPS__
a	a
n	n

__BEGIN__	__EPS__
h	h
a	e
i	i
l	l
e	e
r	r

__BEGIN__	__EPS__
m	m
e	e
i	i
n	n
e	e
s	s

__BEGIN__	__EPS__
d	d
a	a
z	ss

__BEGIN__	__EPS__
s	s
c	c
h	h
o	ö
p	p
f	f
e	e
r	r

__BEGIN__	__EPS__
h	h
a	a
m	mm
e	e
r	r
s	sch
l	l
e	ä
g	ge

__BEGIN__	__EPS__
g	g
e	e
t	t
h	__EPS__
o	a
n	n

__BEGIN__	__EPS__
d	d
o	a

__BEGIN__	__EPS__
s	s
o	o

__BEGIN__	__EPS__
b	b
l	l
u	u
t	t
h	__EPS__

__BEGIN__	__EPS__
n	n
i	i
c	c
h	h
t	t

__BEGIN__	__EPS__
a	a
l	l
s	s

__BEGIN__	__EPS__
c	k
h	__EPS__
i	i
n	n
t	d

__BEGIN__	__EPS__
n	n
i	i
c	c
h	h
t	t

__BEGIN__	__EPS__
c	__EPS__
z	z
e	e
i	i
t	t

__BEGIN__	__EPS__
d	d
e	e
r	r

__BEGIN__	__EPS__
p	p
y	i
l	l
a	a
t	t
u	u
s	s

__BEGIN__	__EPS__
h	h
a	a
n	n
g	g
e	e
n	n

__BEGIN__	__EPS__
j	j
o	u
e	__EPS__
d	d
e	e
n	n

__BEGIN__	__EPS__
w	w
i	i
l	ll

__BEGIN__	__EPS__
g	g
o	ot
t	t
e	e
s	s

__BEGIN__	__EPS__
a	a
l	l
s	s
o	o

__BEGIN__	__EPS__
v	v
a	o
n	n

__BEGIN__	__EPS__
d	d
a	a
z	ss

__BEGIN__	__EPS__
l	l
o	o
s	s
z	__EPS__

__BEGIN__	__EPS__
n	n
i	ich
t	t

__BEGIN__	__EPS__
d	d
o	a

__BEGIN__	__EPS__
f	f
r	r
e	e
u	u
e	__EPS__
d	de

__BEGIN__	__EPS__
s	s
c	c
h	h
e	e
i	i
n	n

__BEGIN__	__EPS__
a	a
l	l
l	l
e	e
s	s

__BEGIN__	__EPS__
w	w
e	e
r	r
d	d
s	et

__BEGIN__	__EPS__
v	f
o	__EPS__
r	r
w	a
e	u

__BEGIN__	__EPS__
h	h
a	a
d	t
d	t
e	e
n	n

__BEGIN__	__EPS__
n	n
a	a
c	c
h	h
t	t

__BEGIN__	__EPS__
g	g
r	r
e	e
i	i
f	f
f	e

__BEGIN__	__EPS__
a	a
n	n
s	s
h	__EPS__
e	e
l	l
m	m

__BEGIN__	__EPS__
m	m
y	i
t	t

__BEGIN__	__EPS__
c	__EPS__
z	z
u	u

__BEGIN__	__EPS__
s	s
a	o
l	ll
t	t

__BEGIN__	__EPS__
m	m
i	i
c	c
h	h

__BEGIN__	__EPS__
b	b
e	e
u	f
a	a
e	h
l	l

__BEGIN__	__EPS__
v	v
o	o
n	n

__BEGIN__	__EPS__
a	a
l	l
s	s

__BEGIN__	__EPS__
s	s
t	t
u	u
m	m
p	p
f	f
i	e
n	n

__BEGIN__	__EPS__
v	u
m	m
b	__EPS__
h	h
a	a
n	n
g	g

__BEGIN__	__EPS__
v	u
n	n
d	d

__BEGIN__	__EPS__
d	t
a	a
g	g
e	e
s	s

__BEGIN__	__EPS__
l	l
e	ä
s	s
t	t
e	e
r	r
l	l
e	__EPS__
i	i
c	c
h	h

__BEGIN__	n
e	ich
n	t

__BEGIN__	__EPS__
z	z
e	e
r	r
s	sch
l	l
a	a
h	g
e	e
n	n

__BEGIN__	__EPS__
d	d
i	i
c	c
h	h

__BEGIN__	__EPS__
w	w
o	o
l	ll
t	t
e	e
n	n

__BEGIN__	__EPS__
s	s
c	c
h	h
o	ö
e	__EPS__
n	n
i	__EPS__
s	s
t	te

__BEGIN__	__EPS__
i	j
o	o
h	ha
-	nn
i	es

__BEGIN__	__EPS__
d	d
i	i
e	e

__BEGIN__	__EPS__
m	m
a	an
n	n

__BEGIN__	__EPS__
s	s
p	p
r	r
a	a
c	c
h	h

__BEGIN__	__EPS__
m	m
a	a
s	s
s	s
e	e
n	n

__BEGIN__	__EPS__
m	m
i	i
t	t

__BEGIN__	__EPS__
g	g
e	e
s	s
c	c
h	h
a	a
c	__EPS__
h	h

__BEGIN__	__EPS__
e	e
r	r

__BEGIN__	__EPS__
a	a
l	ll

__BEGIN__	__EPS__
g	g
e	e
p	b
e	e
t	t

__BEGIN__	__EPS__
c	k
h	o
o	m
m	m
e	e
n	n

__BEGIN__	__EPS__
n	n
u	un

__BEGIN__	__EPS__
v	u
n	n
d	d

__BEGIN__	__EPS__
b	b
u	r
r	ü
s	s
t	t
e	e

__BEGIN__	__EPS__
s	s
c	c
h	h
r	re
i	i
b	b
t	t

__BEGIN__	__EPS__
g	g
r	r
o	o
s	s
s	s
e	e
r	r

__BEGIN__	__EPS__
c	k
r	r
e	e
w	u
c	__EPS__
z	z

__BEGIN__	__EPS__
g	f
e	e
p	h
r	l
a	t
s	e
t	n

__BEGIN__	__EPS__
s	s
e	e
i	i
n	n

__BEGIN__	__EPS__
d	d
i	i
r	r

__BEGIN__	__EPS__
d	d
e	e
n	nn

__BEGIN__	__EPS__
y	ih
r	r

__BEGIN__	__EPS__
c	k
h	__EPS__
i	i
n	n
d	d

__BEGIN__	__EPS__
s	se
i	i
d	t
e	__EPS__

__BEGIN__	__EPS__
m	m
i	i
c	c
h	h

__BEGIN__	__EPS__
c	k
h	__EPS__
i	i
n	n
t	d

__BEGIN__	__EPS__
e	e
r	r
h	h
o	ö
r	r
t	t

__BEGIN__	__EPS__
m	m
a	a
c	c
h	h
e	e
n	n

__BEGIN__	__EPS__
n	n
i	i
c	c
h	h
t	t

__BEGIN__	__EPS__
e	e
r	r

__BEGIN__	__EPS__
l	l
a	a
g	g

__BEGIN__	__EPS__
m	me
y	i
n	n

__BEGIN__	__EPS__
d	d
y	ie

__BEGIN__	__EPS__
m	m
i	i
d	t
d	t
a	a
g	g
e	e

__BEGIN__	__EPS__
s	s
p	p
r	r
a	a
c	c
h	h
e	e
n	n
d	__EPS__

__BEGIN__	__EPS__
m	m
i	i
t	t

__BEGIN__	__EPS__
g	g
o	o
t	tt
e	e
s	s

__BEGIN__	__EPS__
d	d
e	e
r	r

__BEGIN__	__EPS__
p	__EPS__
u	s
e	e
r	__EPS__
p	i
u	d
e	e
r	__EPS__

__BEGIN__	__EPS__
d	d
e	e
m	m

__BEGIN__	__EPS__
v	u
n	n
s	sa
u	u
b	b
e	e
r	r

__BEGIN__	__EPS__
i	i
u	u
n	n
c	__EPS__
k	g
f	f
r	r
a	ä
u	u
l	l
i	i
c	c
h	h
e	e
n	n

__BEGIN__	__EPS__
d	d
a	a

__BEGIN__	__EPS__
a	a
n	n

__BEGIN__	__EPS__
s	s
o	o

__BEGIN__	__EPS__
i	ih
r	r

__BEGIN__	n
e	ich
n	t

__BEGIN__	__EPS__
a	a
u	u
f	f
f	__EPS__

__BEGIN__	__EPS__
i	ih
n	n

__BEGIN__	__EPS__
m	m
e	e
i	i
n	n

__BEGIN__	__EPS__
i	je
m	m
a	a
n	n
t	d

__BEGIN__	__EPS__
s	s
u	ü
e	__EPS__
s	s
s	s
e	e
s	s

__BEGIN__	__EPS__
s	s
t	t
u	a
n	n
t	d

__BEGIN__	__EPS__
d	d
a	a
s	s

__BEGIN__	__EPS__
v	u
n	n
d	d
e	__EPS__

__BEGIN__	__EPS__
s	s
o	ol
l	l

__BEGIN__	__EPS__
s	s
c	c
h	h
o	ö
n	n

__BEGIN__	__EPS__
i	i
c	c
h	h

__BEGIN__	__EPS__
a	o
l	__EPS__
d	d
e	er

__BEGIN__	__EPS__
b	b
u	a
n	n
d	d
e	e
n	n
t	__EPS__

__BEGIN__	__EPS__
d	t
o	ö
d	t
e	e
n	n

__BEGIN__	__EPS__
s	s
e	e
i	i
n	n

__BEGIN__	__EPS__
d	d
o	a

__BEGIN__	__EPS__
w	w
y	i
r	r

__BEGIN__	__EPS__
v	u
n	n
b	b
a	a
r	r
m	m
h	h
e	e
r	r
t	__EPS__
z	z
e	__EPS__
l	__EPS__
i	i
c	__EPS__
h	g

__BEGIN__	__EPS__
s	s
i	e
e	i
n	n
e	e
r	r

__BEGIN__	__EPS__
y	ih
r	r

__BEGIN__	__EPS__
i	i
c	c
h	h

__BEGIN__	__EPS__
m	m
u	u
o	s
s	s
t	t
e	e
n	n

__BEGIN__	__EPS__
z	z
u	u
o	__EPS__

__BEGIN__	__EPS__
s	s
a	a
l	l
b	b
e	e

__BEGIN__	__EPS__
c	k
h	__EPS__
i	i
n	n
t	d

__BEGIN__	__EPS__
e	ih
r	r
e	e
r	r

__BEGIN__	__EPS__
v	u
n	ns
t	t
o	e
e	r
t	b
l	l
i	i
c	c
h	he

__BEGIN__	__EPS__
d	d
a	a
z	ss

__BEGIN__	__EPS__
g	g
e	e
d	d
a	a
c	c
h	h
t	t
e	e
n	n

__BEGIN__	__EPS__
v	u
n	n
d	d

__BEGIN__	__EPS__
v	u
n	n
d	d
e	__EPS__

__BEGIN__	__EPS__
y	i
m	h
e	m

__BEGIN__	__EPS__
g	g
i	i
e	__EPS__
n	n
g	g
e	e
n	n

__BEGIN__	__EPS__
d	d
a	a
r	r
a	a
u	u
s	s
z	__EPS__

__BEGIN__	__EPS__
w	w
a	a
s	s
z	__EPS__

__BEGIN__	__EPS__
a	a
l	l
l	l

__BEGIN__	__EPS__
n	n
ü	un

__BEGIN__	__EPS__
i	i
c	c
h	h

__BEGIN__	__EPS__
g	g
e	e
s	s
c	c
h	h
a	a
c	__EPS__
h	h

__BEGIN__	__EPS__
n	n
i	ic
h	h
t	t

__BEGIN__	__EPS__
w	w
e	e
r	r

__BEGIN__	__EPS__
w	w
i	i
r	r

__BEGIN__	__EPS__
h	h
e	ä
t	t
t	te

__BEGIN__	__EPS__
k	k
i	i
n	n
d	d
e	__EPS__

__BEGIN__	__EPS__
v	u
n	n
d	d

__BEGIN__	__EPS__
l	l
o	o
c	c
h	h
e	__EPS__

__BEGIN__	__EPS__
m	me
i	i
n	n

__BEGIN__	__EPS__
v	u
n	n
d	d

__BEGIN__	__EPS__
m	m
i	i
t	t

__BEGIN__	__EPS__
w	w
i	ie
d	d
e	e
r	r
m	m
a	a
c	c
h	h
e	e
n	n

__BEGIN__	__EPS__
s	s
i	i
e	e

__BEGIN__	__EPS__
h	h
i	i
e	e
s	s
z	s

__BEGIN__	__EPS__
k	k
i	i
n	n
d	d
e	__EPS__

__BEGIN__	__EPS__
v	v
e	e
r	r
g	g
e	e
s	s
s	s
e	e
n	n

__BEGIN__	__EPS__
q	k
u	__EPS__
a	a
m	m

__BEGIN__	__EPS__
h	__EPS__
n	b
n	i
c	__EPS__
z	s

__BEGIN__	__EPS__
d	d
o	a

__BEGIN__	__EPS__
i	ih
m	m

__BEGIN__	__EPS__
s	s
p	p
r	r
a	a
c	c
h	h

__BEGIN__	__EPS__
s	s
e	e
l	l
b	b
e	e
r	r

__BEGIN__	__EPS__
d	d
e	e
r	r

__BEGIN__	__EPS__
s	s
p	p
r	r
a	a
c	c
h	h
e	e
n	n

__BEGIN__	__EPS__
m	m
y	i
r	r

__BEGIN__	__EPS__
e	e
i	i
n	n
e	e
m	m

__BEGIN__	__EPS__
n	n
i	i
e	e

__BEGIN__	__EPS__
k	k
i	i
n	n
t	d

__BEGIN__	__EPS__
d	d
u	ü
e	__EPS__
r	r
s	s
t	t
e	e
t	t

__BEGIN__	__EPS__
f	f
r	r
o	a
g	g
e	e

__BEGIN__	__EPS__
w	w
a	a
r	r
d	d

__BEGIN__	__EPS__
f	f
a	a
l	l
s	s
c	c
h	h

__BEGIN__	__EPS__
s	s
a	a
c	__EPS__
h	h
e	__EPS__

__BEGIN__	__EPS__
v	v
o	o
n	n

__BEGIN__	__EPS__
l	l
e	eh
r	r
e	e
r	r

__BEGIN__	__EPS__
v	u
n	n
d	d

__BEGIN__	__EPS__
s	s
e	e
l	l
b	b
e	e
r	r

__BEGIN__	__EPS__
g	g
i	in
e	g

__BEGIN__	__EPS__
o	e
n	m
t	p
f	f
a	ang
e	e
n	n

__BEGIN__	__EPS__
d	d
a	a
s	ss

__BEGIN__	__EPS__
i	i
c	c
h	h

__BEGIN__	__EPS__
y	ih
m	m

__BEGIN__	__EPS__
i	ih
n	n

__BEGIN__	__EPS__
d	de
y	i
n	n

__BEGIN__	__EPS__
v	u
n	n
d	d

__BEGIN__	__EPS__
c	__EPS__
z	z
u	u

__BEGIN__	e
s	s

__BEGIN__	__EPS__
d	d
e	e
r	r

__BEGIN__	__EPS__
l	l
a	a
m	m
a	a
s	z
a	a
b	b
a	a
t	t
a	a
n	n
i	i

__BEGIN__	__EPS__
i	i
c	c
h	h

__BEGIN__	__EPS__
n	n
i	ich
t	t

__BEGIN__	__EPS__
k	k
u	ü
s	s
s	s
e	__EPS__
t	t

__BEGIN__	__EPS__
e	e
r	r

__BEGIN__	__EPS__
d	d
e	e
r	r

__BEGIN__	__EPS__
d	d
e	e
i	i
n	n
e	e
m	m

__BEGIN__	__EPS__
d	d
a	a
z	ss

__BEGIN__	__EPS__
i	j
u	u
d	d
e	e
n	n

__BEGIN__	__EPS__
m	me
y	i
n	n

__BEGIN__	__EPS__
d	d
e	e
r	r

__BEGIN__	__EPS__
s	s
c	c
h	h
o	ö
e	__EPS__
n	n

__BEGIN__	t
z	r
e	ä
h	n
e	e
r	__EPS__
n	n

__BEGIN__	d
ü	u

__BEGIN__	__EPS__
b	b
e	e
t	t
r	r
a	a
c	c
h	h
t	t

__BEGIN__	__EPS__
d	d
a	a
u	v
i	i
d	d

__BEGIN__	__EPS__
s	s
e	a
n	nk
t	t
e	__EPS__

__BEGIN__	__EPS__
m	m
i	i
t	t

__BEGIN__	__EPS__
e	e
r	r

__BEGIN__	__EPS__
h	h
i	i
l	l
f	f

__BEGIN__	__EPS__
i	ih
m	m

__BEGIN__	__EPS__
d	d
e	e
s	s

__BEGIN__	__EPS__
n	n
o	o
c	c
h	h

__BEGIN__	__EPS__
s	se
i	i
n	n
e	e
n	n

__BEGIN__	__EPS__
d	d
e	e
r	r

__BEGIN__	__EPS__
m	m
i	i
r	r

__BEGIN__	__EPS__
d	d
i	i
r	r

__BEGIN__	__EPS__
a	a
l	l
l	l
e	e
n	n

__BEGIN__	__EPS__
l	l
o	o
s	s
z	__EPS__

__BEGIN__	__EPS__
m	m
e	e
i	i
n	n
e	e
m	m

__BEGIN__	__EPS__
g	g
i	i
e	__EPS__
n	n
c	__EPS__
h	g

__BEGIN__	__EPS__
m	m
i	i
t	t

__BEGIN__	__EPS__
e	e
r	r

__BEGIN__	__EPS__
d	da
z	ss

__BEGIN__	__EPS__
i	e
d	__EPS__
t	s

__BEGIN__	__EPS__
g	g
e	e
n	n
o	o
m	mmen

__BEGIN__	__EPS__
s	s
p	p
r	r
a	a
c	c
h	h

__BEGIN__	__EPS__
z	z
u	u

__BEGIN__	__EPS__
d	d
o	a

__BEGIN__	__EPS__
e	e
r	r
b	b
a	ä
e	__EPS__
r	r
m	m
c	__EPS__
l	l
i	i
c	c
h	h
e	e
n	n

__BEGIN__	__EPS__
g	g
i	i
e	__EPS__
n	n
g	g
e	e
n	n
d	__EPS__

__BEGIN__	__EPS__
d	d
a	a
s	ss

__BEGIN__	__EPS__
e	e
n	nt
s	s
c	c
h	h
u	u
l	l
d	d
i	i
g	g
e	e
n	n

__BEGIN__	__EPS__
v	u
r	r
s	s
a	a
c	c
h	he

__BEGIN__	__EPS__
v	u
m	m
b	__EPS__

__BEGIN__	__EPS__
w	w
e	e
r	r
d	d
e	e
n	n

__BEGIN__	__EPS__
h	h
e	e
r	r
e	__EPS__

__BEGIN__	__EPS__
m	m
y	i
c	c
h	h

__BEGIN__	__EPS__
n	n
a	ah
m	m

__BEGIN__	__EPS__
g	g
i	i
n	n
g	g

__BEGIN__	__EPS__
d	d
a	as
s	s

__BEGIN__	__EPS__
o	au
p	f

__BEGIN__	__EPS__
r	r
e	e
c	c
h	h
t	t
e	e
n	n

__BEGIN__	__EPS__
d	d
i	i
r	r

__BEGIN__	__EPS__
m	m
o	o
c	c
h	h
t	te

__BEGIN__	__EPS__
i	i
c	c
h	h

__BEGIN__	__EPS__
d	d
o	a

__BEGIN__	__EPS__
d	d
a	a

__BEGIN__	__EPS__
v	v
o	o
n	n

__BEGIN__	__EPS__
m	m
i	i
t	t

__BEGIN__	__EPS__
c	k
r	r
ü	e
t	u
z	z

__BEGIN__	__EPS__
i	j
o	o
h	h
a	a
n	n
n	n
e	e
s	s

__BEGIN__	__EPS__
m	m
a	a
l	l

__BEGIN__	__EPS__
f	f
v	üh
r	r
t	t
e	e
n	n

__BEGIN__	__EPS__
v	v
o	o
n	n

__BEGIN__	__EPS__
i	ih
n	n

__BEGIN__	__EPS__
g	g
e	e
s	s
c	ch
r	ri
e	e
b	b
e	e
n	n

__BEGIN__	__EPS__
a	a
l	ll

__BEGIN__	__EPS__
i	ih
n	n

__BEGIN__	__EPS__
b	b
i	i
s	st

__BEGIN__	__EPS__
d	t
a	a
g	g
e	e
s	s

__BEGIN__	__EPS__
o	o
u	b
e	e
r	r
s	s
t	t
e	e
n	n

__BEGIN__	__EPS__
e	e
i	i
u	u
s	s

__BEGIN__	__EPS__
w	w
a	a
s	s
s	s
e	e
r	r

__BEGIN__	__EPS__
m	m
a	a
g	g
d	d
a	a
l	l
e	en
a	a

__BEGIN__	__EPS__
o	o
d	d
e	e
r	r

__BEGIN__	__EPS__
e	e
r	r

__BEGIN__	__EPS__
s	s
e	a
n	nk
t	t
e	__EPS__

__BEGIN__	__EPS__
n	n
i	ic
h	h
t	t

__BEGIN__	__EPS__
b	b
e	e
g	g
i	ie
r	r
d	de

__BEGIN__	__EPS__
f	f
o	ü
r	r
c	c
h	h
t	t
e	e
s	s
t	t

__BEGIN__	__EPS__
a	a
v	u
z	s

__BEGIN__	ges
c	c
h	h
u	le
n	ch
e	t

__BEGIN__	__EPS__
d	d
a	a
s	s

__BEGIN__	__EPS__
d	d
o	a

__BEGIN__	__EPS__
s	s
t	t
e	e
i	i
n	n

__BEGIN__	__EPS__
g	g
r	r
o	o
s	s
z	s

__BEGIN__	__EPS__
n	n
u	un

__BEGIN__	__EPS__
w	w
a	e
i	i
n	n
e	__EPS__
t	t

__BEGIN__	__EPS__
l	l
i	i
e	e
s	s
z	s

__BEGIN__	__EPS__
a	a
l	l
t	t
e	e
n	n

__BEGIN__	__EPS__
g	g
e	e
s	s
c	c
h	h
a	a
c	__EPS__
h	h

__BEGIN__	__EPS__
i	ih
n	n

__BEGIN__	__EPS__
m	v
a	i
l	e
l	l
i	er
c	l
h	ei

__BEGIN__	__EPS__
a	a
n	n

__BEGIN__	__EPS__
f	f
e	e
s	s
t	t
e	e

__BEGIN__	__EPS__
d	d
e	e
n	n

__BEGIN__	__EPS__
s	s
a	a
c	__EPS__
h	h

__BEGIN__	__EPS__
w	w
o	o
l	l
k	k
e	e
n	n

__BEGIN__	__EPS__
d	d
e	e
m	m

__BEGIN__	__EPS__
d	d
i	i
c	c
h	h

__BEGIN__	__EPS__
r	r
e	e
d	d
e	e

__BEGIN__	__EPS__
c	__EPS__
z	z
e	e
i	i
t	t

__BEGIN__	__EPS__
a	a
l	l
s	s
o	o

__BEGIN__	__EPS__
i	ih
n	n

__BEGIN__	__EPS__
t	t
u	u
n	n

__BEGIN__	__EPS__
g	__EPS__
e	__EPS__
h	h
o	ö
r	r
e	e
n	n
d	d
e	__EPS__

__BEGIN__	__EPS__
g	g
u	ü
t	t
i	i
g	g

__BEGIN__	__EPS__
b	b
e	e
g	g
e	eh
r	r
t	t

__BEGIN__	__EPS__
w	w
a	a
t	s

__BEGIN__	__EPS__
h	h
a	a
v	u
s	s

__BEGIN__	__EPS__
v	v
a	o
n	n

__BEGIN__	__EPS__
h	h
y	ier

__BEGIN__	__EPS__
a	a
l	l
s	s
o	o

__BEGIN__	__EPS__
d	d
e	e
m	m

__BEGIN__	__EPS__
i	j
u	u
n	n
g	g
e	e

__BEGIN__	__EPS__
a	a
l	l
l	l
e	e
n	n

__BEGIN__	__EPS__
d	d
o	a

__BEGIN__	__EPS__
a	a
b	b
e	e
r	r

__BEGIN__	__EPS__
v	u
n	n
d	d

__BEGIN__	__EPS__
i	i
c	c
h	h

__BEGIN__	__EPS__
h	h
e	e
l	l
y	y

__BEGIN__	__EPS__
h	h
e	i
l	l
f	f
e	e

__BEGIN__	__EPS__
v	u
n	n
d	d

__BEGIN__	__EPS__
c	k
l	l
e	e
y	i
n	n
e	e

__BEGIN__	__EPS__
d	d
o	a

__BEGIN__	__EPS__
d	d
e	e
n	n

__BEGIN__	__EPS__
m	m
i	eh
r	r
t	t
e	e
n	n

__BEGIN__	__EPS__
m	m
e	e
y	i
n	n

__BEGIN__	__EPS__
m	m
i	i
t	t

__BEGIN__	__EPS__
d	d
e	e
m	m

__BEGIN__	__EPS__
y	i
m	h
e	m

__BEGIN__	__EPS__
g	g
e	e
r	r
i	ic
h	h
t	t
e	__EPS__

__BEGIN__	__EPS__
i	i
s	st

__BEGIN__	__EPS__
e	e
r	r
s	s
t	t
e	e
n	n

__BEGIN__	__EPS__
l	l
i	ie
b	b
e	e
s	s

__BEGIN__	__EPS__
v	v
o	o
r	r

__BEGIN__	__EPS__
m	me
i	i
n	n

__BEGIN__	__EPS__
c	__EPS__
z	z
w	we
o	i

__BEGIN__	__EPS__
m	m
i	i
t	t

__BEGIN__	__EPS__
e	e
s	s

__BEGIN__	__EPS__
a	a
l	l
l	l
e	e

__BEGIN__	__EPS__
t	t
o	o
d	d
e	e
s	s

__BEGIN__	__EPS__
e	e
r	r

__BEGIN__	__EPS__
i	i
c	ch

__BEGIN__	__EPS__
d	d
a	as
z	s

__BEGIN__	__EPS__
v	u
n	n
d	d

__BEGIN__	__EPS__
s	s
e	eh
t	t

__BEGIN__	__EPS__
v	u
n	n
d	d

__BEGIN__	__EPS__
d	d
i	i
u	v
i	i
s	s
e	e
r	r
u	u
n	n
t	t

__BEGIN__	__EPS__
l	la
u	u
t	t
h	__EPS__

__BEGIN__	__EPS__
o	o
w	w
e	eh

__BEGIN__	__EPS__
c	k
l	l
a	a
c	__EPS__
h	g
t	t
e	e
n	n

__BEGIN__	__EPS__
d	d
a	a
r	r
v	a
f	u
f	f

__BEGIN__	__EPS__
g	g
o	o
t	tt
i	e
s	s

__BEGIN__	__EPS__
a	a
l	l
l	l
e	e

__BEGIN__	__EPS__
a	a
l	l
s	s
o	o

__BEGIN__	__EPS__
d	d
o	a

__BEGIN__	__EPS__
s	s
i	i
n	n
d	d
t	__EPS__

__BEGIN__	__EPS__
v	v
e	e
r	r
e	e
i	i
n	n
e	__EPS__
s	s
t	t

__BEGIN__	__EPS__
j	j
u	u
d	d
e	e
n	n

__BEGIN__	__EPS__
v	v
a	a
d	t
e	e
r	r

__BEGIN__	__EPS__
v	u
r	r
t	t
a	e
y	i
l	l

__BEGIN__	__EPS__
l	l
e	e
i	i
p	b

__BEGIN__	__EPS__
v	u
n	n
s	s

__BEGIN__	__EPS__
n	n
i	i
c	c
h	h
t	t

__BEGIN__	__EPS__
p	p
e	e
t	t
e	r
r	us

__BEGIN__	__EPS__
e	nich
n	t

__BEGIN__	__EPS__
h	h
e	a
t	t

__BEGIN__	__EPS__
s	s
c	c
h	h
a	e
i	i
d	de

__BEGIN__	__EPS__
l	l
e	e
i	i
b	b

__BEGIN__	__EPS__
v	v
a	o
n	n

__BEGIN__	__EPS__
s	s
p	p
r	r
a	a
c	c
h	h

__BEGIN__	__EPS__
v	v
o	o
n	n

__BEGIN__	__EPS__
m	m
i	i
t	t

__BEGIN__	__EPS__
w	w
a	a
z	r

__BEGIN__	__EPS__
s	s
p	p
r	r
a	a
c	c
h	h

__BEGIN__	__EPS__
d	d
u	u

__BEGIN__	__EPS__
w	w
u	a
r	r
f	__EPS__
f	f
e	e
n	n
d	__EPS__

__BEGIN__	__EPS__
v	e
r	r
l	l
a	a
u	u
b	bnis

__BEGIN__	__EPS__
v	u
n	n
d	d

__BEGIN__	__EPS__
s	s
p	p
r	r
a	a
c	c
h	h

__BEGIN__	__EPS__
v	v
o	o
n	n

__BEGIN__	__EPS__
n	n
i	i
c	c
h	h
t	t

__BEGIN__	__EPS__
m	m
i	i
t	t

__BEGIN__	__EPS__
r	r
e	e
c	c
h	h
t	t

__BEGIN__	__EPS__
i	i
c	c
h	h

__BEGIN__	__EPS__
d	d
u	u

__BEGIN__	__EPS__
d	d
a	as
z	s

__BEGIN__	__EPS__
m	m
a	a
n	n

__BEGIN__	__EPS__
w	w
o	u
n	n
d	d
e	e

__BEGIN__	__EPS__
d	d
i	i
e	e

__BEGIN__	__EPS__
s	s
e	e
i	i
n	n

__BEGIN__	__EPS__
h	__EPS__
e	e
r	r

__BEGIN__	__EPS__
a	a
l	l
s	s
e	__EPS__

__BEGIN__	__EPS__
o	o
b	b

__BEGIN__	__EPS__
k	k
r	r
o	o
n	n
e	e

__BEGIN__	__EPS__
d	d
a	a
z	s

__BEGIN__	__EPS__
s	se
i	i
n	n
e	e
n	m

__BEGIN__	__EPS__
e	e
i	i
n	n
p	b
r	r
e	i
n	n
g	g
e	e
n	n

__BEGIN__	__EPS__
d	d
o	a

__BEGIN__	__EPS__
d	d
i	i
c	c
h	h

__BEGIN__	__EPS__
w	w
z	ar

__BEGIN__	__EPS__
d	d
a	a
t	ss

__BEGIN__	__EPS__
c	c
e	e
n	n
t	t
u	u
r	r
i	i
o	o

__BEGIN__	__EPS__
u	u
n	n
d	d

__BEGIN__	__EPS__
m	me
i	i
n	n

__BEGIN__	__EPS__
h	h
e	a
t	t
t	t
e	e
n	n

__BEGIN__	__EPS__
m	m
a	a
r	r
i	i
a	a

__BEGIN__	__EPS__
d	d
i	i
e	e
s	s
s	__EPS__
e	e
m	m

__BEGIN__	__EPS__
m	m
o	ö
r	r
d	d
e	e
r	r

__BEGIN__	__EPS__
g	g
e	e
t	t
r	r
a	a
g	g
e	e
n	n

__BEGIN__	__EPS__
t	t
h	__EPS__
a	a
e	__EPS__
t	t

__BEGIN__	__EPS__
s	s
e	e
i	i
n	n
e	e

__BEGIN__	__EPS__
g	g
e	e
s	s
t	t
o	o
c	c
h	h
e	e
n	n

__BEGIN__	__EPS__
d	d
i	i
c	c
h	h

__BEGIN__	__EPS__
s	s
c	c
h	h
a	e
i	i
d	d
e	e
n	n

__BEGIN__	__EPS__
v	v
o	o
n	n

__BEGIN__	__EPS__
w	w
a	a
s	r

__BEGIN__	__EPS__
m	m
e	e
n	n
s	s
c	c
h	h
e	e
n	n

__BEGIN__	__EPS__
i	ih
m	m

__BEGIN__	__EPS__
d	d
a	an
n	n

__BEGIN__	__EPS__
i	i
n	n

__BEGIN__	__EPS__
h	h
e	e
r	rr
s	s
c	c
h	h
a	a
f	f
t	t

__BEGIN__	__EPS__
l	le
i	i
p	b

__BEGIN__	__EPS__
d	d
a	a
s	s

__BEGIN__	__EPS__
g	g
e	e
s	s
p	p
r	r
a	o
e	__EPS__
c	c
h	h
e	e
n	n

__BEGIN__	__EPS__
e	e
r	r
s	s
t	t
a	a
n	n
d	d
e	e
n	n

__BEGIN__	__EPS__
i	ih
n	n

__BEGIN__	__EPS__
g	g
e	e
l	l
y	i
t	t
t	t
e	e
n	n

__BEGIN__	__EPS__
d	d
a	a
s	s

__BEGIN__	__EPS__
n	n
i	i
c	c
h	h
t	t

__BEGIN__	__EPS__
s	s
p	p
r	r
i	i
c	c
h	h
t	t

__BEGIN__	__EPS__
i	i
c	c
h	h

__BEGIN__	__EPS__
v	u
n	n
d	d

__BEGIN__	__EPS__
h	h
o	ö
r	r
e	__EPS__
t	t

__BEGIN__	__EPS__
b	b
e	e
t	z
w	w
u	u
n	n
g	g
e	e
n	n

__BEGIN__	__EPS__
m	me
y	i
n	n

__BEGIN__	__EPS__
w	w
a	a
s	r
z	__EPS__

__BEGIN__	__EPS__
a	a
n	n

__BEGIN__	__EPS__
d	s
u	t
r	r
c	a
h	h
l	l
i	__EPS__
e	e
c	__EPS__
h	n
t	d

__BEGIN__	__EPS__
e	e
r	r

__BEGIN__	__EPS__
v	u
n	n
n	d

__BEGIN__	__EPS__
d	d
a	a

__BEGIN__	__EPS__
v	v
i	ie
l	l

__BEGIN__	__EPS__
a	a
l	l
l	l
e	e

__BEGIN__	__EPS__
k	k
o	a
m	m

__BEGIN__	__EPS__
y	i
m	h
e	m

__BEGIN__	__EPS__
w	w
a	e
i	i
s	ss
t	t

__BEGIN__	__EPS__
s	s
t	t
a	a
n	n
d	d

__BEGIN__	__EPS__
m	m
e	e
n	n
s	s
c	c
h	h
e	e
n	n

__BEGIN__	__EPS__
e	e
r	r

__BEGIN__	__EPS__
h	h
u	ü
l	l
f	f
f	__EPS__
i	e
s	s
t	t

__BEGIN__	__EPS__
r	r
o	o
t	t
t	__EPS__

__BEGIN__	__EPS__
v	u
n	n
d	d

__BEGIN__	__EPS__
d	d
i	i
e	e

__BEGIN__	__EPS__
n	n
i	i
c	c
h	h
t	t

__BEGIN__	__EPS__
d	d
e	e
r	r

__BEGIN__	__EPS__
s	s
p	p
i	i
r	r
i	i
t	t
u	u
m	m

__BEGIN__	__EPS__
l	l
e	e
b	b
e	e
n	n

__BEGIN__	__EPS__
m	m
a	a
n	n

__BEGIN__	ge
w	w
o	o
r	r
d	d
e	e
n	n

__BEGIN__	__EPS__
i	i
c	c
h	h

__BEGIN__	__EPS__
s	s
o	o
l	lls
t	t

__BEGIN__	__EPS__
v	u
n	n
d	d

__BEGIN__	__EPS__
d	d
e	e
r	r

__BEGIN__	__EPS__
m	m
u	u
n	n
d	d

__BEGIN__	__EPS__
i	ih
m	m

__BEGIN__	__EPS__
a	a
l	ll

__BEGIN__	__EPS__
d	d
a	a

__BEGIN__	__EPS__
w	w
i	il
l	l

__BEGIN__	__EPS__
m	me
i	i
n	n
e	e
r	r

__BEGIN__	__EPS__
i	i
s	s
t	t

__BEGIN__	__EPS__
g	g
e	e
r	r
i	i
c	c
h	h
t	t

__BEGIN__	__EPS__
h	h
e	e
r	r
c	__EPS__
z	z
e	e
n	__EPS__
l	l
e	e
i	i
t	d

__BEGIN__	__EPS__
k	k
l	l
a	a
g	ge

__BEGIN__	__EPS__
d	d
a	a
s	ss

__BEGIN__	__EPS__
d	d
a	a

__BEGIN__	__EPS__
i	i
n	n

__BEGIN__	__EPS__
f	f
r	r
a	e
w	u
d	d
e	e
n	n

__BEGIN__	__EPS__
d	d
e	e
m	m

__BEGIN__	__EPS__
d	d
i	i
e	e

__BEGIN__	__EPS__
g	g
e	e
s	s
c	c
h	h
a	a
c	__EPS__
h	h

__BEGIN__	__EPS__
w	w
a	a
r	r
f	__EPS__
f	f

__BEGIN__	__EPS__
i	i
c	c
h	h

__BEGIN__	__EPS__
g	g
e	e
b	b
e	e
n	n

__BEGIN__	__EPS__
m	m
i	i
t	t

__BEGIN__	__EPS__
s	s
o	o

__BEGIN__	__EPS__
y	ih
m	m

__BEGIN__	__EPS__
s	s
o	o

__BEGIN__	__EPS__
m	m
i	i
t	t

__BEGIN__	__EPS__
l	l
e	e
b	b
e	__EPS__
t	t

__BEGIN__	__EPS__
c	__EPS__
z	z
w	u

__BEGIN__	__EPS__
h	i
o	__EPS__
e	h
r	r

__BEGIN__	__EPS__
a	a
n	n

__BEGIN__	__EPS__
d	d
u	ü
e	__EPS__
r	r
s	s
t	tet

__BEGIN__	__EPS__
i	ih
m	m

__BEGIN__	__EPS__
e	e
d	d
l	l
e	e
r	r

__BEGIN__	__EPS__
s	s
e	e
c	c
h	h
s	s
t	t
e	e
n	n

__BEGIN__	__EPS__
h	__EPS__
e	e
r	r

__BEGIN__	__EPS__
f	f
r	r
a	a
u	u
w	__EPS__
e	__EPS__

__BEGIN__	__EPS__
m	m
a	a
n	n

__BEGIN__	__EPS__
g	g
e	e
s	s
c	c
h	h
i	i
c	c
h	k
t	t

__BEGIN__	__EPS__
d	d
o	a

__BEGIN__	__EPS__
h	h
a	a
u	u
p	p
t	t

__BEGIN__	__EPS__
k	k
i	i
n	n
t	d

__BEGIN__	__EPS__
m	me
y	i
n	n
e	e

__BEGIN__	__EPS__
m	me
y	i
n	n

__BEGIN__	__EPS__
g	g
e	e
r	r
n	n

__BEGIN__	__EPS__
m	me
i	i
n	ne
s	s

__BEGIN__	__EPS__
k	k
i	i
n	n
d	d

__BEGIN__	__EPS__
h	d
o	r
e	e
r	ck

__BEGIN__	__EPS__
a	a
n	n
s	s
h	__EPS__
e	e
l	l
m	m
u	__EPS__
s	__EPS__

__BEGIN__	__EPS__
d	d
a	a
z	ss

__BEGIN__	__EPS__
b	b
e	e
h	h
a	a
l	l
t	te

__BEGIN__	__EPS__
v	u
n	n
d	d

__BEGIN__	__EPS__
b	b
e	ei
d	d
e	e
n	n

__BEGIN__	__EPS__
v	u
n	n
s	s
c	c
h	h
u	u
l	l
d	d
i	i
g	g

__BEGIN__	__EPS__
s	s
i	i
c	c
h	h

__BEGIN__	__EPS__
d	d
e	e
s	s

__BEGIN__	__EPS__
h	h
o	ö
e	__EPS__
r	r
d	t
e	e

__BEGIN__	__EPS__
a	a
n	n
d	de
r	r
e	e

__BEGIN__	__EPS__
i	j
h	__EPS__
e	e
s	s
u	u
s	s

__BEGIN__	__EPS__
d	d
a	a

__BEGIN__	__EPS__
d	d
i	i
c	c
h	h

__BEGIN__	__EPS__
d	d
a	a
t	s

__BEGIN__	__EPS__
s	s
y	ie

__BEGIN__	__EPS__
d	d
e	e
n	n
s	s
e	e
l	l
u	b
e	e
n	n

__BEGIN__	__EPS__
m	m
i	i
c	c
h	h

__BEGIN__	__EPS__
m	m
o	o
c	c
h	h
t	te

__BEGIN__	__EPS__
i	i
s	st

__BEGIN__	__EPS__
d	d
i	i
c	c
h	h

__BEGIN__	__EPS__
w	w
a	a
s	s

__BEGIN__	__EPS__
d	d
u	u
r	r
c	c
h	h
g	g
e	e
h	h
e	e
n	n

__BEGIN__	__EPS__
y	i
m	h
e	m

__BEGIN__	__EPS__
m	m
i	i
e	__EPS__
r	r

__BEGIN__	__EPS__
g	g
r	r
o	o
s	s
s	s
e	e
n	n

__BEGIN__	__EPS__
v	u
n	n
d	d

__BEGIN__	d
u	u

__BEGIN__	__EPS__
p	p
y	i
l	l
a	a
t	t
u	u
s	s

__BEGIN__	__EPS__
v	u
n	n
d	d

__BEGIN__	__EPS__
a	a
l	l
l	l
a	e
i	i
n	n

__BEGIN__	__EPS__
d	d
i	ie

__BEGIN__	__EPS__
d	d
o	a

__BEGIN__	__EPS__
i	j
v	u
d	d
e	e
n	n

__BEGIN__	__EPS__
g	g
e	e
h	h
e	o
b	b
e	e
t	n

__BEGIN__	__EPS__
i	j
u	u
d	d
e	e
n	n

__BEGIN__	__EPS__
i	i
c	c
h	h

__BEGIN__	__EPS__
m	m
i	i
l	l
d	d
e	e
s	s
t	t
e	e

__BEGIN__	__EPS__
v	v
e	e
r	r
s	s
c	c
h	h
u	u
l	l
d	d
e	e
t	t

__BEGIN__	__EPS__
o	ü
u	b
e	e
r	r
b	b
l	l
i	e
j	i
u	b
e	e
n	n

__BEGIN__	__EPS__
l	l
i	i
e	e
b	b
e	e
s	s
z	__EPS__

__BEGIN__	__EPS__
d	d
i	i
e	e

__BEGIN__	__EPS__
p	b
v	u
e	__EPS__
z	s
z	s
e	e

__BEGIN__	__EPS__
s	s
e	e
i	i
n	n

__BEGIN__	__EPS__
v	u
n	n
n	d

__BEGIN__	__EPS__
v	u
n	n
d	d

__BEGIN__	__EPS__
m	m
e	e
i	i
n	n
e	e
r	r

__BEGIN__	__EPS__
t	t
o	o
t	t

__BEGIN__	__EPS__
s	s
c	c
h	h
a	ä
c	c
h	h
e	e
r	r

__BEGIN__	__EPS__
b	b
e	e
r	r
a	e
i	i
t	t
i	e
n	n
d	__EPS__

__BEGIN__	__EPS__
p	b
i	i
s	s
c	c
h	h
o	o
l	__EPS__
f	f
f	__EPS__
e	__EPS__
s	s

__BEGIN__	__EPS__
w	w
o	o
i	__EPS__
r	r
t	t

__BEGIN__	__EPS__
h	h
a	a
t	tt
o	e
n	n

__BEGIN__	__EPS__
v	v
o	o
n	n

__BEGIN__	__EPS__
m	m
e	e
i	i
n	n
e	e
s	s
z	__EPS__

__BEGIN__	__EPS__
d	d
a	a
t	s

__BEGIN__	__EPS__
s	s
t	t
o	ö
e	s
s	s
z	e

__BEGIN__	__EPS__
i	i
c	c
h	h

__BEGIN__	__EPS__
t	__EPS__
z	z
o	u

__BEGIN__	__EPS__
v	u
n	n
d	d

__BEGIN__	__EPS__
c	k
r	r
a	a
f	f
f	__EPS__
t	t

__BEGIN__	__EPS__
d	d
o	a

__BEGIN__	__EPS__
i	i
c	c
h	h

__BEGIN__	__EPS__
i	j
o	o
s	s
e	e
p	p
h	h

__BEGIN__	__EPS__
v	v
o	o
n	n

__BEGIN__	__EPS__
i	ih
m	m

__BEGIN__	__EPS__
d	d
i	i
e	e

__BEGIN__	__EPS__
h	h
e	e
r	r

__BEGIN__	__EPS__
h	h
e	e
r	r
a	a
b	b

__BEGIN__	__EPS__
i	i
n	n

__BEGIN__	__EPS__
k	k
a	a
n	nn

__BEGIN__	__EPS__
c	k
h	__EPS__
r	r
e	e
v	u
t	__EPS__
z	z

__BEGIN__	__EPS__
d	d
i	i
e	e

__BEGIN__	__EPS__
d	d
y	ie

__BEGIN__	__EPS__
h	h
e	at
t	t
e	e
n	n

__BEGIN__	__EPS__
v	v
i	ie
l	l

__BEGIN__	__EPS__
a	a
l	l
s	s
o	o

__BEGIN__	__EPS__
d	d
e	e
r	r

__BEGIN__	__EPS__
m	m
o	o
o	c
h	h
t	t

__BEGIN__	__EPS__
y	i
n	h
e	n

__BEGIN__	d
u	u

__BEGIN__	__EPS__
w	w
i	i
l	lls
t	t

__BEGIN__	__EPS__
c	k
h	__EPS__
r	r
e	e
ü	u
c	__EPS__
z	z
t	t

__BEGIN__	__EPS__
d	d
e	e
r	r

__BEGIN__	__EPS__
d	d
a	a

__BEGIN__	__EPS__
e	e
r	r
s	s
c	c
h	h
e	__EPS__
i	ie
n	n

__BEGIN__	__EPS__
i	i
c	c
h	h

__BEGIN__	__EPS__
g	g
e	e
s	s
c	c
h	h
r	r
e	e
y	i

__BEGIN__	__EPS__
s	se
i	i
n	n

__BEGIN__	__EPS__
o	oh

__BEGIN__	__EPS__
w	w
y	i
r	r

__BEGIN__	__EPS__
v	v
o	e
r	r
g	g
e	e
b	b
i	e
s	s
t	t

__BEGIN__	__EPS__
a	a
l	l
s	s
o	o

__BEGIN__	__EPS__
m	m
i	i
t	t

__BEGIN__	__EPS__
h	h
a	a
t	t

__BEGIN__	__EPS__
v	v
o	o
n	n

__BEGIN__	__EPS__
i	j
o	o
h	h
a	a
n	n
n	n
e	e
s	s
z	__EPS__

__BEGIN__	__EPS__
h	h
i	i
e	e
l	l
d	te
n	n

__BEGIN__	__EPS__
s	s
i	i
j	e

__BEGIN__	__EPS__
w	w
e	o
l	ll
t	t
e	e

__BEGIN__	__EPS__
d	d
e	e
r	r

__BEGIN__	__EPS__
d	d
a	a
z	ss

__BEGIN__	__EPS__
c	k
h	ü
ü	s
s	s
t	t
e	e

__BEGIN__	__EPS__
d	d
e	e
n	n

__BEGIN__	__EPS__
d	d
a	a
u	v
i	i
d	d

__BEGIN__	__EPS__
d	d
a	a
r	r
i	i
n	n

__BEGIN__	__EPS__
s	s
e	e
y	i
n	n
e	e

__BEGIN__	__EPS__
h	h
a	a
b	be

__BEGIN__	__EPS__
d	d
o	a

__BEGIN__	__EPS__
e	e
r	r

__BEGIN__	__EPS__
b	b
i	i
s	s
z	__EPS__

__BEGIN__	__EPS__
d	d
e	e
r	r

__BEGIN__	__EPS__
d	t
a	a
d	t
e	e
n	n

__BEGIN__	__EPS__
s	s
e	e
y	i

__BEGIN__	__EPS__
f	f
r	r
a	a
u	u
e	e
n	n

__BEGIN__	__EPS__
w	w
a	e
i	i
n	n
e	e
n	n

__BEGIN__	__EPS__
n	n
e	eh
m	m
e	e
n	n

__BEGIN__	__EPS__
e	e
r	r
d	d
e	e

__BEGIN__	__EPS__
d	d
o	a

__BEGIN__	__EPS__
b	b
r	r
o	o
d	t
e	e
n	n

__BEGIN__	__EPS__
e	e
i	i
n	n

__BEGIN__	__EPS__
m	m
i	i
n	n
e	e
n	n

__BEGIN__	__EPS__
d	d
u	u

__BEGIN__	__EPS__
u	v
i	ie
l	l

__BEGIN__	__EPS__
b	b
a	a
r	r
r	r
a	a
b	b
a	a
n	s

__BEGIN__	__EPS__
m	m
u	u
o	t
t	t
e	e
r	r

__BEGIN__	__EPS__
g	g
e	e
k	k
u	ü
s	ss
t	t

__BEGIN__	__EPS__
w	w
e	eh

__BEGIN__	__EPS__
d	d
e	e
m	m

__BEGIN__	__EPS__
v	u
n	n
d	d

__BEGIN__	__EPS__
d	d
u	u

__BEGIN__	__EPS__
v	u
n	n
d	d

__BEGIN__	__EPS__
m	m
i	i
c	c
h	h

__BEGIN__	__EPS__
v	u
n	n
d	d

__BEGIN__	__EPS__
w	w
o	oh
l	l

__BEGIN__	__EPS__
y	ih
n	n

__BEGIN__	__EPS__
s	s
o	o

__BEGIN__	__EPS__
v	v
o	o
n	n

__BEGIN__	__EPS__
s	s
ü	oh
n	n

__BEGIN__	__EPS__
d	d
u	u
r	r
c	c
h	h

__BEGIN__	__EPS__
d	d
a	a
z	s

__BEGIN__	__EPS__
h	h
e	e
r	r
o	o
d	d
e	e
s	s

__BEGIN__	__EPS__
g	g
e	e
w	w
a	a
l	l
t	t

__BEGIN__	__EPS__
d	d
o	o
c	c
h	h

__BEGIN__	__EPS__
s	s
p	p
r	r
a	a
c	c
h	h

__BEGIN__	__EPS__
s	s
e	eh
r	r

__BEGIN__	__EPS__
s	s
i	i
c	c
h	h

__BEGIN__	__EPS__
s	s
e	ee
l	l
e	e

__BEGIN__	__EPS__
h	h
ü	ü
l	l
f	f
f	__EPS__
e	e
s	s
t	t

__BEGIN__	__EPS__
a	e
i	i
n	n

