__BEGIN__	__EPS__
w	w
ü	u
r	r
d	d
e	e
n	n
t	__EPS__

__BEGIN__	__EPS__
s	s
t	t
a	ad
t	t

__BEGIN__	__EPS__
i	j
h	__EPS__
e	e
r	r
u	u
s	s
a	a
l	l
e	e
m	m

__BEGIN__	__EPS__
z	z
u	o
g	g
e	e
n	n
d	__EPS__

__BEGIN__	__EPS__
k	k
o	ö
n	n
i	i
g	g

__BEGIN__	__EPS__
m	m
a	a
n	nn
i	e
s	s

__BEGIN__	__EPS__
m	m
e	e
i	i
n	n
e	e
n	n

__BEGIN__	__EPS__
v	f
o	ü
r	r
w	w
a	ah
r	r

__BEGIN__	__EPS__
c	__EPS__
z	z
u	u

__BEGIN__	__EPS__
i	i
c	c
h	h

__BEGIN__	__EPS__
e	e
r	r

__BEGIN__	__EPS__
e	i
m	h
e	m

__BEGIN__	__EPS__
d	d
e	e
s	s

__BEGIN__	__EPS__
k	k
u	o
m	mmt

__BEGIN__	__EPS__
h	h
a	a
b	be

__BEGIN__	__EPS__
a	a
b	b
e	e
r	r

__BEGIN__	__EPS__
s	s
i	i
m	m
e	e
o	o
n	n
i	__EPS__
s	s

__BEGIN__	__EPS__
d	d
e	e
n	n

__BEGIN__	__EPS__
g	g
a	a
n	n
t	__EPS__
z	z

__BEGIN__	__EPS__
d	d
e	e
m	m

__BEGIN__	__EPS__
s	s
e	e
l	l
b	b
e	e
r	r

__BEGIN__	__EPS__
c	k
h	__EPS__
i	i
n	n
d	d

__BEGIN__	__EPS__
c	__EPS__
z	z
w	u

__BEGIN__	__EPS__
m	m
e	e
i	i
n	n

__BEGIN__	__EPS__
i	ih
r	r

__BEGIN__	__EPS__
d	d
e	e
r	r

__BEGIN__	n
e	ich
n	t

__BEGIN__	__EPS__
w	w
e	e
i	i
s	ss
t	t

__BEGIN__	__EPS__
m	m
a	a
l	l

__BEGIN__	__EPS__
q	k
u	__EPS__
a	a
m	m
e	e
n	n

__BEGIN__	__EPS__
m	m
i	i
r	r

__BEGIN__	__EPS__
v	u
n	n
d	d

__BEGIN__	__EPS__
v	u
n	n
d	d

__BEGIN__	__EPS__
e	e
r	r

__BEGIN__	__EPS__
v	u
n	n
d	d

__BEGIN__	__EPS__
t	t
o	o
t	t
e	e

__BEGIN__	__EPS__
s	s
p	p
r	r
a	a
c	c
h	h
e	e
n	n

__BEGIN__	__EPS__
h	h
e	ä
n	n
d	d
e	e

__BEGIN__	__EPS__
s	s
e	e
l	l
b	b
e	e
n	n

__BEGIN__	__EPS__
d	d
ü	u

__BEGIN__	__EPS__
w	w
i	i
d	e
d	d
i	e
r	r
m	m
a	a
c	c
h	h
e	e
n	n

__BEGIN__	__EPS__
z	z
o	o
i	__EPS__
c	g
h	__EPS__

__BEGIN__	__EPS__
i	ih
n	n

__BEGIN__	__EPS__
h	h
e	e
r	r
o	o
d	d
e	es

__BEGIN__	__EPS__
e	e
i	i
n	n

__BEGIN__	__EPS__
v	v
e	e
s	s
t	t
i	i
m	m
e	e
n	n
t	t
a	a

__BEGIN__	__EPS__
e	e
i	i
n	n

__BEGIN__	__EPS__
i	j
u	u
v	__EPS__
d	d
e	e
n	n

__BEGIN__	__EPS__
d	d
a	a
z	s

__BEGIN__	__EPS__
a	a
n	n
d	d
e	e
r	r
s	s

__BEGIN__	__EPS__
g	__EPS__
e	__EPS__
s	s
c	c
h	h
r	r
i	i
f	f
f	__EPS__
t	t

__BEGIN__	__EPS__
s	s
y	ie

__BEGIN__	__EPS__
v	u
n	n
n	d

__BEGIN__	__EPS__
f	l
a	a
s	u
t	t

__BEGIN__	__EPS__
w	w
e	e
n	n
n	n

__BEGIN__	__EPS__
v	f
i	i
e	e
l	l

__BEGIN__	__EPS__
h	h
o	ö
r	r
e	__EPS__
s	s
t	t

__BEGIN__	__EPS__
c	be
h	k
l	l
a	a
g	g
l	__EPS__
e	e
i	n
c	s
h	w
e	e
n	rt

__BEGIN__	__EPS__
v	ü
b	b
e	e
r	r

__BEGIN__	__EPS__
h	h
a	a
t	t
t	t
e	e
n	n

__BEGIN__	__EPS__
s	s
c	c
h	h
e	a
m	m
l	h
i	a
c	f
h	t
e	e
r	re

__BEGIN__	__EPS__
h	h
e	e
l	l
y	y

__BEGIN__	__EPS__
v	u
n	n
d	d

__BEGIN__	__EPS__
d	d
a	a
s	s

__BEGIN__	__EPS__
a	a
l	l
s	s
o	o

__BEGIN__	__EPS__
v	b
n	i
c	__EPS__
z	s

__BEGIN__	__EPS__
d	d
a	a
e	__EPS__

__BEGIN__	__EPS__
a	a
n	n

__BEGIN__	__EPS__
v	u
n	n
d	d

__BEGIN__	__EPS__
c	__EPS__
z	z
a	ä
r	r
t	t
l	l
i	i
c	c
h	h

__BEGIN__	__EPS__
l	l
o	ö
e	__EPS__
s	s
z	e

__BEGIN__	__EPS__
i	j
o	o
h	h
a	a
n	n
n	n
e	e
s	s

__BEGIN__	__EPS__
w	w
i	ie
d	d
e	e
r	r
f	f
a	a
n	n
t	d

__BEGIN__	__EPS__
a	a
b	b
e	__EPS__

__BEGIN__	__EPS__
s	sch
w	w
e	e
s	s
t	t
e	e
r	r

__BEGIN__	__EPS__
s	s
p	p
r	r
a	a
c	c
h	h

__BEGIN__	__EPS__
d	d
u	u
r	r
c	c
h	h

__BEGIN__	__EPS__
m	m
i	i
t	t

__BEGIN__	__EPS__
e	e
i	i
n	n
e	e
n	n

__BEGIN__	__EPS__
h	h
a	a
m	mm
e	e
r	r
s	sch
l	l
e	ä
g	g
e	e

__BEGIN__	__EPS__
e	e
y	i
n	n
e	e
n	n

__BEGIN__	__EPS__
h	h
i	i
e	e
s	ss

__BEGIN__	__EPS__
c	__EPS__
h	k
u	o
n	m
p	m
t	t

__BEGIN__	__EPS__
t	t
o	o
e	__EPS__
d	d

__BEGIN__	__EPS__
v	u
n	n
d	d

__BEGIN__	__EPS__
i	ih
r	r
a	e

__BEGIN__	__EPS__
m	me
i	i
n	n

__BEGIN__	__EPS__
e	a
r	r
b	b
e	e
i	i
t	t

__BEGIN__	__EPS__
v	v
o	o
n	n

__BEGIN__	__EPS__
s	s
p	p
r	r
a	a
c	c
h	h

__BEGIN__	__EPS__
i	ih
n	n

__BEGIN__	__EPS__
o	o
w	w
e	eh

__BEGIN__	__EPS__
m	m
e	e
n	n
s	s
h	c
e	h
l	l
i	i
c	c
h	h
e	e
r	r

__BEGIN__	__EPS__
k	k
r	r
e	e
w	u
c	__EPS__
z	z
l	we
i	i
n	s
g	e

__BEGIN__	__EPS__
l	l
i	i
e	e
s	s
z	s

__BEGIN__	__EPS__
v	u
m	m
e	__EPS__
v	f
i	i
e	__EPS__
n	n
g	g

__BEGIN__	__EPS__
i	ih
m	m

__BEGIN__	__EPS__
a	a
n	n
t	t
l	l
u	i
t	t
z	z
e	__EPS__

__BEGIN__	__EPS__
m	m
e	eh
r	r

__BEGIN__	__EPS__
d	d
a	a
z	s

__BEGIN__	__EPS__
t	t
r	r
e	ä
h	n
e	e
n	n

__BEGIN__	__EPS__
d	d
e	a

__BEGIN__	__EPS__
e	e
r	r

__BEGIN__	__EPS__
s	s
e	eh
y	e
n	n

__BEGIN__	__EPS__
a	a
l	l
l	l
e	e
r	r

__BEGIN__	__EPS__
m	m
a	a
g	g

__BEGIN__	__EPS__
o	u
n	n
d	t
e	e
r	r

__BEGIN__	__EPS__
z	z
u	u
v	f
e	ä
l	l
l	l
i	i
g	g
e	e
n	n

__BEGIN__	__EPS__
i	i
c	c
h	h

__BEGIN__	__EPS__
g	g
r	r
y	i
m	mm
e	e
n	n

__BEGIN__	__EPS__
t	t
e	a
t	t
h	__EPS__

__BEGIN__	__EPS__
d	d
e	e
m	m

__BEGIN__	__EPS__
v	u
n	nd

__BEGIN__	__EPS__
v	u
n	n
d	d

__BEGIN__	__EPS__
e	nich
n	t

__BEGIN__	__EPS__
h	h
u	e
i	u
t	te

__BEGIN__	__EPS__
v	u
n	n
d	d

__BEGIN__	__EPS__
c	__EPS__
h	k
i	i
n	n
d	d

__BEGIN__	__EPS__
r	r
a	a
t	te

__BEGIN__	__EPS__
v	u
n	n
d	d

__BEGIN__	__EPS__
s	s
e	e
y	i
n	n
e	e

__BEGIN__	__EPS__
t	t
r	r
ü	u
g	g
e	e
n	n

__BEGIN__	__EPS__
m	m
i	i
r	r

__BEGIN__	__EPS__
i	i
c	ch

__BEGIN__	__EPS__
y	i
n	n

__BEGIN__	__EPS__
v	ü
b	b
e	e
r	r

__BEGIN__	__EPS__
i	i
n	n

__BEGIN__	__EPS__
v	ü
e	__EPS__
b	b
e	e
r	r

__BEGIN__	__EPS__
i	i
c	c
h	h

__BEGIN__	__EPS__
w	w
e	ah
r	r
l	l
i	i
c	c
h	h

__BEGIN__	__EPS__
b	b
e	e
g	g
e	eh
r	r
t	t

__BEGIN__	__EPS__
g	__EPS__
e	__EPS__
p	p
r	r
o	o
p	p
h	h
e	e
t	__EPS__
c	__EPS__
z	z
i	e
r	i
t	t
h	__EPS__

__BEGIN__	__EPS__
m	m
o	ö
e	__EPS__
g	g
e	e
n	n

__BEGIN__	__EPS__
d	d
e	e
n	n

__BEGIN__	__EPS__
g	g
e	e
m	m
e	e
y	i
n	n
e	e

__BEGIN__	__EPS__
n	n
e	e
i	i
g	g
t	t

__BEGIN__	__EPS__
k	k
o	o
m	mm
e	e
n	n

__BEGIN__	__EPS__
v	v
o	o
n	n

__BEGIN__	__EPS__
v	u
n	n
n	d

__BEGIN__	__EPS__
y	ih
r	r

__BEGIN__	__EPS__
c	k
h	__EPS__
ü	ö
n	n
i	i
g	g

__BEGIN__	__EPS__
n	n
i	i
c	c
h	h
c	t
z	s

__BEGIN__	__EPS__
g	g
r	r
o	ö
z	s
z	s
e	e

__BEGIN__	__EPS__
u	u
n	n
d	d

__BEGIN__	__EPS__
i	ih
r	r

__BEGIN__	__EPS__
f	f
u	üh
r	r
t	t
e	e
n	n

__BEGIN__	__EPS__
r	r
e	e
w	u
e	e

__BEGIN__	__EPS__
e	i
m	h
e	m

__BEGIN__	__EPS__
g	g
i	i
n	n
c	__EPS__
k	g

__BEGIN__	__EPS__
s	s
p	p
r	r
a	a
c	c
h	h
e	e
n	n

__BEGIN__	__EPS__
d	d
i	ie

__BEGIN__	__EPS__
b	b
a	a
l	l
d	d

__BEGIN__	__EPS__
d	d
o	o
r	r
e	__EPS__
n	n

__BEGIN__	__EPS__
d	d
o	a

__BEGIN__	__EPS__
m	m
a	a
c	c
h	h
t	t
i	v
g	__EPS__
k	o
l	l
i	l
c	__EPS__
h	__EPS__

__BEGIN__	__EPS__
u	u
n	n
d	d

__BEGIN__	__EPS__
w	w
a	a
z	s

__BEGIN__	__EPS__
c	k
a	a
i	i
p	p
h	h
a	a
s	s

__BEGIN__	__EPS__
g	g
r	r
o	o
s	s
s	s
e	e
m	m

__BEGIN__	__EPS__
w	w
e	e
r	r
d	d
e	e
n	n
t	__EPS__

__BEGIN__	__EPS__
w	w
e	e
l	l
l	__EPS__
t	t

__BEGIN__	__EPS__
v	v
o	o
l	ll

__BEGIN__	__EPS__
d	d
u	u

__BEGIN__	__EPS__
l	l
a	a
u	u
t	t
t	__EPS__
e	e
r	r

__BEGIN__	__EPS__
k	k
i	i
n	n
t	d

__BEGIN__	__EPS__
g	g
e	e
l	l
a	a
s	s
s	s
e	e
n	n

__BEGIN__	__EPS__
m	m
o	o
c	c
h	h
t	te

__BEGIN__	__EPS__
s	s
c	c
h	h
a	ä
c	c
h	h
e	e
r	r

__BEGIN__	__EPS__
d	d
e	e
r	r

__BEGIN__	__EPS__
z	z
a	a
r	r
t	t
i	__EPS__
u	e

__BEGIN__	__EPS__
e	e
r	r
k	we
i	c
k	k
t	te

__BEGIN__	__EPS__
v	u
n	n
d	d

__BEGIN__	__EPS__
m	m
o	o
c	c
h	h
t	t
e	e
n	n

__BEGIN__	__EPS__
m	m
e	e
n	n
s	sc
h	h
e	e
n	n

__BEGIN__	__EPS__
m	m
e	e
i	i
n	n

__BEGIN__	__EPS__
h	h
i	i
n	n
t	__EPS__

__BEGIN__	__EPS__
d	d
i	i
e	e

__BEGIN__	__EPS__
d	d
e	e
s	s

__BEGIN__	__EPS__
m	m
a	a
n	n

__BEGIN__	__EPS__
s	s
o	o

__BEGIN__	__EPS__
m	m
i	i
c	c
h	h

__BEGIN__	__EPS__
h	h
e	e
r	r
t	__EPS__
z	z
l	l
i	i
e	e
b	b
e	e
s	s

__BEGIN__	__EPS__
m	m
a	a
g	g

__BEGIN__	__EPS__
h	h
e	e
r	r
r	r
e	__EPS__

__BEGIN__	__EPS__
a	a
n	n
t	t
l	l
v	i
t	t
z	z
e	e

__BEGIN__	__EPS__
i	i
c	c
h	h

__BEGIN__	__EPS__
h	h
i	i
m	mme
l	l
r	r
e	e
i	i
c	c
h	h

__BEGIN__	__EPS__
i	i
c	c
h	h

__BEGIN__	__EPS__
d	d
e	e
r	r

__BEGIN__	__EPS__
d	d
y	ie

__BEGIN__	__EPS__
i	i
s	s
t	t

__BEGIN__	__EPS__
m	m
i	i
r	r

__BEGIN__	__EPS__
s	s
i	i
e	e

__BEGIN__	__EPS__
e	e
y	i
n	n
e	e

__BEGIN__	__EPS__
d	da
z	s
s	s
e	e
l	l
b	b
e	e

__BEGIN__	__EPS__
d	d
a	a
t	ss

__BEGIN__	__EPS__
p	p
y	i
l	l
a	a
t	t
ü	u
s	s

__BEGIN__	__EPS__
e	e
r	r

__BEGIN__	__EPS__
a	a
l	l
s	s
o	o

__BEGIN__	__EPS__
g	g
a	a
r	r

__BEGIN__	__EPS__
w	w
a	ah
r	r
h	h
a	e
i	i
t	t

__BEGIN__	__EPS__
m	m
o	o
c	c
h	h
t	te

__BEGIN__	__EPS__
d	d
a	a
t	ss

__BEGIN__	__EPS__
m	m
e	e
i	i
n	n

__BEGIN__	__EPS__
m	m
i	i
e	__EPS__
r	r

__BEGIN__	__EPS__
d	d
u	u
r	rc
h	h

__BEGIN__	__EPS__
n	n
a	a
c	c
h	h
t	t

__BEGIN__	__EPS__
n	ni
e	e
d	d
e	e
r	r

__BEGIN__	__EPS__
s	s
p	p
r	r
a	a
c	c
h	h

__BEGIN__	__EPS__
v	v
o	o
n	m

__BEGIN__	__EPS__
r	r
e	e
i	i
n	n
e	e

__BEGIN__	__EPS__
d	d
a	a
s	ss

__BEGIN__	__EPS__
u	u
n	nd

__BEGIN__	__EPS__
h	h
e	ä
t	t
t	te

__BEGIN__	__EPS__
d	d
a	a
z	ss

__BEGIN__	__EPS__
d	d
a	a
t	s

__BEGIN__	__EPS__
e	e
i	i
n	n
e	e
n	n

__BEGIN__	__EPS__
z	z
u	u

__BEGIN__	__EPS__
s	s
p	p
r	r
a	a
c	c
h	h

__BEGIN__	__EPS__
m	m
i	i
t	t

__BEGIN__	__EPS__
e	e
r	r

__BEGIN__	__EPS__
s	s
p	p
r	r
a	a
c	c
h	h

__BEGIN__	__EPS__
s	s
t	t
o	a
c	c
h	h
e	e
n	n

__BEGIN__	__EPS__
s	s
y	ie

__BEGIN__	__EPS__
d	d
o	a

__BEGIN__	__EPS__
d	d
i	i
e	e

__BEGIN__	__EPS__
g	g
e	e
t	t
o	öt
e	e
t	t

__BEGIN__	__EPS__
v	u
n	n
d	d

__BEGIN__	__EPS__
v	v
o	o
n	n

__BEGIN__	__EPS__
g	__EPS__
e	__EPS__
s	s
p	p
r	r
a	a
c	c
h	h

__BEGIN__	__EPS__
e	e
r	r

__BEGIN__	__EPS__
i	j
o	o
h	h
a	a
n	nn
e	e
s	s

__BEGIN__	__EPS__
d	d
e	e
r	r

__BEGIN__	__EPS__
n	n
i	ich
t	t

__BEGIN__	__EPS__
i	i
m	m

__BEGIN__	__EPS__
m	me
i	i
n	n

__BEGIN__	__EPS__
k	k
i	i
n	n
d	d

__BEGIN__	__EPS__
c	k
l	l
e	e
y	i
t	d

__BEGIN__	__EPS__
h	h
a	a
i	__EPS__
t	t

__BEGIN__	__EPS__
i	ih
n	n

__BEGIN__	__EPS__
e	e
r	r

__BEGIN__	__EPS__
d	d
e	e
m	m

__BEGIN__	__EPS__
i	ih
m	m

__BEGIN__	__EPS__
w	w
a	a
r	r
e	e
n	n

__BEGIN__	__EPS__
i	i
c	c
h	h

__BEGIN__	__EPS__
h	h
e	e
r	r
r	r
e	__EPS__

__BEGIN__	__EPS__
c	__EPS__
h	k
i	i
n	n
d	d
t	__EPS__

__BEGIN__	__EPS__
l	l
i	i
e	e
u	b
e	e

__BEGIN__	__EPS__
r	r
e	e
c	c
h	h
t	t

__BEGIN__	__EPS__
s	s
p	p
r	r
a	a
c	c
h	h
e	e
n	n

__BEGIN__	__EPS__
a	a
l	l
s	s

__BEGIN__	__EPS__
s	s
a	a
c	__EPS__
h	h

__BEGIN__	__EPS__
g	g
e	e
s	s
p	p
r	r
o	o
c	c
h	h
e	e
n	n

__BEGIN__	__EPS__
d	d
o	a
r	__EPS__
n	n
a	a
c	c
h	h

__BEGIN__	__EPS__
a	a
n	n

__BEGIN__	__EPS__
a	a
l	l
s	s
o	o

__BEGIN__	__EPS__
w	w
e	a
s	s

__BEGIN__	__EPS__
s	s
i	i
c	c
h	h

__BEGIN__	__EPS__
o	ä
e	u
g	g
t	te

__BEGIN__	__EPS__
d	d
e	e
s	s
t	t
e	o
r	__EPS__

__BEGIN__	__EPS__
d	d
i	i
e	e

__BEGIN__	__EPS__
s	s
e	e
r	h
e	r

__BEGIN__	__EPS__
d	d
e	e
m	m

__BEGIN__	__EPS__
s	s
p	p
r	r
e	e
c	c
h	h
e	e
n	n

__BEGIN__	__EPS__
d	d
a	a
t	ss

__BEGIN__	__EPS__
e	e
i	i
n	n

__BEGIN__	__EPS__
v	u
n	n
d	d

__BEGIN__	__EPS__
m	m
y	i
r	r

__BEGIN__	__EPS__
o	o
w	w
e	eh

__BEGIN__	__EPS__
h	h
e	e
i	i
l	l
i	i
g	ge
s	s

__BEGIN__	__EPS__
w	w
e	e
r	r
d	d
e	e
n	n
t	d

__BEGIN__	__EPS__
n	n
o	o
c	c
h	h

__BEGIN__	__EPS__
g	g
e	e
s	s
u	u
n	n
t	d

__BEGIN__	__EPS__
w	w
u	u
r	r
d	d
i	e
n	n

__BEGIN__	__EPS__
v	v
a	o
n	n

__BEGIN__	__EPS__
s	s
e	e
n	n
d	d
e	e

__BEGIN__	__EPS__
k	k
i	i
n	n
t	d

__BEGIN__	__EPS__
h	h
e	ä
n	n
d	d
e	e
n	n

__BEGIN__	__EPS__
v	f
a	ah
r	r
e	e
n	n

__BEGIN__	__EPS__
a	a
l	l
l	l
e	e
s	s

__BEGIN__	__EPS__
d	d
a	a
z	ss

__BEGIN__	__EPS__
e	e
i	i
n	n

__BEGIN__	__EPS__
l	l
a	a
i	__EPS__
s	s
z	s
e	e
n	n

__BEGIN__	__EPS__
v	u
n	n
d	d

__BEGIN__	__EPS__
k	k
i	i
n	n
t	d
h	h
e	e
i	i
t	t

__BEGIN__	__EPS__
f	f
r	r
a	a
w	u
e	e
n	n

__BEGIN__	__EPS__
g	g
a	a
r	r

__BEGIN__	__EPS__
e	e
r	r
l	l
i	i
t	t
t	t
e	e
n	n

__BEGIN__	__EPS__
b	b
r	r
u	u
s	s
t	t

__BEGIN__	__EPS__
d	d
i	i
e	e

__BEGIN__	__EPS__
m	m
i	i
r	r

__BEGIN__	__EPS__
i	j
u	u
n	n
g	g
f	f
r	r
o	a
w	u

__BEGIN__	__EPS__
i	i
c	c
h	h

__BEGIN__	__EPS__
m	m
e	e
n	n
g	g
e	__EPS__
d	t
e	e
n	n

__BEGIN__	__EPS__
e	nich
n	t

__BEGIN__	__EPS__
h	h
e	e
r	r
z	z
e	e
l	l
e	e
i	i
d	d
e	e
s	s

__BEGIN__	__EPS__
r	re
i	i
c	c
h	h

__BEGIN__	__EPS__
m	m
i	i
t	t

__BEGIN__	__EPS__
e	e
r	r
d	d
e	e
n	n

__BEGIN__	__EPS__
s	s
c	__EPS__
h	o
o	l
l	l
t	t

__BEGIN__	__EPS__
d	d
o	a
r	r
v	u
m	m
e	__EPS__

__BEGIN__	__EPS__
v	u
n	n
d	d

__BEGIN__	__EPS__
k	k
i	i
n	n
d	d
t	__EPS__

__BEGIN__	__EPS__
h	h
e	ö
l	l
l	l
e	e

__BEGIN__	__EPS__
e	e
r	r
p	b
a	a
r	r
m	m
t	t

__BEGIN__	__EPS__
i	ih
m	m

__BEGIN__	__EPS__
d	d
e	e
n	n

__BEGIN__	__EPS__
d	de
i	i
n	n
e	e
r	r

__BEGIN__	__EPS__
s	s
e	ee
l	l
e	e

__BEGIN__	__EPS__
g	__EPS__
e	__EPS__
s	s
t	t
i	i
l	l
l	l
e	e
n	n

__BEGIN__	__EPS__
d	d
o	a

__BEGIN__	__EPS__
v	v
o	o
n	n

__BEGIN__	__EPS__
v	u
n	n
d	d

__BEGIN__	__EPS__
b	b
i	i
t	t
t	t
e	e
r	r
l	l
i	i
c	c
h	h
e	e
n	n

__BEGIN__	__EPS__
s	s
e	e
i	i
n	n

__BEGIN__	__EPS__
v	u
n	n
s	s

__BEGIN__	__EPS__
c	k
l	l
e	ä
i	__EPS__
g	g
e	__EPS__
l	l
i	i
c	c
h	h

__BEGIN__	__EPS__
a	a
u	u
f	f

__BEGIN__	__EPS__
i	ih
m	m

__BEGIN__	__EPS__
d	d
e	e
r	r

__BEGIN__	__EPS__
d	d
i	i
e	e

__BEGIN__	__EPS__
s	s
u	ü
e	__EPS__
n	n
d	de

__BEGIN__	__EPS__
l	l
a	a
n	n
g	g
e	e

__BEGIN__	__EPS__
m	m
a	o
c	c
h	h
t	te

__BEGIN__	__EPS__
s	s
a	a
c	__EPS__
h	h
e	e
n	n
d	__EPS__

__BEGIN__	__EPS__
m	m
u	u
e	t
t	t
e	e
r	r

__BEGIN__	__EPS__
w	w
a	a
s	r

__BEGIN__	__EPS__
t	t
v	u
s	s
t	t

__BEGIN__	__EPS__
v	u
n	n
d	d

__BEGIN__	__EPS__
f	f
r	r
a	a
w	u

__BEGIN__	__EPS__
v	v
o	o
l	l
c	__EPS__
k	k

__BEGIN__	__EPS__
g	__EPS__
e	__EPS__
w	w
o	o
n	nnig
l	l
i	i
c	c
h	h
e	e
n	n

__BEGIN__	__EPS__
d	d
i	i
e	e

__BEGIN__	__EPS__
g	g
a	a
n	n
t	__EPS__
z	z

__BEGIN__	__EPS__
h	h
e	a
t	t

__BEGIN__	__EPS__
w	w
e	e
r	r
d	__EPS__
e	__EPS__
r	__EPS__

__BEGIN__	__EPS__
v	u
n	n
d	d

__BEGIN__	__EPS__
i	i
c	c
h	h

__BEGIN__	__EPS__
f	f
r	r
u	u
c	c
h	h
t	t

__BEGIN__	__EPS__
d	d
i	i
c	e
z	s

__BEGIN__	__EPS__
d	d
a	a
s	s

__BEGIN__	__EPS__
t	t
o	o
d	d
e	e

__BEGIN__	__EPS__
l	l
a	a
t	te
y	i
n	n
i	i
s	s
c	c
h	h

__BEGIN__	__EPS__
a	a
l	l
s	s
o	o

__BEGIN__	__EPS__
h	h
i	i
e	es
z	s

__BEGIN__	__EPS__
e	e
r	r
l	l
i	i
t	t
t	t
e	e
n	n

__BEGIN__	__EPS__
d	d
a	a

__BEGIN__	__EPS__
r	r
o	a
t	t

__BEGIN__	__EPS__
v	u
n	n
d	d

__BEGIN__	__EPS__
a	a
l	l
z	s

__BEGIN__	__EPS__
s	s
a	o
l	ll

__BEGIN__	__EPS__
i	ih
r	r

__BEGIN__	__EPS__
l	l
e	e
i	i
b	b

__BEGIN__	__EPS__
s	s
a	a
c	__EPS__
h	h
e	e
n	n

__BEGIN__	__EPS__
d	d
a	a
z	s

__BEGIN__	__EPS__
t	t
a	a
e	__EPS__
t	t
e	e
n	n

__BEGIN__	__EPS__
d	d
i	i
e	e

__BEGIN__	__EPS__
a	a
l	l
z	s

__BEGIN__	__EPS__
w	w
e	e
i	i
b	b

__BEGIN__	__EPS__
v	u
n	n
d	d

__BEGIN__	__EPS__
d	d
v	i
i	e

__BEGIN__	__EPS__
g	g
r	r
o	o
s	s
z	s
e	e

__BEGIN__	__EPS__
h	h
e	a
t	t
t	t
e	e

__BEGIN__	__EPS__
c	k
r	r
e	e
u	u
c	__EPS__
z	z
i	i
g	ge

__BEGIN__	__EPS__
s	s
o	ol
l	l
t	t

__BEGIN__	__EPS__
h	h
e	ä
n	n
d	d
e	e
n	n

__BEGIN__	__EPS__
a	a
n	n
x	g
s	s
t	t
e	e
s	s

__BEGIN__	__EPS__
a	a
b	b
e	e
r	r

__BEGIN__	__EPS__
g	g
e	e
n	n

__BEGIN__	__EPS__
d	d
a	a
r	__EPS__
n	n
a	a
c	c
h	h

__BEGIN__	__EPS__
l	l
a	a
i	s
s	s
t	t

__BEGIN__	__EPS__
v	ü
b	b
e	e
r	r

__BEGIN__	__EPS__
p	b
e	e
y	i

__BEGIN__	__EPS__
p	p
y	i
l	l
a	a
t	t
u	u
s	s

__BEGIN__	__EPS__
d	d
a	a

__BEGIN__	__EPS__
y	ih
m	m

__BEGIN__	__EPS__
m	m
e	e
i	i
n	n

__BEGIN__	__EPS__
d	d
a	a
t	ss

__BEGIN__	__EPS__
ü	a
f	u
f	f

__BEGIN__	__EPS__
i	i
c	c
h	h

__BEGIN__	__EPS__
w	w
a	a
s	r

__BEGIN__	__EPS__
s	s
p	p
r	r
a	a
c	c
h	h

__BEGIN__	__EPS__
h	h
a	a
t	t

__BEGIN__	__EPS__
o	ü
b	b
b	__EPS__
e	e
r	r

__BEGIN__	__EPS__
h	h
e	e
r	rr

__BEGIN__	__EPS__
g	g
o	o
t	t
t	t
e	e
s	s

__BEGIN__	__EPS__
e	e
r	r

__BEGIN__	__EPS__
d	d
e	e
r	r

__BEGIN__	__EPS__
i	ih
m	m

__BEGIN__	__EPS__
s	sch
n	n
o	ö
d	d
e	e
n	n

__BEGIN__	__EPS__
e	e
i	i
n	n

__BEGIN__	__EPS__
w	w
u	o
n	nn
e	e

__BEGIN__	__EPS__
k	k
u	o
n	nn
d	te

__BEGIN__	__EPS__
n	n
u	u
n	n

__BEGIN__	__EPS__
n	n
i	ich
t	t

__BEGIN__	__EPS__
d	d
i	i
e	e

__BEGIN__	__EPS__
v	u
n	n
d	d

__BEGIN__	a
v	u
z	s
z	z
v	o
g	g
e	e
n	n

__BEGIN__	__EPS__
l	l
i	i
c	c
h	h
t	t

__BEGIN__	__EPS__
z	z
e	e
i	i
c	c
h	h
e	e
n	n

__BEGIN__	__EPS__
n	n
i	ich
t	t

__BEGIN__	__EPS__
s	se
e	e
l	le

__BEGIN__	__EPS__
i	i
n	n

__BEGIN__	__EPS__
v	u
n	n
d	d

__BEGIN__	__EPS__
w	p
u	r
n	ä
i	c
g	__EPS__
k	h
l	t
i	i
c	ge
h	s

__BEGIN__	__EPS__
w	w
e	e
r	r
d	de

__BEGIN__	__EPS__
v	v
o	o
n	n

__BEGIN__	__EPS__
d	d
u	u
r	r
c	c
h	h

__BEGIN__	__EPS__
d	d
a	a
s	ss

__BEGIN__	__EPS__
i	ih
m	m

__BEGIN__	__EPS__
s	s
c	c
h	h
e	e
i	i
d	de

__BEGIN__	__EPS__
m	m
e	e
i	i
n	n

__BEGIN__	__EPS__
c	__EPS__
z	z
u	u
s	s
a	a
m	mm
e	e
n	n
e	__EPS__

__BEGIN__	__EPS__
v	v
o	o
n	n

__BEGIN__	__EPS__
i	j
e	ä
m	mm
e	e
r	r
l	l
i	i
c	c
h	h
e	e
n	n

__BEGIN__	__EPS__
g	g
e	e
w	w
a	a
n	nn

__BEGIN__	__EPS__
v	v
o	o
n	n

__BEGIN__	__EPS__
y	ih
r	r

__BEGIN__	__EPS__
i	j
h	__EPS__
e	e
s	s
u	u
n	s

__BEGIN__	__EPS__
y	ih
m	m

__BEGIN__	__EPS__
i	i
c	c
h	h

__BEGIN__	__EPS__
v	u
n	n
d	d
e	__EPS__

__BEGIN__	__EPS__
l	l
e	e
y	i
b	b

__BEGIN__	__EPS__
f	__EPS__
u	__EPS__
i	__EPS__
r	__EPS__
l	l
u	__EPS__
i	i
f	e
f	f
e	e
n	n

__BEGIN__	__EPS__
d	d
e	e
r	r

__BEGIN__	__EPS__
k	k
i	i
n	n
d	d
e	e
r	r

__BEGIN__	__EPS__
m	m
i	i
r	r

__BEGIN__	__EPS__
d	d
o	a

__BEGIN__	__EPS__
m	m
i	i
t	t

__BEGIN__	__EPS__
l	l
i	ie
b	b
e	e
s	s

__BEGIN__	__EPS__
s	s
i	ie

__BEGIN__	__EPS__
k	k
u	üm
m	m
e	e
r	r

__BEGIN__	__EPS__
s	s
c	c
h	h
u	u
e	__EPS__
f	f

__BEGIN__	__EPS__
d	d
a	a
i	__EPS__
r	__EPS__
v	v
u	o
r	r

__BEGIN__	__EPS__
d	d
i	i
e	e

__BEGIN__	__EPS__
w	w
o	ol
l	l
t	t

__BEGIN__	__EPS__
i	i
n	n

__BEGIN__	__EPS__
p	p
y	i
l	l
a	a
t	t
u	u
s	s

__BEGIN__	__EPS__
s	sc
h	h
r	re
i	i
b	b
e	e
n	n
t	__EPS__

__BEGIN__	__EPS__
e	e
r	r

__BEGIN__	__EPS__
d	d
a	e
n	n
n	n

__BEGIN__	__EPS__
v	u
n	n
d	d

__BEGIN__	__EPS__
g	g
o	o
t	t
e	t

__BEGIN__	__EPS__
b	b
e	e
n	n
o	o
m	mm
e	e
n	n

__BEGIN__	__EPS__
d	d
e	e
m	m

__BEGIN__	__EPS__
s	s
o	o

__BEGIN__	__EPS__
i	ih
m	m

__BEGIN__	__EPS__
c	__EPS__
z	z
e	ä
r	r
t	t
l	l
i	i
c	c
h	h
e	e
n	n

__BEGIN__	__EPS__
d	d
a	a
z	ss

__BEGIN__	__EPS__
d	d
a	a
s	s

__BEGIN__	__EPS__
z	ze
o	r
b	b
r	r
e	e
c	c
h	h
e	e
n	n

__BEGIN__	__EPS__
s	s
o	o

__BEGIN__	__EPS__
k	k
y	i
n	n
t	d

__BEGIN__	__EPS__
m	me
i	i
n	n

__BEGIN__	__EPS__
m	m
e	e
i	i
n	n

__BEGIN__	__EPS__
g	g
u	ü
e	__EPS__
t	t
i	i
g	g

__BEGIN__	__EPS__
d	d
e	e
s	s

__BEGIN__	__EPS__
o	o
b	b

__BEGIN__	__EPS__
d	d
o	a

__BEGIN__	__EPS__
m	m
i	i
t	t

__BEGIN__	__EPS__
e	e
r	r

__BEGIN__	__EPS__
w	we
i	i
z	ss
e	e
s	s

__BEGIN__	__EPS__
d	d
a	a
z	ss

__BEGIN__	__EPS__
s	s
e	e
h	h
e	e
n	n

__BEGIN__	__EPS__
d	d
e	e
r	r

__BEGIN__	__EPS__
v	v
o	o
n	n

__BEGIN__	__EPS__
k	k
a	a
y	i
p	p
h	h
a	a
s	s

__BEGIN__	__EPS__
a	a
l	l
s	s
o	o

__BEGIN__	__EPS__
l	l
a	ass

__BEGIN__	__EPS__
t	s
z	o
e	g
h	l
a	e
n	ic
t	h

__BEGIN__	__EPS__
f	f
r	r
a	a
u	u

__BEGIN__	__EPS__
d	d
e	e
m	m

__BEGIN__	__EPS__
s	s
i	i
n	n
t	d

__BEGIN__	__EPS__
s	s
e	e
l	l
u	b
e	e

__BEGIN__	__EPS__
k	k
i	i
n	n
d	d

__BEGIN__	__EPS__
g	g
e	e
s	s
p	p
r	r
a	o
c	c
h	h
e	e
n	n

__BEGIN__	__EPS__
g	g
i	i
n	n
g	g
i	e
n	n

__BEGIN__	__EPS__
a	e
i	i
n	n
e	e
n	n

__BEGIN__	__EPS__
i	i
c	ch

__BEGIN__	__EPS__
s	se
y	i
n	n

__BEGIN__	__EPS__
a	a
r	r
m	m

__BEGIN__	__EPS__
i	i
c	c
h	h

__BEGIN__	__EPS__
d	d
a	a
r	r
v	u
m	m
b	__EPS__

__BEGIN__	__EPS__
m	m
i	i
t	t

__BEGIN__	__EPS__
v	u
n	n
d	d

__BEGIN__	__EPS__
v	ü
b	b
e	e
r	r

__BEGIN__	__EPS__
g	g
e	e
f	f
u	u
n	n
d	d
e	e
n	n

__BEGIN__	__EPS__
v	u
n	n
d	d

__BEGIN__	__EPS__
b	b
i	i
n	n

__BEGIN__	a
v	u
f	f

__BEGIN__	__EPS__
d	d
e	e
r	r

__BEGIN__	__EPS__
w	w
o	a
r	r
v	u
m	m
e	__EPS__

__BEGIN__	__EPS__
w	w
a	a
u	__EPS__
r	r
v	u
m	m
b	__EPS__

__BEGIN__	__EPS__
t	__EPS__
z	z
o	o
r	r
n	n
e	__EPS__

__BEGIN__	__EPS__
g	g
i	i
e	ng

__BEGIN__	__EPS__
v	u
n	n
s	s

__BEGIN__	__EPS__
g	g
o	o
t	t
t	t

__BEGIN__	__EPS__
i	i
c	c
h	h

__BEGIN__	__EPS__
s	s
t	t
e	e
t	ll
e	e
n	n

__BEGIN__	__EPS__
d	d
i	ie
s	s
e	e
r	r

__BEGIN__	__EPS__
s	s
t	t
u	a
e	__EPS__
n	n
d	d
e	e
n	n

__BEGIN__	__EPS__
c	k
h	__EPS__
l	l
a	ä
e	__EPS__
g	g
l	l
i	i
c	c
h	h

__BEGIN__	__EPS__
d	d
a	a
z	ss

__BEGIN__	__EPS__
w	w
a	a
r	r
e	e
n	n

__BEGIN__	__EPS__
i	i
c	c
h	h

__BEGIN__	__EPS__
l	l
i	i
e	e
b	b

__BEGIN__	__EPS__
n	n
i	ich
t	t

__BEGIN__	__EPS__
s	s
e	e
i	i
n	n
e	e
m	m

__BEGIN__	__EPS__
v	b
n	i
t	__EPS__
z	s

__BEGIN__	__EPS__
d	d
a	a
z	s

__BEGIN__	__EPS__
g	g
e	e
m	m
e	e
y	i
n	nsch
e	aft

__BEGIN__	__EPS__
m	me
i	i
n	n

__BEGIN__	__EPS__
i	i
n	n

__BEGIN__	__EPS__
w	w
o	ah
r	r

__BEGIN__	__EPS__
r	r
e	e
i	i
c	c
h	h

__BEGIN__	__EPS__
h	h
i	i
j	e
r	r

__BEGIN__	__EPS__
d	d
a	a

__BEGIN__	__EPS__
z	z
a	e
i	i
c	c
h	h
e	e
n	n

__BEGIN__	__EPS__
d	d
o	a

__BEGIN__	__EPS__
k	k
o	om
m	m
e	e
n	n
c	__EPS__

__BEGIN__	__EPS__
t	t
o	o
d	d

__BEGIN__	__EPS__
a	a
n	n
d	d
a	a
c	c
h	h
t	t

__BEGIN__	__EPS__
d	d
r	re
i	i
z	ss
i	i
c	g
h	__EPS__

__BEGIN__	__EPS__
e	e
n	__EPS__
b	s
i	__EPS__
z	s
e	e
n	n

__BEGIN__	__EPS__
r	r
i	a
c	__EPS__
h	__EPS__
t	t
h	ha
u	u
s	s
z	__EPS__

__BEGIN__	__EPS__
d	d
e	e
r	r

__BEGIN__	__EPS__
d	d
i	i
c	c
h	h

__BEGIN__	__EPS__
w	w
o	oh
l	l

__BEGIN__	__EPS__
o	o
s	s
t	t
e	e
r	r
l	l
e	ä
m	mm
l	le
i	i
n	n
s	s

__BEGIN__	__EPS__
o	o
d	d
e	e
r	r

__BEGIN__	__EPS__
d	d
i	i
e	e

__BEGIN__	__EPS__
t	t
o	o
t	t
e	e
n	n

__BEGIN__	__EPS__
g	g
e	e
w	w
a	a
n	n
t	d

__BEGIN__	__EPS__
s	s
t	t
a	ad
t	t

__BEGIN__	__EPS__
d	d
a	a
z	ss

__BEGIN__	__EPS__
r	r
e	ä
c	c
h	h
e	e
n	n

__BEGIN__	__EPS__
h	h
a	a
t	t

__BEGIN__	__EPS__
a	a
l	l
s	s

__BEGIN__	__EPS__
a	a
n	n

__BEGIN__	__EPS__
d	d
e	e
m	m

__BEGIN__	__EPS__
p	p
y	i
l	l
a	a
t	t
u	u
s	s

__BEGIN__	__EPS__
v	v
i	ie
l	l

__BEGIN__	__EPS__
g	g
e	e
s	s
c	c
h	h
r	r
a	e
y	i

__BEGIN__	__EPS__
e	e
z	s
z	s
e	__EPS__
i	i
c	__EPS__
h	g

__BEGIN__	__EPS__
d	d
i	i
e	e
b	b

__BEGIN__	__EPS__
d	d
i	ie

__BEGIN__	__EPS__
i	j
e	ä
m	mm
e	e
r	r
l	l
i	i
c	c
h	h
e	e
n	n

__BEGIN__	__EPS__
m	m
e	e
n	n
s	s
c	c
h	h
l	l
e	__EPS__
i	i
c	c
h	he
n	n

__BEGIN__	__EPS__
y	ih
n	n

__BEGIN__	a
u	u
c	c
h	h

__BEGIN__	__EPS__
d	t
r	r
e	e
y	i
f	b
f	e

__BEGIN__	__EPS__
d	d
o	a

__BEGIN__	__EPS__
g	g
i	i
e	__EPS__
n	n
g	g

__BEGIN__	__EPS__
n	n
i	i
c	c
h	h
t	t

__BEGIN__	__EPS__
d	d
i	i
e	e

__BEGIN__	__EPS__
k	k
i	i
n	n
d	d
e	e
s	s

__BEGIN__	__EPS__
d	d
a	a
z	ss

__BEGIN__	__EPS__
i	ih
n	n

__BEGIN__	__EPS__
v	v
o	o
n	n

__BEGIN__	__EPS__
w	w
e	e
r	r

__BEGIN__	__EPS__
w	w
a	a
r	re
n	n

__BEGIN__	__EPS__
n	n
a	ah
m	m
e	e
n	n

__BEGIN__	__EPS__
s	s
e	e
i	i
n	n
e	e
m	m

__BEGIN__	__EPS__
e	e
r	r
s	s
c	c
h	h
r	r
a	a
k	k

__BEGIN__	__EPS__
e	e
r	r

__BEGIN__	__EPS__
m	m
i	i
r	r

__BEGIN__	__EPS__
d	d
e	e
s	s

__BEGIN__	__EPS__
h	h
e	a
r	r
t	t
i	__EPS__
g	__EPS__
l	__EPS__
i	__EPS__
c	__EPS__
h	__EPS__

__BEGIN__	__EPS__
w	w
o	o
l	l
c	__EPS__
k	k
e	e
n	n

__BEGIN__	__EPS__
d	d
o	a

__BEGIN__	__EPS__
v	u
n	n
s	s

__BEGIN__	__EPS__
k	k
o	a
m	m

__BEGIN__	__EPS__
m	m
i	i
t	t

__BEGIN__	__EPS__
f	f
a	a
l	l
s	s
c	c
h	he
z	s

__BEGIN__	__EPS__
w	w
a	a
s	s

__BEGIN__	__EPS__
v	u
n	n
d	d

__BEGIN__	__EPS__
m	m
o	o
c	c
h	h
t	te

__BEGIN__	__EPS__
c	__EPS__
z	z
u	u

__BEGIN__	__EPS__
c	__EPS__
h	k
a	e
i	i
n	n

__BEGIN__	__EPS__
w	w
o	ol
l	l
d	t
e	e
n	n

__BEGIN__	__EPS__
b	b
r	r
i	i
e	e
f	f
f	__EPS__

__BEGIN__	__EPS__
i	i
c	c
h	h

__BEGIN__	__EPS__
d	d
v	i
i	e

__BEGIN__	__EPS__
i	j
o	o
h	h
a	a
n	n
n	n
e	e
s	s
e	__EPS__
n	__EPS__

__BEGIN__	__EPS__
p	p
e	e
t	t
r	r
u	u
z	s

__BEGIN__	__EPS__
k	k
e	e
u	u
s	s
c	c
h	h

__BEGIN__	__EPS__
k	k
u	ö
e	__EPS__
n	n
i	i
g	g
k	__EPS__

__BEGIN__	__EPS__
h	h
i	i
e	e
s	s
z	s

__BEGIN__	__EPS__
d	d
u	u
r	r
c	c
h	h

__BEGIN__	__EPS__
g	g
i	i
e	__EPS__
n	n
g	g
e	e
n	n

__BEGIN__	__EPS__
i	ih
m	m

__BEGIN__	__EPS__
s	s
i	ie

__BEGIN__	__EPS__
s	s
a	a
s	s
z	s

__BEGIN__	__EPS__
k	k
u	o
n	nn
d	t
e	e

__BEGIN__	__EPS__
v	u
n	n
d	d

__BEGIN__	__EPS__
d	d
a	a

__BEGIN__	__EPS__
e	e
r	r
h	h
i	__EPS__
e	ä
n	n
g	gte

__BEGIN__	__EPS__
v	u
n	n
n	d

__BEGIN__	__EPS__
d	di
e	e
s	s
e	e

__BEGIN__	__EPS__
a	a
n	n

__BEGIN__	__EPS__
w	w
a	a
s	r

__BEGIN__	__EPS__
v	u
n	n
d	d

__BEGIN__	__EPS__
e	e
l	l
l	__EPS__
e	e
m	m
e	e
n	n
t	t

__BEGIN__	__EPS__
a	a
l	l
s	s

__BEGIN__	__EPS__
h	h
e	e
r	r
o	o
d	d
e	e
s	s

__BEGIN__	__EPS__
h	h
a	a
b	b
e	e

__BEGIN__	__EPS__
d	d
e	e
r	r

__BEGIN__	__EPS__
g	g
a	e
i	is
s	s
e	e
l	l
n	n

__BEGIN__	__EPS__
s	s
o	o
l	ll
t	t
e	e

__BEGIN__	__EPS__
k	k
i	i
n	n
d	d
e	__EPS__

__BEGIN__	__EPS__
a	a
b	b

__BEGIN__	__EPS__
n	n
i	ic
h	h
t	t

__BEGIN__	__EPS__
k	k
i	i
n	n
d	d
e	e
s	s

__BEGIN__	__EPS__
b	b
i	i
s	s
c	c
h	h
o	o
f	f

__BEGIN__	__EPS__
g	g
e	e
r	r
i	i
c	c
h	h
t	t

__BEGIN__	__EPS__
a	a
l	l
l	l
e	e
s	s

__BEGIN__	__EPS__
v	u
n	n
s	s

__BEGIN__	__EPS__
a	a
n	n

__BEGIN__	__EPS__
v	u
n	n
d	d

__BEGIN__	__EPS__
s	s
t	t
ü	u
n	n
d	d
e	e

__BEGIN__	__EPS__
m	me
y	i
n	n

__BEGIN__	__EPS__
s	s
e	a
i	g
d	t
e	e

__BEGIN__	__EPS__
m	m
i	i
t	t

__BEGIN__	__EPS__
h	h
i	i
j	e
r	r

__BEGIN__	__EPS__
p	b
a	a
n	n
d	d
t	__EPS__

__BEGIN__	__EPS__
v	u
n	n
n	d

__BEGIN__	__EPS__
g	g
r	r
o	o
z	ss
e	e

__BEGIN__	__EPS__
v	u
n	n
d	d

__BEGIN__	__EPS__
v	v
a	a
t	t
t	__EPS__
e	e
r	r

__BEGIN__	__EPS__
y	ih
n	n

__BEGIN__	__EPS__
v	u
n	n
d	d

__BEGIN__	__EPS__
i	i
c	c
h	h

__BEGIN__	__EPS__
a	e
i	i
n	n

__BEGIN__	__EPS__
r	r
i	i
c	c
h	h
t	t
e	e
r	r

__BEGIN__	__EPS__
v	a
s	u
z	s

__BEGIN__	__EPS__
w	w
e	e
r	r

__BEGIN__	__EPS__
n	n
o	o
c	c
h	h

__BEGIN__	__EPS__
v	u
n	n
d	d

__BEGIN__	__EPS__
e	e
r	r
s	s
c	c
h	h
i	ü
u	t
t	tert

__BEGIN__	__EPS__
l	l
i	i
e	__EPS__
c	c
h	h
t	t

__BEGIN__	__EPS__
k	k
e	e
i	i
n	n
e	e
r	r

__BEGIN__	__EPS__
d	d
r	r
o	o
e	h
t	t
e	e
n	n

__BEGIN__	__EPS__
s	s
e	e
i	i
n	n

__BEGIN__	__EPS__
e	e
r	r
s	s
a	a
c	__EPS__
h	h

__BEGIN__	__EPS__
l	l
a	a
m	m
a	a
z	z
a	a
b	b
a	a
t	t
h	h
a	a
n	n
i	i

__BEGIN__	__EPS__
c	__EPS__
z	z
u	u

__BEGIN__	__EPS__
s	s
t	t
a	a
n	n
d	d

__BEGIN__	__EPS__
m	m
y	i
t	t

__BEGIN__	__EPS__
e	e
r	r

__BEGIN__	__EPS__
s	s
e	eh
r	r
e	__EPS__

__BEGIN__	__EPS__
a	a
n	n
t	t
w	w
u	o
r	r
t	t
e	e
n	n

__BEGIN__	__EPS__
h	h
e	e
r	r
c	__EPS__
z	z

__BEGIN__	__EPS__
h	h
i	i
e	e
s	ss

__BEGIN__	__EPS__
a	a
u	u
s	s
s	s
s	__EPS__
e	ä
c	t
z	z
y	i
g	g
e	e
r	r

__BEGIN__	__EPS__
e	e
i	i
n	n
e	e
n	n

__BEGIN__	__EPS__
n	n
o	o
i	__EPS__
t	t

__BEGIN__	__EPS__
m	me
i	i
n	n

__BEGIN__	__EPS__
m	m
u	u
t	tt
e	e
r	r

__BEGIN__	__EPS__
s	s
y	ie

__BEGIN__	__EPS__
y	j
e	ä
m	mm
i	e
r	r
l	l
i	i
c	c
h	h

__BEGIN__	__EPS__
g	g
u	u
o	__EPS__
t	t
e	e
s	n

__BEGIN__	__EPS__
i	j
v	ü
n	ng
s	s
t	t
e	e
n	n

__BEGIN__	__EPS__
z	z
u	u

__BEGIN__	__EPS__
d	d
o	a

__BEGIN__	__EPS__
h	h
a	a
s	s
t	t

__BEGIN__	__EPS__
i	i
c	c
h	h

__BEGIN__	__EPS__
d	d
e	e
n	n

__BEGIN__	__EPS__
e	e
r	r

__BEGIN__	__EPS__
f	f
r	re
u	u
n	n
t	d

__BEGIN__	__EPS__
w	w
ä	ah
r	r
l	l
i	i
c	c
h	h

__BEGIN__	__EPS__
w	w
o	oh
l	l

__BEGIN__	__EPS__
e	e
r	r

__BEGIN__	__EPS__
e	e
r	r
k	qu
i	ic
k	k
t	t

__BEGIN__	__EPS__
s	s
e	e
i	i

__BEGIN__	__EPS__
m	m
e	e
i	i
n	n
e	e
n	n

__BEGIN__	__EPS__
w	w
a	a
s	r

__BEGIN__	__EPS__
p	p
y	i
l	l
a	a
t	t
u	u
s	s

__BEGIN__	__EPS__
t	t
a	a
t	t

__BEGIN__	__EPS__
g	g
e	e
b	b
e	e
n	n

__BEGIN__	__EPS__
p	b
e	e
r	r
g	g
e	e
n	n

__BEGIN__	__EPS__
d	d
o	a

__BEGIN__	__EPS__
r	r
e	e
c	c
h	h
t	t
e	e

__BEGIN__	__EPS__
d	d
i	ie
s	s
e	e
r	r

__BEGIN__	__EPS__
p	b
e	e
g	g
i	i
e	__EPS__
n	n
g	g
e	e
n	n

__BEGIN__	__EPS__
e	e
r	r

__BEGIN__	__EPS__
d	d
i	i
e	e

__BEGIN__	__EPS__
i	ih
m	m

__BEGIN__	__EPS__
a	a
c	c
h	h
s	s
e	e
l	l

__BEGIN__	__EPS__
n	n
a	o
c	c
h	h

__BEGIN__	__EPS__
g	g
i	i
e	__EPS__
n	n
g	g
e	e
n	n

__BEGIN__	__EPS__
m	m
u	ü
e	s
s	s
t	te

__BEGIN__	__EPS__
y	ih
n	n

__BEGIN__	__EPS__
d	d
y	ie

__BEGIN__	__EPS__
h	h
a	a
b	b
t	t

__BEGIN__	__EPS__
v	u
n	n
d	d

__BEGIN__	__EPS__
i	ih
m	m

__BEGIN__	__EPS__
h	h
e	e
i	i
l	l

__BEGIN__	__EPS__
c	k
l	l
a	a
g	g
e	__EPS__
t	t

__BEGIN__	__EPS__
s	s
p	p
r	r
a	a
c	c
h	h

__BEGIN__	__EPS__
n	n
i	ic
h	h
t	t

__BEGIN__	__EPS__
h	h
e	ä
n	n
d	de

__BEGIN__	__EPS__
n	n
y	ie
m	m
e	eh
r	r

__BEGIN__	__EPS__
d	d
a	a
s	ss

__BEGIN__	__EPS__
m	m
a	a
n	nn
i	i
c	__EPS__
h	g
f	f
a	a
l	l
t	tig

__BEGIN__	__EPS__
l	l
y	ie
b	b
e	e

__BEGIN__	__EPS__
h	h
i	i
e	__EPS__
n	n
g	g
e	e
n	n

__BEGIN__	__EPS__
e	e
n	m
t	__EPS__
p	p
f	f
i	i
e	__EPS__
n	n
g	g
s	s
t	t

__BEGIN__	__EPS__
w	w
o	u
n	n
d	d
e	e
n	n

__BEGIN__	__EPS__
a	a
b	b
e	e
r	r

__BEGIN__	__EPS__
s	s
o	o

__BEGIN__	__EPS__
l	l
e	e
i	i
b	b

__BEGIN__	__EPS__
s	s
e	e
i	i
n	n
e	e
r	r

__BEGIN__	__EPS__
v	v
o	o
n	n

__BEGIN__	__EPS__
t	__EPS__
z	__EPS__
o	__EPS__
s	s
p	pa
l	l
i	t
s	e
s	t
e	e
n	n

__BEGIN__	__EPS__
n	n
i	ich
t	t

__BEGIN__	__EPS__
s	s
e	i
y	e

__BEGIN__	__EPS__
t	t
r	r
o	o
s	s
t	t

__BEGIN__	__EPS__
a	a
l	l
l	l
e	e
r	r

__BEGIN__	__EPS__
d	d
e	e
r	r

__BEGIN__	__EPS__
g	g
e	e
s	s
u	ü
n	n
d	d
e	ig
t	t

__BEGIN__	__EPS__
z	z
a	e
i	i
g	g
e	e
n	n

__BEGIN__	__EPS__
w	w
a	a
t	s

__BEGIN__	__EPS__
s	s
p	p
e	ee
r	r

__BEGIN__	__EPS__
h	h
a	a
l	l
b	b
e	e
s	s

__BEGIN__	__EPS__
a	a
n	n
t	t
l	l
v	i
t	t
z	z
e	e

__BEGIN__	__EPS__
d	d
i	i
e	e

__BEGIN__	__EPS__
s	s
o	o

__BEGIN__	__EPS__
a	a
l	l
s	s
o	o

__BEGIN__	__EPS__
g	g
e	e
l	l
e	i
d	tt
e	e
n	n

__BEGIN__	__EPS__
d	d
a	a
z	s

__BEGIN__	__EPS__
d	d
o	a

__BEGIN__	__EPS__
a	a
u	u
f	f

__BEGIN__	__EPS__
h	h
i	i
m	m
l	me
-	l

__BEGIN__	__EPS__
v	u
n	n
s	s
e	ä
g	g
l	l
e	__EPS__
i	i
c	c
h	h
e	e
r	r

__BEGIN__	__EPS__
b	b
e	e
i	i
d	d
e	e

__BEGIN__	__EPS__
z	z
e	u

__BEGIN__	__EPS__
w	w
a	an
n	n

__BEGIN__	__EPS__
i	i
c	c
h	h

__BEGIN__	__EPS__
i	ih
m	m

__BEGIN__	__EPS__
a	e
i	i
n	n
e	e

__BEGIN__	__EPS__
e	e
r	r
g	g
i	i
e	__EPS__
n	n
g	g

__BEGIN__	__EPS__
d	d
o	a

__BEGIN__	__EPS__
s	s
p	p
r	r
a	a
c	ch

__BEGIN__	__EPS__
g	g
i	i
e	__EPS__
n	n
g	g
e	e
n	n

__BEGIN__	__EPS__
r	r
i	i
t	t
t	t
e	e
r	r

__BEGIN__	__EPS__
a	a
u	u
c	c
h	h

__BEGIN__	__EPS__
w	w
a	a
s	r

__BEGIN__	__EPS__
v	u
n	n
s	s

__BEGIN__	__EPS__
s	s
e	e
l	l
i	i
g	g

__BEGIN__	__EPS__
a	a
l	l
s	s
o	o

__BEGIN__	__EPS__
i	ih
n	n

__BEGIN__	__EPS__
w	w
a	a
n	n
n	n

__BEGIN__	__EPS__
s	s
e	e
i	i
n	n
e	e
w	__EPS__

__BEGIN__	__EPS__
v	u
n	n
d	d

__BEGIN__	__EPS__
d	d
y	i
e	e

__BEGIN__	__EPS__
m	m
i	i
c	c
h	h

__BEGIN__	__EPS__
s	e
u	i
n	n
d	z
e	e
r	__EPS__
l	l
i	n
c	__EPS__
h	__EPS__

__BEGIN__	__EPS__
m	m
i	i
r	r

__BEGIN__	__EPS__
h	i
e	h
m	m

__BEGIN__	__EPS__
g	g
r	r
o	o
s	s
z	s
e	e

__BEGIN__	__EPS__
v	u
n	n
d	d

__BEGIN__	__EPS__
v	v
o	o
r	r

__BEGIN__	__EPS__
l	l
i	i
e	e
u	b
e	e
n	n

__BEGIN__	__EPS__
g	__EPS__
e	__EPS__
d	d
u	ü
r	r
f	f
f	__EPS__
e	e
n	n

__BEGIN__	__EPS__
w	w
i	i
l	ll

__BEGIN__	__EPS__
v	u
n	n
d	d

__BEGIN__	__EPS__
k	k
r	r
o	o
n	ne

__BEGIN__	__EPS__
s	s
t	t
y	i
m	m
m	m
e	e

__BEGIN__	__EPS__
v	v
u	e
r	r
s	s
t	t
e	e
i	i
n	n
e	er
t	t

__BEGIN__	__EPS__
g	g
o	o
t	t
t	t
e	e
s	s
s	s
u	oh
n	n

__BEGIN__	__EPS__
h	h
e	e
r	rr
l	l
i	i
c	c
h	h
e	e
n	n

__BEGIN__	__EPS__
c	k
r	r
e	e
u	u
c	__EPS__
z	z

__BEGIN__	__EPS__
v	u
n	n
d	d

__BEGIN__	__EPS__
g	g
r	r
o	os
s	s

__BEGIN__	__EPS__
p	p
a	a
r	r
a	a
d	d
i	i
s	e
z	s

__BEGIN__	__EPS__
d	d
a	a
i	__EPS__
r	__EPS__

__BEGIN__	__EPS__
d	d
a	a
s	s

__BEGIN__	__EPS__
i	i
s	s
t	t

__BEGIN__	__EPS__
h	h
a	a
n	n
d	d

__BEGIN__	__EPS__
d	d
e	e
r	r

__BEGIN__	__EPS__
v	f
i	i
n	n
d	de

__BEGIN__	i
e	h
n	n

__BEGIN__	__EPS__
h	h
e	e
r	r
r	r
e	__EPS__

__BEGIN__	__EPS__
a	e
i	i
n	n

__BEGIN__	__EPS__
a	a
n	n

__BEGIN__	__EPS__
a	a
n	n

__BEGIN__	__EPS__
c	k
r	r
a	a
f	f
t	t

__BEGIN__	__EPS__
z	z
u	u

__BEGIN__	__EPS__
k	k
i	i
n	n
d	d
e	e
s	s

__BEGIN__	__EPS__
d	d
a	a
s	ss

__BEGIN__	__EPS__
w	w
y	i
r	r

__BEGIN__	__EPS__
m	m
a	a
r	r
i	i
a	a

__BEGIN__	__EPS__
d	d
o	a

__BEGIN__	__EPS__
m	me
i	i
n	n

__BEGIN__	__EPS__
p	b
e	e
s	sch
l	l
o	o
z	s
z	s

__BEGIN__	__EPS__
i	ih
n	n

__BEGIN__	__EPS__
m	w
i	e
n	n
r	ig
e	er

__BEGIN__	__EPS__
a	a
l	l
s	s
o	o

__BEGIN__	__EPS__
a	a
r	r
m	m
u	u
o	__EPS__
t	t

__BEGIN__	__EPS__
m	m
i	i
t	t

__BEGIN__	__EPS__
n	n
o	o
t	t

__BEGIN__	__EPS__
m	m
i	i
r	r

__BEGIN__	__EPS__
a	a
n	n

__BEGIN__	__EPS__
i	j
a	a
m	mm
e	e
r	r

__BEGIN__	__EPS__
p	p
y	i
l	l
a	a
t	t
o	us

__BEGIN__	__EPS__
h	h
y	i
m	m
e	m
l	li
s	s
c	c
h	h
e	e
n	n

__BEGIN__	__EPS__
d	d
i	i
e	e

__BEGIN__	__EPS__
r	r
e	ä
c	c
h	h
e	e
n	n

__BEGIN__	__EPS__
i	i
s	s
t	t

__BEGIN__	__EPS__
m	m
e	ee
r	rbins
e	en

__BEGIN__	__EPS__
g	g
e	e
s	s
e	e
c	t
z	z
e	e

__BEGIN__	__EPS__
d	d
e	e
n	m

__BEGIN__	__EPS__
d	d
a	a
n	nn

__BEGIN__	__EPS__
s	sch
w	w
e	e
s	s
t	t
e	e
r	r

__BEGIN__	__EPS__
b	b
i	i
s	s
t	t
d	__EPS__
u	__EPS__

__BEGIN__	__EPS__
a	a
n	n
s	s
e	e
l	l
m	m
e	__EPS__

__BEGIN__	__EPS__
z	z
e	u

__BEGIN__	__EPS__
g	f
e	e
f	__EPS__
y	i
h	__EPS__
e	__EPS__
n	n
d	d
e	e

__BEGIN__	__EPS__
h	h
a	a
b	b
e	e
n	n

__BEGIN__	__EPS__
a	a
u	u
d	d
i	i

__BEGIN__	__EPS__
i	ih
m	m

__BEGIN__	__EPS__
b	b
e	e
h	h
a	a
l	l
d	t
e	e
n	n

__BEGIN__	__EPS__
v	u
n	n
d	d

__BEGIN__	__EPS__
d	d
e	e
n	n

__BEGIN__	__EPS__
v	u
n	n
d	d

__BEGIN__	__EPS__
d	d
a	a
i	__EPS__
r	__EPS__

__BEGIN__	__EPS__
i	ih
m	m

__BEGIN__	__EPS__
i	i
s	s
t	t

__BEGIN__	__EPS__
v	u
n	n
d	d

__BEGIN__	__EPS__
a	a
l	l
s	s
o	o

__BEGIN__	__EPS__
m	m
e	e
i	i
n	n
e	e
m	m

__BEGIN__	__EPS__
i	ih
m	m

__BEGIN__	__EPS__
v	u
n	n
d	d

__BEGIN__	__EPS__
h	h
a	a
n	be

__BEGIN__	__EPS__
d	d
a	a
z	ss

__BEGIN__	__EPS__
e	e
r	r

__BEGIN__	e
t	s

__BEGIN__	__EPS__
k	k
i	i
n	n
t	d

__BEGIN__	__EPS__
d	d
i	i
e	e

__BEGIN__	__EPS__
w	w
a	a
z	r

__BEGIN__	__EPS__
s	s
p	p
r	r
a	a
c	c
h	h

__BEGIN__	__EPS__
m	me
i	i
n	ne
s	s

__BEGIN__	__EPS__
i	i
n	n

__BEGIN__	__EPS__
i	i
c	c
h	h

__BEGIN__	d
u	u

__BEGIN__	__EPS__
v	u
n	n
d	d

__BEGIN__	__EPS__
g	g
e	e
s	s
c	c
h	h
i	i
e	e
c	__EPS__
h	h
t	t

__BEGIN__	__EPS__
a	a
l	l
s	s
o	o

__BEGIN__	__EPS__
d	d
a	a
z	ss

__BEGIN__	__EPS__
i	ih
n	n

__BEGIN__	__EPS__
v	u
n	n
s	s

__BEGIN__	__EPS__
d	d
e	e
n	n

__BEGIN__	__EPS__
g	g
u	u
t	t
e	e
n	n

__BEGIN__	__EPS__
w	w
a	a
z	r

__BEGIN__	__EPS__
d	d
a	a
r	__EPS__
n	n
a	a
c	c
h	h

__BEGIN__	__EPS__
d	d
e	e
m	m

__BEGIN__	__EPS__
d	d
o	a

__BEGIN__	__EPS__
m	m
i	i
c	c
h	h

__BEGIN__	__EPS__
m	m
e	e
i	i
n	n
e	e
n	m

__BEGIN__	__EPS__
o	a
u	u
c	c
h	h

__BEGIN__	__EPS__
v	v
o	o
r	r

__BEGIN__	__EPS__
d	d
o	a

__BEGIN__	__EPS__
d	d
o	a

__BEGIN__	__EPS__
g	g
e	e
w	w
a	e
i	i
n	n
e	__EPS__
t	t

__BEGIN__	__EPS__
d	d
e	e
r	r

__BEGIN__	__EPS__
v	u
n	n
d	d

__BEGIN__	__EPS__
b	b
i	i
t	t
t	t
e	e
r	re
n	n

__BEGIN__	__EPS__
i	e
r	r
l	l
o	ö
s	s
e	__EPS__
t	t

__BEGIN__	__EPS__
d	d
a	a
s	s

__BEGIN__	__EPS__
s	s
p	p
r	r
a	a
c	c
h	h

__BEGIN__	__EPS__
k	k
i	i
n	n
d	d
e	__EPS__

__BEGIN__	__EPS__
g	g
r	r
o	o
s	ss
e	e
r	r

__BEGIN__	__EPS__
d	d
i	i
r	r

__BEGIN__	__EPS__
s	s
y	ie

__BEGIN__	__EPS__
l	l
i	i
e	e
b	b
e	e
n	n

__BEGIN__	__EPS__
n	n
i	i
e	ch
t	t

__BEGIN__	__EPS__
k	k
l	l
e	e
i	i
t	d

__BEGIN__	__EPS__
i	i
c	c
h	h

__BEGIN__	__EPS__
d	d
c	ass

__BEGIN__	__EPS__
k	k
i	i
n	n
d	d
e	__EPS__

__BEGIN__	__EPS__
e	e
r	r

__BEGIN__	__EPS__
d	d
y	ie

__BEGIN__	__EPS__
d	d
y	ie

__BEGIN__	__EPS__
v	v
o	o
n	n

__BEGIN__	__EPS__
g	g
e	e
d	d
e	e
n	n
k	k
e	e
n	n

__BEGIN__	__EPS__
f	f
r	r
a	a
w	u
e	e
n	n

__BEGIN__	__EPS__
w	w
a	a
z	r

__BEGIN__	__EPS__
i	u
n	n
d	d

__BEGIN__	__EPS__
d	d
a	a

__BEGIN__	__EPS__
s	s
c	c
h	h
r	r
i	i
e	e
r	__EPS__
e	__EPS__
n	n

__BEGIN__	__EPS__
v	f
l	l
o	o
e	s
s	s

__BEGIN__	__EPS__
a	a
l	l
z	s

__BEGIN__	__EPS__
s	s
e	e
i	i
n	n
e	e
n	n

__BEGIN__	__EPS__
d	d
a	a
s	s

__BEGIN__	__EPS__
a	a
l	l
l	l

__BEGIN__	__EPS__
g	g
e	e
w	w
a	ah
r	r

__BEGIN__	__EPS__
s	s
y	ie

__BEGIN__	__EPS__
d	d
i	i
e	e

__BEGIN__	__EPS__
z	z
ü	u

__BEGIN__	__EPS__
v	u
n	n
d	d

__BEGIN__	__EPS__
d	d
e	e
n	n

__BEGIN__	__EPS__
d	d
i	i
r	r

__BEGIN__	__EPS__
y	j
e	e
m	m
a	a
n	n
d	d

__BEGIN__	__EPS__
d	d
e	e
r	r

__BEGIN__	__EPS__
c	k
r	re
u	u
c	z
e	e

__BEGIN__	__EPS__
s	s
a	a
c	__EPS__
h	h

__BEGIN__	n
e	ich
n	t

__BEGIN__	__EPS__
d	d
u	u

__BEGIN__	__EPS__
e	e
n	n
d	d
e	e

__BEGIN__	__EPS__
s	s
o	o

__BEGIN__	__EPS__
g	g
y	i
n	n
c	__EPS__
k	g

__BEGIN__	__EPS__
v	v
o	o
l	l
l	l
e	__EPS__
n	__EPS__
b	b
r	r
a	a
c	c
h	h
t	t

__BEGIN__	__EPS__
c	__EPS__
z	z
u	u
m	m
u	u
t	t
e	e

__BEGIN__	__EPS__
v	u
n	n
d	d

__BEGIN__	__EPS__
m	m
i	i
c	c
h	h

__BEGIN__	__EPS__
n	n
a	a
m	m
e	e
n	n

__BEGIN__	__EPS__
e	ehe

__BEGIN__	__EPS__
s	s
c	c
h	h
e	__EPS__
p	ö
p	p
h	f
e	e
r	r

__BEGIN__	__EPS__
o	a
u	u
c	c
h	h

__BEGIN__	__EPS__
h	h
e	e
r	r
c	__EPS__
z	z
e	e
n	n

__BEGIN__	__EPS__
e	e
r	r

__BEGIN__	__EPS__
p	p
y	i
l	l
a	a
t	t
u	u
s	s

__BEGIN__	__EPS__
h	h
e	ä
t	tte

__BEGIN__	__EPS__
r	r
i	i
t	t
t	t
e	e
r	r

__BEGIN__	__EPS__
c	k
l	l
a	a
g	g
e	e

__BEGIN__	__EPS__
m	me
i	i
n	n

__BEGIN__	__EPS__
g	g
r	r
o	o
s	s
z	s

__BEGIN__	__EPS__
v	u
n	n
d	d

__BEGIN__	__EPS__
d	d
e	e
n	n

__BEGIN__	__EPS__
w	w
a	a
r	r
t	d

__BEGIN__	__EPS__
i	j
u	u
d	d
e	e
n	n

__BEGIN__	__EPS__
m	m
i	i
t	t

__BEGIN__	__EPS__
g	g
e	e
m	m
a	e
i	i
n	n
e	e
n	n

__BEGIN__	__EPS__
d	d
e	e
i	i
n	n

__BEGIN__	__EPS__
y	ih
r	r

__BEGIN__	__EPS__
m	m
e	ehr

__BEGIN__	__EPS__
a	a
n	n

__BEGIN__	__EPS__
m	m
i	i
c	c
h	h

__BEGIN__	__EPS__
e	e
y	i
n	n

__BEGIN__	__EPS__
s	s
u	o
n	n
n	n
e	e

__BEGIN__	__EPS__
k	k
i	i
n	n
d	d
e	e
s	s

__BEGIN__	__EPS__
d	d
i	i
e	e

__BEGIN__	__EPS__
a	a
n	n

__BEGIN__	__EPS__
m	me
i	i
n	n
e	e

__BEGIN__	__EPS__
s	s
o	öh
n	n
e	__EPS__
l	l
e	e
y	i
n	n

__BEGIN__	__EPS__
d	d
o	a

__BEGIN__	__EPS__
s	s
u	ü
n	n
d	d
e	e

__BEGIN__	__EPS__
o	o
w	w
e	eh

__BEGIN__	__EPS__
m	m
e	e
i	i
n	n

__BEGIN__	__EPS__
e	e
r	r
h	h
i	i
e	__EPS__
n	n
g	g

__BEGIN__	__EPS__
a	a
n	n
s	s
h	__EPS__
e	e
l	l
m	m

__BEGIN__	__EPS__
e	e
r	r

__BEGIN__	__EPS__
e	e
i	i
n	n

__BEGIN__	__EPS__
v	a
f	u
f	f

__BEGIN__	__EPS__
m	m
e	e
i	i
n	n

__BEGIN__	__EPS__
s	s
e	e
i	i
n	n

__BEGIN__	g
e	e
w	s
e	e
n	tz

__BEGIN__	__EPS__
e	e
r	r

__BEGIN__	__EPS__
d	d
e	e
m	m

__BEGIN__	__EPS__
d	d
e	e
s	s

__BEGIN__	__EPS__
v	u
n	n
d	d

__BEGIN__	__EPS__
v	v
o	o
n	n

__BEGIN__	__EPS__
w	w
i	i
r	r

__BEGIN__	__EPS__
a	a
n	n

__BEGIN__	__EPS__
y	ih
n	n

__BEGIN__	__EPS__
a	a
l	l
s	s
p	b
a	a
l	l
d	d

__BEGIN__	__EPS__
w	w
a	a
z	ss
e	e
r	r
s	s
v	ü
i	c
h	h
t	t
i	i
g	g
e	e
n	n

__BEGIN__	__EPS__
c	s
z	o
w	g
h	l
a	e
n	ic
t	h

__BEGIN__	__EPS__
h	h
a	a
s	s
t	t

__BEGIN__	__EPS__
d	d
e	e
s	s

__BEGIN__	__EPS__
w	w
a	a
z	s

__BEGIN__	__EPS__
n	n
u	un

__BEGIN__	__EPS__
l	l
o	ä
d	r
e	__EPS__
m	m
e	__EPS__

__BEGIN__	__EPS__
v	u
n	n
n	__EPS__
d	d

__BEGIN__	__EPS__
c	__EPS__
h	k
r	r
a	a
n	n
k	k
c	__EPS__
h	h
a	e
i	i
d	t

__BEGIN__	__EPS__
e	e
r	r

__BEGIN__	__EPS__
h	h
a	a
d	t

__BEGIN__	__EPS__
v	u
n	n
d	d

__BEGIN__	__EPS__
s	s
u	__EPS__
i	i
c	e
h	h

__BEGIN__	__EPS__
m	m
a	e
i	i
s	s
t	t
e	e
r	r

__BEGIN__	__EPS__
y	ih
m	m

__BEGIN__	__EPS__
l	l
e	e
g	g
e	__EPS__
t	t
e	e
n	n

__BEGIN__	__EPS__
z	z
u	u

__BEGIN__	__EPS__
n	n
y	ie
d	d
e	e
r	r

__BEGIN__	__EPS__
n	n
i	ie
d	d
e	e
r	r

__BEGIN__	__EPS__
v	u
n	n
n	d

__BEGIN__	__EPS__
d	d
a	a
s	s

__BEGIN__	__EPS__
d	d
i	i
r	r

__BEGIN__	__EPS__
d	da
z	ss

__BEGIN__	__EPS__
w	w
i	i
s	s
s	s
e	e
n	n

__BEGIN__	__EPS__
e	e
y	i
n	n

__BEGIN__	__EPS__
n	n
e	eh
m	m
t	t

__BEGIN__	__EPS__
g	g
e	e
l	l
o	a
u	u
f	f
f	__EPS__
e	e
n	n

__BEGIN__	__EPS__
t	t
u	u
n	n

__BEGIN__	__EPS__
s	s
a	a
n	nk
t	t

__BEGIN__	__EPS__
e	e
r	r
l	l
i	i
d	tt
e	e
n	n

__BEGIN__	__EPS__
d	d
i	i
e	e

__BEGIN__	__EPS__
h	h
o	ö
r	r
e	__EPS__
s	s
t	t

__BEGIN__	__EPS__
v	u
n	n
s	s

__BEGIN__	__EPS__
a	al
l	le
s	s

