__BEGIN__	__EPS__
i	i
c	c
h	h

__BEGIN__	__EPS__
m	m
e	e
i	i
n	n

__BEGIN__	__EPS__
e	e
s	s

__BEGIN__	__EPS__
v	u
n	n
d	d

__BEGIN__	__EPS__
v	u
n	n
d	d

__BEGIN__	__EPS__
s	s
y	ie

__BEGIN__	__EPS__
l	l
a	a
n	n
k	g

__BEGIN__	__EPS__
s	s
i	i
e	e

__BEGIN__	__EPS__
d	d
e	e
m	m

__BEGIN__	__EPS__
g	g
e	e
s	s
t	t
a	a
l	l
t	tet

__BEGIN__	__EPS__
s	s
e	e
i	i
n	n

__BEGIN__	__EPS__
h	h
a	a
b	b
e	e
n	n
n	__EPS__

__BEGIN__	__EPS__
d	d
e	e
n	m

__BEGIN__	__EPS__
e	e
i	i
n	n

__BEGIN__	__EPS__
b	b
e	e
g	g
r	r
a	a
b	b
e	e
n	n

__BEGIN__	__EPS__
v	u
m	m
g	g
r	r
e	e
i	i
f	f
e	e
n	n

__BEGIN__	__EPS__
s	s
p	p
r	r
i	i
c	c
h	h
e	__EPS__
t	t

__BEGIN__	__EPS__
z	z
u	u

__BEGIN__	__EPS__
a	a
n	n
t	t
w	w
u	__EPS__
o	o
r	r
t	t
e	e
n	n

__BEGIN__	__EPS__
i	i
c	c
h	h

__BEGIN__	__EPS__
l	l
e	e
i	i
b	b

__BEGIN__	__EPS__
d	d
o	a

__BEGIN__	__EPS__
d	d
i	i
e	e

__BEGIN__	__EPS__
d	d
a	a
z	ss

__BEGIN__	__EPS__
d	d
i	i
e	e

__BEGIN__	__EPS__
v	u
e	n
n	d

__BEGIN__	__EPS__
w	w
a	a
s	r

__BEGIN__	__EPS__
s	s
e	e
y	i

__BEGIN__	__EPS__
r	r
e	ec
h	h
t	t
e	e

__BEGIN__	__EPS__
k	k
i	i
n	n
d	d
e	e
s	s

__BEGIN__	__EPS__
d	d
i	i
e	e

__BEGIN__	__EPS__
d	d
a	an
n	n

__BEGIN__	__EPS__
d	d
o	a

__BEGIN__	__EPS__
i	i
c	c
h	h

__BEGIN__	__EPS__
s	s
c	c
h	h
o	__EPS__
u	u
l	l
t	d

__BEGIN__	__EPS__
g	g
r	r
o	o
s	ss
e	e
n	n

__BEGIN__	__EPS__
r	r
e	e
y	i
n	n
e	e

__BEGIN__	__EPS__
g	g
u	u
t	te

__BEGIN__	__EPS__
e	e
n	n
d	de

__BEGIN__	__EPS__
w	w
u	u
n	n
d	d
e	e
r	r

__BEGIN__	__EPS__
d	d
e	e
m	m

__BEGIN__	__EPS__
i	i
c	c
h	h

__BEGIN__	__EPS__
s	s
p	p
r	r
a	a
c	c
h	he

__BEGIN__	__EPS__
s	sch
w	w
e	e
s	s
t	t
e	e
r	r

__BEGIN__	__EPS__
s	s
i	ie

__BEGIN__	__EPS__
e	e
r	r
d	d
e	e
n	n
c	k
h	__EPS__
e	e
n	n

__BEGIN__	__EPS__
a	o
u	h
n	ne

__BEGIN__	__EPS__
d	d
i	i
e	e

__BEGIN__	__EPS__
s	s
p	p
r	r
a	a
c	c
h	h

__BEGIN__	__EPS__
d	d
i	i
e	e

__BEGIN__	__EPS__
s	s
p	p
r	r
a	a
c	c
h	h

__BEGIN__	__EPS__
w	w
a	an
n	n

__BEGIN__	__EPS__
i	i
c	c
h	h

__BEGIN__	__EPS__
i	e
r	r
s	s
t	t
a	a
r	r
p	b

__BEGIN__	__EPS__
m	m
i	i
c	c
h	h

__BEGIN__	__EPS__
f	f
u	ü
n	n
f	f
f	__EPS__

__BEGIN__	__EPS__
s	s
e	e
i	i
n	n

__BEGIN__	__EPS__
d	d
i	i
n	n
ü	u
m	m
e	e
r	r
a	a
ü	v
e	e
r	r
u	u
n	n
t	t

__BEGIN__	__EPS__
g	g
e	e
n	n
e	e
i	i
g	g
t	t
e	e
m	m

__BEGIN__	__EPS__
s	s
e	e
i	i
n	n
e	e
r	r

__BEGIN__	__EPS__
d	d
e	i
w	e

__BEGIN__	__EPS__
v	v
o	o
n	n

__BEGIN__	__EPS__
j	j
o	u
e	__EPS__
d	d
e	e
n	n

__BEGIN__	__EPS__
w	w
a	a
z	r

__BEGIN__	__EPS__
d	d
i	i
c	c
h	h

__BEGIN__	__EPS__
v	ü
b	b
e	e
r	r

__BEGIN__	__EPS__
e	e
r	r

__BEGIN__	__EPS__
d	d
w	u

__BEGIN__	__EPS__
s	s
t	t
a	ä
t	tte

__BEGIN__	__EPS__
h	h
a	a
b	be

__BEGIN__	__EPS__
n	n
a	ah
m	m
s	s
t	t

__BEGIN__	__EPS__
f	f
r	r
a	a
i	g
t	t
e	e

__BEGIN__	__EPS__
m	me
i	i
n	n

__BEGIN__	__EPS__
m	m
o	o
r	r
g	g
e	e
n	n
s	s

__BEGIN__	__EPS__
m	m
i	i
t	t

__BEGIN__	__EPS__
m	m
i	i
t	t

__BEGIN__	__EPS__
l	l
e	e
i	i
b	b
e	__EPS__

__BEGIN__	__EPS__
z	z
e	u

__BEGIN__	__EPS__
d	d
a	a
s	ss

__BEGIN__	__EPS__
s	s
p	p
r	r
a	a
c	c
h	h

__BEGIN__	__EPS__
d	d
e	e
r	r

__BEGIN__	__EPS__
d	d
a	a
z	s

__BEGIN__	__EPS__
y	ih
n	n

__BEGIN__	__EPS__
s	sch
l	l
a	a
h	g
e	e
n	n

__BEGIN__	__EPS__
d	d
o	a
e	__EPS__

__BEGIN__	__EPS__
m	m
o	o
c	c
h	h
t	te

__BEGIN__	__EPS__
w	w
i	ie
d	d
e	e
r	r
m	au
a	f
c	ba
h	u
e	e
n	n

__BEGIN__	__EPS__
l	l
i	i
e	e
p	b
l	l
i	i
c	c
h	he
s	s

__BEGIN__	__EPS__
e	e
r	r

__BEGIN__	__EPS__
y	ih
n	n

__BEGIN__	__EPS__
b	b
r	r
i	i
e	e
f	f
f	__EPS__

__BEGIN__	__EPS__
d	d
a	a
r	r
i	i
n	n

__BEGIN__	d
u	u

__BEGIN__	__EPS__
a	__EPS__
l	__EPS__
s	s
o	o

__BEGIN__	__EPS__
v	u
n	n
d	d

__BEGIN__	__EPS__
k	k
u	a
m	m
e	e
n	n

__BEGIN__	__EPS__
c	k
h	__EPS__
i	i
n	n
d	d

__BEGIN__	__EPS__
y	ih
n	n

__BEGIN__	__EPS__
d	d
a	a

__BEGIN__	__EPS__
d	d
o	a

__BEGIN__	__EPS__
g	g
e	e
m	m
e	e
i	i
n	n
e	e
n	n

__BEGIN__	__EPS__
g	g
e	e
s	s
c	c
h	heh
e	e

__BEGIN__	__EPS__
d	d
i	i
e	e

__BEGIN__	__EPS__
w	w
a	o

__BEGIN__	__EPS__
g	g
e	e
s	s
c	c
h	h
e	eh
i	e
n	n

__BEGIN__	__EPS__
r	r
u	ü
g	c
g	k
l	l
i	i
n	n
g	g
e	__EPS__
n	s

__BEGIN__	__EPS__
g	g
i	i
e	__EPS__
n	n
g	g
e	e
n	n
d	__EPS__

__BEGIN__	__EPS__
i	i
c	c
h	h

__BEGIN__	__EPS__
l	l
i	i
e	e
s	s
s	s
e	e
n	n

__BEGIN__	__EPS__
g	g
r	r
a	a
b	b
e	__EPS__

__BEGIN__	__EPS__
z	z
e	e
r	r
r	r
a	e
i	i
s	s
s	se

__BEGIN__	__EPS__
a	a
u	u
f	f
f	__EPS__

__BEGIN__	__EPS__
c	k
h	__EPS__
i	i
n	n
d	d

__BEGIN__	__EPS__
w	p
y	r
s	o
a	p
g	h
e	et

__BEGIN__	__EPS__
m	m
y	i
t	t

__BEGIN__	__EPS__
s	s
o	oh
n	n

__BEGIN__	__EPS__
s	s
a	a
h	h
e	__EPS__

__BEGIN__	__EPS__
a	e
i	i
n	n
e	e
n	n

__BEGIN__	__EPS__
i	i
n	n

__BEGIN__	__EPS__
s	s
e	e
i	i
n	n

__BEGIN__	__EPS__
u	ü
b	b
e	e
r	r

__BEGIN__	__EPS__
k	k
o	o
l	l
b	b
e	e
n	n

__BEGIN__	__EPS__
s	s
o	o

__BEGIN__	__EPS__
i	j
e	ä
m	mm
e	e
r	r
l	l
i	i
c	c
h	h
e	e

__BEGIN__	__EPS__
v	u
n	n
d	d

__BEGIN__	__EPS__
d	d
e	e
s	s

__BEGIN__	__EPS__
m	m
i	i
r	r

__BEGIN__	__EPS__
i	ih
n	n

__BEGIN__	__EPS__
h	h
a	a
b	be

__BEGIN__	__EPS__
h	h
o	au
b	p
t	t

__BEGIN__	__EPS__
w	w
e	ä
r	r
e	__EPS__
s	s
t	t

__BEGIN__	__EPS__
s	sch
w	w
e	e
i	i
c	g
h	e

__BEGIN__	__EPS__
l	l
a	a
i	__EPS__
s	s
s	s
e	e
n	n

__BEGIN__	__EPS__
h	h
a	a
i	__EPS__
t	t

__BEGIN__	__EPS__
d	d
e	e
m	m

__BEGIN__	__EPS__
d	d
a	a
s	ss

__BEGIN__	__EPS__
d	d
a	a
i	__EPS__
r	__EPS__
v	f
u	ü
r	r

__BEGIN__	__EPS__
d	d
e	e
r	r

__BEGIN__	__EPS__
v	u
n	n
d	d

__BEGIN__	__EPS__
v	u
m	m
b	__EPS__
e	__EPS__

__BEGIN__	__EPS__
p	p
y	i
l	l
a	a
t	t
u	u
s	s

__BEGIN__	__EPS__
i	j
h	__EPS__
e	e
r	r
ü	u
s	s
a	a
l	l
e	e
m	m

__BEGIN__	__EPS__
m	m
e	e
i	i
n	n

__BEGIN__	__EPS__
a	a
l	l
l	l
e	e
r	r

__BEGIN__	__EPS__
c	k
h	__EPS__
i	i
n	n
d	d

__BEGIN__	__EPS__
s	s
y	i
m	m
e	e
o	o
n	n
s	s

__BEGIN__	__EPS__
s	s
y	ie

__BEGIN__	__EPS__
w	w
e	e
n	nn

__BEGIN__	__EPS__
f	f
v	ü
e	s
z	s
e	e
n	n

__BEGIN__	__EPS__
w	w
a	a
s	r

__BEGIN__	__EPS__
e	e
s	s

__BEGIN__	__EPS__
g	g
e	e
t	t
a	e
i	i
l	l
t	t

__BEGIN__	__EPS__
l	l
a	a
n	n
g	g
e	e

__BEGIN__	__EPS__
d	de
i	i
n	n
e	e

__BEGIN__	__EPS__
d	d
e	e
n	n

__BEGIN__	__EPS__
i	ih
m	m

__BEGIN__	__EPS__
v	v
o	o
n	n

__BEGIN__	__EPS__
v	u
n	n
s	s

__BEGIN__	__EPS__
a	a
n	n
s	s
h	__EPS__
e	e
l	l
m	m
u	__EPS__
s	__EPS__

__BEGIN__	__EPS__
v	u
n	n
d	d

__BEGIN__	__EPS__
t	t
o	o
c	c
h	h
t	t
e	e
r	r

__BEGIN__	__EPS__
c	k
r	r
e	e
u	u
c	__EPS__
z	z
e	__EPS__

__BEGIN__	__EPS__
t	t
u	u
c	c
h	h

__BEGIN__	__EPS__
w	w
e	a
r	r
t	d

__BEGIN__	__EPS__
a	a
u	u
f	f

__BEGIN__	__EPS__
d	d
e	e
r	r

__BEGIN__	__EPS__
s	m
c	__EPS__
h	ö
a	r
c	__EPS__
h	d
e	e
r	r

__BEGIN__	__EPS__
i	i
c	c
h	h

__BEGIN__	__EPS__
d	d
i	i
e	e

__BEGIN__	__EPS__
e	e
r	r

__BEGIN__	__EPS__
i	i
c	c
h	h

__BEGIN__	__EPS__
h	h
u	__EPS__
o	o
b	b

__BEGIN__	__EPS__
v	v
i	ie
l	l

__BEGIN__	__EPS__
d	d
o	a

__BEGIN__	__EPS__
h	h
y	i
m	mm
e	e
l	l
r	re
i	i
c	c
h	h

__BEGIN__	__EPS__
m	l
i	i
n	e
n	b
e	e
k	v
l	o
i	l
c	__EPS__
h	l
e	e
s	s

__BEGIN__	__EPS__
i	i
c	c
h	h

__BEGIN__	__EPS__
s	s
c	c
h	h
i	i
e	e
d	d

__BEGIN__	__EPS__
a	a
l	l
l	l
e	e
s	s

__BEGIN__	__EPS__
c	k
r	re
u	u
c	z
e	e

__BEGIN__	__EPS__
s	s
i	i
c	c
h	h

__BEGIN__	__EPS__
s	s
o	o

__BEGIN__	__EPS__
t	t
r	r
a	a
g	g
e	e
n	n

__BEGIN__	__EPS__
w	w
i	i
l	l
t	l

__BEGIN__	__EPS__
d	d
e	e
m	m

__BEGIN__	__EPS__
z	z
a	e
i	i
c	c
h	h
e	e
n	n

__BEGIN__	__EPS__
v	u
n	n
d	d

__BEGIN__	__EPS__
t	t
o	ö
e	__EPS__
d	t
e	e
n	n

__BEGIN__	__EPS__
w	w
i	i
r	r

__BEGIN__	__EPS__
v	u
n	n
d	d

__BEGIN__	a
v	u
f	f

__BEGIN__	__EPS__
i	j
a	a
m	mm
e	e
r	r

__BEGIN__	__EPS__
p	p
i	i
l	l
a	a
t	t
u	u
s	s

__BEGIN__	__EPS__
w	w
a	a
r	r
t	d

__BEGIN__	__EPS__
m	m
e	e
m	m
e	e
n	n
t	t
o	o

__BEGIN__	__EPS__
t	t
a	a
g	g
e	e
s	s

__BEGIN__	__EPS__
v	u
i	__EPS__
n	n
s	s

__BEGIN__	__EPS__
h	h
a	a
b	be

__BEGIN__	__EPS__
w	w
i	a
r	r

__BEGIN__	__EPS__
n	n
a	ah
m	men

__BEGIN__	__EPS__
n	n
i	ich
t	t

__BEGIN__	__EPS__
l	l
a	a
n	n
g	g
e	e

__BEGIN__	__EPS__
d	d
u	u

__BEGIN__	__EPS__
v	u
n	n
d	d

__BEGIN__	__EPS__
z	z
u	u

__BEGIN__	__EPS__
m	m
i	i
r	r

__BEGIN__	__EPS__
d	d
a	a
z	ss

__BEGIN__	__EPS__
a	a
n	n
t	t
l	l
i	it
z	z

__BEGIN__	__EPS__
h	h
e	ä
t	t
t	t
e	e

__BEGIN__	__EPS__
s	s
i	i
m	m
e	e
o	o
-	ns

__BEGIN__	__EPS__
w	w
a	a
s	r

__BEGIN__	__EPS__
s	s
e	e
i	i
n	n

__BEGIN__	__EPS__
s	s
p	p
o	ot
t	t

__BEGIN__	__EPS__
w	w
o	o

__BEGIN__	__EPS__
d	d
i	i
e	e

__BEGIN__	__EPS__
d	d
o	a

__BEGIN__	__EPS__
d	d
o	a

__BEGIN__	__EPS__
s	s
i	i
c	c
h	h

__BEGIN__	__EPS__
e	e
i	i
n	n

__BEGIN__	__EPS__
m	me
i	i
n	n

__BEGIN__	__EPS__
d	da
z	s

__BEGIN__	__EPS__
d	da
z	ss

__BEGIN__	__EPS__
t	t
h	__EPS__
u	u
n	n

__BEGIN__	__EPS__
d	d
e	e
r	r

__BEGIN__	__EPS__
d	d
o	a

__BEGIN__	__EPS__
s	s
y	ie

__BEGIN__	__EPS__
d	d
u	u

__BEGIN__	d
u	u

__BEGIN__	__EPS__
d	d
a	a
s	s

__BEGIN__	__EPS__
e	e
r	r

__BEGIN__	__EPS__
v	u
n	n
d	d

__BEGIN__	__EPS__
h	h
a	a
n	b

__BEGIN__	__EPS__
a	e
i	i
n	n
e	e
r	r

__BEGIN__	__EPS__
s	s
e	e
c	c
h	h
s	s
t	te

__BEGIN__	__EPS__
m	me
y	i
n	n
e	e

__BEGIN__	__EPS__
c	__EPS__
z	z
u	u

__BEGIN__	__EPS__
d	d
i	i
t	e
z	s
e	e

__BEGIN__	__EPS__
d	t
o	o
i	__EPS__
t	t

__BEGIN__	__EPS__
m	m
a	a
n	n

__BEGIN__	__EPS__
m	m
a	a
n	n

__BEGIN__	__EPS__
z	z
u	u

__BEGIN__	__EPS__
n	n
a	a
c	c
h	h

__BEGIN__	__EPS__
m	m
ü	ü
s	ss
t	t
e	e
n	n

__BEGIN__	__EPS__
w	w
y	i
r	r

__BEGIN__	__EPS__
t	t
h	h
r	r
o	o
i	__EPS__
n	n

__BEGIN__	__EPS__
c	k
h	__EPS__
i	i
n	n
d	d
e	__EPS__

__BEGIN__	__EPS__
e	e
r	r

__BEGIN__	__EPS__
a	a
b	b
e	e
r	r

__BEGIN__	__EPS__
t	z
z	e
o	r
r	r
e	e
i	i
s	s
s	se

__BEGIN__	__EPS__
s	s
e	e
i	i
t	t
t	__EPS__
e	e
n	n

__BEGIN__	__EPS__
u	u
n	n
d	d

__BEGIN__	__EPS__
d	d
a	a
s	ss

__BEGIN__	__EPS__
l	l
e	e
g	g
t	t
e	e
n	n

__BEGIN__	__EPS__
v	u
n	n
d	d

__BEGIN__	__EPS__
a	a
n	n

__BEGIN__	__EPS__
a	a
u	u
s	s
s	s
e	ä
c	t
z	z
i	i
g	g

__BEGIN__	__EPS__
s	s
p	p
r	r
a	a
c	c
h	h

__BEGIN__	__EPS__
d	d
o	a

__BEGIN__	__EPS__
i	i
s	s
t	t

__BEGIN__	__EPS__
s	s
y	ie

__BEGIN__	__EPS__
v	u
n	n
s	s

__BEGIN__	__EPS__
e	e
r	r

__BEGIN__	__EPS__
y	je

__BEGIN__	__EPS__
w	w
a	a
r	r
t	d

__BEGIN__	__EPS__
m	m
e	e
i	i
n	n

__BEGIN__	__EPS__
d	d
i	i
e	e

__BEGIN__	__EPS__
v	u
n	n
d	d

__BEGIN__	__EPS__
f	f
u	üh
r	r
t	t
e	e
n	n

__BEGIN__	__EPS__
s	s
a	a
c	__EPS__
h	h

__BEGIN__	__EPS__
y	ih
r	r

__BEGIN__	__EPS__
o	o
w	w
e	eh

__BEGIN__	__EPS__
g	g
e	e
r	r
i	i
c	c
h	h
t	tet

__BEGIN__	__EPS__
d	d
a	a
s	ss

__BEGIN__	__EPS__
g	g
o	o
t	tt

__BEGIN__	__EPS__
m	m
a	a
r	r
i	i
a	a

__BEGIN__	__EPS__
i	j
o	o
h	h
a	a
n	n
n	n
e	e
s	s

__BEGIN__	__EPS__
e	e
i	i
n	nen

__BEGIN__	__EPS__
v	u
n	n
d	d

__BEGIN__	__EPS__
e	e
r	r

__BEGIN__	__EPS__
d	d
e	e
m	m

__BEGIN__	__EPS__
l	l
a	a
i	s
s	s

__BEGIN__	__EPS__
s	s
e	e
i	i
n	n
e	e
w	__EPS__

__BEGIN__	__EPS__
g	g
o	o
t	tt
e	e
s	s

__BEGIN__	__EPS__
i	i
s	s
t	t

__BEGIN__	__EPS__
o	a
u	u
c	c
h	h

__BEGIN__	__EPS__
g	g
a	a
r	r

__BEGIN__	__EPS__
n	n
i	ic
h	h
t	t

__BEGIN__	__EPS__
e	i
m	h
e	m

__BEGIN__	__EPS__
w	w
e	e
r	r

__BEGIN__	__EPS__
w	w
a	a
z	r

__BEGIN__	__EPS__
t	t
o	ö
e	__EPS__
t	t
e	e
t	t
e	e
n	n

__BEGIN__	a
v	u
f	f

__BEGIN__	__EPS__
s	s
a	a
g	g

__BEGIN__	__EPS__
i	ih
n	n

__BEGIN__	__EPS__
d	d
o	a
v	v
o	o
n	n

__BEGIN__	__EPS__
e	e
r	r

__BEGIN__	__EPS__
n	n
i	ich
t	t

__BEGIN__	__EPS__
t	t
e	ä
t	t
t	__EPS__
e	e
n	n

__BEGIN__	__EPS__
v	v
y	ie
l	l

__BEGIN__	__EPS__
c	__EPS__
h	k
l	l
a	a
g	g
e	e

__BEGIN__	__EPS__
k	k
i	i
n	n
t	d

__BEGIN__	__EPS__
a	a
b	b
e	e
r	r

__BEGIN__	__EPS__
a	a
l	l
l	l
e	e

__BEGIN__	__EPS__
g	g
a	a
r	r

__BEGIN__	__EPS__
m	m
i	i
t	t

__BEGIN__	__EPS__
n	n
i	ich
t	t

__BEGIN__	__EPS__
g	g
e	e
a	a
n	n
t	t
w	w
u	o
e	__EPS__
r	r
t	tet

__BEGIN__	__EPS__
k	k
l	l
a	a
g	g
e	e

__BEGIN__	__EPS__
v	v
o	e
r	r
s	s
a	a
g	g
e	e
n	n

__BEGIN__	__EPS__
u	a
f	u
f	f

__BEGIN__	__EPS__
a	a
n	n

__BEGIN__	__EPS__
s	s
e	i
w	e

__BEGIN__	__EPS__
d	d
o	a

__BEGIN__	__EPS__
d	d
a	e
e	h
n	n
t	t
e	e
n	n
d	__EPS__

__BEGIN__	__EPS__
b	b
l	l
e	e
i	i
b	be

__BEGIN__	__EPS__
n	n
y	i
e	e

__BEGIN__	__EPS__
t	t
o	o
e	__EPS__
t	t
e	e
n	n

__BEGIN__	__EPS__
w	w
i	i
r	r

__BEGIN__	__EPS__
w	w
i	i
z	s
z	s
e	e
n	n

__BEGIN__	__EPS__
s	s
y	ie

__BEGIN__	__EPS__
v	u
n	n
d	d

__BEGIN__	__EPS__
h	h
e	e
y	i
l	li
g	g
e	e
r	r

__BEGIN__	__EPS__
a	a
l	l
l	l
e	e
n	n

__BEGIN__	__EPS__
h	h
a	a
t	t
t	t
o	e
n	n

__BEGIN__	__EPS__
k	k
u	ö
n	ni
g	g

__BEGIN__	__EPS__
e	e
i	i
n	n
e	e
n	n

__BEGIN__	__EPS__
l	l
a	a
s	s
t	t
e	e
r	r

__BEGIN__	__EPS__
k	k
a	e
i	i
n	n

__BEGIN__	__EPS__
m	m
i	i
t	t

__BEGIN__	__EPS__
w	w
i	i
l	ll

__BEGIN__	__EPS__
v	u
n	n
d	d

__BEGIN__	__EPS__
w	w
i	i
r	r
t	d

__BEGIN__	__EPS__
i	j
e	äm
m	m
e	e
r	r
l	l
i	i
c	c
h	h
e	e

__BEGIN__	__EPS__
h	h
e	e
r	r
c	__EPS__
z	z

__BEGIN__	__EPS__
g	g
e	e
s	sch
l	l
a	a
g	g
e	e
n	n

__BEGIN__	__EPS__
s	s
c	c
h	h
r	r
y	i
r	__EPS__
e	e
n	n

__BEGIN__	__EPS__
z	zu

__BEGIN__	__EPS__
a	a
r	r
m	m
u	u
o	__EPS__
t	t

__BEGIN__	__EPS__
t	t
o	o
t	d

__BEGIN__	__EPS__
w	w
u	u
n	n
n	de
i	r
g	v
k	o
l	l
i	__EPS__
c	__EPS__
h	l

__BEGIN__	__EPS__
g	g
r	r
o	o
s	s
z	s

__BEGIN__	__EPS__
s	se
i	i
n	n

__BEGIN__	__EPS__
s	s
y	ie

__BEGIN__	a
u	u
f	f

__BEGIN__	__EPS__
y	ih
n	n

__BEGIN__	__EPS__
s	s
i	i
n	n
t	d

__BEGIN__	__EPS__
a	a
m	m
e	e
n	n

__BEGIN__	__EPS__
g	__EPS__
e	__EPS__
l	l
e	e
i	i
d	de

__BEGIN__	__EPS__
w	w
i	i
r	r

__BEGIN__	__EPS__
v	v
o	o
n	n

__BEGIN__	__EPS__
s	s
i	i
e	e

__BEGIN__	__EPS__
e	e
r	r

__BEGIN__	__EPS__
m	m
i	i
c	c
h	h
:	__EPS__

__BEGIN__	__EPS__
d	d
r	r
y	__EPS__
e	e
r	__EPS__
h	__EPS__
a	i
n	__EPS__
d	__EPS__
e	__EPS__

__BEGIN__	__EPS__
n	n
i	i
c	c
h	h
t	t

__BEGIN__	__EPS__
s	s
i	ie

__BEGIN__	__EPS__
n	n
y	i
e	e

__BEGIN__	__EPS__
e	e
r	r

__BEGIN__	__EPS__
i	j
u	u
d	d
e	e
n	n

__BEGIN__	__EPS__
g	g
e	e
w	w
a	a
l	l
t	t

__BEGIN__	__EPS__
s	s
i	i
j	e

__BEGIN__	__EPS__
s	s
i	i
e	e

__BEGIN__	__EPS__
d	d
e	e
r	r

__BEGIN__	__EPS__
d	d
o	a

__BEGIN__	__EPS__
m	m
a	a
n	nn

__BEGIN__	__EPS__
m	me
i	i
n	n

__BEGIN__	__EPS__
i	ih
m	m

__BEGIN__	__EPS__
y	ih
n	n

__BEGIN__	__EPS__
d	d
a	a

__BEGIN__	__EPS__
i	ih
m	m

__BEGIN__	__EPS__
v	u
n	n
d	d

__BEGIN__	__EPS__
z	z
u	u

__BEGIN__	__EPS__
h	h
e	a
t	t
t	__EPS__

__BEGIN__	__EPS__
w	w
o	oh
l	l

__BEGIN__	__EPS__
d	d
e	e
r	r

__BEGIN__	__EPS__
v	f
r	r
o	a
w	u
e	e
n	n

__BEGIN__	__EPS__
g	g
r	r
o	o
s	s
s	s
e	e
m	m

__BEGIN__	__EPS__
f	f
r	r
a	e
i	u
d	d
e	e
n	n

__BEGIN__	__EPS__
d	d
o	a

__BEGIN__	__EPS__
n	n
a	ac
h	h
t	t

__BEGIN__	__EPS__
h	h
y	i
m	mm
e	e
l	l

__BEGIN__	__EPS__
s	s
e	e
c	__EPS__
h	h
t	t

__BEGIN__	__EPS__
i	i
s	s
t	t

__BEGIN__	__EPS__
s	s
t	t
u	u
n	n
d	d
e	e

__BEGIN__	__EPS__
m	me
y	i
n	n

__BEGIN__	__EPS__
m	m
i	i
t	t

__BEGIN__	__EPS__
i	i
s	s
t	t

__BEGIN__	__EPS__
v	u
n	n
d	d

__BEGIN__	__EPS__
m	me
i	i
n	n
e	e
n	m

__BEGIN__	__EPS__
h	e
e	r

__BEGIN__	__EPS__
d	d
e	e
i	i
n	n
e	e
r	r

__BEGIN__	__EPS__
d	d
e	e
r	r

__BEGIN__	__EPS__
s	s
o	o

__BEGIN__	__EPS__
l	l
i	ieg
t	t

__BEGIN__	__EPS__
m	m
e	e
i	i
n	n

__BEGIN__	__EPS__
y	ih
m	m

__BEGIN__	__EPS__
d	d
i	i
e	e

__BEGIN__	__EPS__
d	d
i	i
e	e

__BEGIN__	__EPS__
d	d
e	e
m	m

__BEGIN__	__EPS__
d	d
o	a

__BEGIN__	__EPS__
w	w
a	a
s	r

__BEGIN__	__EPS__
s	s
t	t
a	ad
t	t

__BEGIN__	__EPS__
v	u
n	n
d	d

__BEGIN__	__EPS__
d	d
o	a

__BEGIN__	__EPS__
a	w
h	e
t	is
e	e

__BEGIN__	__EPS__
d	d
e	e
i	i
n	n
e	e

__BEGIN__	__EPS__
t	t
a	e
i	i
l	le
n	n

__BEGIN__	__EPS__
d	d
e	e
z	s

__BEGIN__	__EPS__
c	__EPS__
z	z
w	w
a	e
i	ie
n	n

__BEGIN__	__EPS__
h	e
e	r

__BEGIN__	__EPS__
y	ih
m	m

__BEGIN__	__EPS__
v	u
i	__EPS__
n	n
s	s
e	e
r	r

__BEGIN__	__EPS__
f	f
r	r
o	ö
e	h
l	l
e	__EPS__
i	i
c	c
h	h

__BEGIN__	__EPS__
p	p
i	i
a	a

__BEGIN__	__EPS__
k	k
i	i
n	n
t	d

__BEGIN__	__EPS__
w	w
i	i
r	r

__BEGIN__	__EPS__
y	ih
n	n

__BEGIN__	__EPS__
e	e
y	i
n	n
i	i
g	g
e	e
n	n

__BEGIN__	__EPS__
n	n
i	i
c	c
h	h
t	t

__BEGIN__	__EPS__
e	e
z	s
z	s
e	__EPS__
i	i
c	g
h	__EPS__

__BEGIN__	__EPS__
s	s
u	__EPS__
o	oh
n	n

__BEGIN__	__EPS__
i	ih
n	n

__BEGIN__	__EPS__
l	l
e	e
d	d
i	i
g	g

__BEGIN__	__EPS__
w	w
a	a
n	n
g	ge

__BEGIN__	__EPS__
s	s
y	ie

__BEGIN__	__EPS__
c	k
l	l
a	a
g	g
e	e
n	n

__BEGIN__	__EPS__
b	b
e	e
g	g
i	ie
r	r
l	__EPS__
i	i
c	g
h	e
s	s

__BEGIN__	__EPS__
v	u
n	n
d	d

__BEGIN__	__EPS__
s	s
p	p
r	r
a	a
c	c
h	h

__BEGIN__	__EPS__
d	d
a	a
z	s

__BEGIN__	__EPS__
z	z
w	u

__BEGIN__	__EPS__
w	w
a	a
s	r
z	__EPS__

__BEGIN__	__EPS__
m	m
a	a
n	n
c	c
h	h
i	e
n	n

__BEGIN__	__EPS__
i	i
c	c
h	h

__BEGIN__	__EPS__
d	d
y	ie

__BEGIN__	__EPS__
c	k
r	re
u	u
c	z
i	ig
e	e
n	n

__BEGIN__	__EPS__
s	s
p	p
r	r
a	a
c	c
h	h

__BEGIN__	__EPS__
i	ih
n	n

__BEGIN__	__EPS__
w	d
a	e
n	n
t	n

__BEGIN__	__EPS__
h	h
o	ö
r	r
e	__EPS__

__BEGIN__	__EPS__
m	m
u	u
s	s
z	s

__BEGIN__	__EPS__
s	s
y	ie

__BEGIN__	__EPS__
m	m
i	i
c	c
h	h

__BEGIN__	__EPS__
k	k
i	i
n	n
t	d
h	h
e	e
i	i
t	t

__BEGIN__	__EPS__
l	l
i	i
e	e
b	b
s	s
t	t
e	e
w	__EPS__

__BEGIN__	__EPS__
h	h
a	a
n	n
t	d

__BEGIN__	__EPS__
s	s
p	p
a	a
r	r
e	e
n	n

__BEGIN__	__EPS__
s	sc
h	h
r	r
v	__EPS__
i	i
w	__EPS__
e	e
n	n

__BEGIN__	__EPS__
s	s
e	ec
h	h
s	s
t	t
e	e
n	n

__BEGIN__	__EPS__
d	d
e	e
i	i
n	n

__BEGIN__	__EPS__
v	u
n	n
d	d

__BEGIN__	__EPS__
s	s
c	c
h	h
n	n
o	ö
e	__EPS__
d	d
e	e
r	r
e	e

__BEGIN__	__EPS__
c	__EPS__
h	k
a	e
i	i
n	n

__BEGIN__	__EPS__
z	z
u	u
o	__EPS__

__BEGIN__	__EPS__
s	s
i	ie

__BEGIN__	__EPS__
e	n
n	icht

__BEGIN__	__EPS__
h	h
a	a
n	n
g	g
e	e
n	n

__BEGIN__	__EPS__
v	v
o	o
n	n

__BEGIN__	__EPS__
g	g
r	r
o	o
s	s
z	s

__BEGIN__	__EPS__
t	t
r	r
o	o
s	s
t	t

__BEGIN__	__EPS__
z	z
a	a
r	r
t	t
v	__EPS__
i	e

__BEGIN__	__EPS__
m	me
i	i
n	n
e	e
s	s

__BEGIN__	__EPS__
w	w
i	i
s	s
s	s
e	e
n	n
d	__EPS__

__BEGIN__	__EPS__
v	u
n	n
d	d

__BEGIN__	__EPS__
s	s
u	oh
n	n

__BEGIN__	__EPS__
e	e
r	r
t	d
r	re
i	i
c	c
h	h

__BEGIN__	__EPS__
s	s
o	oh
n	n

__BEGIN__	__EPS__
d	d
i	i
e	e

__BEGIN__	__EPS__
t	t
e	a
t	t
e	e
n	n

__BEGIN__	__EPS__
d	t
o	u
i	__EPS__
n	n

__BEGIN__	__EPS__
d	d
i	i
e	e

__BEGIN__	__EPS__
e	e
r	r
b	b
e	a
r	r
m	m
d	e
e	n

__BEGIN__	__EPS__
h	h
i	i
e	e
s	ss

__BEGIN__	__EPS__
v	v
o	o
n	n

__BEGIN__	__EPS__
h	h
u	ü
e	__EPS__
t	t
e	e
n	n

__BEGIN__	__EPS__
g	g
r	r
a	a
m	m

__BEGIN__	__EPS__
s	s
e	ee
l	l
e	en

__BEGIN__	__EPS__
s	s
e	e
i	i
n	n

__BEGIN__	__EPS__
s	sch
w	w
e	e
r	r
e	e

__BEGIN__	__EPS__
d	d
u	u
r	r
c	c
h	h

__BEGIN__	__EPS__
p	p
e	e
t	t
r	r
ü	u
s	s

__BEGIN__	__EPS__
a	a

__BEGIN__	__EPS__
a	a
l	l
l	l
e	e
t	s

__BEGIN__	__EPS__
g	g
e	e
w	w
o	oh
n	n
h	h
e	e
i	i
t	t

__BEGIN__	__EPS__
h	h
a	a
n	n
t	d

__BEGIN__	__EPS__
v	v
o	o
l	l
c	__EPS__
k	k

__BEGIN__	__EPS__
k	k
i	i
n	n
t	d

__BEGIN__	__EPS__
g	g
o	o
t	t
t	t
e	e
s	s

__BEGIN__	__EPS__
g	__EPS__
e	__EPS__
t	t
r	r
o	ö
s	s
t	t
e	e
n	n

__BEGIN__	__EPS__
m	m
y	e
n	n
s	s
c	c
h	h
e	e
n	n

__BEGIN__	__EPS__
i	ih
m	m

__BEGIN__	__EPS__
c	k
r	r
e	e
u	u
c	__EPS__
z	z

__BEGIN__	__EPS__
w	w
o	o
l	ll
t	t
e	e

__BEGIN__	__EPS__
i	ih
m	m

__BEGIN__	__EPS__
d	d
e	e
m	m

__BEGIN__	__EPS__
g	g
e	e
l	l
e	e
g	g
i	e
n	n

__BEGIN__	__EPS__
h	h
i	i
e	er

__BEGIN__	__EPS__
d	d
i	i
e	e

__BEGIN__	__EPS__
m	me
y	i
n	n
e	e
n	n

__BEGIN__	__EPS__
d	d
o	a

__BEGIN__	__EPS__
m	m
e	e
i	i
n	n

__BEGIN__	__EPS__
g	g
e	e
w	w
e	e
s	s
e	e
n	n

__BEGIN__	__EPS__
h	h
a	a
n	b
t	t

__BEGIN__	__EPS__
g	g
e	e
s	s
e	e
t	t
z	z
e	e

__BEGIN__	__EPS__
w	w
a	a
z	ss
e	e
r	r

__BEGIN__	__EPS__
d	d
e	e
r	r

__BEGIN__	__EPS__
w	w
a	a
z	r

__BEGIN__	__EPS__
g	g
e	e
m	m
a	a
c	c
h	h
t	t

__BEGIN__	__EPS__
d	d
a	a
r	__EPS__
w	w
i	i
d	d
e	e
r	r

__BEGIN__	__EPS__
d	d
e	e
m	m

__BEGIN__	__EPS__
f	f
r	r
a	a
n	n
k	k
r	re
i	i
c	c
h	h

__BEGIN__	__EPS__
k	k
l	l
e	ä
g	g
l	l
i	i
c	c
h	h

__BEGIN__	__EPS__
e	e
r	r

__BEGIN__	__EPS__
e	e
z	s

__BEGIN__	__EPS__
t	t
r	r
u	u
k	g
t	__EPS__

__BEGIN__	__EPS__
d	d
i	i
e	e

__BEGIN__	__EPS__
g	__EPS__
e	__EPS__
s	s
c	c
h	h
r	r
i	i
f	f
t	t

__BEGIN__	__EPS__
s	s
c	c
h	h
u	u
l	l
d	d
e	e
n	n

__BEGIN__	__EPS__
d	d
a	a
z	ss

__BEGIN__	__EPS__
v	u
n	n
d	d

__BEGIN__	__EPS__
s	s
o	o

__BEGIN__	__EPS__
d	d
o	a

__BEGIN__	__EPS__
e	e
s	s

__BEGIN__	__EPS__
d	d
a	a
s	ss

__BEGIN__	__EPS__
i	ih
m	m

__BEGIN__	__EPS__
y	ih
n	n

__BEGIN__	__EPS__
w	w
i	o
l	l
l	l
e	e
n	n

__BEGIN__	__EPS__
r	r
e	e
c	c
h	h
t	t
e	e
r	r

__BEGIN__	__EPS__
v	b
n	i
t	__EPS__
z	s

__BEGIN__	__EPS__
m	m
e	e
i	i
n	n

__BEGIN__	__EPS__
m	m
i	i
c	c
h	h

__BEGIN__	__EPS__
u	ü
b	b
e	e
r	r

__BEGIN__	__EPS__
s	se
y	i
m	n
e	em

__BEGIN__	__EPS__
a	a
l	l
l	l
e	e
s	s

__BEGIN__	__EPS__
t	t
u	u
o	__EPS__
t	t

__BEGIN__	__EPS__
s	s
o	o
l	ll
t	t
i	e

__BEGIN__	__EPS__
s	s
o	o

__BEGIN__	__EPS__
s	s
p	p
r	r
a	a
c	c
h	h

__BEGIN__	__EPS__
l	l
a	as
z	s
e	e
n	n

__BEGIN__	__EPS__
m	m
a	a
n	n

__BEGIN__	__EPS__
n	n
i	i
c	c
h	h
t	t

__BEGIN__	__EPS__
s	se
i	i
n	n
e	e

__BEGIN__	__EPS__
v	u
n	n
d	d
a	a
n	n
g	k
b	b
a	a
r	r
k	k
e	e
i	i
t	t
h	__EPS__

__BEGIN__	__EPS__
w	w
a	a
z	s

__BEGIN__	__EPS__
g	g
l	l
a	a
u	u
b	b

__BEGIN__	__EPS__
v	__EPS__
o	e
r	r
n	ne
ü	u
e	er
t	t
e	e

__BEGIN__	__EPS__
d	d
o	a

__BEGIN__	__EPS__
g	g
e	e
s	s
c	c
h	h
e	e
h	h
e	e
n	n

__BEGIN__	__EPS__
d	d
a	a
s	ss

__BEGIN__	__EPS__
k	k
e	e
i	i
n	n

__BEGIN__	__EPS__
h	h
e	e
r	r
t	__EPS__
z	z
e	e
n	__EPS__
l	l
a	e
i	i
d	d

__BEGIN__	__EPS__
w	w
i	i
l	l
l	l
e	e

__BEGIN__	__EPS__
s	s
i	i
c	c
h	h

__BEGIN__	__EPS__
a	a
l	l
l	l

__BEGIN__	__EPS__
f	w
e	e
r	i
r	t

__BEGIN__	__EPS__
g	g
e	e
s	s
p	p
a	a
n	n
t	n
t	t
e	e
n	n

__BEGIN__	__EPS__
e	e
i	i
n	n

__BEGIN__	__EPS__
d	d
i	i
e	e

__BEGIN__	__EPS__
n	n
o	o
c	c
h	h

__BEGIN__	__EPS__
a	a
l	l
l	l
e	e
s	s

__BEGIN__	__EPS__
h	h
e	a
t	t

__BEGIN__	__EPS__
t	t
o	o
t	t
t	__EPS__
e	e
n	n

__BEGIN__	__EPS__
m	m
i	i
r	r

__BEGIN__	__EPS__
h	h
e	er
r	r
e	e
n	n

__BEGIN__	__EPS__
c	__EPS__
z	z
a	a
r	r
t	t
e	e
s	s

__BEGIN__	__EPS__
e	i
m	h
e	m

__BEGIN__	__EPS__
n	n
i	i
c	c
h	h
t	t

__BEGIN__	__EPS__
g	__EPS__
e	__EPS__
c	k
l	l
a	a
g	g
e	e
n	n

__BEGIN__	__EPS__
k	k
u	ö
i	n
n	i
g	g
r	re
i	i
c	c
h	h

__BEGIN__	__EPS__
s	s
o	o

__BEGIN__	__EPS__
a	a
n	n

__BEGIN__	__EPS__
d	d
o	a

__BEGIN__	__EPS__
b	b
u	u
c	c
h	h

__BEGIN__	__EPS__
o	o
w	w
e	e
e	h

__BEGIN__	__EPS__
e	e
r	r

__BEGIN__	__EPS__
s	s
t	t
r	r
a	a
f	f
f	f
e	e

__BEGIN__	__EPS__
v	u
n	n
d	d

__BEGIN__	__EPS__
s	s
a	a
g	g
e	e

__BEGIN__	__EPS__
m	me
y	i
n	n

__BEGIN__	__EPS__
d	d
o	a

__BEGIN__	__EPS__
v	v
u	o
r	r

__BEGIN__	__EPS__
h	h
a	ah
n	n

__BEGIN__	__EPS__
v	v
o	o
r	r

__BEGIN__	__EPS__
l	l
i	i
e	e
s	s
s	s
e	e
n	n

__BEGIN__	__EPS__
t	__EPS__
z	z
o	o
i	__EPS__
g	g
e	e
n	n

__BEGIN__	__EPS__
e	e
b	b
i	e
n	n

__BEGIN__	__EPS__
v	v
u	e
r	r
p	b
o	o
t	t
i	e
n	n

__BEGIN__	__EPS__
c	ch
r	r
i	i
s	s
t	t
u	u
s	s

__BEGIN__	__EPS__
s	s
y	ie

__BEGIN__	__EPS__
m	m
e	e
i	i
n	n

__BEGIN__	__EPS__
t	t
e	e
m	m
p	p
e	e
l	l

__BEGIN__	__EPS__
t	t
a	a
g	g

__BEGIN__	__EPS__
e	e
r	r

__BEGIN__	__EPS__
o	a
u	u
c	c
h	h

__BEGIN__	__EPS__
s	s
o	o

__BEGIN__	__EPS__
e	e
r	r
h	h
o	ö
e	__EPS__
r	r
t	te

__BEGIN__	__EPS__
.	.
.	.
.	.
g	__EPS__
e	__EPS__
n	__EPS__

__BEGIN__	__EPS__
h	h
e	a
t	t

__BEGIN__	__EPS__
g	g
n	n
a	a
d	d
e	e

__BEGIN__	__EPS__
d	d
e	e
m	m

__BEGIN__	__EPS__
i	i
n	n

__BEGIN__	__EPS__
l	l
e	ä
s	ss
t	t

__BEGIN__	__EPS__
w	w
i	i
e	e

__BEGIN__	__EPS__
m	m
e	e
n	n
s	s
c	c
h	h
e	e
n	n

__BEGIN__	__EPS__
d	d
a	a

__BEGIN__	__EPS__
o	o
w	w
e	eh

__BEGIN__	__EPS__
v	u
n	n
d	d

__BEGIN__	__EPS__
s	s
p	p
r	r
a	a
c	c
h	h

__BEGIN__	__EPS__
d	d
a	a
z	ss

__BEGIN__	__EPS__
w	w
a	a
t	s

__BEGIN__	__EPS__
s	s
i	i
b	b
i	i

__BEGIN__	__EPS__
d	d
o	a

__BEGIN__	__EPS__
v	u
n	n
d	d

__BEGIN__	__EPS__
s	s
e	e
i	i
n	n

__BEGIN__	__EPS__
v	u
n	n
d	d

__BEGIN__	__EPS__
a	a
l	l
l	l
e	e
y	i
n	n

__BEGIN__	__EPS__
d	d
a	a
s	s

__BEGIN__	__EPS__
y	ih
n	n

__BEGIN__	__EPS__
f	f
u	ü
e	s
s	s
z	e

__BEGIN__	__EPS__
c	ch
r	r
i	i
s	s
t	t
i	us

__BEGIN__	__EPS__
h	h
a	a
u	u
p	pt

__BEGIN__	__EPS__
i	ih
m	m

__BEGIN__	__EPS__
d	d
a	a
s	s

__BEGIN__	__EPS__
d	d
e	a

__BEGIN__	__EPS__
v	f
a	a
l	l
s	s
c	c
h	h

__BEGIN__	__EPS__
w	we
y	i
b	b
e	__EPS__

__BEGIN__	__EPS__
b	b
e	e
r	r
i	i
c	c
h	h
t	t
e	e

__BEGIN__	__EPS__
a	a
n	n
t	t
w	w
u	o
r	r
t	tete

__BEGIN__	__EPS__
i	ih
n	n

__BEGIN__	__EPS__
a	a
n	n

__BEGIN__	__EPS__
d	d
i	i
r	r

__BEGIN__	__EPS__
s	s
p	p
o	o
t	t
t	t
e	e
t	t

__BEGIN__	__EPS__
a	e
i	i
n	n
e	e
n	n

__BEGIN__	__EPS__
i	ih
r	r
e	e
n	m

__BEGIN__	__EPS__
v	u
n	n
d	d

__BEGIN__	__EPS__
g	g
r	r
o	o
s	s
s	s
e	e
m	m

__BEGIN__	__EPS__
i	i
n	n

__BEGIN__	__EPS__
w	w
e	e
i	i
n	n
e	e
n	n

__BEGIN__	__EPS__
v	v
o	o
n	n

__BEGIN__	__EPS__
d	d
a	a
s	ss

__BEGIN__	__EPS__
a	a
l	l
s	s

__BEGIN__	__EPS__
n	n
y	i
e	e
d	d
e	e
r	r

__BEGIN__	__EPS__
e	e
r	r

__BEGIN__	__EPS__
d	d
e	e
n	n

__BEGIN__	__EPS__
w	w
u	ü
i	__EPS__
r	r
d	d
y	e

__BEGIN__	__EPS__
a	a
n	n
s	s
h	__EPS__
e	e
l	l
n	m

__BEGIN__	__EPS__
s	s
e	e
i	i
n	n
e	e
r	r

__BEGIN__	__EPS__
p	p
y	i
l	l
a	a
t	t
u	u
s	s

__BEGIN__	__EPS__
n	n
e	eh
m	m
e	e
n	n

__BEGIN__	__EPS__
a	a
n	n

__BEGIN__	__EPS__
d	d
o	a

__BEGIN__	__EPS__
s	s
y	i
e	e

__BEGIN__	__EPS__
w	w
u	u
e	__EPS__
s	s
c	c
h	h

__BEGIN__	__EPS__
s	s
i	i
c	c
h	h

__BEGIN__	__EPS__
b	b
e	e
w	w
e	e
i	i
z	__EPS__
s	s
e	__EPS__
t	t
e	__EPS__

__BEGIN__	__EPS__
c	k
r	r
e	e
w	u
t	__EPS__
z	z
e	__EPS__

__BEGIN__	__EPS__
v	u
n	n
n	d

__BEGIN__	__EPS__
e	e
r	r

__BEGIN__	__EPS__
e	e
r	r
k	k
a	a
n	nn
t	t

__BEGIN__	__EPS__
e	e
y	__EPS__
l	l
f	f
t	t
e	e
n	n

__BEGIN__	__EPS__
a	a
l	ll

__BEGIN__	__EPS__
h	h
i	i
m	mm
e	e
l	l
r	r
e	e
i	i
c	c
h	h

__BEGIN__	__EPS__
o	a
u	u
g	g
e	e
n	n

__BEGIN__	__EPS__
i	ih
r	r

__BEGIN__	__EPS__
a	a
n	n

__BEGIN__	__EPS__
n	n
a	a
g	ge
l	l

__BEGIN__	__EPS__
a	a
l	l
s	s

__BEGIN__	__EPS__
w	w
a	a
r	r
e	e
n	n

__BEGIN__	__EPS__
d	d
i	i
e	e

__BEGIN__	__EPS__
v	v
o	o
n	n

__BEGIN__	__EPS__
d	d
i	i
e	e

__BEGIN__	__EPS__
s	s
t	t
u	ü
r	r
b	be

__BEGIN__	__EPS__
l	l
u	e
i	u
t	t
e	e
n	n

__BEGIN__	__EPS__
k	k
i	i
n	n
t	d

__BEGIN__	__EPS__
d	d
a	a
z	s

__BEGIN__	__EPS__
s	s
y	i
m	m
o	o
n	n

__BEGIN__	__EPS__
g	__EPS__
e	__EPS__
p	b
l	l
u	u
t	t
e	e
n	n

__BEGIN__	__EPS__
e	e
r	r
s	s
t	t
a	a
n	n
d	d
e	e
n	n

__BEGIN__	__EPS__
a	a
n	n

__BEGIN__	__EPS__
g	g
e	e
s	s
c	c
h	h
m	m
a	a
c	c
k	k
e	__EPS__

__BEGIN__	__EPS__
v	u
n	n
d	d

__BEGIN__	__EPS__
m	m
i	i
t	t

__BEGIN__	__EPS__
t	t
o	o
e	__EPS__
d	d
e	__EPS__

__BEGIN__	__EPS__
p	pf
l	l
a	e
c	gt
h	e

__BEGIN__	__EPS__
c	k
r	r
e	e
w	u
c	__EPS__
z	z

__BEGIN__	__EPS__
d	d
a	a
s	ss

__BEGIN__	__EPS__
e	e
r	r
t	t
r	r
a	a
g	g
e	e
n	n

__BEGIN__	__EPS__
d	d
e	e
n	n

__BEGIN__	__EPS__
n	n
y	irg
e	e
n	n
d	d
e	__EPS__
r	s
t	__EPS__

__BEGIN__	__EPS__
p	b
o	o
t	t
e	e
n	n

__BEGIN__	__EPS__
i	u
n	n
d	d

__BEGIN__	__EPS__
m	m
e	e
i	i
n	n
e	e
s	s

__BEGIN__	__EPS__
l	l
i	i
e	e
f	f
f	__EPS__
e	e

__BEGIN__	__EPS__
l	le
i	i
b	be
s	s

__BEGIN__	__EPS__
s	s
p	p
r	r
a	a
c	c
h	he
n	n

__BEGIN__	__EPS__
d	d
e	e
n	n

__BEGIN__	__EPS__
d	t
a	a
g	g

__BEGIN__	__EPS__
l	l
o	o
y	h
n	n

__BEGIN__	__EPS__
d	d
i	i
e	e

__BEGIN__	__EPS__
d	d
a	a
s	ss

__BEGIN__	__EPS__
r	r
e	e
w	u
e	e

__BEGIN__	__EPS__
g	g
e	e
s	s
c	c
h	h
r	ri
e	e
u	b
e	e
n	n

__BEGIN__	__EPS__
o	o
s	s

__BEGIN__	__EPS__
s	s
t	t
a	a
t	t

__BEGIN__	__EPS__
m	m
o	o
c	c
h	h
t	te

__BEGIN__	__EPS__
s	s
e	e
i	i
n	n
e	e
n	m

__BEGIN__	__EPS__
w	we
r	r
f	f
e	e

__BEGIN__	__EPS__
i	e
r	r
s	s
e	ehe
n	n

__BEGIN__	__EPS__
b	b
i	i
s	s

__BEGIN__	__EPS__
g	g
e	e
w	w
a	a
l	l
t	t

__BEGIN__	__EPS__
d	d
a	as
z	s

__BEGIN__	__EPS__
d	d
u	u

__BEGIN__	__EPS__
d	d
a	a
z	ss

__BEGIN__	__EPS__
o	ü
u	b
e	e
r	r
b	b
l	l
i	i
j	e
u	b
e	e
n	n

__BEGIN__	__EPS__
g	ge
h	h
e	e
e	__EPS__
n	n

__BEGIN__	__EPS__
e	e
r	r
b	b
a	a
e	__EPS__
r	r
m	me
d	n

__BEGIN__	__EPS__
e	e
r	r

__BEGIN__	__EPS__
d	d
e	e
n	n

__BEGIN__	__EPS__
g	g
a	a
r	r

__BEGIN__	__EPS__
a	a
n	n

__BEGIN__	__EPS__
v	u
n	n
d	d

__BEGIN__	__EPS__
v	v
e	e
r	r
d	d
ü	a
m	m
e	m
n	n
i	i
s	s
s	s
e	e

__BEGIN__	__EPS__
e	e
r	r

__BEGIN__	__EPS__
d	d
i	i
e	e

__BEGIN__	__EPS__
a	a
u	u
f	f
f	__EPS__

__BEGIN__	__EPS__
a	a
n	n
t	t
w	w
o	o
r	r
t	t

__BEGIN__	__EPS__
w	w
a	a
s	r

__BEGIN__	__EPS__
s	s
c	c
h	h
a	a
n	n
t	d
e	e
n	n

__BEGIN__	__EPS__
v	ü
b	b
e	e
r	r
g	g
o	o
e	s
z	s

__BEGIN__	__EPS__
d	d
a	a
s	ss

__BEGIN__	__EPS__
w	w
a	e
i	i
s	ss
t	t

__BEGIN__	__EPS__
e	e
r	r

__BEGIN__	__EPS__
e	e
r	r
b	b
a	a
r	r
m	m
e	e
n	n

__BEGIN__	__EPS__
c	c
r	r
u	u
c	c
i	i
f	f
i	i
g	g
e	e

__BEGIN__	__EPS__
d	d
a	a
s	s

__BEGIN__	__EPS__
w	w
o	o
l	ll
t	t
e	e

__BEGIN__	__EPS__
e	e
r	r
l	l
a	o
s	s
c	c
h	h

__BEGIN__	__EPS__
h	h
a	a
n	n
d	d

__BEGIN__	__EPS__
z	z
i	i
n	n
s	s

__BEGIN__	__EPS__
v	u
n	n
d	d
e	__EPS__

__BEGIN__	__EPS__
b	b
e	e
r	r
i	i
c	c
h	h
t	t
e	e
n	n

__BEGIN__	__EPS__
s	s
p	p
r	r
a	a
c	c
h	h

__BEGIN__	__EPS__
i	j
h	__EPS__
e	e
s	s
u	u
i	__EPS__
s	s

__BEGIN__	__EPS__
h	h
i	ä
e	t
t	te

__BEGIN__	__EPS__
d	d
o	a

__BEGIN__	__EPS__
d	d
i	i
r	r

__BEGIN__	__EPS__
a	a
u	u
c	c
h	h

__BEGIN__	__EPS__
e	e
i	i
n	n

__BEGIN__	__EPS__
g	g
e	e
s	s
c	c
h	h
e	e
c	__EPS__
h	h
e	e
n	n

__BEGIN__	__EPS__
b	b
a	a
r	rr
a	a
b	b
a	a
s	s

__BEGIN__	__EPS__
m	me
i	i
n	n

__BEGIN__	__EPS__
d	d
a	a

__BEGIN__	__EPS__
e	e
s	s

__BEGIN__	__EPS__
a	a
n	n

__BEGIN__	__EPS__
i	i
s	s
t	t

__BEGIN__	__EPS__
v	u
n	n
s	s

__BEGIN__	__EPS__
v	b
n	i
z	s

__BEGIN__	__EPS__
g	g
e	e
w	w
a	a
l	l
t	t

__BEGIN__	__EPS__
a	a
u	u
s	s
z	__EPS__

__BEGIN__	__EPS__
v	u
n	n
d	d

__BEGIN__	__EPS__
e	ehe
r	r

__BEGIN__	__EPS__
v	u
n	n
d	d

__BEGIN__	__EPS__
f	f
u	ü
e	__EPS__
z	s
z	s
e	e
n	n

__BEGIN__	__EPS__
m	m
i	i
t	t
e	e
i	i
n	n
a	a
n	n
d	d
e	e
r	r

__BEGIN__	__EPS__
e	e
r	r

__BEGIN__	__EPS__
i	ih
n	n

__BEGIN__	__EPS__
s	s
t	t
a	ät
t	te

__BEGIN__	__EPS__
h	h
e	a
t	t

__BEGIN__	__EPS__
m	m
a	a
g	g

__BEGIN__	__EPS__
d	d
a	a

__BEGIN__	__EPS__
a	a
n	n

__BEGIN__	__EPS__
v	u
n	n
d	d

__BEGIN__	__EPS__
v	u
n	n
d	d

__BEGIN__	__EPS__
v	v
i	ie
l	l

__BEGIN__	__EPS__
s	s
o	o

__BEGIN__	__EPS__
v	v
o	o
l	l
c	__EPS__
k	k

__BEGIN__	__EPS__
s	s
i	i
j	e

__BEGIN__	__EPS__
p	b
r	r
u	u
n	nn
e	e
n	n

__BEGIN__	__EPS__
v	v
a	o
n	n

__BEGIN__	__EPS__
s	s
p	p
o	o
t	tt
e	e
n	n

__BEGIN__	__EPS__
v	v
o	o
l	l
c	__EPS__
k	k

__BEGIN__	__EPS__
i	i
c	c
h	h

__BEGIN__	__EPS__
s	s
u	o
l	l
l	l
e	e
n	n

__BEGIN__	__EPS__
v	u
m	m
f	f
i	i
n	n
g	g

__BEGIN__	__EPS__
s	se
i	i
n	n
e	e
n	n

__BEGIN__	__EPS__
g	g
e	e
l	l
a	a
n	n
g	g
e	e
n	n

__BEGIN__	__EPS__
p	p
y	i
l	l
a	a
t	t
u	u
s	s

__BEGIN__	__EPS__
m	m
e	e
i	i
n	n

__BEGIN__	__EPS__
g	g
e	e
g	g
r	r
u	ü
e	__EPS__
s	s
s	s
e	e
t	t

__BEGIN__	__EPS__
m	m
e	e
n	n
s	s
c	c
h	h
e	e
n	n

__BEGIN__	__EPS__
t	__EPS__
z	z
o	u

__BEGIN__	__EPS__
z	z
u	u
o	__EPS__

__BEGIN__	__EPS__
a	a
l	l
s	s

__BEGIN__	__EPS__
d	d
e	e
s	s

__BEGIN__	__EPS__
i	ih
m	m

__BEGIN__	__EPS__
v	u
n	n
d	d

__BEGIN__	__EPS__
d	d
o	a

__BEGIN__	__EPS__
f	f
u	ü
n	n
f	f
f	__EPS__

__BEGIN__	__EPS__
m	m
e	ee
r	r
b	b
i	i
n	n
z	s
e	e
n	n

__BEGIN__	__EPS__
h	e
e	r

__BEGIN__	__EPS__
a	a
n	n

__BEGIN__	__EPS__
d	d
e	e
r	r

__BEGIN__	__EPS__
s	s
t	t
a	e
i	i
n	n

__BEGIN__	__EPS__
n	n
e	e
i	i
g	g
e	__EPS__
t	t
e	e

__BEGIN__	__EPS__
i	je
r	rusa
l	l
-	e
m	m

__BEGIN__	__EPS__
q	k
u	__EPS__
a	a
m	m

__BEGIN__	__EPS__
i	ih
n	n

__BEGIN__	__EPS__
w	w
i	i
r	r

__BEGIN__	__EPS__
i	i
n	n

__BEGIN__	__EPS__
h	e
e	r

__BEGIN__	__EPS__
v	au
p	f

__BEGIN__	__EPS__
d	d
y	ie

__BEGIN__	__EPS__
d	d
i	i
e	e

__BEGIN__	__EPS__
d	d
a	a
r	r
u	a
i	u
s	s
z	__EPS__

__BEGIN__	__EPS__
d	d
i	i
e	e

__BEGIN__	__EPS__
f	f
r	r
a	a
w	u

__BEGIN__	__EPS__
m	m
i	i
t	t

__BEGIN__	__EPS__
h	h
e	a
r	r
t	t
h	__EPS__
e	e
n	n

__BEGIN__	__EPS__
h	__EPS__
e	e
r	r

__BEGIN__	__EPS__
m	m
i	i
r	r

__BEGIN__	__EPS__
d	d
e	e
n	n

__BEGIN__	a
v	u
z	s

__BEGIN__	__EPS__
a	a
n	n

__BEGIN__	__EPS__
s	s
u	oh
n	n

__BEGIN__	__EPS__
b	b
i	i
s	s
t	t

__BEGIN__	__EPS__
a	a
l	l
s	s

__BEGIN__	__EPS__
k	k
e	e
i	i
n	n

__BEGIN__	__EPS__
d	d
e	e
r	r

__BEGIN__	__EPS__
a	a
n	n
d	d
e	e
r	r
e	e
n	n

__BEGIN__	__EPS__
v	u
n	n
d	d

__BEGIN__	__EPS__
b	b
e	e
y	i
d	d
e	e

__BEGIN__	__EPS__
d	d
e	e
i	i
n	n

__BEGIN__	__EPS__
v	u
n	n
d	d

__BEGIN__	__EPS__
v	u
n	n
d	d

__BEGIN__	__EPS__
i	ih
m	m

__BEGIN__	__EPS__
a	a
n	n

__BEGIN__	__EPS__
m	m
i	eh
r	r

__BEGIN__	__EPS__
e	e
s	s
s	s
e	__EPS__
i	i
c	__EPS__
h	g

__BEGIN__	__EPS__
n	n
a	a
c	c
h	h
t	t

__BEGIN__	__EPS__
s	s
p	p
r	r
e	e
c	c
h	h
e	e
n	n
t	__EPS__

__BEGIN__	__EPS__
m	m
i	i
t	t

__BEGIN__	__EPS__
i	ih
m	m

__BEGIN__	__EPS__
s	s
c	c
h	h
a	a
r	r
f	__EPS__
f	f
e	e

__BEGIN__	__EPS__
s	s
u	o
n	n
d	d
e	e
r	rn

__BEGIN__	__EPS__
g	g
i	i
e	__EPS__
n	n
g	g
e	e
n	n

__BEGIN__	__EPS__
k	k
i	i
n	n
d	d
e	e
s	s

__BEGIN__	__EPS__
s	s
o	o
l	ll
t	t

__BEGIN__	__EPS__
s	s
a	a
g	g

__BEGIN__	a
v	u
f	f
g	g
e	e
s	s
t	t
a	a
n	n
d	d
e	e
n	n

__BEGIN__	__EPS__
v	u
n	n
s	s

__BEGIN__	__EPS__
s	s
y	ie

__BEGIN__	__EPS__
k	k
o	om
m	m
e	e
n	n

__BEGIN__	__EPS__
c	k
r	r
v	__EPS__
i	e
t	u
z	z

__BEGIN__	__EPS__
h	h
a	a
s	s
t	t

__BEGIN__	__EPS__
l	l
e	ä
i	s
s	s
t	t

__BEGIN__	__EPS__
s	sch
l	l
o	o
s	s
z	s

__BEGIN__	__EPS__
v	u
n	n
d	d

__BEGIN__	__EPS__
m	m
i	i
r	r

__BEGIN__	__EPS__
s	s
c	c
h	h
l	l
e	e
g	i
e	e
r	r

__BEGIN__	__EPS__
s	s
c	c
h	h
r	r
i	i
r	__EPS__
e	e
n	n

__BEGIN__	__EPS__
z	zu

__BEGIN__	__EPS__
m	l
y	i
n	e
n	b
e	e
n	v
k	o
l	l
i	__EPS__
c	__EPS__
h	l
e	__EPS__
n	__EPS__

__BEGIN__	__EPS__
k	k
i	i
n	n
t	d

__BEGIN__	__EPS__
a	a
l	l
s	s
o	o

__BEGIN__	__EPS__
e	e
n	nt
g	g
e	eh
t	t

__BEGIN__	__EPS__
v	v
i	i
d	d
e	e

__BEGIN__	__EPS__
m	m
i	i
c	c
h	h

__BEGIN__	__EPS__
l	l
i	i
e	e
s	s
z	s

__BEGIN__	__EPS__
s	se
i	i
m	n
e	em

__BEGIN__	__EPS__
m	m
e	e
i	i
n	n

__BEGIN__	__EPS__
v	u
n	n
d	d

__BEGIN__	__EPS__
g	g
r	r
a	a
b	b

__BEGIN__	__EPS__
d	d
a	a

__BEGIN__	__EPS__
d	d
e	e
m	m

__BEGIN__	__EPS__
w	w
a	o
i	h
l	l

__BEGIN__	__EPS__
s	s
a	a
c	c
h	h
e	e

__BEGIN__	__EPS__
m	m
i	i
t	t

__BEGIN__	__EPS__
w	w
e	e
r	r

__BEGIN__	__EPS__
c	__EPS__
z	z
w	u

__BEGIN__	__EPS__
a	a
l	l
l	l
e	e
m	m

__BEGIN__	__EPS__
a	a
l	l
l	l
e	e
r	r

__BEGIN__	__EPS__
z	z
u	u

__BEGIN__	__EPS__
m	m
i	i
t	t

__BEGIN__	__EPS__
i	j
u	u
d	d
e	e
n	n

__BEGIN__	g
e	e
w	s
e	e
n	tz

__BEGIN__	__EPS__
n	n
u	un

__BEGIN__	__EPS__
w	w
i	i
l	l
l	l
e	e
n	n

__BEGIN__	__EPS__
f	f
r	r
o	a
w	u
e	__EPS__

__BEGIN__	__EPS__
h	h
o	o
f	f
f	f
e	e
n	n

__BEGIN__	__EPS__
v	ü
b	b
e	e
r	r

__BEGIN__	__EPS__
v	v
a	o
n	n

__BEGIN__	__EPS__
h	h
e	e
r	r
c	__EPS__
z	z
e	e
n	n

__BEGIN__	__EPS__
v	u
n	n
d	d

__BEGIN__	__EPS__
h	h
e	e
r	r
t	__EPS__
z	z
e	__EPS__

__BEGIN__	__EPS__
a	o
w	w
e	eh

__BEGIN__	__EPS__
g	g
e	e
c	__EPS__
z	z
e	äh
l	l
t	t

__BEGIN__	__EPS__
l	l
e	e
y	i
p	b

__BEGIN__	__EPS__
s	s
c	c
h	h
r	r
a	e
y	ie

__BEGIN__	__EPS__
k	k
e	a
i	i
s	s
e	e
r	r

__BEGIN__	__EPS__
s	s
y	ie

__BEGIN__	__EPS__
f	f
r	r
a	a
u	u
w	__EPS__
e	__EPS__

__BEGIN__	__EPS__
k	k
e	a
y	i
s	s
e	e
r	r
s	s

__BEGIN__	__EPS__
p	p
y	i
l	l
a	a
t	t
u	u
s	s

__BEGIN__	__EPS__
s	s
p	p
r	r
a	a
c	c
h	h

__BEGIN__	__EPS__
z	z
o	o
r	r
n	n
e	__EPS__

__BEGIN__	__EPS__
e	e
r	r

__BEGIN__	__EPS__
d	d
i	i
e	e

__BEGIN__	__EPS__
d	d
e	e
r	r

__BEGIN__	__EPS__
w	w
i	i
e	e

__BEGIN__	__EPS__
d	d
a	a
r	r
v	a
f	u
f	f

__BEGIN__	__EPS__
v	u
n	n
d	d

__BEGIN__	__EPS__
a	a
l	l
l	l
e	e
r	r

__BEGIN__	__EPS__
w	w
e	e
g	g
e	e

__BEGIN__	__EPS__
s	s
y	ie

__BEGIN__	__EPS__
g	g
e	e
m	m
a	a
c	c
h	h
t	t

__BEGIN__	__EPS__
h	h
e	e
r	r
t	__EPS__
z	z
e	__EPS__

__BEGIN__	__EPS__
v	ü
b	b
e	e
r	r

__BEGIN__	__EPS__
k	k
i	i
n	n
t	d
h	__EPS__

__BEGIN__	__EPS__
v	v
o	o
n	n

__BEGIN__	__EPS__
g	g
e	e
s	s
c	c
h	h
a	a
c	__EPS__
h	h

__BEGIN__	__EPS__
g	g
u	u
e	__EPS__
d	t
e	e

__BEGIN__	__EPS__
i	u
n	n
d	d

__BEGIN__	__EPS__
m	me
i	i
n	n

__BEGIN__	__EPS__
g	g
r	r
a	a
b	b

__BEGIN__	__EPS__
i	j
u	u
d	d
e	e
n	n

__BEGIN__	__EPS__
v	u
n	n
m	m
a	e
e	n
s	sch
l	l
i	i
c	c
h	h
e	e
r	r

__BEGIN__	__EPS__
h	h
u	ü
l	l
f	f
f	e

__BEGIN__	__EPS__
m	m
o	o
c	c
h	h
t	te

__BEGIN__	__EPS__
b	b
e	e
y	i

__BEGIN__	__EPS__
h	h
e	ä
t	tte

__BEGIN__	__EPS__
k	k
o	a
u	u
f	f
l	l
e	e
u	u
t	t
e	e

__BEGIN__	__EPS__
d	d
o	a

__BEGIN__	__EPS__
v	u
n	n
d	d

__BEGIN__	__EPS__
a	o
b	b

__BEGIN__	__EPS__
v	u
n	n
d	d

__BEGIN__	__EPS__
e	e
y	i
n	n

__BEGIN__	__EPS__
d	d
y	ie

__BEGIN__	__EPS__
p	b
e	e
y	i

__BEGIN__	__EPS__
d	d
v	i
i	e

__BEGIN__	__EPS__
d	d
o	a

__BEGIN__	__EPS__
m	m
e	e
i	i
n	n
e	e
r	r

__BEGIN__	__EPS__
k	k
i	i
n	n
t	d

__BEGIN__	__EPS__
g	g
e	e
d	d
a	a
c	c
h	h
t	t

__BEGIN__	__EPS__
v	u
n	n
u	v
e	e
r	r
s	s
e	eh
r	r
t	t

__BEGIN__	__EPS__
d	d
i	i
e	e

__BEGIN__	__EPS__
s	s
p	p
r	r
a	a
c	c
h	h

__BEGIN__	__EPS__
d	d
e	e
s	s

__BEGIN__	__EPS__
t	t
e	a
t	t
t	__EPS__
e	e
n	n

__BEGIN__	__EPS__
k	k
a	a
m	m

__BEGIN__	__EPS__
l	l
i	i
e	e
b	b
e	e
s	s

__BEGIN__	__EPS__
z	ze
ü	r
d	t
e	e
y	i
l	l
e	__EPS__
t	t

__BEGIN__	__EPS__
i	j
e	ä
m	mm
e	e
r	r
c	__EPS__
h	__EPS__
l	l
e	__EPS__
i	i
c	c
h	h

__BEGIN__	__EPS__
n	n
o	ah
m	m
e	e
n	n
d	__EPS__
t	__EPS__

__BEGIN__	__EPS__
k	k
r	r
e	e
w	u
c	__EPS__
z	z

__BEGIN__	__EPS__
v	u
n	n
d	d

__BEGIN__	__EPS__
w	w
a	a
s	r

__BEGIN__	__EPS__
a	a
n	n
d	d
e	e
r	r
e	e
n	n

__BEGIN__	__EPS__
s	s
e	e
i	i
n	n
e	e
m	m

__BEGIN__	__EPS__
h	h
a	a
b	b
e	e
n	n

__BEGIN__	__EPS__
s	s
p	p
i	u
g	c
e	k
t	t
e	e
n	n

__BEGIN__	__EPS__
r	r
i	i
c	c
h	h
t	t
e	e
r	r

__BEGIN__	__EPS__
d	d
e	e
n	n

__BEGIN__	__EPS__
v	u
n	n
d	d

__BEGIN__	__EPS__
d	d
a	as
z	s

__BEGIN__	__EPS__
g	__EPS__
e	__EPS__
f	f
u	ü
o	h
r	r
t	t
e	e
n	n

__BEGIN__	__EPS__
s	s
i	i
m	m
e	e
o	o
n	n
i	__EPS__
s	s

__BEGIN__	__EPS__
d	d
a	a
z	s

__BEGIN__	__EPS__
c	k
h	__EPS__
o	a
m	m

__BEGIN__	__EPS__
d	d
i	i
e	e

__BEGIN__	__EPS__
e	e
r	r

__BEGIN__	__EPS__
g	g
a	a
b	b

__BEGIN__	__EPS__
f	f
r	r
a	__EPS__
e	e
w	u
d	d
e	e
n	n

__BEGIN__	__EPS__
i	ih
m	m

__BEGIN__	__EPS__
m	m
i	i
r	r

__BEGIN__	__EPS__
w	w
a	a
s	s

__BEGIN__	__EPS__
g	g
e	e
s	s
c	c
h	h
e	eh
y	e
n	n

__BEGIN__	__EPS__
m	m
i	i
c	c
h	h

__BEGIN__	__EPS__
c	__EPS__
z	z
u	u

__BEGIN__	__EPS__
e	e
r	r
d	d
e	e
n	n

__BEGIN__	__EPS__
v	v
o	o
n	n

__BEGIN__	__EPS__
s	s
i	ie

__BEGIN__	__EPS__
b	b
l	l
i	i
j	e
u	b
e	e
n	n

__BEGIN__	__EPS__
b	w
o	o
l	ll
t	t
e	e
n	n

__BEGIN__	__EPS__
h	h
e	a
t	t

__BEGIN__	__EPS__
s	s
c	c
h	h
a	a
r	r

__BEGIN__	__EPS__
d	d
y	ie

__BEGIN__	__EPS__
b	b
e	e
y	i

__BEGIN__	__EPS__
h	h
e	e
r	r
c	__EPS__
z	z
e	e
n	n

__BEGIN__	__EPS__
l	l
y	ie
b	b
e	e
r	r

__BEGIN__	__EPS__
d	d
a	a
s	s

__BEGIN__	__EPS__
d	d
o	a

__BEGIN__	__EPS__
w	w
o	o
l	ll
t	t

__BEGIN__	__EPS__
n	n
i	ic
h	h
t	t

__BEGIN__	__EPS__
w	w
i	i
e	e

__BEGIN__	__EPS__
i	ih
m	m

__BEGIN__	__EPS__
g	g
r	r
o	o
z	s
z	s
e	e
m	m

__BEGIN__	__EPS__
v	u
n	n
s	s
e	ä
g	g
r	l
e	__EPS__
c	__EPS__
h	__EPS__
e	__EPS__
y	i
c	c
h	h

__BEGIN__	__EPS__
a	a
l	l
l	l
e	e
n	n

__BEGIN__	__EPS__
m	mari
a	a

__BEGIN__	__EPS__
d	d
o	a

