__BEGIN__	__EPS__
g	g
e	e
t	t
a	a
n	n

__BEGIN__	__EPS__
d	d
a	a

__BEGIN__	__EPS__
e	e
r	r
b	b
e	a
r	r
m	m
e	e
d	n
e	__EPS__

__BEGIN__	__EPS__
f	v
u	o
r	r

__BEGIN__	__EPS__
e	e
i	i
n	n

__BEGIN__	__EPS__
k	k
u	ü
s	s
s	s
e	e
n	n

__BEGIN__	__EPS__
i	j
o	o
h	h
a	a
n	nn
e	e
m	s

__BEGIN__	__EPS__
g	g
e	e
s	s
c	c
h	h
e	eh
y	e
n	n

__BEGIN__	__EPS__
m	m
ü	ü
d	tt
e	e
r	r

__BEGIN__	__EPS__
d	d
a	a
t	s

__BEGIN__	__EPS__
g	g
e	e
m	m
a	a
c	c
h	h
e	__EPS__
n	__EPS__
t	t

__BEGIN__	__EPS__
w	de
o	n
n	n

__BEGIN__	__EPS__
s	s
p	p
r	r
a	a
c	c
h	h

__BEGIN__	__EPS__
s	s
i	ie

__BEGIN__	__EPS__
w	w
i	ie
d	d
e	e
r	r

__BEGIN__	__EPS__
v	v
e	e
r	r
s	s
v	u
e	__EPS__
c	c
h	h
t	t

__BEGIN__	__EPS__
w	w
a	a
z	s

__BEGIN__	__EPS__
m	m
i	i
c	c
h	h

__BEGIN__	__EPS__
w	w
a	a
r	r
t	d

__BEGIN__	__EPS__
d	d
e	e
n	n

__BEGIN__	__EPS__
s	s
t	t
u	ü
r	r
b	b
e	e
n	n

__BEGIN__	__EPS__
h	h
e	e
r	r
t	__EPS__
z	z

__BEGIN__	__EPS__
v	u
n	n
d	d

__BEGIN__	__EPS__
e	e
y	i
n	n
e	e

__BEGIN__	__EPS__
p	b
i	i
s	s
t	t

__BEGIN__	__EPS__
d	d
e	e
m	m
u	ü
t	t
i	i
g	g
e	e

__BEGIN__	__EPS__
e	e
l	l
e	e
m	m
e	e
n	n
t	t

__BEGIN__	d
u	u

__BEGIN__	__EPS__
p	b
a	a
t	t

__BEGIN__	__EPS__
l	l
e	e
g	g
e	__EPS__
t	t
e	e
n	n

__BEGIN__	__EPS__
g	g
e	e
s	s
a	a
n	nd
t	t

__BEGIN__	__EPS__
v	v
e	e
r	r
d	d
y	ie
n	n
t	t

__BEGIN__	__EPS__
d	d
o	a

__BEGIN__	__EPS__
m	m
i	i
t	t

__BEGIN__	d
u	u

__BEGIN__	__EPS__
n	n
i	i
e	e

__BEGIN__	__EPS__
v	u
n	n
d	d

__BEGIN__	__EPS__
m	m
a	a
r	r
i	i
a	a

__BEGIN__	__EPS__
d	d
a	a
s	s

__BEGIN__	__EPS__
d	d
e	e
r	r

__BEGIN__	__EPS__
g	g
e	e
t	t
a	a
n	n

__BEGIN__	__EPS__
w	w
a	a
s	r

__BEGIN__	__EPS__
l	le
i	i
p	b

__BEGIN__	__EPS__
e	e
r	r

__BEGIN__	__EPS__
m	m
u	u
t	tt
e	e
r	r

__BEGIN__	__EPS__
m	m
a	a
l	l

__BEGIN__	__EPS__
s	s
e	ee
l	l
e	e

__BEGIN__	__EPS__
d	d
e	e
r	r

__BEGIN__	__EPS__
v	v
o	o
r	r

__BEGIN__	__EPS__
d	d
o	a

__BEGIN__	__EPS__
n	n
i	i
c	c
h	h
t	t

__BEGIN__	__EPS__
t	d
u	u

__BEGIN__	__EPS__
v	u
n	n
s	s
c	c
h	h
v	u
l	l
d	d
e	__EPS__

__BEGIN__	__EPS__
d	d
u	u
r	r
c	c
h	h

__BEGIN__	__EPS__
b	b
e	e
b	b
i	e
n	n

__BEGIN__	__EPS__
w	w
e	e
r	r
d	d
e	e

__BEGIN__	__EPS__
d	d
e	e
z	s

__BEGIN__	__EPS__
t	tat
e	e
s	s
t	t

__BEGIN__	__EPS__
g	g
e	e
s	s
o	ü
i	h
n	n
t	t

__BEGIN__	__EPS__
g	g
r	r
a	a
b	b

__BEGIN__	__EPS__
e	e
r	r

__BEGIN__	__EPS__
a	a
l	l
l	l
e	e
r	r

__BEGIN__	__EPS__
a	a
l	l
s	s
o	o

__BEGIN__	__EPS__
g	g
e	e
p	b
u	u
r	r
t	__EPS__
t	t

__BEGIN__	__EPS__
d	d
a	as
z	s

__BEGIN__	__EPS__
n	n
e	ä
g	ge
l	l
e	__EPS__
n	n

__BEGIN__	__EPS__
d	d
i	i
r	e
r	s
e	er

__BEGIN__	__EPS__
m	m
i	i
t	t

__BEGIN__	__EPS__
g	g
r	r
o	o
z	ss

__BEGIN__	__EPS__
m	m
e	e
n	n
s	s
c	c
h	h
l	l
i	i
c	c
h	h

__BEGIN__	__EPS__
v	ü
b	b
r	r
i	i
g	g

__BEGIN__	__EPS__
i	ih
m	m

__BEGIN__	__EPS__
v	u
n	n
d	d

__BEGIN__	__EPS__
w	w
e	e
r	r

__BEGIN__	__EPS__
d	d
a	a

__BEGIN__	__EPS__
e	u
n	nd

__BEGIN__	__EPS__
v	u
n	n
d	d

__BEGIN__	__EPS__
s	s
e	e
i	i
n	n

__BEGIN__	__EPS__
d	d
a	a
z	ss

__BEGIN__	__EPS__
w	w
o	o

__BEGIN__	__EPS__
t	d
r	r
u	ü
e	__EPS__
c	c
k	kt
e	e
n	n

__BEGIN__	__EPS__
s	s
t	t
e	e
y	i
n	n
e	e
n	n

__BEGIN__	__EPS__
s	s
o	o

__BEGIN__	__EPS__
h	h
a	a
t	t
t	t
e	e

__BEGIN__	__EPS__
m	m
i	i
t	t
t	__EPS__

__BEGIN__	__EPS__
k	k
r	r
u	e
i	u
c	z
z	i
g	g
o	__EPS__
t	t
t	__EPS__
e	e
n	n

__BEGIN__	__EPS__
m	m
e	e
i	i
n	n
e	e
n	n

__BEGIN__	__EPS__
v	u
n	n
d	d

__BEGIN__	__EPS__
v	u
n	n
d	d

__BEGIN__	__EPS__
f	f
r	re
u	u
n	n
t	d

__BEGIN__	__EPS__
w	w
a	an
n	n

__BEGIN__	__EPS__
a	a
n	n

__BEGIN__	__EPS__
s	s
p	p
r	r
a	a
c	c
h	h

__BEGIN__	__EPS__
v	ü
b	b
e	e
r	r

__BEGIN__	__EPS__
g	g
i	i
n	n
g	g
e	e
n	n

__BEGIN__	__EPS__
a	a
l	l
l	l
e	e

__BEGIN__	__EPS__
l	l
a	a
i	__EPS__
s	s
z	s

__BEGIN__	__EPS__
s	s
c	c
h	h
o	__EPS__
u	u
l	l
t	d

__BEGIN__	__EPS__
o	au
c	c
h	h

__BEGIN__	__EPS__
s	s
o	o

__BEGIN__	__EPS__
k	k
i	i
n	n
d	d
e	e
s	s

__BEGIN__	__EPS__
t	t
e	a
t	t

__BEGIN__	__EPS__
m	me
y	i
n	n
e	e

__BEGIN__	__EPS__
l	l
e	eh
r	re

__BEGIN__	__EPS__
d	d
u	u

__BEGIN__	__EPS__
m	m
a	a
n	n

__BEGIN__	__EPS__
n	n
o	o
c	c
h	h

__BEGIN__	__EPS__
n	n
y	i
e	e

__BEGIN__	__EPS__
d	d
o	a

__BEGIN__	__EPS__
i	ih
m	m

__BEGIN__	__EPS__
v	v
o	o
n	n

__BEGIN__	__EPS__
d	d
o	a

__BEGIN__	__EPS__
m	m
i	i
r	r

__BEGIN__	__EPS__
g	g
o	ö
t	t
t	t
l	l
e	__EPS__
i	i
c	c
h	h
e	e

__BEGIN__	__EPS__
s	s
p	p
r	r
a	a
c	c
h	h

__BEGIN__	__EPS__
m	m
o	u
e	t
d	t
e	e
r	r

__BEGIN__	__EPS__
w	w
e	ol
l	l
t	t

__BEGIN__	__EPS__
s	s
e	e
i	i
n	n
e	e
n	n

__BEGIN__	__EPS__
i	i
c	c
h	h

__BEGIN__	__EPS__
s	s
o	o

__BEGIN__	__EPS__
e	e
s	s
z	s
i	i
g	g

__BEGIN__	__EPS__
k	k
a	a
y	i
p	p
h	h
a	a
s	s

__BEGIN__	__EPS__
r	r
o	ö
e	m
m	i
s	s
c	c
h	h

__BEGIN__	__EPS__
s	s
i	i
e	e

__BEGIN__	__EPS__
d	d
i	i
e	e

__BEGIN__	__EPS__
s	s
i	ie

__BEGIN__	__EPS__
w	d
a	e
n	n
t	n

__BEGIN__	__EPS__
d	d
a	a
r	r
v	u
m	m
b	__EPS__

__BEGIN__	__EPS__
s	s
u	oh
n	n

__BEGIN__	__EPS__
i	ih
r	r
e	e
n	n

__BEGIN__	__EPS__
k	k
y	i
n	n
d	d
e	e
s	s

__BEGIN__	__EPS__
y	i
n	n

__BEGIN__	__EPS__
m	m
i	i
c	c
h	h

__BEGIN__	__EPS__
m	m
a	a
z	s
e	s

__BEGIN__	__EPS__
s	s
e	e
l	e
l	le

__BEGIN__	__EPS__
s	s
y	ie

__BEGIN__	__EPS__
b	b
l	l
u	u
t	t

__BEGIN__	__EPS__
m	l
i	ie
n	b
d	t
e	e

__BEGIN__	__EPS__
t	t
a	a
t	t
e	e
n	n

__BEGIN__	__EPS__
g	g
e	e
s	s
p	p
i	__EPS__
e	a
n	n
e	__EPS__
n	n
d	t

__BEGIN__	__EPS__
i	i
c	c
h	h

__BEGIN__	__EPS__
d	d
o	a

__BEGIN__	__EPS__
v	u
n	n
g	g
e	e
m	m
a	a
c	c
h	h

__BEGIN__	__EPS__
v	u
n	n
d	d

__BEGIN__	__EPS__
v	u
n	n
d	d
e	__EPS__

__BEGIN__	__EPS__
d	da
z	ss

__BEGIN__	__EPS__
s	s
c	c
h	h
r	r
i	i
r	__EPS__
e	e
n	n

__BEGIN__	__EPS__
e	e
r	r

__BEGIN__	__EPS__
e	e
r	r

__BEGIN__	__EPS__
r	r
v	e
w	u
e	e

__BEGIN__	__EPS__
s	s
p	p
r	r
i	i
c	c
h	ht

__BEGIN__	__EPS__
v	v
o	o
n	n

__BEGIN__	__EPS__
a	a
n	n

__BEGIN__	__EPS__
v	f
r	r
a	a
g	g
e	e

__BEGIN__	__EPS__
d	d
e	e
r	r

__BEGIN__	__EPS__
d	d
a	a
s	ss

__BEGIN__	__EPS__
g	g
e	e
r	r
i	i
e	__EPS__
c	c
h	h
t	t
e	__EPS__

__BEGIN__	__EPS__
p	p
y	i
l	l
a	a
t	t
u	u
s	s

__BEGIN__	__EPS__
f	f
r	r
a	a
w	ue
n	n

__BEGIN__	__EPS__
v	u
n	n
d	d

__BEGIN__	__EPS__
v	u
n	n
d	d

__BEGIN__	__EPS__
d	d
o	a

__BEGIN__	__EPS__
d	d
e	e
s	s
z	__EPS__

__BEGIN__	__EPS__
i	i
c	c
h	h

__BEGIN__	__EPS__
d	d
a	a
s	s
z	s

__BEGIN__	__EPS__
p	b
i	i
s	s
z	__EPS__

__BEGIN__	__EPS__
f	f
r	r
o	e
w	u
e	__EPS__
t	t
e	e

__BEGIN__	__EPS__
i	i
n	n

__BEGIN__	__EPS__
a	a
n	n

__BEGIN__	__EPS__
h	h
e	a
t	t
t	t
e	e
n	n

__BEGIN__	__EPS__
f	f
u	ü
e	s
z	s
e	e

__BEGIN__	__EPS__
s	s
t	t
u	u
e	m
m	m
e	e
n	n

__BEGIN__	__EPS__
h	h
o	o
f	f
f	f
n	n
u	u
n	n
g	g

__BEGIN__	__EPS__
u	u
n	n
d	d

__BEGIN__	__EPS__
n	n
o	o
c	c
h	h

__BEGIN__	__EPS__
t	t
o	o
d	d
e	e
s	s

__BEGIN__	__EPS__
d	d
i	i
c	c
h	h

__BEGIN__	__EPS__
s	s
c	c
h	h
i	i
e	e
d	d

__BEGIN__	__EPS__
i	i
c	c
h	h

__BEGIN__	__EPS__
s	s
o	o

__BEGIN__	__EPS__
b	b
e	e
g	g
r	r
a	a
b	b
e	e

__BEGIN__	__EPS__
p	p
y	i
l	l
a	a
t	t
u	u
s	s

__BEGIN__	__EPS__
k	k
i	i
n	n
d	d
e	e
s	s

__BEGIN__	__EPS__
n	n
y	ie
d	d
e	e
r	r

__BEGIN__	__EPS__
m	m
a	a
n	nn

__BEGIN__	__EPS__
w	w
a	a
n	nn

__BEGIN__	__EPS__
d	d
e	e
z	s

__BEGIN__	__EPS__
h	h
a	a
n	n
t	d
h	__EPS__

__BEGIN__	__EPS__
i	i
c	c
h	h

__BEGIN__	__EPS__
n	n
a	a
l	g
e	el

__BEGIN__	__EPS__
d	d
u	u

__BEGIN__	__EPS__
v	v
o	o
n	n

__BEGIN__	__EPS__
v	u
n	n
d	d

__BEGIN__	__EPS__
s	s
w	oh
n	n

__BEGIN__	__EPS__
s	sch
w	w
e	e
r	r
t	t

__BEGIN__	__EPS__
t	t
e	e
m	m
p	pe
l	l

__BEGIN__	__EPS__
d	d
i	i
e	e

__BEGIN__	__EPS__
m	m
a	a
r	r
i	i
a	a

__BEGIN__	__EPS__
i	j
a	a

__BEGIN__	__EPS__
g	g
e	e
b	b
e	e
n	n

__BEGIN__	__EPS__
w	w
e	e
i	i
s	ses
t	t
e	e
n	n

__BEGIN__	__EPS__
e	e
t	t
l	l
i	i
c	c
h	h
e	e
n	n

__BEGIN__	__EPS__
s	s
c	c
h	h
u	u
l	l
d	d

__BEGIN__	__EPS__
a	a
l	l
s	s
o	o

__BEGIN__	__EPS__
v	u
n	n
g	g
e	__EPS__
l	l
e	e
i	i
c	c
h	h

__BEGIN__	__EPS__
h	h
e	e
r	r
e	r

__BEGIN__	__EPS__
a	a
n	n

__BEGIN__	__EPS__
g	g
e	e
r	r
i	i
c	c
h	h
t	t
e	__EPS__

__BEGIN__	__EPS__
s	s
o	o

__BEGIN__	__EPS__
s	s
e	e
i	i
n	n
e	e
n	n

__BEGIN__	__EPS__
e	u
e	n
n	d

__BEGIN__	a
v	u
s	s
s	s
e	ä
c	t
z	z
i	i
g	g
e	e
n	n

__BEGIN__	__EPS__
a	e
i	i
n	n
e	e
n	n

__BEGIN__	__EPS__
d	d
u	u
r	r
c	c
h	h

__BEGIN__	__EPS__
e	e
i	i
n	n

__BEGIN__	__EPS__
h	ha
u	u
z	s
e	__EPS__

__BEGIN__	__EPS__
e	e
w	u
e	e
r	r

__BEGIN__	__EPS__
v	u
n	n
d	d

__BEGIN__	__EPS__
d	d
a	a
z	s

__BEGIN__	__EPS__
w	w
a	a
s	r

__BEGIN__	__EPS__
n	n
i	i
c	c
h	h
t	t

__BEGIN__	__EPS__
a	a
b	b
e	e
r	r

__BEGIN__	__EPS__
i	j
u	u
d	d
e	e
n	n

__BEGIN__	__EPS__
l	l
e	ei
d	t
e	e
n	n

__BEGIN__	__EPS__
n	n
i	i
c	c
h	h
t	t

__BEGIN__	__EPS__
d	d
i	i
c	c
h	h

__BEGIN__	__EPS__
e	u
n	nd

__BEGIN__	__EPS__
v	u
n	n
d	d

__BEGIN__	__EPS__
v	ü
i	__EPS__
b	b
e	e
r	r

__BEGIN__	__EPS__
e	e
r	r
l	l
o	ö
i	__EPS__
s	s
t	t
e	e
s	s
t	t

__BEGIN__	__EPS__
a	a
n	n

__BEGIN__	__EPS__
k	k
i	i
n	n
t	d
h	__EPS__

__BEGIN__	__EPS__
i	j
ü	u
d	d
e	e
n	n

__BEGIN__	__EPS__
e	e
n	n
d	d
e	e
s	s

__BEGIN__	__EPS__
s	s
c	c
h	h
a	a
f	f
t	t

__BEGIN__	__EPS__
d	d
u	u

__BEGIN__	__EPS__
w	w
a	a
z	r

__BEGIN__	__EPS__
d	d
o	a

__BEGIN__	__EPS__
c	k
h	__EPS__
r	r
e	e
v	u
t	__EPS__
z	z

__BEGIN__	__EPS__
v	u
n	n
d	d

__BEGIN__	__EPS__
z	z
a	ä
r	r
t	t
l	l
i	i
c	c
h	h

__BEGIN__	__EPS__
l	l
e	e
g	g
t	t
e	e
n	n

__BEGIN__	__EPS__
v	u
n	n
d	d

__BEGIN__	__EPS__
e	e
i	i
n	n

__BEGIN__	__EPS__
e	e
i	i
n	n
e	e
s	s

__BEGIN__	__EPS__
l	l
a	a
s	s
t	t
e	e
r	r

__BEGIN__	__EPS__
m	m
e	e
i	i
n	n
e	e
s	s

__BEGIN__	__EPS__
w	w
i	i
l	l
l	l
e	e
n	n

__BEGIN__	__EPS__
k	k
u	ö
n	n
c	i
k	g

__BEGIN__	__EPS__
v	f
l	l
o	o
g	h
i	e
n	n

__BEGIN__	__EPS__
n	n
i	ich
t	t

__BEGIN__	__EPS__
t	t
o	o
c	c
h	h
t	t
e	e
r	r

__BEGIN__	__EPS__
l	l
e	i
i	e
b	b
e	e
r	r

__BEGIN__	__EPS__
d	d
i	i
e	e

__BEGIN__	__EPS__
d	d
o	a

__BEGIN__	__EPS__
w	w
o	o
u	l
l	l
d	t
e	e
n	n

__BEGIN__	__EPS__
d	d
i	i
c	c
k	k

__BEGIN__	__EPS__
m	m
e	e
n	n
s	s
c	c
h	h
e	__EPS__
l	l
i	i
c	c
h	h
e	e

__BEGIN__	__EPS__
j	j
e	ä
m	mm
e	e
r	r
l	l
i	i
c	c
h	h

__BEGIN__	__EPS__
s	s
a	a
c	__EPS__
h	h

__BEGIN__	__EPS__
s	s
c	__EPS__
e	__EPS__
t	__EPS__
e	__EPS__
r	__EPS__
a	an
-	k
t	t
u	__EPS__
s	__EPS__

__BEGIN__	__EPS__
m	m
i	i
c	c
h	h

__BEGIN__	__EPS__
g	g
i	in
e	g

__BEGIN__	__EPS__
d	d
e	e
r	r

__BEGIN__	__EPS__
f	f
u	ü
n	n
f	f
c	__EPS__
z	z
e	eh
n	n

__BEGIN__	__EPS__
i	i
c	c
h	h

__BEGIN__	__EPS__
g	g
i	i
e	__EPS__
n	n
g	g

__BEGIN__	__EPS__
a	a
c	c
h	h

__BEGIN__	__EPS__
k	k
u	ö
n	ni
g	g

__BEGIN__	__EPS__
h	h
e	e
i	i
l	l
i	i
g	g
e	e
n	n

__BEGIN__	__EPS__
v	u
m	m
b	__EPS__

__BEGIN__	__EPS__
v	u
n	n
d	d

__BEGIN__	__EPS__
s	s
p	p
e	ee
r	r

__BEGIN__	__EPS__
i	e
s	s
t	__EPS__

__BEGIN__	__EPS__
w	wa
z	s

__BEGIN__	__EPS__
i	i
s	s
t	t

__BEGIN__	__EPS__
b	b
i	i
s	s
c	c
h	h
o	o
f	__EPS__
f	f
e	__EPS__
s	s

__BEGIN__	__EPS__
n	n
a	a
c	c
h	h

__BEGIN__	__EPS__
m	m
i	i
t	t

__BEGIN__	__EPS__
d	d
y	ie

__BEGIN__	__EPS__
v	u
n	n
d	d

__BEGIN__	__EPS__
v	v
a	a
d	t
e	e
r	r

__BEGIN__	__EPS__
d	d
a	a
s	ss

__BEGIN__	__EPS__
v	u
n	n
d	d

__BEGIN__	__EPS__
h	h
i	i
e	e
r	r
n	n
a	ac
e	h

__BEGIN__	__EPS__
v	v
i	ie
l	l
e	e
n	n

__BEGIN__	__EPS__
d	d
a	a
s	s

__BEGIN__	__EPS__
i	i
c	c
h	h

__BEGIN__	__EPS__
i	i
n	n

__BEGIN__	__EPS__
h	h
u	__EPS__
o	o
b	b
e	e
n	n
d	__EPS__

__BEGIN__	__EPS__
s	sch
w	w
e	e
r	r
t	t

__BEGIN__	__EPS__
d	d
o	a

__BEGIN__	__EPS__
d	d
y	ie
s	s
e	e

__BEGIN__	__EPS__
e	e
i	i
n	n

__BEGIN__	__EPS__
v	v
o	o
n	n

__BEGIN__	__EPS__
w	v
e	e
r	r
b	b
o	o
d	t
e	e
n	n

__BEGIN__	__EPS__
l	l
a	a
s	s
z	s

__BEGIN__	__EPS__
d	d
a	a
r	__EPS__
c	__EPS__
z	z
u	u

__BEGIN__	__EPS__
l	l
a	a
s	s
z	s
e	e
n	n

__BEGIN__	__EPS__
e	e
r	r
s	s
a	a
c	__EPS__
h	h

__BEGIN__	__EPS__
m	m
e	e
i	i
n	n

__BEGIN__	__EPS__
g	b
e	e
t	n
a	a
c	__EPS__
h	h
t	m
e	__EPS__

__BEGIN__	__EPS__
d	d
i	i
e	e

__BEGIN__	__EPS__
g	g
e	e
b	b
e	e
n	n

__BEGIN__	__EPS__
f	f
l	l
o	o
s	s
z	s

__BEGIN__	__EPS__
w	w
a	a
r	r
e	e
n	n

__BEGIN__	__EPS__
a	a
l	l
l	l
e	e
m	m

__BEGIN__	__EPS__
i	j
h	__EPS__
e	e
s	s
u	u
i	__EPS__
s	s

__BEGIN__	__EPS__
i	j
v	u
d	d
e	e
n	n

__BEGIN__	__EPS__
h	h
e	a
t	t

__BEGIN__	__EPS__
d	d
o	a

__BEGIN__	__EPS__
d	d
o	a

__BEGIN__	__EPS__
g	g
e	e
n	n
u	ü
e	__EPS__
g	g
t	t
e	e

__BEGIN__	__EPS__
v	u
n	n
d	d

__BEGIN__	__EPS__
l	l
e	ä
m	m
p	m
p	l
e	e
l	in

__BEGIN__	__EPS__
t	t
o	o
t	t
e	__EPS__
n	__EPS__

__BEGIN__	__EPS__
b	b
o	ö
e	__EPS__
s	s
e	e
n	n

__BEGIN__	__EPS__
v	u
n	n
s	s
e	ä
g	g
l	l
i	i
c	c
h	h
e	e

__BEGIN__	__EPS__
s	s
i	i
c	c
h	h

__BEGIN__	__EPS__
u	u
n	n
d	d

__BEGIN__	__EPS__
d	d
i	i
r	r

__BEGIN__	__EPS__
s	s
o	o

__BEGIN__	__EPS__
d	d
i	i
r	r

__BEGIN__	__EPS__
p	b
i	i
s	s
z	__EPS__

__BEGIN__	__EPS__
g	g
e	e
n	n
e	e
s	s
s	__EPS__
e	e
n	n

__BEGIN__	__EPS__
a	a
n	n

__BEGIN__	__EPS__
m	m
i	i
r	r

__BEGIN__	__EPS__
d	d
u	u

__BEGIN__	__EPS__
h	h
e	e
r	r
o	o
d	d
e	e
s	s

__BEGIN__	__EPS__
v	v
o	o
n	n

__BEGIN__	__EPS__
c	k
r	r
e	e
u	u
t	__EPS__
z	z

__BEGIN__	__EPS__
h	e
i	__EPS__
e	r

__BEGIN__	__EPS__
k	k
u	o
m	mm
e	e
n	n

__BEGIN__	__EPS__
p	b
o	ö
z	s
e	e
n	n

__BEGIN__	__EPS__
m	m
e	eh
r	r

__BEGIN__	__EPS__
d	d
o	a

__BEGIN__	__EPS__
s	s
i	i
e	e

__BEGIN__	__EPS__
e	e
r	r

__BEGIN__	__EPS__
m	m
e	e
i	i
n	n
e	e
m	m

__BEGIN__	__EPS__
s	s
p	p
r	r
a	a
c	c
h	h

__BEGIN__	__EPS__
s	s
a	a
n	n
d	dt
e	e

__BEGIN__	__EPS__
k	k
o	a
n	m

__BEGIN__	__EPS__
t	t
u	u
o	__EPS__
t	t

__BEGIN__	__EPS__
e	e
i	i
n	n

__BEGIN__	__EPS__
v	u
n	n
d	d

__BEGIN__	__EPS__
d	d
e	e
r	r

__BEGIN__	__EPS__
n	n
i	i
c	c
h	h
t	t

__BEGIN__	__EPS__
g	g
e	e
i	i
s	s
t	t

__BEGIN__	__EPS__
m	m
e	e
i	i
n	n
e	e
n	m

__BEGIN__	__EPS__
e	e
r	r

__BEGIN__	__EPS__
e	i
m	h
e	m

__BEGIN__	__EPS__
s	s
i	i
c	c
h	h

__BEGIN__	__EPS__
d	d
a	a
r	r
a	a
u	u
f	f

__BEGIN__	__EPS__
o	a
u	u
c	c
h	h

__BEGIN__	__EPS__
m	m
e	eh
r	r

__BEGIN__	__EPS__
d	d
o	a

__BEGIN__	__EPS__
d	d
o	a

__BEGIN__	__EPS__
d	d
a	a
t	ss

__BEGIN__	__EPS__
i	e
d	__EPS__
t	s

__BEGIN__	__EPS__
s	s
o	oh
n	n

__BEGIN__	d
u	u

__BEGIN__	__EPS__
v	u
n	n
d	d

__BEGIN__	__EPS__
e	u
n	nd

__BEGIN__	__EPS__
g	g
e	e
z	z
o	o
g	g
e	e
n	n

__BEGIN__	__EPS__
s	s
e	e
y	i
s	s
t	t

__BEGIN__	__EPS__
d	d
i	ie
s	s
e	e
r	r

__BEGIN__	__EPS__
k	k
e	a
y	i
s	s
e	e
r	r

__BEGIN__	__EPS__
w	w
o	ol
l	l
t	t

__BEGIN__	__EPS__
d	d
i	i
e	e

__BEGIN__	__EPS__
s	s
p	p
r	r
a	a
c	c
h	h

__BEGIN__	__EPS__
h	h
a	a
b	b
e	e
n	n

__BEGIN__	__EPS__
s	s
a	a
n	nk
t	t

__BEGIN__	__EPS__
s	s
i	i
c	e
h	h

__BEGIN__	__EPS__
v	u
n	n
d	d

__BEGIN__	__EPS__
n	n
i	i
e	ch
t	t

__BEGIN__	n
e	ich
n	t

__BEGIN__	__EPS__
k	k
o	o
e	m
m	m
e	e
n	n

__BEGIN__	__EPS__
m	m
a	a
n	n

__BEGIN__	__EPS__
m	m
o	o
r	r
d	d
e	e
n	__EPS__
s	s

__BEGIN__	__EPS__
c	k
l	l
a	a
g	g
e	e

__BEGIN__	__EPS__
d	d
e	e
n	m

__BEGIN__	__EPS__
m	m
i	i
t	t

__BEGIN__	__EPS__
s	s
t	t
i	i
m	mme

__BEGIN__	__EPS__
d	d
o	a
e	__EPS__

__BEGIN__	__EPS__
d	d
e	e
n	n

__BEGIN__	__EPS__
w	w
a	a
s	r

__BEGIN__	__EPS__
d	d
i	i
c	c
h	h

__BEGIN__	__EPS__
l	l
o	o
p	b
t	t

__BEGIN__	__EPS__
m	m
e	e
i	i
n	n
e	e
s	s

__BEGIN__	__EPS__
a	a
n	n

__BEGIN__	__EPS__
v	a
e	u
r	s
g	g
e	e
h	s
e	ag
n	t

__BEGIN__	__EPS__
s	s
c	c
h	h
e	e
i	i
d	d
e	e
n	n

__BEGIN__	__EPS__
v	ü
b	b
e	e
r	r

__BEGIN__	__EPS__
g	g
h	e
e	is
s	s
e	e
l	l
e	__EPS__
n	n

__BEGIN__	__EPS__
v	u
n	n
g	g
e	e
m	m
a	a
c	c
h	h

__BEGIN__	__EPS__
e	e
r	r

__BEGIN__	__EPS__
d	d
a	a

__BEGIN__	__EPS__
v	u
n	n
d	d

__BEGIN__	__EPS__
s	s
t	t
e	i
m	m
m	m
e	e

__BEGIN__	__EPS__
e	u
n	nd

__BEGIN__	__EPS__
h	h
e	ät
t	te

__BEGIN__	__EPS__
v	u
n	n
d	d

__BEGIN__	__EPS__
z	z
e	u

__BEGIN__	__EPS__
m	m
i	i
t	t

__BEGIN__	__EPS__
i	e
d	__EPS__
t	s

__BEGIN__	__EPS__
s	se
i	i
n	n

__BEGIN__	__EPS__
g	g
o	o
t	ttes
v	f
o	ü
r	r
c	c
h	h
t	t
i	i
c	g
h	__EPS__

__BEGIN__	__EPS__
a	a
r	r
m	m
e	e

__BEGIN__	__EPS__
d	d
a	a
z	s

__BEGIN__	__EPS__
d	d
y	ie

__BEGIN__	__EPS__
n	n
i	ich
t	t

__BEGIN__	__EPS__
w	w
i	o
l	l
l	l
e	e
n	n

__BEGIN__	__EPS__
d	d
a	as
z	s

__BEGIN__	__EPS__
w	w
a	a
r	r
e	e
n	n

__BEGIN__	__EPS__
b	b
r	r
a	a
i	__EPS__
c	c
h	h
e	e
n	n

__BEGIN__	__EPS__
d	d
a	a
z	ss

__BEGIN__	__EPS__
d	d
u	u

__BEGIN__	__EPS__
h	h
a	a
s	s
t	t

__BEGIN__	__EPS__
v	u
n	n
d	d

__BEGIN__	__EPS__
d	d
o	a

__BEGIN__	__EPS__
h	h
a	a
b	b
e	__EPS__
t	te

__BEGIN__	__EPS__
c	__EPS__
z	z
u	o
g	g
e	e
n	n

__BEGIN__	__EPS__
v	v
o	o
r	r

__BEGIN__	__EPS__
a	a
l	l
l	l
e	e
s	s

__BEGIN__	__EPS__
s	s
p	p
r	r
a	a
c	c
h	h

__BEGIN__	__EPS__
i	ih
n	n

__BEGIN__	__EPS__
m	m
e	e
i	i
n	n

__BEGIN__	__EPS__
s	s
y	ie

__BEGIN__	__EPS__
m	m
e	ehr

__BEGIN__	__EPS__
g	g
e	e
s	s
e	e
h	h
e	e
n	n

__BEGIN__	__EPS__
d	d
i	i
e	e
p	b

__BEGIN__	__EPS__
d	d
o	a

__BEGIN__	__EPS__
e	e
i	i
n	n

__BEGIN__	__EPS__
o	of
f	fe
n	n
e	e
n	n

__BEGIN__	__EPS__
s	s
i	i
u	e

__BEGIN__	__EPS__
s	s
t	t
i	i
m	m
m	m
e	e

__BEGIN__	__EPS__
r	r
e	e
c	c
h	h
t	t

__BEGIN__	__EPS__
i	i
c	c
h	h

__BEGIN__	__EPS__
v	u
n	n
d	d

__BEGIN__	__EPS__
h	h
e	e
r	r

__BEGIN__	__EPS__
v	u
n	n
d	d

__BEGIN__	__EPS__
d	d
i	ie

__BEGIN__	__EPS__
o	a
v	u
c	c
h	h

__BEGIN__	__EPS__
v	v
o	o
n	n

__BEGIN__	__EPS__
r	re
i	i
c	c
h	h

__BEGIN__	__EPS__
w	w
i	i
e	e

__BEGIN__	__EPS__
d	d
o	a

__BEGIN__	__EPS__
d	d
e	e
n	n

__BEGIN__	__EPS__
s	s
t	t
ü	a
n	n
d	d

__BEGIN__	__EPS__
t	t
a	a
g	g
e	e

__BEGIN__	__EPS__
e	e
n	n
t	t
s	s
c	c
h	h
u	u
l	l
d	d
i	i
g	g
e	e

__BEGIN__	__EPS__
s	s
p	p
r	r
a	a
c	c
h	h

__BEGIN__	__EPS__
i	ih
r	r
e	e

__BEGIN__	__EPS__
b	b
i	i
s	s

__BEGIN__	__EPS__
h	h
a	a
b	b
e	e
n	n

__BEGIN__	__EPS__
m	m
e	e
i	i
n	n

__BEGIN__	__EPS__
v	u
n	n
d	d

__BEGIN__	__EPS__
d	di
e	e
s	s
e	e
n	n

__BEGIN__	__EPS__
d	d
e	e
m	m

__BEGIN__	__EPS__
h	h
e	a
t	t

__BEGIN__	__EPS__
r	r
e	e
c	c
h	h
t	t

__BEGIN__	__EPS__
w	d
e	e
n	nn

__BEGIN__	__EPS__
s	s
o	o
l	ll
t	t

__BEGIN__	__EPS__
w	w
i	i
l	ll

__BEGIN__	__EPS__
m	m
e	e
i	i
n	n
e	e
n	n

__BEGIN__	__EPS__
v	f
o	__EPS__
r	r
w	a
e	u

__BEGIN__	__EPS__
g	g
a	a
b	b

__BEGIN__	__EPS__
z	s
e	o
h	gl
a	e
n	i
t	ch

__BEGIN__	__EPS__
e	e
r	r

__BEGIN__	__EPS__
r	r
e	e
c	c
h	h
t	t
e	e
r	r

__BEGIN__	__EPS__
h	e
e	r

__BEGIN__	__EPS__
s	s
e	e
l	l
b	b
e	e
r	r

__BEGIN__	__EPS__
d	d
i	i
e	e

__BEGIN__	__EPS__
z	z
v	u
e	e
i	i
n	n
a	a
n	n
d	d
e	e
r	r

__BEGIN__	__EPS__
i	i
c	c
h	h

__BEGIN__	__EPS__
w	w
e	o
l	l
l	l
i	__EPS__
t	t

__BEGIN__	__EPS__
w	w
a	a
n	n
g	g
e	e
n	n

__BEGIN__	__EPS__
k	k
e	e
i	i
n	n

__BEGIN__	__EPS__
v	u
n	n
d	d

__BEGIN__	__EPS__
v	v
o	o
n	n

__BEGIN__	__EPS__
w	w
a	a
n	n
n	n

__BEGIN__	__EPS__
m	me
i	i
n	n

__BEGIN__	__EPS__
i	i
c	c
h	h

__BEGIN__	__EPS__
k	k
i	i
n	n
d	d
e	e
z	s

__BEGIN__	__EPS__
d	d
v	u
r	rch

__BEGIN__	__EPS__
e	e
i	i
n	n
e	e
r	r

__BEGIN__	__EPS__
v	u
n	n
d	d

__BEGIN__	__EPS__
m	m
o	ö
e	__EPS__
c	c
h	h
t	te

__BEGIN__	__EPS__
g	g
i	i
e	__EPS__
n	n
g	g

__BEGIN__	__EPS__
v	u
n	n
d	d

__BEGIN__	__EPS__
r	r
e	e
c	c
h	h
t	t
e	e

__BEGIN__	__EPS__
d	d
e	e
r	r

__BEGIN__	__EPS__
i	j
e	e
m	m
a	a
n	n
d	d

__BEGIN__	__EPS__
i	i
c	c
h	h

__BEGIN__	__EPS__
v	v
o	o
n	n

__BEGIN__	__EPS__
b	b
i	i
l	l
l	l
i	i
c	g
h	__EPS__

__BEGIN__	__EPS__
p	b
e	e
y	i

__BEGIN__	__EPS__
d	d
i	i
e	e

__BEGIN__	__EPS__
a	a
l	l
z	s
o	o

__BEGIN__	__EPS__
l	l
e	e
i	i
b	b
e	__EPS__

__BEGIN__	__EPS__
v	u
n	n
d	d

__BEGIN__	__EPS__
f	f
u	ü
e	s
s	se

__BEGIN__	__EPS__
d	d
o	o
c	c
h	h

__BEGIN__	__EPS__
e	e
n	m
p	p
h	f
a	a
n	n
g	g
e	e
n	n

__BEGIN__	__EPS__
s	s
p	p
r	r
a	a
c	c
h	h

__BEGIN__	__EPS__
d	d
i	i
e	e

__BEGIN__	__EPS__
d	d
u	u

__BEGIN__	__EPS__
f	f
r	r
a	a
w	u
e	e
n	n

__BEGIN__	__EPS__
s	s
i	i
c	c
h	h

__BEGIN__	__EPS__
s	s
p	p
r	r
a	a
c	c
h	h

__BEGIN__	__EPS__
v	u
n	n
d	d

__BEGIN__	__EPS__
s	s
a	a
c	__EPS__
h	h

__BEGIN__	__EPS__
d	da
z	ss

__BEGIN__	__EPS__
w	w
y	i
r	r

__BEGIN__	__EPS__
d	d
e	e
n	m

__BEGIN__	__EPS__
v	a
s	u
s	s

__BEGIN__	__EPS__
w	w
a	ah
r	r
e	e

__BEGIN__	__EPS__
s	s
e	e
i	i
n	n

__BEGIN__	__EPS__
s	s
p	p
r	r
a	a
c	c
h	h

__BEGIN__	__EPS__
g	g
e	e
s	s
p	p
o	o
t	t
t	t
e	e
t	t

__BEGIN__	__EPS__
c	k
r	r
e	e
u	u
c	__EPS__
z	z

__BEGIN__	__EPS__
e	e
r	r

__BEGIN__	__EPS__
w	w
a	o
i	h
l	l

__BEGIN__	__EPS__
i	j
h	__EPS__
e	e
r	r
u	u
s	s
a	a
l	l
e	e
n	m

__BEGIN__	__EPS__
g	g
r	r
o	o
s	s
s	s
z	__EPS__

__BEGIN__	__EPS__
i	i
c	c
h	h

__BEGIN__	__EPS__
f	f
r	r
a	a
w	u

__BEGIN__	__EPS__
d	d
i	i
e	e

__BEGIN__	__EPS__
a	a
u	u
s	s
z	__EPS__

__BEGIN__	__EPS__
d	t
o	o
i	__EPS__
t	d

__BEGIN__	__EPS__
g	g
e	e
g	g
e	e
b	b
e	e
n	n

__BEGIN__	__EPS__
s	se
i	i
d	t
e	e
n	n

__BEGIN__	__EPS__
g	g
i	in
e	g

__BEGIN__	__EPS__
i	i
c	c
h	h

__BEGIN__	__EPS__
e	e
r	r
s	s
c	c
h	h
a	a
f	f
f	f
e	e
n	n

__BEGIN__	__EPS__
v	f
i	ie
l	l

__BEGIN__	__EPS__
w	w
a	a
r	r
e	e
n	n

__BEGIN__	__EPS__
g	g
r	r
o	o
s	ss

__BEGIN__	__EPS__
v	u
n	n
d	d

__BEGIN__	__EPS__
h	i
e	h
m	m

__BEGIN__	__EPS__
i	ih
m	m

__BEGIN__	__EPS__
i	ih
n	n

__BEGIN__	__EPS__
d	d
y	ie

__BEGIN__	__EPS__
d	d
o	a

__BEGIN__	__EPS__
k	k
u	on
n	n
d	t
e	e

__BEGIN__	__EPS__
m	m
e	e
i	i
n	n

__BEGIN__	__EPS__
m	me
i	i
n	n

__BEGIN__	__EPS__
t	z
z	e
o	r
b	b
r	r
e	e
c	c
h	h
e	e
n	n

__BEGIN__	__EPS__
y	ih
n	n

__BEGIN__	__EPS__
i	j
u	u
d	d
e	e
n	n

__BEGIN__	__EPS__
d	d
o	a

__BEGIN__	__EPS__
m	me
y	i
n	n

__BEGIN__	__EPS__
s	s
p	p
r	r
e	e
c	c
h	h
e	e
n	n

__BEGIN__	__EPS__
k	k
y	i
n	n
d	d
e	e
r	r
e	__EPS__

__BEGIN__	__EPS__
h	h
a	a
t	t
t	t
e	e
n	n

__BEGIN__	__EPS__
l	l
e	e
g	g
t	t
e	e
n	n

__BEGIN__	__EPS__
i	j
u	u
d	d
e	e
n	n

__BEGIN__	__EPS__
w	w
a	a
s	r

__BEGIN__	__EPS__
s	s
p	p
i	i
e	e
l	l
t	t

__BEGIN__	__EPS__
e	e
r	r

__BEGIN__	__EPS__
k	k
r	r
e	ä
i	__EPS__
e	h
t	t

__BEGIN__	__EPS__
d	t
o	ö
e	__EPS__
d	t
e	e
n	n

__BEGIN__	__EPS__
d	d
o	a

__BEGIN__	__EPS__
m	me
y	i
n	n
e	e
m	m

__BEGIN__	__EPS__
w	w
a	a
s	s
z	s
e	e
r	r

__BEGIN__	__EPS__
w	w
a	u
r	r
t	de

__BEGIN__	__EPS__
r	r
e	e
i	i
n	n
i	e

__BEGIN__	__EPS__
s	s
o	ol
l	l

__BEGIN__	__EPS__
a	a
l	l
s	s
e	__EPS__

__BEGIN__	__EPS__
d	d
u	u
r	r
c	c
h	h
m	m
a	a
r	r
t	t
e	e
r	r
e	__EPS__
t	t

__BEGIN__	__EPS__
m	m
e	e
i	i
n	n
e	e
m	m

__BEGIN__	__EPS__
s	s
i	ie

__BEGIN__	__EPS__
d	d
y	ie

__BEGIN__	__EPS__
p	p
a	a
r	r
a	a
s	s
c	c
e	e
u	v
e	e

__BEGIN__	__EPS__
a	a
n	n

__BEGIN__	__EPS__
e	e
r	r

__BEGIN__	__EPS__
o	u
r	r
t	t
e	e
i	i
l	l

__BEGIN__	__EPS__
d	d
e	e
r	r

__BEGIN__	__EPS__
v	u
n	n
d	d

__BEGIN__	__EPS__
h	e
e	r

__BEGIN__	__EPS__
c	__EPS__
z	z
u	u

__BEGIN__	__EPS__
g	g
e	e
s	s
c	c
h	h
r	r
e	e
i	i
e	__EPS__

__BEGIN__	__EPS__
b	b
i	i
t	tt
e	e
r	r
k	k
e	e
i	i
t	t

__BEGIN__	__EPS__
y	ih
m	m

__BEGIN__	__EPS__
a	a
l	l
l	l
e	e

__BEGIN__	__EPS__
g	s
e	e
s	__EPS__
i	i
n	n

__BEGIN__	__EPS__
g	g
e	e
w	w
a	a
n	n
t	d

__BEGIN__	__EPS__
e	e
r	r

__BEGIN__	__EPS__
d	d
o	o
c	c
h	h

__BEGIN__	__EPS__
s	s
c	c
h	h
w	w
a	a
m	mm

__BEGIN__	__EPS__
p	b
r	r
a	a
c	c
h	h
e	e
n	n

__BEGIN__	__EPS__
w	w
e	ä
r	re
n	n

__BEGIN__	__EPS__
i	ih
m	m

__BEGIN__	__EPS__
h	h
e	ä
t	tte

__BEGIN__	__EPS__
d	d
o	a

__BEGIN__	__EPS__
h	h
a	a
u	u
b	p
t	t

__BEGIN__	__EPS__
w	w
a	a
n	nn

__BEGIN__	__EPS__
k	k
y	i
n	n
d	d
e	e
r	r
e	__EPS__
n	n

__BEGIN__	__EPS__
c	k
l	l
a	a
r	r
h	h
e	e
i	i
t	t
h	__EPS__

__BEGIN__	__EPS__
d	d
i	i
c	c
h	h

__BEGIN__	__EPS__
h	e
e	r

__BEGIN__	__EPS__
d	d
a	a
t	s

__BEGIN__	__EPS__
d	d
o	o
m	m
i	i
n	n
i	i

__BEGIN__	__EPS__
d	d
a	a
z	ss

__BEGIN__	__EPS__
v	u
n	n
d	d

__BEGIN__	__EPS__
e	e
r	r

__BEGIN__	__EPS__
v	u
n	n
d	d

__BEGIN__	__EPS__
s	s
t	t
e	a
r	r
k	k
u	__EPS__
i	e

__BEGIN__	__EPS__
d	d
e	e
r	r

__BEGIN__	__EPS__
w	w
e	e
i	i
s	s
z	s

__BEGIN__	__EPS__
s	s
y	ie

__BEGIN__	__EPS__
h	h
a	a
n	n
t	d

__BEGIN__	__EPS__
g	g
r	r
o	o
s	s
z	s

__BEGIN__	__EPS__
m	m
e	e
n	n
s	s
c	c
h	h

__BEGIN__	__EPS__
d	d
a	a
s	s

__BEGIN__	__EPS__
t	t
r	r
o	o
i	__EPS__
s	s
t	t
e	e
s	s

__BEGIN__	__EPS__
d	d
e	e
r	r

__BEGIN__	__EPS__
s	sch
w	w
e	e
i	i
c	g
h	e

__BEGIN__	__EPS__
m	m
a	a
r	r
i	i
a	a

__BEGIN__	__EPS__
z	s
e	o
h	f
a	o
n	r
n	__EPS__
t	t

__BEGIN__	__EPS__
s	s
t	t
a	ad
t	t

__BEGIN__	__EPS__
n	n
i	ic
h	h
c	t
z	s

__BEGIN__	__EPS__
a	e
i	i
n	n

__BEGIN__	__EPS__
e	e
d	d
e	__EPS__
l	le
n	n

__BEGIN__	__EPS__
a	a
n	n

__BEGIN__	__EPS__
d	d
o	a

__BEGIN__	__EPS__
d	d
i	i
e	e

__BEGIN__	b
e	ef
r	r
l	__EPS__
e	e
d	__EPS__
i	i
g	__EPS__
t	t

__BEGIN__	__EPS__
s	s
e	e
i	i
n	n
e	e

__BEGIN__	__EPS__
g	g
r	r
o	o
z	ss
e	e
m	m

__BEGIN__	__EPS__
v	u
n	n
d	d

__BEGIN__	__EPS__
v	u
n	n
d	t
e	e
r	r

__BEGIN__	__EPS__
i	ir
n	ge
n	n
d	d
e	__EPS__
r	w
t	o

__BEGIN__	__EPS__
a	a
b	b

__BEGIN__	__EPS__
e	e
r	r
t	d
r	re
i	i
c	c
h	h

__BEGIN__	__EPS__
m	m
i	i
c	c
h	h

__BEGIN__	__EPS__
g	g
r	r
o	o
s	s
z	s
e	e
n	m

__BEGIN__	__EPS__
w	w
a	a
z	r

__BEGIN__	__EPS__
d	d
e	e
n	nn

__BEGIN__	__EPS__
v	b
n	i
c	__EPS__
z	s

__BEGIN__	__EPS__
m	m
e	e
i	i
n	n

__BEGIN__	__EPS__
w	w
i	i
r	r
t	d

__BEGIN__	__EPS__
i	ih
n	n

__BEGIN__	__EPS__
s	s
o	o
l	ll

__BEGIN__	__EPS__
v	u
n	n
d	d

__BEGIN__	__EPS__
s	s
a	a
z	ss

__BEGIN__	__EPS__
s	s
e	e
i	i
n	n
e	e
s	s

__BEGIN__	__EPS__
e	e
r	r

__BEGIN__	__EPS__
d	de
y	i
n	n

__BEGIN__	__EPS__
a	a
n	n

__BEGIN__	__EPS__
p	b
a	e
i	i
n	n

__BEGIN__	__EPS__
e	e
r	r

__BEGIN__	__EPS__
k	k
u	ö
n	n
i	i
g	g

__BEGIN__	__EPS__
b	b
i	i
s	s

__BEGIN__	__EPS__
e	e
u	u
e	__EPS__
r	r
e	e

__BEGIN__	__EPS__
b	b
y	i
s	s
c	c
h	h
o	o
f	f
f	__EPS__

__BEGIN__	__EPS__
m	m
u	u
t	tt
e	e
r	r

__BEGIN__	__EPS__
u	u
n	n
d	d

__BEGIN__	__EPS__
d	d
e	e
r	r

__BEGIN__	__EPS__
d	d
y	i
e	e

__BEGIN__	__EPS__
i	i
c	c
h	h

__BEGIN__	__EPS__
t	t
r	r
e	e
w	ue

__BEGIN__	__EPS__
h	h
e	e
i	i
m	m
l	l
i	i
c	c
h	h

__BEGIN__	__EPS__
h	h
ö	ö
r	r

__BEGIN__	__EPS__
a	a
n	n
t	t
l	l
ü	i
t	tz

__BEGIN__	__EPS__
s	s
t	t
u	a
n	n
d	d

__BEGIN__	__EPS__
s	s
o	o

__BEGIN__	__EPS__
d	d
i	i
e	e

__BEGIN__	__EPS__
a	a
b	b
e	e
r	r

__BEGIN__	a
v	u
f	f

__BEGIN__	__EPS__
t	t
a	a
t	t

__BEGIN__	__EPS__
v	u
n	n
n	d

__BEGIN__	__EPS__
r	r
e	e
d	d
i	e
n	n

__BEGIN__	__EPS__
b	b
i	i
s	s
t	t

__BEGIN__	__EPS__
i	i
s	s
t	t

__BEGIN__	__EPS__
r	r
e	e
c	c
h	h
t	t
e	e
n	n

__BEGIN__	__EPS__
v	ü
e	__EPS__
b	b
e	e
r	r

__BEGIN__	__EPS__
v	f
r	r
a	a
g	g
h	__EPS__
e	__EPS__
d	t
e	e

__BEGIN__	__EPS__
s	s
p	p
r	r
a	a
c	c
h	h

__BEGIN__	__EPS__
w	w
e	e
r	r

__BEGIN__	__EPS__
v	v
o	o
n	n

__BEGIN__	__EPS__
d	d
a	a
r	r

__BEGIN__	h
a	e
b	b
e	__EPS__
r	r
h	ä
a	i
m	sc
s	h

__BEGIN__	__EPS__
n	n
o	ö
e	__EPS__
t	t
e	e
n	n

__BEGIN__	__EPS__
s	s
i	ie

__BEGIN__	__EPS__
d	d
u	u

__BEGIN__	__EPS__
w	w
a	a
n	n
n	n

__BEGIN__	__EPS__
s	s
i	i
n	n
d	d

__BEGIN__	__EPS__
d	d
o	a

__BEGIN__	__EPS__
h	h
o	ö
i	__EPS__
r	r
t	t
e	e

__BEGIN__	__EPS__
o	o
n	__EPS__
i	i
a	a

__BEGIN__	__EPS__
s	s
p	p
r	r
a	a
c	c
h	h

__BEGIN__	__EPS__
a	a
u	u
c	c
h	h

__BEGIN__	__EPS__
k	k
i	i
n	n
t	d

__BEGIN__	__EPS__
v	u
n	n
d	d

__BEGIN__	__EPS__
v	u
n	n
d	d

__BEGIN__	__EPS__
a	a
l	l
s	s

__BEGIN__	__EPS__
p	b
l	l
u	u
t	t

__BEGIN__	__EPS__
d	d
o	a

__BEGIN__	__EPS__
g	geh
e	e
n	n

__BEGIN__	__EPS__
d	d
a	a
z	ss

__BEGIN__	__EPS__
v	u
n	n
d	d

__BEGIN__	__EPS__
p	b
e	e
d	d
e	e
n	n
c	__EPS__
k	k

__BEGIN__	__EPS__
z	z
u	u

__BEGIN__	__EPS__
s	s
i	ie

__BEGIN__	__EPS__
s	s
p	p
r	r
a	a
c	c
h	h

__BEGIN__	__EPS__
l	l
e	e
y	i
d	d
e	e

__BEGIN__	__EPS__
w	p
e	r
i	o
s	p
s	h
a	e
g	t

__BEGIN__	__EPS__
d	d
o	a

__BEGIN__	__EPS__
a	a
l	l
s	s

__BEGIN__	__EPS__
s	s
i	i
c	e
h	h

__BEGIN__	__EPS__
v	v
e	o
r	r

__BEGIN__	__EPS__
e	e
l	__EPS__
l	l
e	e
n	n
d	de
s	s

__BEGIN__	__EPS__
c	ch
r	r
i	i
s	s
t	t

__BEGIN__	__EPS__
d	d
a	a
t	s

__BEGIN__	__EPS__
d	d
o	a

__BEGIN__	__EPS__
l	l
e	e
b	be

__BEGIN__	__EPS__
d	d
u	u

__BEGIN__	__EPS__
e	e
t	s

__BEGIN__	__EPS__
d	da
z	ss

__BEGIN__	__EPS__
e	e
i	i
n	n
e	e
m	m

__BEGIN__	__EPS__
i	i
n	n

__BEGIN__	__EPS__
g	g
e	e
g	g
a	an
i	ge
n	n

__BEGIN__	__EPS__
w	w
y	i
r	r

__BEGIN__	__EPS__
d	d
e	e
m	m

__BEGIN__	__EPS__
d	d
i	ie

__BEGIN__	__EPS__
d	d
a	a
t	ss

__BEGIN__	__EPS__
d	d
o	a

__BEGIN__	__EPS__
s	s
p	p
r	r
a	a
c	c
h	h

__BEGIN__	__EPS__
w	w
i	i
e	e

__BEGIN__	__EPS__
v	v
o	o
n	n

__BEGIN__	__EPS__
m	m
a	a
l	l
e	__EPS__

__BEGIN__	__EPS__
m	m
a	a
r	r
i	i
a	a

__BEGIN__	__EPS__
i	ih
n	n

__BEGIN__	__EPS__
d	d
e	e
m	m

__BEGIN__	__EPS__
s	s
a	o
l	ll

__BEGIN__	__EPS__
d	d
a	a
s	s

__BEGIN__	__EPS__
v	v
e	e
r	r
s	s
m	c
a	h
e	m
c	ä
h	h
t	t

__BEGIN__	__EPS__
v	u
n	n
d	d

__BEGIN__	__EPS__
s	s
c	c
h	h
r	r
u	__EPS__
i	i
w	__EPS__
e	e
n	n

__BEGIN__	__EPS__
d	d
e	e
m	m

__BEGIN__	__EPS__
n	n
a	a
c	c
h	h
t	t

__BEGIN__	__EPS__
u	u
n	n
d	d

__BEGIN__	__EPS__
w	w
e	e
i	i
s	s
z	s

__BEGIN__	__EPS__
v	f
r	r
a	a
g	g
h	__EPS__
e	__EPS__
d	t
e	e

__BEGIN__	__EPS__
d	d
i	i
e	e

__BEGIN__	__EPS__
v	u
n	n
d	d

__BEGIN__	__EPS__
w	w
a	a
z	r

__BEGIN__	__EPS__
g	g
r	r
o	o
s	s
z	s
e	e

__BEGIN__	__EPS__
y	ih
r	r

__BEGIN__	__EPS__
m	m
a	a
c	c
h	h
e	e
n	n

__BEGIN__	__EPS__
m	m
a	a
r	r
i	i
a	a

__BEGIN__	__EPS__
g	__EPS__
e	__EPS__
t	t
r	r
o	ö
e	__EPS__
s	s
t	t
e	e
n	n

__BEGIN__	__EPS__
o	o
w	w
e	eh

__BEGIN__	__EPS__
s	s
i	ie

__BEGIN__	__EPS__
s	s
e	e
i	i
n	n

__BEGIN__	__EPS__
h	h
e	e
r	r
r	r
e	e
n	n

__BEGIN__	__EPS__
g	g
e	e
d	t
a	a
i	__EPS__
n	n

__BEGIN__	__EPS__
h	h
a	a
s	s
t	t

__BEGIN__	__EPS__
e	e
r	r

__BEGIN__	__EPS__
i	ih
r	r

__BEGIN__	__EPS__
e	e
r	r
f	f
u	ü
i	__EPS__
l	l
l	l
e	__EPS__
t	t

__BEGIN__	__EPS__
i	ih
m	m

__BEGIN__	__EPS__
m	m
o	o
c	c
h	h
t	t
e	e
n	n

__BEGIN__	__EPS__
m	m
i	e
j	i
n	ne
s	s

__BEGIN__	__EPS__
m	m
i	i
c	c
h	h

__BEGIN__	__EPS__
s	s
p	p
r	r
a	a
c	c
h	h
e	e
n	n

__BEGIN__	__EPS__
s	s
p	p
r	r
a	a
c	c
h	h

__BEGIN__	__EPS__
i	j
e	e
r	r
u	u
s	s
a	a
l	l
e	e
m	m

__BEGIN__	__EPS__
a	a
n	n
s	s
h	__EPS__
e	e
l	l
m	m
e	__EPS__

__BEGIN__	__EPS__
a	a
n	n

__BEGIN__	__EPS__
d	d
i	i
c	c
h	h

__BEGIN__	__EPS__
m	m
e	e
n	n
s	s
c	c
h	h

__BEGIN__	__EPS__
v	u
n	n
d	d

__BEGIN__	__EPS__
i	j
u	u
d	d
e	e
n	n

__BEGIN__	__EPS__
y	ih
m	m

__BEGIN__	__EPS__
v	v
i	ie
l	l

__BEGIN__	__EPS__
m	m
e	ehr

__BEGIN__	__EPS__
a	a
n	n
d	de
r	r
e	e
n	n

__BEGIN__	__EPS__
s	s
a	a
n	nd
t	t
e	e

__BEGIN__	__EPS__
d	d
i	ie
s	s
z	__EPS__

__BEGIN__	__EPS__
s	s
o	o
e	__EPS__

__BEGIN__	__EPS__
w	w
e	e
n	n
d	de

__BEGIN__	__EPS__
h	e
i	__EPS__
e	r

__BEGIN__	__EPS__
w	w
e	e
r	r
f	f
e	e
n	n

__BEGIN__	__EPS__
d	d
e	e
n	nn

__BEGIN__	__EPS__
k	k
u	ö
n	n
i	i
g	g

__BEGIN__	__EPS__
e	e
s	s

__BEGIN__	__EPS__
z	z
e	u

__BEGIN__	__EPS__
a	o
b	b

__BEGIN__	__EPS__
i	i
s	st

__BEGIN__	__EPS__
t	__EPS__
z	z
v	u

__BEGIN__	__EPS__
w	w
e	ä
r	r
e	e

__BEGIN__	__EPS__
e	e
y	i
n	n
e	e
n	n

__BEGIN__	__EPS__
z	z
u	u

__BEGIN__	ver
s	s
p	p
o	o
t	t
t	t
e	ete
n	n

__BEGIN__	__EPS__
v	u
n	n
d	d

__BEGIN__	__EPS__
a	a
l	l
s	s

__BEGIN__	__EPS__
m	m
i	i
t	t

__BEGIN__	__EPS__
m	m
o	a
l	l

__BEGIN__	__EPS__
d	d
o	a

__BEGIN__	__EPS__
d	d
a	a

__BEGIN__	__EPS__
h	h
e	ä
n	n
d	d
e	e

__BEGIN__	__EPS__
v	u
n	n
d	d

__BEGIN__	__EPS__
a	a
n	n
s	s
h	__EPS__
e	e
l	l
m	m

__BEGIN__	__EPS__
g	g
r	r
o	o
s	s
z	s

__BEGIN__	__EPS__
d	d
i	i
e	e

__BEGIN__	__EPS__
i	ih
m	m

__BEGIN__	__EPS__
s	s
i	i
c	c
i	i
o	o

__BEGIN__	__EPS__
g	g
h	__EPS__
e	e
s	s
o	u
n	n
t	d

__BEGIN__	__EPS__
r	__EPS__
e	__EPS__
c	__EPS__
h	__EPS__
t	__EPS__
s	s
c	c
h	h
u	u
l	l
d	d
i	i
g	g
e	e
n	n

__BEGIN__	__EPS__
d	d
e	e
r	r

__BEGIN__	__EPS__
h	h
a	än
i	ge
n	n

__BEGIN__	__EPS__
m	m
a	a
g	g
d	d
a	a
l	l
e	e
n	n
a	a

__BEGIN__	__EPS__
i	ih
m	m

__BEGIN__	__EPS__
s	s
u	oh
n	n

__BEGIN__	__EPS__
n	n
a	a
c	c
h	h
t	t

__BEGIN__	__EPS__
l	l
a	a
g	g

__BEGIN__	__EPS__
d	d
a	a

__BEGIN__	__EPS__
m	m
o	o
c	c
h	h
t	te

__BEGIN__	__EPS__
s	s
i	i
c	c
h	h

__BEGIN__	__EPS__
g	g
e	e
p	b
u	u
n	n
d	d
e	e
n	n

__BEGIN__	__EPS__
w	w
e	e
r	r
d	d
e	e
n	n

__BEGIN__	__EPS__
e	e
r	r
h	h
o	ö
r	r
t	t

__BEGIN__	__EPS__
m	m
i	i
t	t

__BEGIN__	__EPS__
s	s
i	e
e	i
s	s
t	t

__BEGIN__	__EPS__
d	d
o	a

__BEGIN__	__EPS__
k	k
u	ö
n	n
i	i
g	g

__BEGIN__	__EPS__
w	w
i	i
e	e

__BEGIN__	__EPS__
c	c
r	r
u	u
v	c
i	i
f	f
i	i
g	g
e	e

__BEGIN__	__EPS__
s	s
a	a
h	h
e	e
n	n

__BEGIN__	__EPS__
d	d
a	as
s	s

__BEGIN__	__EPS__
i	j
h	__EPS__
e	e
s	s
u	u
s	s

__BEGIN__	__EPS__
d	d
o	o
c	c
h	h

__BEGIN__	__EPS__
w	w
e	e
r	__EPS__
l	l
t	t

__BEGIN__	__EPS__
s	s
y	ie

__BEGIN__	__EPS__
i	ih
m	m

__BEGIN__	__EPS__
k	g
r	r
i	ie
c	c
h	h
i	i
s	s
c	c
h	he
n	n

__BEGIN__	__EPS__
d	d
a	a
s	s

__BEGIN__	__EPS__
v	u
n	n
g	g
e	e
r	r
n	n
e	e

__BEGIN__	__EPS__
d	d
e	e
s	s

__BEGIN__	__EPS__
w	w
e	e
e	i
n	n
d	t
e	e

__BEGIN__	__EPS__
g	g
e	e
r	r
i	i
c	c
h	h
t	t
e	e
n	n

__BEGIN__	__EPS__
d	d
a	as
z	s

__BEGIN__	__EPS__
a	a
b	b
e	__EPS__

__BEGIN__	__EPS__
d	d
e	e
m	m

__BEGIN__	__EPS__
v	u
n	n
d	d

__BEGIN__	__EPS__
s	s
o	o

__BEGIN__	__EPS__
g	g
e	e
k	k
r	r
e	e
u	u
t	__EPS__
z	z
t	t
e	e
n	n

__BEGIN__	__EPS__
n	n
a	a
c	c
h	h
l	l
u	i
i	e
f	f
e	e
n	n

__BEGIN__	__EPS__
d	d
o	a

__BEGIN__	__EPS__
v	u
i	__EPS__
n	n
s	s
e	er

__BEGIN__	__EPS__
.	f
v	ün
.	f

__BEGIN__	__EPS__
v	u
e	__EPS__
n	nd

__BEGIN__	__EPS__
l	l
o	asse
n	n

__BEGIN__	__EPS__
s	s
a	a
b	b
b	b
a	a
t	t
u	__EPS__
m	__EPS__

__BEGIN__	__EPS__
i	i
s	s
t	t

__BEGIN__	__EPS__
l	l
e	e
i	i
d	d
e	e
n	n

__BEGIN__	__EPS__
s	s
p	p
r	r
a	a
c	c
h	h

__BEGIN__	__EPS__
s	s
p	p
r	r
a	a
c	c
h	h

__BEGIN__	__EPS__
v	u
n	n
d	d

__BEGIN__	__EPS__
a	a
l	l
s	s

__BEGIN__	__EPS__
d	d
e	e
r	r

__BEGIN__	__EPS__
w	w
o	ol
l	l
d	t
e	e
n	n

__BEGIN__	__EPS__
e	u
n	nd

__BEGIN__	__EPS__
d	d
a	a
t	s

__BEGIN__	__EPS__
d	d
e	e
r	r

__BEGIN__	__EPS__
u	u
n	n
d	d

__BEGIN__	__EPS__
c	__EPS__
h	k
a	e
i	i
n	n
e	e
r	r

__BEGIN__	__EPS__
d	d
i	i
n	n
g	g
e	e
s	s

__BEGIN__	__EPS__
d	__EPS__
e	e
r	r
f	f
u	ü
e	__EPS__
l	l
l	l
e	__EPS__
t	t

__BEGIN__	__EPS__
v	u
n	n
d	d

__BEGIN__	__EPS__
d	d
a	a
s	ss

__BEGIN__	__EPS__
l	l
i	i
e	e
u	b
e	e

__BEGIN__	__EPS__
i	j
e	e
m	m
a	a
n	n
t	d

__BEGIN__	__EPS__
y	ih
n	n

__BEGIN__	__EPS__
m	m
i	i
c	c
h	h

__BEGIN__	__EPS__
w	w
a	a
r	r
t	d

__BEGIN__	__EPS__
m	m
e	e
i	i
n	n
e	e
s	s

__BEGIN__	__EPS__
l	l
a	a
m	m
a	a
z	z
a	a
b	b
a	a
t	t
a	a
n	n
j	i

__BEGIN__	__EPS__
m	m
i	i
c	c
h	h

__BEGIN__	__EPS__
a	a
l	l
d	d
u	u
s	s

__BEGIN__	__EPS__
w	wu
n	n
d	d
a	e
n	n

__BEGIN__	__EPS__
d	d
i	i
e	e

__BEGIN__	__EPS__
b	b
y	i
s	s
s	__EPS__
c	c
h	h
o	o
f	f
f	__EPS__

__BEGIN__	__EPS__
y	ih
n	n

__BEGIN__	__EPS__
m	m
e	eh
r	r

__BEGIN__	__EPS__
v	u
n	n
d	d

__BEGIN__	__EPS__
w	w
o	o
r	r
t	t
e	e
n	n

__BEGIN__	__EPS__
m	me
y	i
n	n

__BEGIN__	__EPS__
v	f
o	ü
i	__EPS__
r	r

__BEGIN__	__EPS__
t	d
u	ü
i	__EPS__
r	r
s	s
t	t
e	e
s	s
t	t

__BEGIN__	__EPS__
t	z
o	u
t	__EPS__

__BEGIN__	__EPS__
f	f
r	r
a	a
u	u
w	__EPS__
e	e
n	n

__BEGIN__	__EPS__
n	n
a	a
c	c
h	h

__BEGIN__	__EPS__
d	d
e	e
r	r

__BEGIN__	__EPS__
d	d
e	e
n	n

__BEGIN__	__EPS__
s	s
e	e
y	i

__BEGIN__	__EPS__
e	e
w	v
a	a
n	n
g	g
e	e
l	l
i	i
s	s
t	t
a	__EPS__

__BEGIN__	__EPS__
q	k
u	__EPS__
a	a
m	m

__BEGIN__	__EPS__
a	a
l	l
s	s
o	o

__BEGIN__	__EPS__
e	e
r	r
l	l
e	e
d	d
i	i
g	g
t	t

__BEGIN__	__EPS__
a	__EPS__
u	o
b	w
e	eh

__BEGIN__	__EPS__
d	d
e	e
r	r

__BEGIN__	__EPS__
a	a
n	n

__BEGIN__	__EPS__
c	__EPS__
z	z
a	a
r	r
t	t

__BEGIN__	__EPS__
a	a
l	l
l	l
e	e
n	n

__BEGIN__	__EPS__
h	h
a	a
d	t
d	t
e	e
n	n

__BEGIN__	__EPS__
e	e
r	r

__BEGIN__	__EPS__
i	j
u	u
d	d
e	e
n	n

__BEGIN__	__EPS__
i	i
c	c
h	h

__BEGIN__	__EPS__
a	a
n	n
s	se
h	l
-	m

__BEGIN__	__EPS__
d	d
a	a
z	ss

__BEGIN__	__EPS__
c	k
h	o
o	m
m	m
e	e
n	n

__BEGIN__	__EPS__
a	a
u	u
f	f
s	s
t	t
u	a
n	n
d	d

__BEGIN__	__EPS__
m	m
i	i
t	t

__BEGIN__	__EPS__
p	b
i	i
n	n

__BEGIN__	__EPS__
d	d
y	i
r	r

__BEGIN__	__EPS__
s	s
t	t
a	ad
t	t

__BEGIN__	__EPS__
h	h
a	a
d	t
d	t
e	e

__BEGIN__	__EPS__
i	i
n	n

__BEGIN__	__EPS__
n	n
i	ich
t	t

__BEGIN__	__EPS__
s	s
i	ie

__BEGIN__	__EPS__
v	v
o	o
r	r

__BEGIN__	__EPS__
m	m
a	a
r	r
i	i
a	a

__BEGIN__	__EPS__
v	u
n	n
d	d

__BEGIN__	__EPS__
s	s
p	p
r	r
i	i
c	c
h	h
t	t

__BEGIN__	__EPS__
w	w
a	a
n	nn

__BEGIN__	__EPS__
v	u
n	n
d	d

__BEGIN__	__EPS__
a	a
l	l
l	l

__BEGIN__	__EPS__
d	d
e	e
r	r

__BEGIN__	__EPS__
w	w
a	a
z	r

__BEGIN__	__EPS__
d	d
a	a
s	ss

__BEGIN__	__EPS__
f	f
u	ü
e	__EPS__
s	s
s	s
e	e
n	n

__BEGIN__	__EPS__
v	v
o	o
n	n

__BEGIN__	__EPS__
c	__EPS__
h	k
r	r
a	e
w	u
c	__EPS__
z	z
e	__EPS__

__BEGIN__	__EPS__
n	n
i	ic
h	h
t	t

__BEGIN__	__EPS__
i	ih
n	n

__BEGIN__	__EPS__
e	e
r	r
t	d
r	re
i	i
c	c
h	h

__BEGIN__	__EPS__
t	t
o	o
t	t
e	e
n	n

__BEGIN__	__EPS__
h	h
a	a
b	b
e	e
n	n

__BEGIN__	__EPS__
d	d
i	i
e	e

__BEGIN__	__EPS__
m	m
i	i
r	r

__BEGIN__	__EPS__
k	k
i	i
n	n
d	d

__BEGIN__	__EPS__
d	d
o	a

__BEGIN__	__EPS__
v	v
o	o
n	n

__BEGIN__	__EPS__
n	n
i	i
c	c
h	h
t	t

__BEGIN__	__EPS__
r	r
e	e
c	c
h	h
t	t

__BEGIN__	__EPS__
d	d
e	e
r	r

__BEGIN__	__EPS__
g	g
r	r
o	o
s	s
s	s
e	e
e	__EPS__
t	m

__BEGIN__	__EPS__
s	s
p	p
e	ee
r	r

__BEGIN__	__EPS__
h	h
e	a
t	t

__BEGIN__	__EPS__
n	n
i	ie
d	d
e	e
r	r

__BEGIN__	d
u	u

__BEGIN__	__EPS__
e	e
r	r

__BEGIN__	__EPS__
v	u
n	n
d	d

__BEGIN__	__EPS__
n	n
o	o
c	c
h	h

__BEGIN__	__EPS__
v	u
n	n
d	d

__BEGIN__	__EPS__
n	n
y	ie

__BEGIN__	__EPS__
n	n
i	ic
e	h
t	t

__BEGIN__	__EPS__
l	le
i	i
b	b

__BEGIN__	__EPS__
i	i
c	c
h	h

__BEGIN__	__EPS__
d	d
o	a

__BEGIN__	n
e	ich
n	t

__BEGIN__	__EPS__
d	d
o	a

__BEGIN__	__EPS__
w	w
o	o
r	r
t	t

__BEGIN__	__EPS__
h	h
e	e
r	r
c	__EPS__
z	z
e	e
n	n

__BEGIN__	__EPS__
a	as
z	s

__BEGIN__	__EPS__
c	k
h	__EPS__
i	i
n	n
d	d
e	__EPS__

__BEGIN__	__EPS__
k	k
i	i
n	n
d	d
h	h
a	e
i	i
t	t

__BEGIN__	__EPS__
s	s
e	e
c	c
h	h
s	s
t	t
e	e
n	n

__BEGIN__	__EPS__
g	g
e	e
w	w
a	a
l	l
t	t

__BEGIN__	__EPS__
r	r
i	i
e	e
f	f
f	__EPS__

__BEGIN__	__EPS__
d	d
o	a

__BEGIN__	__EPS__
i	i
n	n

__BEGIN__	__EPS__
d	d
e	e
r	r

__BEGIN__	__EPS__
v	u
n	n
g	s
e	e
l	l
i	i
g	g

__BEGIN__	__EPS__
k	k
a	ä
e	__EPS__
m	m
e	e

__BEGIN__	__EPS__
d	d
u	u

__BEGIN__	__EPS__
d	d
e	e
r	r

__BEGIN__	__EPS__
m	m
i	i
r	r

__BEGIN__	__EPS__
v	u
n	n
d	d

__BEGIN__	__EPS__
s	se
i	i
n	n

__BEGIN__	__EPS__
h	h
o	ö
e	__EPS__
r	r
t	t

__BEGIN__	__EPS__
n	n
i	i
c	c
h	h
t	t

__BEGIN__	__EPS__
s	s
e	e
y	i
l	l

__BEGIN__	__EPS__
a	a
u	u
f	f

__BEGIN__	__EPS__
d	d
y	ies
r	e

__BEGIN__	__EPS__
h	h
e	e
l	l
f	f
f	__EPS__
e	e
n	n

__BEGIN__	__EPS__
m	me
i	i
n	n

__BEGIN__	__EPS__
e	e
i	i
n	n

__BEGIN__	__EPS__
e	e
r	r
z	z
e	e
i	i
g	g
e	__EPS__
t	t

__BEGIN__	__EPS__
i	ih
n	n

__BEGIN__	__EPS__
m	m
e	e
i	i
n	n

__BEGIN__	__EPS__
d	d
a	a
p	b
e	e
y	i

__BEGIN__	__EPS__
t	__EPS__
z	z
a	a
r	r
t	t
e	e
n	n

__BEGIN__	__EPS__
i	ih
m	m

__BEGIN__	__EPS__
n	n
a	a
c	c
h	h

__BEGIN__	__EPS__
h	h
e	ä
t	tte

__BEGIN__	__EPS__
m	m
i	i
t	t

