__BEGIN__	__EPS__
g	g
e	__EPS__
l	l
o	a
v	u
b	b
e	e
n	n

__BEGIN__	__EPS__
a	a
l	l
l	l
e	e
s	s

__BEGIN__	__EPS__
d	d
o	a

__BEGIN__	__EPS__
m	m
o	o
c	c
h	h
t	te

__BEGIN__	__EPS__
m	me
y	i
n	n

__BEGIN__	__EPS__
m	m
a	a
n	nn

__BEGIN__	__EPS__
d	d
i	i
c	c
h	h

__BEGIN__	__EPS__
z	z
ü	u

__BEGIN__	__EPS__
s	s
e	eh
r	r

__BEGIN__	__EPS__
s	se
i	i
n	n
e	e
n	n

__BEGIN__	e
v	u
r	r
m	e
e	m

__BEGIN__	__EPS__
w	w
a	a
n	n
n	n

__BEGIN__	__EPS__
f	f
e	e
r	r
s	s
z	__EPS__
e	e
n	n

__BEGIN__	__EPS__
c	__EPS__
h	k
a	e
i	i
n	n

__BEGIN__	__EPS__
g	g
e	e
g	g
r	r
u	ü
s	s
s	s
e	__EPS__
t	t

__BEGIN__	__EPS__
l	l
i	i
e	e
b	be
s	s

__BEGIN__	__EPS__
e	e
i	i
n	n

__BEGIN__	__EPS__
y	ih
r	r

__BEGIN__	__EPS__
m	m
i	i
c	c
h	h

__BEGIN__	__EPS__
s	s
e	e
i	i
n	n

__BEGIN__	__EPS__
g	g
r	r
i	i
m	mm
i	i
g	g
e	e
n	n

__BEGIN__	__EPS__
h	__EPS__
e	e
r	r

__BEGIN__	__EPS__
s	s
i	i
e	e

__BEGIN__	__EPS__
v	v
o	o
r	r

__BEGIN__	__EPS__
d	d
e	e
m	m

__BEGIN__	__EPS__
i	j
o	o
h	h
a	a
n	nn
e	e
s	s

__BEGIN__	__EPS__
t	__EPS__
z	z
o	u

__BEGIN__	__EPS__
d	d
e	e
n	n

__BEGIN__	__EPS__
e	e
r	r

__BEGIN__	__EPS__
i	j
e	e

__BEGIN__	__EPS__
h	h
e	a
t	t

__BEGIN__	__EPS__
g	g
e	__EPS__
l	l
o	au
b	be

__BEGIN__	__EPS__
d	d
e	e
m	m

__BEGIN__	__EPS__
v	u
n	n
d	d

__BEGIN__	__EPS__
e	e
r	r
s	s
t	t
o	o
r	r
b	b
e	e
n	n

__BEGIN__	__EPS__
s	s
y	ie

__BEGIN__	__EPS__
p	p
l	l
a	a
e	__EPS__
g	g
e	e
n	n

__BEGIN__	__EPS__
e	e
r	r

__BEGIN__	__EPS__
s	s
e	e
i	i
n	n

__BEGIN__	__EPS__
n	n
v	u

__BEGIN__	__EPS__
i	i
c	c
h	h

__BEGIN__	__EPS__
s	s
y	ie

__BEGIN__	__EPS__
i	ih
m	m

__BEGIN__	__EPS__
l	l
i	i
e	e
z	ss
e	e
n	n
t	__EPS__

__BEGIN__	__EPS__
v	u
n	n
d	d

__BEGIN__	__EPS__
m	m
i	i
r	r

__BEGIN__	__EPS__
d	d
o	a

__BEGIN__	__EPS__
h	h
e	e
r	r
c	__EPS__
z	z
e	e
n	n

__BEGIN__	__EPS__
a	a
n	n

__BEGIN__	__EPS__
i	i
c	c
h	h

__BEGIN__	__EPS__
d	d
a	a
s	s

__BEGIN__	__EPS__
d	d
o	a

__BEGIN__	__EPS__
s	s
p	p
r	r
a	a
c	c
h	h

__BEGIN__	__EPS__
a	o
i	h
n	ne

__BEGIN__	__EPS__
i	ih
r	r

__BEGIN__	__EPS__
r	r
i	i
t	t
t	t
e	e
r	r

__BEGIN__	__EPS__
e	e
r	r

__BEGIN__	__EPS__
g	__EPS__
e	__EPS__
s	s
a	a
h	h
e	e
n	n

__BEGIN__	__EPS__
s	s
c	c
h	h
a	e
i	i
d	d
e	e
n	n

__BEGIN__	__EPS__
d	d
a	a
z	ss

__BEGIN__	__EPS__
i	ih
n	n

__BEGIN__	__EPS__
p	p
i	i
l	l
a	a
t	t
u	u
s	s

__BEGIN__	__EPS__
a	a
n	n

__BEGIN__	__EPS__
e	e
r	r

__BEGIN__	__EPS__
c	__EPS__
z	z
u	u

__BEGIN__	__EPS__
w	w
a	an
n	n

__BEGIN__	__EPS__
d	d
i	i
e	e

__BEGIN__	__EPS__
s	__EPS__
a	a
m	ls

__BEGIN__	__EPS__
v	u
n	n
d	d

__BEGIN__	__EPS__
s	s
o	oh
n	n

__BEGIN__	__EPS__
h	h
o	ö
r	r

__BEGIN__	__EPS__
w	w
a	a
s	s

__BEGIN__	__EPS__
m	m
e	e
n	n
s	s
c	c
h	h
e	e
n	n

__BEGIN__	__EPS__
d	d
y	ie

__BEGIN__	__EPS__
s	s
p	p
r	r
a	a
c	c
h	h

__BEGIN__	__EPS__
d	d
e	e
m	m

__BEGIN__	__EPS__
i	i
c	c
h	h

__BEGIN__	__EPS__
u	u
n	n
d	d

__BEGIN__	__EPS__
d	d
o	a

__BEGIN__	__EPS__
b	b
u	a
n	n
d	d
e	e
n	n

__BEGIN__	__EPS__
e	e
i	i
n	n
e	e
r	r

__BEGIN__	__EPS__
m	m
i	i
c	c
h	h

__BEGIN__	__EPS__
w	w
e	e
y	i
n	n
e	e
n	n

__BEGIN__	__EPS__
d	d
e	e
m	m

__BEGIN__	__EPS__
a	e
i	i
n	n

__BEGIN__	__EPS__
v	v
o	o
l	l
k	k

__BEGIN__	__EPS__
m	m
y	e
r	r
c	__EPS__
k	k
e	e
n	n

__BEGIN__	__EPS__
s	s
i	ie

__BEGIN__	__EPS__
s	s
v	i
i	e

__BEGIN__	__EPS__
y	i
n	n

__BEGIN__	__EPS__
g	g
e	e
w	w
a	a
n	n
d	d

__BEGIN__	__EPS__
m	m
i	i
c	c
h	h

__BEGIN__	__EPS__
g	g
e	e
w	w
e	e
s	se
t	n

__BEGIN__	__EPS__
g	g
e	e
b	b
e	e
n	n

__BEGIN__	__EPS__
s	s
c	c
h	h
a	a
r	r
p	__EPS__
f	f
f	__EPS__

__BEGIN__	__EPS__
a	e
i	i
n	n
i	i
g	g
e	e
r	r

__BEGIN__	__EPS__
e	e
r	r

__BEGIN__	__EPS__
s	s
t	t
v	u
m	m
m	m
e	e
n	n

__BEGIN__	__EPS__
d	d
e	e
r	r

__BEGIN__	__EPS__
i	ih
r	r

__BEGIN__	__EPS__
w	w
a	a
r	re
n	n

__BEGIN__	__EPS__
k	k
o	o
m	mm

__BEGIN__	__EPS__
s	s
o	o

__BEGIN__	__EPS__
l	l
e	e
m	be
b	n
t	d
i	i
g	g

__BEGIN__	__EPS__
m	m
i	i
c	c
h	h

__BEGIN__	__EPS__
w	w
a	a
s	s
s	s
e	e
r	r

__BEGIN__	__EPS__
v	v
i	ie
l	l

__BEGIN__	__EPS__
v	v
a	e
s	s
t	t

__BEGIN__	__EPS__
d	d
i	ie
s	s
e	e
n	n

__BEGIN__	__EPS__
d	d
e	e
m	m
e	__EPS__

__BEGIN__	__EPS__
v	v
o	o
r	r
h	h
y	i
n	n

__BEGIN__	__EPS__
v	u
n	n
s	s
c	c
h	h
ü	u
l	l
d	d
i	i
g	g

__BEGIN__	__EPS__
t	t
e	e
n	m
p	p
e	e
l	l

__BEGIN__	__EPS__
w	w
e	e
i	i
s	s
s	s
a	a
g	g
u	u
n	n
g	g

__BEGIN__	__EPS__
w	w
a	a
s	r

__BEGIN__	__EPS__
h	__EPS__
e	e
r	r

__BEGIN__	__EPS__
f	f
v	ü
i	__EPS__
r	r

__BEGIN__	__EPS__
s	s
e	e
l	l
b	b
e	e
n	n

__BEGIN__	__EPS__
i	ih
n	n

__BEGIN__	__EPS__
r	r
e	e
c	c
h	h
t	t

__BEGIN__	__EPS__
c	k
h	__EPS__
i	i
n	n
d	d
e	__EPS__

__BEGIN__	__EPS__
d	d
o	a

__BEGIN__	__EPS__
r	r
e	e
c	c
h	h
t	t
e	e
r	r

__BEGIN__	__EPS__
s	s
e	e
i	i
n	n

__BEGIN__	__EPS__
e	e
u	u
c	c
h	h

__BEGIN__	__EPS__
h	h
e	e
y	i
s	s
c	__EPS__
h	s
e	e
n	n

__BEGIN__	__EPS__
w	w
e	ä
r	r
e	e

__BEGIN__	__EPS__
t	t
r	r
e	ä
h	n
e	e
n	__EPS__

__BEGIN__	__EPS__
v	v
e	e
r	r
s	s
u	ö
n	h
n	n
e	e
n	n

__BEGIN__	__EPS__
m	l
i	i
n	__EPS__
i	e
c	__EPS__
h	b
l	l
e	__EPS__
y	i
c	c
h	h

__BEGIN__	__EPS__
m	m
a	a
r	r
t	t
e	e
r	r

__BEGIN__	__EPS__
a	a
l	l
l	l
e	e
n	n

__BEGIN__	__EPS__
o	o
w	w
e	eh

__BEGIN__	__EPS__
h	h
e	ä
n	n
d	d
e	e

__BEGIN__	__EPS__
v	u
n	n
d	d

__BEGIN__	__EPS__
d	d
e	e
n	n

__BEGIN__	__EPS__
m	m
a	a
n	n

__BEGIN__	__EPS__
n	n
u	un

__BEGIN__	__EPS__
f	f
r	r
o	a
w	u
e	__EPS__

__BEGIN__	__EPS__
d	d
o	a

__BEGIN__	__EPS__
d	d
a	a

__BEGIN__	__EPS__
s	s
a	a
i	g
t	t
e	e
n	n

__BEGIN__	__EPS__
k	k
a	a
m	m

__BEGIN__	__EPS__
y	j
o	o
s	s
e	e
p	p
h	h

__BEGIN__	__EPS__
s	s
p	p
r	r
a	a
c	c
h	h

__BEGIN__	__EPS__
w	w
a	a
s	r

__BEGIN__	__EPS__
v	u
n	n
n	d

__BEGIN__	__EPS__
w	w
e	a
z	s

__BEGIN__	__EPS__
n	n
i	i
c	c
h	h
t	t

__BEGIN__	__EPS__
p	p
i	i
l	l
a	a
t	t
u	u
s	s

__BEGIN__	__EPS__
b	b
e	e
s	sch
l	l
o	o
z	ss

__BEGIN__	__EPS__
d	d
i	i
c	c
h	h

__BEGIN__	__EPS__
d	d
a	a
z	s

__BEGIN__	__EPS__
n	n
o	o
c	c
h	h

__BEGIN__	__EPS__
g	g
a	a
b	b

__BEGIN__	__EPS__
m	m
i	i
t	t
t	__EPS__

__BEGIN__	__EPS__
a	a
l	l
s	s

__BEGIN__	__EPS__
d	d
i	i
e	e

__BEGIN__	__EPS__
v	u
n	n
d	d

__BEGIN__	__EPS__
d	d
o	a

__BEGIN__	__EPS__
b	b
i	i
l	l
l	l
i	i
c	g
h	__EPS__

__BEGIN__	__EPS__
s	s
a	a
c	c
h	he

__BEGIN__	__EPS__
n	n
a	a
c	c
h	h

__BEGIN__	__EPS__
s	s
i	i
e	e

__BEGIN__	__EPS__
s	s
t	t
i	i
m	mme

__BEGIN__	__EPS__
p	p
y	i
l	l
a	a
t	t
u	u
s	s

__BEGIN__	__EPS__
w	w
a	a
s	r

__BEGIN__	__EPS__
d	d
o	as

__BEGIN__	__EPS__
b	b
r	r
a	a
i	__EPS__
c	c
h	h
e	e
n	n

__BEGIN__	__EPS__
i	i
c	c
h	h

__BEGIN__	__EPS__
d	d
i	i
e	e

__BEGIN__	__EPS__
g	g
e	e
s	s
t	t
a	a
l	l
t	t

__BEGIN__	__EPS__
d	d
e	e
m	m

__BEGIN__	__EPS__
s	s
p	p
r	r
a	a
c	c
h	h

__BEGIN__	__EPS__
d	d
e	e
r	r

__BEGIN__	__EPS__
v	u
n	n
d	d

__BEGIN__	__EPS__
e	e
z	s

__BEGIN__	__EPS__
m	m
i	i
t	t

__BEGIN__	__EPS__
v	u
n	n
d	d

__BEGIN__	__EPS__
z	z
o	o
i	__EPS__
c	g
h	__EPS__

__BEGIN__	__EPS__
d	d
a	a

__BEGIN__	__EPS__
s	s
o	o

__BEGIN__	__EPS__
w	w
a	a
z	s

__BEGIN__	__EPS__
v	v
e	e
r	r
l	l
a	e
u	u
g	g
e	__EPS__
n	ne
t	t

__BEGIN__	__EPS__
i	joh
a	a
n	nnes

__BEGIN__	__EPS__
c	__EPS__
z	z
u	u

__BEGIN__	__EPS__
d	d
o	a

__BEGIN__	__EPS__
e	e
r	r
k	k
e	e
n	nn
e	e
n	n

__BEGIN__	__EPS__
d	d
o	a

__BEGIN__	__EPS__
m	m
i	i
c	c
h	h

__BEGIN__	__EPS__
i	i
s	st

__BEGIN__	__EPS__
m	m
e	e
i	i
n	n

__BEGIN__	__EPS__
a	a
n	n
s	s
h	__EPS__
e	e
l	l
m	m
u	__EPS__
s	__EPS__

__BEGIN__	__EPS__
h	h
o	ö
e	__EPS__
r	r
e	e

__BEGIN__	__EPS__
m	me
y	i
m	n
e	em

__BEGIN__	__EPS__
a	e
i	i
n	n
e	e
r	r

__BEGIN__	__EPS__
v	u
n	n
d	d

__BEGIN__	__EPS__
g	g
o	o
t	tt

__BEGIN__	__EPS__
s	s
o	o

__BEGIN__	__EPS__
i	ih
n	n

__BEGIN__	__EPS__
s	s
p	p
r	r
a	a
c	c
h	h

__BEGIN__	__EPS__
a	a
l	l
l	l
e	e
r	r
l	l
i	i
e	e
b	b
s	s
t	t
e	e
s	s

__BEGIN__	__EPS__
g	g
e	e
d	d
e	e
m	m
u	ü
t	t
e	i
g	g
e	__EPS__
t	t

__BEGIN__	__EPS__
z	z
u	u

__BEGIN__	__EPS__
m	m
e	ehr

__BEGIN__	__EPS__
v	f
i	ie
l	l
e	e
n	n

__BEGIN__	__EPS__
d	d
e	e
n	n

__BEGIN__	__EPS__
d	d
e	e
m	m

__BEGIN__	__EPS__
d	d
y	i
r	r

__BEGIN__	__EPS__
s	se
y	i
n	n

__BEGIN__	__EPS__
e	e
e	i
n	n

__BEGIN__	__EPS__
a	a
b	b
e	e
r	r

__BEGIN__	__EPS__
m	m
i	i
t	t

__BEGIN__	__EPS__
d	d
a	as
z	s

__BEGIN__	__EPS__
e	e
z	s

__BEGIN__	__EPS__
h	h
a	a
s	s
t	t

__BEGIN__	__EPS__
n	n
u	un

__BEGIN__	__EPS__
a	a
u	u
f	f

__BEGIN__	__EPS__
c	c
r	r
u	u
t	c
z	__EPS__
i	i
f	f
i	i
g	g
e	e

__BEGIN__	__EPS__
k	k
i	i
n	n
t	d

__BEGIN__	__EPS__
d	d
a	a

__BEGIN__	__EPS__
s	s
y	ie

__BEGIN__	__EPS__
d	d
a	a
s	ss

__BEGIN__	__EPS__
f	f
r	r
u	e
i	u
n	n
d	d
e	e
n	n

__BEGIN__	__EPS__
v	v
o	o
n	n

__BEGIN__	__EPS__
s	s
o	o
i	l
l	l
d	t
e	e

__BEGIN__	__EPS__
a	a
l	l
z	s

__BEGIN__	__EPS__
i	ih
n	n

__BEGIN__	__EPS__
i	i
c	c
h	h

__BEGIN__	__EPS__
v	v
o	o
n	n

__BEGIN__	__EPS__
v	u
n	n
d	d

__BEGIN__	__EPS__
s	s
y	i
n	n
t	d

__BEGIN__	__EPS__
v	u
n	n
s	s

__BEGIN__	__EPS__
c	__EPS__
z	z
u	u

__BEGIN__	__EPS__
m	m
a	a
r	r
i	i
a	a

__BEGIN__	__EPS__
d	d
o	a

__BEGIN__	__EPS__
y	i
n	n
n	n
i	i
c	g
h	k
e	ei
d	t
e	e
n	n

__BEGIN__	__EPS__
d	t
o	o
i	__EPS__
t	d

__BEGIN__	__EPS__
e	e
r	r
d	d
e	e
n	n

__BEGIN__	be
s	s
w	o
n	n
d	d
e	e
r	r
l	__EPS__
e	e
i	__EPS__
c	__EPS__
h	__EPS__
e	__EPS__
m	n

__BEGIN__	__EPS__
i	ih
n	n

__BEGIN__	__EPS__
d	d
e	e
r	r

__BEGIN__	__EPS__
e	e
y	i
n	n

__BEGIN__	__EPS__
n	n
u	un

__BEGIN__	__EPS__
z	t
e	__EPS__
c	__EPS__
h	__EPS__
e	__EPS__
r	r
e	ä
n	ne

__BEGIN__	__EPS__
i	ih
n	n

__BEGIN__	__EPS__
v	v
a	o
n	n

__BEGIN__	__EPS__
a	e
i	i
n	n

__BEGIN__	__EPS__
e	e
r	r

__BEGIN__	__EPS__
s	s
u	o
n	n
d	d
e	e
r	r
n	n

__BEGIN__	__EPS__
s	s
c	c
h	h
a	a
m	m

__BEGIN__	__EPS__
s	s
e	e
i	i
n	n
e	e
s	s

__BEGIN__	__EPS__
m	m
a	a
n	n

__BEGIN__	__EPS__
i	ih
r	r

__BEGIN__	__EPS__
f	f
r	r
a	a
g	g
t	t

__BEGIN__	__EPS__
d	d
o	a

__BEGIN__	__EPS__
n	n
a	a
c	c
h	h
t	t

__BEGIN__	__EPS__
v	u
n	n
s	se
r	r
i	e
v	__EPS__

__BEGIN__	__EPS__
g	g
e	e
w	w
a	a
l	l
t	t
l	__EPS__
e	__EPS__
y	i
c	__EPS__
h	g
e	__EPS__
n	__EPS__

__BEGIN__	__EPS__
k	k
e	e
i	i
n	n

__BEGIN__	__EPS__
s	s
t	t
u	u
n	n
t	de

__BEGIN__	__EPS__
w	w
a	a
s	s
z	__EPS__

__BEGIN__	__EPS__
t	t
o	ö
t	t
e	e
n	n

__BEGIN__	__EPS__
v	u
n	n
d	d

__BEGIN__	__EPS__
d	d
i	i
e	e

__BEGIN__	__EPS__
m	m
i	i
c	c
h	h

__BEGIN__	__EPS__
a	a
n	n

__BEGIN__	__EPS__
m	m
a	a
c	c
h	h
t	t

__BEGIN__	__EPS__
s	s
e	e
l	l
b	ber

__BEGIN__	__EPS__
v	g
e	e
l	wa
l	n
e	d

__BEGIN__	__EPS__
l	l
i	ie
z	ss

__BEGIN__	__EPS__
i	n
e	e
h	h
e	e
i	i
n	n
e	__EPS__

__BEGIN__	__EPS__
e	e
y	i
n	n

__BEGIN__	__EPS__
d	d
a	a
z	ss

__BEGIN__	__EPS__
g	g
a	a
l	l
g	g
e	e
n	n

__BEGIN__	__EPS__
g	__EPS__
e	__EPS__
h	h
e	e
l	l
f	f
e	e
n	n

__BEGIN__	__EPS__
e	e
t	t
l	l
i	i
c	c
h	h
e	e

__BEGIN__	__EPS__
m	m
e	e
y	i
n	n
e	e
s	s

__BEGIN__	__EPS__
a	a
l	l
l	l
e	e
s	s

__BEGIN__	__EPS__
m	m
e	e
n	n
s	s
c	c
h	h

__BEGIN__	__EPS__
m	me
y	i
n	n
e	e
n	n

__BEGIN__	__EPS__
n	n
o	o
c	c
h	h

__BEGIN__	__EPS__
s	s
i	i
c	c
h	h

__BEGIN__	__EPS__
n	n
u	un

__BEGIN__	__EPS__
g	g
e	e
b	b
e	e
n	n

__BEGIN__	__EPS__
d	d
i	i
e	e

__BEGIN__	__EPS__
n	n
u	un

__BEGIN__	__EPS__
n	n
i	ich
t	t

__BEGIN__	__EPS__
i	i
c	c
h	h

__BEGIN__	__EPS__
b	b
i	i
s	s
c	c
h	h
o	o
f	f
f	__EPS__
e	__EPS__
s	s
z	__EPS__

__BEGIN__	__EPS__
d	d
e	e
r	r

__BEGIN__	__EPS__
v	v
o	o
n	n

__BEGIN__	__EPS__
d	d
i	i
e	e

__BEGIN__	__EPS__
d	d
e	e
m	m

__BEGIN__	__EPS__
i	ih
n	n
e	e
n	n

__BEGIN__	__EPS__
a	e
i	i
n	n

__BEGIN__	__EPS__
e	eher

__BEGIN__	__EPS__
w	e
n	m
p	p
f	f
a	a
n	n
g	g
e	e
n	n

__BEGIN__	__EPS__
h	h
e	e
l	l
y	y

__BEGIN__	__EPS__
s	s
p	p
r	r
a	a
c	c
h	h

__BEGIN__	__EPS__
n	g
e	e
c	__EPS__
h	s
t	t
e	er
n	n

__BEGIN__	__EPS__
m	m
i	i
c	c
h	h

__BEGIN__	__EPS__
m	m
u	u
o	t
t	t
e	e
r	r

__BEGIN__	__EPS__
a	a
n	n
s	s
e	e
l	l
m	m
e	__EPS__

__BEGIN__	__EPS__
s	s
t	t
e	e
p	p
h	h
a	a
n	n
s	s

__BEGIN__	__EPS__
w	w
i	i
e	e
d	d
e	e
r	r

__BEGIN__	__EPS__
g	g
e	e
r	r
e	__EPS__
n	n

__BEGIN__	__EPS__
s	s
p	p
r	r
i	i
c	c
h	h
s	s
t	t

__BEGIN__	__EPS__
d	d
i	i
e	e

__BEGIN__	__EPS__
k	k
o	om
m	m
e	e
n	n

__BEGIN__	__EPS__
w	w
o	ol
l	l
t	te

__BEGIN__	__EPS__
v	u
n	n
d	d

__BEGIN__	__EPS__
v	u
n	n
d	d

__BEGIN__	__EPS__
v	u
m	m

__BEGIN__	__EPS__
c	__EPS__
z	z
w	u

__BEGIN__	__EPS__
i	ih
n	n

__BEGIN__	__EPS__
i	i
c	c
h	h

__BEGIN__	__EPS__
d	d
i	i
e	e

__BEGIN__	__EPS__
s	s
a	ol
l	l
t	t

__BEGIN__	__EPS__
g	g
e	e
b	b
e	e
n	n

__BEGIN__	__EPS__
c	k
r	r
u	e
c	u
e	z

__BEGIN__	__EPS__
d	d
r	re
y	i
e	e
r	r
h	l
a	e
n	i
d	__EPS__
e	__EPS__

__BEGIN__	__EPS__
s	s
p	p
r	r
a	a
c	c
h	h

__BEGIN__	__EPS__
k	k
o	o
m	mm
e	e
n	n

__BEGIN__	__EPS__
i	ih
m	m

__BEGIN__	__EPS__
h	e
i	__EPS__
e	r

__BEGIN__	__EPS__
k	k
a	e
i	i
n	n

__BEGIN__	__EPS__
h	h
i	i
e	e
s	s
z	s

__BEGIN__	__EPS__
p	b
e	e
i	i
c	c
h	h
t	te

__BEGIN__	__EPS__
k	k
i	i
n	n
t	de
s	s

__BEGIN__	__EPS__
d	d
a	a
s	ss

__BEGIN__	__EPS__
c	k
r	r
e	e
w	u
c	__EPS__
z	z

__BEGIN__	__EPS__
i	i
c	c
h	h

__BEGIN__	__EPS__
v	u
n	n
d	d

__BEGIN__	__EPS__
g	g
e	e
w	w
o	oh
n	n
h	h
e	e
i	i
t	t

__BEGIN__	__EPS__
d	d
i	i
e	e

__BEGIN__	__EPS__
d	d
e	e
r	r

__BEGIN__	__EPS__
m	m
i	i
r	r

__BEGIN__	__EPS__
m	m
i	i
t	t

__BEGIN__	__EPS__
v	u
n	n
d	d

__BEGIN__	__EPS__
h	h
a	a
t	t
t	__EPS__

__BEGIN__	__EPS__
s	s
c	c
h	h
r	r
e	e
i	i
b	b
e	e
n	n

__BEGIN__	__EPS__
z	z
a	a
r	r
t	te
s	s

__BEGIN__	__EPS__
z	z
u	u

__BEGIN__	__EPS__
l	le
i	i
b	b

__BEGIN__	__EPS__
e	e
r	r
g	g
i	i
e	__EPS__
n	n
g	g

__BEGIN__	__EPS__
i	j
h	es
-	u
m	s

__BEGIN__	__EPS__
h	h
a	a
s	s
t	t

__BEGIN__	__EPS__
g	g
r	r
o	o
s	s
s	s
i	__EPS__
u	e

__BEGIN__	__EPS__
t	t
e	ä
t	t
i	e
n	n

__BEGIN__	__EPS__
i	ih
n	n

__BEGIN__	__EPS__
d	d
a	a

__BEGIN__	__EPS__
m	m
a	a
c	c
h	h
d	t
e	e

__BEGIN__	__EPS__
w	w
a	a
s	r

__BEGIN__	__EPS__
s	s
t	t
a	a
n	n
g	g
e	e
n	n

__BEGIN__	__EPS__
w	w
e	e
i	i
s	s
z	s
e	e
s	s

__BEGIN__	__EPS__
e	e
i	i
n	n
n	__EPS__

__BEGIN__	__EPS__
l	l
i	i
e	e
u	b
e	e
n	n

__BEGIN__	__EPS__
w	w
u	u
n	n
d	d
e	e
n	n

__BEGIN__	__EPS__
d	d
o	a

__BEGIN__	__EPS__
r	r
o	o
t	t

__BEGIN__	__EPS__
e	e
y	i
n	n
e	e
m	m

__BEGIN__	__EPS__
s	s
a	o
l	ll
t	t

__BEGIN__	__EPS__
b	b
e	eg
l	l
e	e
i	i
t	t
t	__EPS__
e	e
n	n

__BEGIN__	__EPS__
v	u
n	n
d	d

__BEGIN__	__EPS__
v	u
n	n
d	d

__BEGIN__	__EPS__
v	u
n	n
d	d

__BEGIN__	__EPS__
v	v
o	o
n	n

__BEGIN__	__EPS__
m	m
a	a
n	n

__BEGIN__	__EPS__
d	d
a	a
z	ss

__BEGIN__	__EPS__
d	d
e	e
n	n
n	n
e	__EPS__

__BEGIN__	__EPS__
p	b
i	i
n	n
d	d
e	e
n	n

__BEGIN__	__EPS__
a	a
n	n
s	s
h	__EPS__
e	e
l	l
m	m

__BEGIN__	__EPS__
d	d
e	e
n	n

__BEGIN__	__EPS__
i	j
a	a

__BEGIN__	__EPS__
v	u
n	n
d	d

__BEGIN__	__EPS__
v	v
o	o
n	n

__BEGIN__	__EPS__
i	ih
n	n

__BEGIN__	__EPS__
i	j
h	__EPS__
e	e
s	s
u	u
n	s

__BEGIN__	__EPS__
a	a
l	l
z	s

__BEGIN__	__EPS__
m	m
a	a
c	c
h	h
e	e
n	n

__BEGIN__	__EPS__
a	a
l	l
s	s
o	o

__BEGIN__	__EPS__
y	ih
n	n

__BEGIN__	__EPS__
g	g
e	e
l	l
a	a
z	ss
e	e
n	n

__BEGIN__	__EPS__
w	w
a	a
r	r
d	d

__BEGIN__	__EPS__
i	j
e	ä
m	mm
e	e
r	r
l	l
i	i
c	c
h	h

__BEGIN__	__EPS__
d	d
i	ie

__BEGIN__	e
v	u
c	c
h	h

__BEGIN__	__EPS__
w	wä
r	r
e	e

__BEGIN__	__EPS__
a	a
u	u
f	f
f	__EPS__

__BEGIN__	__EPS__
l	l
a	a
t	te
i	i
n	n
i	i
s	s
c	c
h	h

__BEGIN__	__EPS__
e	e
r	r
h	h
o	ö
r	r
t	t

__BEGIN__	__EPS__
h	h
u	a
l	l
f	f
f	__EPS__
e	e
n	n

__BEGIN__	__EPS__
g	g
r	r
o	o
s	s
s	s
e	e
r	r

__BEGIN__	__EPS__
s	s
y	i
m	m
o	o
n	n
e	__EPS__
s	s

__BEGIN__	__EPS__
s	sch
w	w
a	__EPS__
e	e
r	r
i	e
n	n

__BEGIN__	__EPS__
d	d
a	a

__BEGIN__	__EPS__
s	s
e	eh
y	e
n	n

__BEGIN__	__EPS__
i	ih
n	n

__BEGIN__	__EPS__
h	h
a	a
t	t
t	te

__BEGIN__	__EPS__
s	se
i	i
n	n
e	e
n	n

__BEGIN__	__EPS__
m	m
i	i
r	r

__BEGIN__	__EPS__
d	d
i	i
e	e

__BEGIN__	__EPS__
w	w
a	a
s	r

__BEGIN__	__EPS__
d	d
a	a
z	ss

__BEGIN__	__EPS__
h	h
a	a
n	be

__BEGIN__	__EPS__
n	n
i	ic
h	h
t	t

__BEGIN__	__EPS__
c	k
r	re
u	u
c	__EPS__
z	z
e	e

__BEGIN__	__EPS__
h	h
a	e
i	i
z	s
z	s
e	e
s	s
t	t

__BEGIN__	__EPS__
s	s
o	o
u	ll
d	t
e	e

__BEGIN__	__EPS__
g	g
r	r
e	ä
u	u
l	l
i	i
c	c
h	h
e	e
r	r

__BEGIN__	__EPS__
z	z
u	u
o	__EPS__
l	l
a	a
u	u
f	f
f	__EPS__

__BEGIN__	__EPS__
m	m
e	eh
r	r

__BEGIN__	__EPS__
v	v
o	o
n	n

__BEGIN__	__EPS__
d	d
o	a

__BEGIN__	__EPS__
d	d
e	e
r	r

__BEGIN__	__EPS__
k	k
n	n
e	ec
h	h
t	t
e	e
n	n

__BEGIN__	__EPS__
h	ha
u	u
s	s

__BEGIN__	__EPS__
v	v
i	ie
l	l

__BEGIN__	__EPS__
d	d
y	ie

__BEGIN__	__EPS__
g	f
e	e
p	h
r	l
a	t
s	e
t	n

__BEGIN__	__EPS__
i	j
u	ü
n	n
g	g
e	e
r	r
n	n

__BEGIN__	__EPS__
v	v
o	o
n	n

__BEGIN__	__EPS__
w	w
e	e
i	i
s	s
h	h
a	e
y	i
t	t
t	__EPS__

__BEGIN__	__EPS__
m	me
y	i
n	n

__BEGIN__	__EPS__
d	d
o	a

__BEGIN__	__EPS__
d	d
i	i
e	e

__BEGIN__	__EPS__
g	__EPS__
e	__EPS__
s	s
a	a
h	h
e	e
n	n

__BEGIN__	__EPS__
v	u
n	n
d	d

__BEGIN__	__EPS__
s	s
p	p
r	r
a	a
c	c
h	h

__BEGIN__	__EPS__
a	a
l	l
l	l
e	e
s	s

__BEGIN__	__EPS__
i	i
r	h
r	r
e	e

__BEGIN__	__EPS__
n	n
i	i
e	ch
t	t

__BEGIN__	__EPS__
g	g
r	r
o	o
i	s
t	s

__BEGIN__	__EPS__
v	v
a	o
n	n

__BEGIN__	__EPS__
v	u
n	n
s	s

__BEGIN__	__EPS__
d	d
i	ie
t	s

__BEGIN__	__EPS__
m	m
i	i
t	t

__BEGIN__	__EPS__
n	n
a	a
c	c
h	h

__BEGIN__	__EPS__
v	u
n	n
d	d

__BEGIN__	__EPS__
d	d
o	a

__BEGIN__	__EPS__
d	d
a	a
s	ss

__BEGIN__	__EPS__
l	l
e	e
b	b
e	e
n	n
d	d
i	i
g	g
e	e
n	n

__BEGIN__	__EPS__
w	w
e	e
r	__EPS__
l	l
t	t

__BEGIN__	__EPS__
m	m
e	e
i	i
n	n

__BEGIN__	__EPS__
p	p
y	i
l	l
a	a
t	t
u	u
s	s

__BEGIN__	__EPS__
i	j
ü	u
d	d
e	e
n	n

__BEGIN__	__EPS__
l	l
e	e
y	i
d	d
e	e

__BEGIN__	__EPS__
o	a
u	u
c	c
h	h

__BEGIN__	__EPS__
v	u
n	n
d	d

__BEGIN__	__EPS__
n	n
a	ac
k	k
e	e
n	n
d	d

__BEGIN__	__EPS__
z	z
a	a
r	r
t	t
e	e

__BEGIN__	__EPS__
v	v
o	o
r	r

__BEGIN__	__EPS__
s	s
p	p
r	r
a	a
c	c
h	h

__BEGIN__	__EPS__
m	m
i	i
e	__EPS__
r	r

__BEGIN__	__EPS__
d	d
e	e
r	r

__BEGIN__	__EPS__
e	e
n	m
p	p
h	__EPS__
f	f
a	a
n	n
g	g
e	e
n	n

__BEGIN__	__EPS__
d	d
e	e
r	r

__BEGIN__	__EPS__
g	g
e	e
s	s
t	t
o	o
c	c
h	h
e	e
n	n

__BEGIN__	__EPS__
s	s
i	ie

__BEGIN__	__EPS__
i	j
ü	u
d	d
e	e
n	n

__BEGIN__	__EPS__
m	m
i	i
c	c
h	h

__BEGIN__	__EPS__
s	s
p	p
r	r
a	a
c	c
h	h

__BEGIN__	__EPS__
m	m
e	e
i	i
n	n
e	e
r	r

__BEGIN__	__EPS__
i	i
c	c
h	h

__BEGIN__	__EPS__
n	n
a	a
c	c
h	h
t	t

__BEGIN__	__EPS__
m	m
e	e
i	i
n	n

__BEGIN__	__EPS__
m	m
i	i
t	t

__BEGIN__	__EPS__
v	u
n	n
d	d

__BEGIN__	__EPS__
h	h
e	a
t	t

__BEGIN__	__EPS__
m	m
y	ir

__BEGIN__	__EPS__
s	se
i	i
n	n

__BEGIN__	__EPS__
i	i
n	n

__BEGIN__	__EPS__
z	z
e	u

__BEGIN__	__EPS__
s	s
o	o

__BEGIN__	__EPS__
v	u
n	n
d	d

__BEGIN__	__EPS__
s	s
c	c
h	h
a	e
i	i
d	de
-	n

__BEGIN__	__EPS__
d	d
e	e
m	m

__BEGIN__	__EPS__
d	d
i	i
e	e

__BEGIN__	__EPS__
m	m
a	ac
h	h
t	t
e	e

__BEGIN__	__EPS__
v	u
n	n
g	g
e	e
z	b
o	ü
g	h
e	__EPS__
n	r
l	l
i	i
c	c
h	h
e	__EPS__

__BEGIN__	__EPS__
i	ih
r	r
e	e
m	m

__BEGIN__	__EPS__
d	d
a	a
t	s

__BEGIN__	__EPS__
a	a
n	n

__BEGIN__	__EPS__
w	w
i	i
l	l
l	l
e	e
n	n

__BEGIN__	__EPS__
y	ih
n	n

__BEGIN__	__EPS__
t	t
o	o
c	c
h	h
t	t
e	e
r	r

__BEGIN__	__EPS__
m	m
i	i
r	r

__BEGIN__	__EPS__
a	a
l	l
l	l
e	e
n	n

__BEGIN__	__EPS__
b	be
y	i

__BEGIN__	__EPS__
g	g
e	e
n	n
u	ü
g	g
t	t
e	e

__BEGIN__	__EPS__
n	n
y	ie
m	m
a	a
n	n
t	d

__BEGIN__	__EPS__
m	me
i	i
n	n

__BEGIN__	__EPS__
e	e
r	r
c	__EPS__
z	z
o	o
g	g
e	e
n	n

__BEGIN__	__EPS__
d	d
o	a

__BEGIN__	__EPS__
f	f
u	ü
r	r

__BEGIN__	__EPS__
d	d
o	a

__BEGIN__	__EPS__
a	a
b	b
e	e
r	r

__BEGIN__	__EPS__
h	h
e	e
r	r
c	z
z	e
l	l
a	e
i	i
d	d

__BEGIN__	__EPS__
d	d
i	i
e	e

__BEGIN__	__EPS__
m	m
e	e
n	n
s	s
c	c
h	h
i	e
n	n

__BEGIN__	__EPS__
m	m
e	e
i	i
n	n

__BEGIN__	__EPS__
k	k
i	i
n	n
t	d

__BEGIN__	__EPS__
s	s
p	p
r	r
a	a
c	c
h	h

__BEGIN__	__EPS__
m	m
e	e
i	i
n	n
e	e
n	m

__BEGIN__	__EPS__
g	g
a	a
l	l
l	l
i	i
c	c
a	a
n	n
t	t
u	__EPS__
s	__EPS__

__BEGIN__	__EPS__
m	q
ü	u
e	äl
t	te

__BEGIN__	__EPS__
i	ih
n	n

__BEGIN__	__EPS__
w	w
a	a
s	r

__BEGIN__	__EPS__
m	m
e	e
a	a

__BEGIN__	__EPS__
s	s
e	e
l	l
g	i
e	g
s	s
t	te

__BEGIN__	__EPS__
l	l
e	e
y	i
c	c
h	h
n	n
a	a
m	m

__BEGIN__	__EPS__
h	h
i	im
m	m
e	e
l	l

__BEGIN__	__EPS__
a	a
l	l
l	l
e	e

__BEGIN__	__EPS__
d	d
i	ie
s	s
e	e
n	n

__BEGIN__	__EPS__
k	k
l	l
a	ä
e	__EPS__
g	g
l	l
i	i
c	c
h	h

__BEGIN__	__EPS__
s	s
y	ie

__BEGIN__	__EPS__
d	d
e	e
i	i
n	n
e	e
s	s

__BEGIN__	__EPS__
d	d
e	e
r	r

__BEGIN__	__EPS__
j	j
o	u
e	__EPS__
d	d
e	e
n	n

__BEGIN__	__EPS__
z	z
e	e
r	r
d	d
e	e
n	h
n	n
e	__EPS__
t	t

__BEGIN__	__EPS__
d	d
a	a

__BEGIN__	__EPS__
v	u
m	m
b	__EPS__

__BEGIN__	__EPS__
i	i
c	c
h	h

__BEGIN__	__EPS__
h	h
i	i
e	e
s	ss

__BEGIN__	__EPS__
p	b
i	i
t	tte

__BEGIN__	__EPS__
m	m
i	i
c	c
h	h

__BEGIN__	__EPS__
b	b
e	e
y	i

__BEGIN__	__EPS__
t	t
o	o
d	t

__BEGIN__	__EPS__
t	t
o	o
t	d

__BEGIN__	__EPS__
t	t
a	a
t	t
e	e
n	n

__BEGIN__	__EPS__
y	ih
m	m

__BEGIN__	__EPS__
j	j
o	u
e	__EPS__
d	d
e	e
n	n

__BEGIN__	__EPS__
k	k
i	i
n	n
d	d

__BEGIN__	__EPS__
d	d
v	i
i	e

__BEGIN__	__EPS__
v	u
n	n
d	d

__BEGIN__	__EPS__
i	ih
m	m

__BEGIN__	__EPS__
h	e
i	__EPS__
e	r

__BEGIN__	__EPS__
i	i
s	s
t	t

__BEGIN__	__EPS__
d	d
o	a

__BEGIN__	__EPS__
a	a
b	b
e	e
r	r

__BEGIN__	__EPS__
v	u
n	n
d	d

__BEGIN__	__EPS__
i	i
c	c
h	h

__BEGIN__	__EPS__
ü	ü
b	b
e	e
r	r

__BEGIN__	__EPS__
d	d
i	i
e	e

__BEGIN__	__EPS__
i	ih
m	m

__BEGIN__	__EPS__
h	h
e	e
r	r

__BEGIN__	__EPS__
m	m
i	i
e	__EPS__
r	r

__BEGIN__	__EPS__
d	d
e	e
r	r

__BEGIN__	__EPS__
d	d
o	a

__BEGIN__	__EPS__
w	w
i	i
e	e

__BEGIN__	__EPS__
g	g
e	e
t	t
a	a
n	n

__BEGIN__	__EPS__
i	ih
n	n

__BEGIN__	__EPS__
r	r
e	e
c	c
h	h
t	t
e	e
r	r

__BEGIN__	__EPS__
h	h
e	e
r	r
g	g
e	e
g	g
a	a
n	n
g	g
e	e
n	n

__BEGIN__	__EPS__
g	g
i	i
e	__EPS__
n	n
g	g

__BEGIN__	__EPS__
g	__EPS__
e	__EPS__
s	s
c	c
h	h
r	r
i	i
f	f
t	t

__BEGIN__	__EPS__
v	v
o	o
n	n

__BEGIN__	__EPS__
v	v
o	o
r	r

__BEGIN__	__EPS__
a	a
l	l
z	s

__BEGIN__	__EPS__
w	w
i	i
l	lls
t	t

__BEGIN__	__EPS__
t	tat
e	e
s	s
t	t

__BEGIN__	__EPS__
m	m
e	e
i	i
n	n

__BEGIN__	__EPS__
n	n
o	o
c	c
h	h

__BEGIN__	__EPS__
i	j
u	u
d	d
e	e
n	n

__BEGIN__	__EPS__
s	se
i	i
n	n

__BEGIN__	__EPS__
g	g
e	e
s	s
c	c
h	h
l	l
a	__EPS__
e	e
c	c
h	h
t	t

__BEGIN__	__EPS__
v	ü
b	b
e	e
l	l

__BEGIN__	__EPS__
s	s
y	ie

__BEGIN__	__EPS__
v	u
n	n
s	s
e	er

__BEGIN__	__EPS__
d	d
e	e
r	r

__BEGIN__	__EPS__
i	ih
m	m

__BEGIN__	__EPS__
n	n
a	a
c	c
h	h
t	t
r	r
a	a
g	g
e	e
n	n

__BEGIN__	__EPS__
e	e
r	r
z	z
o	o
g	g
e	e
n	n

__BEGIN__	__EPS__
h	__EPS__
e	e
r	r

__BEGIN__	__EPS__
a	a
n	n
b	b
l	l
i	i
c	ck

__BEGIN__	__EPS__
n	n
i	ich
t	t

__BEGIN__	__EPS__
w	w
a	a
s	r

__BEGIN__	__EPS__
i	i
c	c
h	h

__BEGIN__	__EPS__
h	e
i	__EPS__
e	r

__BEGIN__	__EPS__
s	s
a	a
c	__EPS__
h	h

__BEGIN__	__EPS__
n	n
i	i
c	c
h	h
t	t

__BEGIN__	__EPS__
s	__EPS__
w	w
c	as

__BEGIN__	__EPS__
w	w
a	a
s	s

__BEGIN__	__EPS__
t	t
r	r
e	ä
h	n
e	e
n	n

__BEGIN__	__EPS__
k	k
l	l
a	a
g	g
t	te

__BEGIN__	__EPS__
g	g
e	__EPS__
l	l
o	a
u	u
u	b
e	e
n	n

__BEGIN__	__EPS__
v	au
t	s

__BEGIN__	__EPS__
m	m
a	a
r	r
t	t
e	e
r	r

__BEGIN__	__EPS__
n	n
a	ä
g	g
h	__EPS__
e	e
l	l
e	__EPS__
n	__EPS__

__BEGIN__	__EPS__
v	u
n	n
d	d

__BEGIN__	__EPS__
d	d
e	e
n	n

__BEGIN__	__EPS__
h	__EPS__
e	e
r	r

__BEGIN__	__EPS__
m	m
a	a
r	r
t	t
e	e
r	r

__BEGIN__	__EPS__
s	s
a	a
c	c
h	h
e	e
n	n

__BEGIN__	__EPS__
d	d
o	a

__BEGIN__	__EPS__
d	d
o	a

__BEGIN__	__EPS__
v	u
n	n
d	d

__BEGIN__	__EPS__
h	h
a	a
d	t
d	t
e	e
n	n

__BEGIN__	__EPS__
v	u
n	n
d	d

__BEGIN__	__EPS__
d	d
i	i
e	e

__BEGIN__	__EPS__
s	sch
w	w
e	e
r	r
t	t

__BEGIN__	__EPS__
h	h
a	a
l	l
b	b
e	e
s	s

__BEGIN__	__EPS__
m	me
y	i
n	n

__BEGIN__	__EPS__
e	e
i	i
g	g
e	e
n	n

__BEGIN__	__EPS__
e	nich
n	t

__BEGIN__	__EPS__
s	s
o	o
e	h
n	n

__BEGIN__	__EPS__
g	g
e	e
l	l
i	i
t	t
t	t
e	e
n	n
e	__EPS__
n	__EPS__

__BEGIN__	__EPS__
y	ih
n	n

__BEGIN__	__EPS__
y	ih
n	n

__BEGIN__	__EPS__
d	d
i	i
e	e

__BEGIN__	__EPS__
v	v
i	ie
l	l

__BEGIN__	__EPS__
d	d
e	e
r	r

__BEGIN__	__EPS__
a	a
n	n

__BEGIN__	__EPS__
v	u
n	n
d	d

__BEGIN__	__EPS__
m	m
i	i
c	c
h	h

__BEGIN__	__EPS__
p	p
f	f
e	e
n	n
i	__EPS__
n	ni
g	g
e	e

__BEGIN__	__EPS__
s	s
e	e
i	i
n	n

__BEGIN__	__EPS__
m	m
i	i
t	t

__BEGIN__	__EPS__
n	n
a	a
c	c
h	h
t	t

__BEGIN__	__EPS__
i	ih
m	m

__BEGIN__	d
u	u

__BEGIN__	__EPS__
h	h
a	a
w	u
b	p
t	t

__BEGIN__	__EPS__
k	k
l	l
a	a
g	g
t	t
e	e
n	n
d	__EPS__

__BEGIN__	__EPS__
i	i
c	c
h	h

__BEGIN__	__EPS__
n	n
y	ich
t	t

__BEGIN__	__EPS__
d	d
a	a
z	ss

__BEGIN__	__EPS__
w	w
i	i
r	r

__BEGIN__	__EPS__
v	v
i	i
e	e
l	l

__BEGIN__	__EPS__
w	w
a	a
s	r

__BEGIN__	__EPS__
e	e
z	s

__BEGIN__	__EPS__
w	w
u	u
n	n
d	d
e	e
n	n

__BEGIN__	__EPS__
a	a
l	l
l	l
e	e
i	i
n	n

__BEGIN__	__EPS__
i	ih
m	m

__BEGIN__	__EPS__
m	m
a	a
g	g
d	d
a	a
l	l
e	e
n	n
a	a

__BEGIN__	__EPS__
l	l
y	ie
g	g
e	e
n	n

__BEGIN__	__EPS__
i	i
n	n

__BEGIN__	__EPS__
d	d
e	e
r	r

__BEGIN__	__EPS__
o	o
b	b
e	__EPS__

__BEGIN__	__EPS__
m	m
i	i
t	t

__BEGIN__	__EPS__
g	g
e	e
d	t
a	a
y	__EPS__
n	n

__BEGIN__	__EPS__
n	n
v	u

__BEGIN__	__EPS__
a	a
n	n
s	s
h	__EPS__
e	e
l	l
m	m
u	__EPS__
s	__EPS__

__BEGIN__	__EPS__
h	h
y	i
m	mm
e	e
l	l

__BEGIN__	__EPS__
d	d
a	a
s	s

__BEGIN__	__EPS__
h	h
a	a
n	__EPS__
n	n
t	d

__BEGIN__	__EPS__
s	s
p	p
r	r
e	e
c	c
h	h
e	e

__BEGIN__	__EPS__
s	s
a	a
h	h
e	e
n	n

__BEGIN__	__EPS__
o	oh

__BEGIN__	__EPS__
k	k
a	a
m	m

__BEGIN__	__EPS__
h	h
i	i
e	__EPS__
n	n
g	g

__BEGIN__	__EPS__
d	d
o	a

__BEGIN__	__EPS__
s	s
p	p
r	r
a	a
c	c
h	h

__BEGIN__	__EPS__
s	s
p	p
r	r
a	ä
e	__EPS__
c	c
h	h
e	e

__BEGIN__	__EPS__
c	k
r	re
u	u
c	z
e	e

__BEGIN__	__EPS__
g	g
e	e
f	f
l	l
o	o
s	s
s	s
e	e
n	n

__BEGIN__	__EPS__
a	a
b	b
g	g
e	e
n	n
o	o
m	mm
e	e
n	n

__BEGIN__	__EPS__
m	m
a	a
n	n

__BEGIN__	__EPS__
c	__EPS__
h	k
i	i
n	n
d	d

__BEGIN__	__EPS__
i	ih
n	n
e	e
n	n

__BEGIN__	__EPS__
d	d
a	a

__BEGIN__	__EPS__
i	j
u	u
d	d
e	e
n	n

__BEGIN__	__EPS__
i	i
c	c
h	h

__BEGIN__	__EPS__
d	d
i	i
e	e

__BEGIN__	__EPS__
f	f
u	ü
e	__EPS__
s	s
s	s
e	e

__BEGIN__	__EPS__
d	d
a	a
s	s

__BEGIN__	__EPS__
f	f
r	r
o	öh
l	l
i	i
c	c
h	h

__BEGIN__	__EPS__
h	h
e	a
t	t

__BEGIN__	__EPS__
d	d
i	ie
s	s
e	e
m	m

__BEGIN__	__EPS__
u	a
f	u
f	f

__BEGIN__	__EPS__
e	e
d	d
l	l
e	e
n	n

__BEGIN__	__EPS__
v	v
a	o
n	n

__BEGIN__	__EPS__
d	d
e	e
r	r

__BEGIN__	__EPS__
d	d
o	o
c	c
h	h

__BEGIN__	__EPS__
y	ih
m	m

__BEGIN__	__EPS__
i	i
c	c
h	h

__BEGIN__	__EPS__
t	ta
u	u
s	s
e	e
n	n
t	d

__BEGIN__	__EPS__
g	g
r	r
o	o
z	s
z	s
e	e
r	r

__BEGIN__	__EPS__
m	m
i	i
r	r

__BEGIN__	__EPS__
y	i
m	h
e	m

__BEGIN__	__EPS__
b	b
e	e
s	s
m	mett
i	e
t	t

__BEGIN__	__EPS__
e	eh
e	e

__BEGIN__	__EPS__
i	ih
r	r

__BEGIN__	__EPS__
d	d
i	i
r	r

__BEGIN__	__EPS__
s	s
e	e
i	i
n	n

__BEGIN__	__EPS__
s	s
e	e
h	h
e	e
n	n

__BEGIN__	__EPS__
s	s
e	e
y	i
n	n
e	e
n	n

__BEGIN__	__EPS__
s	s
o	oh
n	n

__BEGIN__	__EPS__
w	wi
e	e
d	d
e	e
r	r

__BEGIN__	__EPS__
v	u
n	n
s	s
e	er

__BEGIN__	__EPS__
f	f
v	üh
r	r
t	t
e	e

__BEGIN__	__EPS__
v	v
o	o
l	l
l	lst
e	änd
i	i
s	gkei
t	t

__BEGIN__	__EPS__
g	g
e	e
g	g
e	e
b	b
e	e
n	n

__BEGIN__	__EPS__
c	k
l	l
e	e
y	i
n	n
e	e

__BEGIN__	__EPS__
p	p
y	i
l	l
a	a
t	t
u	u
s	s

__BEGIN__	__EPS__
m	m
i	i
t	t

__BEGIN__	__EPS__
s	se
i	i
n	n
e	e

__BEGIN__	__EPS__
d	d
e	e
r	r

__BEGIN__	__EPS__
i	ih
n	n

__BEGIN__	__EPS__
b	b
e	e
h	h
v	ü
t	t
i	e
n	n

__BEGIN__	__EPS__
l	__EPS__
v	b
i	e
z	sc
e	h
l	e
i	i
g	d
o	en
s	s
t	t
e	e

__BEGIN__	__EPS__
e	e
r	r
d	d
e	e
n	n

__BEGIN__	__EPS__
n	n
i	ich
t	t

__BEGIN__	__EPS__
v	u
n	n
d	d

__BEGIN__	__EPS__
m	m
e	e
n	n
s	sc
h	h
e	e
n	n

__BEGIN__	__EPS__
m	m
i	i
s	s
t	t

__BEGIN__	__EPS__
m	m
e	e
r	r
k	ke

__BEGIN__	__EPS__
b	b
y	i
n	n

__BEGIN__	__EPS__
a	a
l	l
l	l
e	e
r	r

__BEGIN__	__EPS__
d	d
a	a

__BEGIN__	__EPS__
m	m
i	i
c	c
h	h

__BEGIN__	__EPS__
e	e
r	r

__BEGIN__	__EPS__
m	j
a	un
g	g
i	fr
t	äu
l	l
i	i
c	c
h	h
e	e
n	n

__BEGIN__	__EPS__
s	s
a	a
n	n
d	dte

__BEGIN__	__EPS__
d	d
e	e
m	m

__BEGIN__	__EPS__
s	s
p	p
r	rach

__BEGIN__	__EPS__
s	s
o	o

__BEGIN__	__EPS__
n	n
i	i
m	m
m	m
e	e
r	r

__BEGIN__	__EPS__
i	j
u	u
d	d
e	e
n	n

__BEGIN__	__EPS__
a	a
n	n

__BEGIN__	__EPS__
v	v
e	e
r	r
g	g
i	i
b	b

__BEGIN__	__EPS__
c	k
h	__EPS__
n	n
y	i
e	e
t	t
e	e
n	n

__BEGIN__	__EPS__
w	w
a	a
s	r

__BEGIN__	__EPS__
l	l
a	a
m	m
a	a
z	z
a	a
b	b
a	a
t	t
a	a
n	n
y	i

__BEGIN__	d
u	u

__BEGIN__	__EPS__
e	e
r	r

__BEGIN__	__EPS__
h	h
e	e
r	r
a	a
b	b

__BEGIN__	__EPS__
a	a
n	n

__BEGIN__	__EPS__
f	f
r	r
a	a
ü	u
w	__EPS__
e	__EPS__

__BEGIN__	__EPS__
d	d
e	e
m	m

__BEGIN__	d
u	u

__BEGIN__	__EPS__
d	d
o	a

__BEGIN__	__EPS__
g	g
e	e
f	s
l	t
o	o
s	s
s	s
e	e
n	n

__BEGIN__	__EPS__
g	g
a	e
i	i
s	s
t	t

__BEGIN__	__EPS__
m	me
i	i
m	n
e	em

__BEGIN__	__EPS__
h	h
a	a
t	t

__BEGIN__	__EPS__
h	h
e	e
r	r
e	r
n	n

__BEGIN__	__EPS__
f	f
u	u
o	__EPS__
s	s
z	s

__BEGIN__	__EPS__
g	g
l	l
a	a
u	u
b	b

__BEGIN__	__EPS__
i	i
s	s
t	t

__BEGIN__	__EPS__
c	__EPS__
h	k
r	r
e	e
w	u
c	__EPS__
z	z
i	i
g	ge

__BEGIN__	__EPS__
g	g
o	o
t	tt

__BEGIN__	__EPS__
s	s
p	p
r	r
a	a
c	c
h	h

__BEGIN__	__EPS__
o	o
f	f
f	f
e	e
n	n

__BEGIN__	__EPS__
a	a
n	n
s	s
e	e
l	l
m	m
e	__EPS__

__BEGIN__	__EPS__
v	u
n	n
s	s
z	__EPS__

__BEGIN__	a
u	u
z	s
s	s
e	ä
t	t
z	z
e	i
g	g
e	e
n	n

__BEGIN__	__EPS__
s	s
c	c
h	h
u	u
l	l
d	d
i	i
g	g

__BEGIN__	__EPS__
s	s
e	ä
u	u
l	le

__BEGIN__	__EPS__
k	k
i	i
n	n
d	de
s	s

__BEGIN__	__EPS__
d	d
e	e
r	r

__BEGIN__	__EPS__
n	n
i	ic
h	h
t	t

__BEGIN__	__EPS__
e	e
r	r
s	sch
l	l
a	a
c	g
h	e

__BEGIN__	__EPS__
v	u
n	n
d	d

__BEGIN__	__EPS__
c	s
z	o
u	g
h	le
a	i
n	c
t	h

__BEGIN__	__EPS__
h	h
e	e
r	r
t	__EPS__
z	z
e	__EPS__

__BEGIN__	__EPS__
v	u
n	n
d	d

__BEGIN__	__EPS__
m	m
e	e
i	i
n	n

__BEGIN__	__EPS__
h	h
e	e
y	i
l	l
i	i
g	g
e	e

__BEGIN__	__EPS__
e	e
r	r
h	h
o	ö
r	r
t	t
e	e

__BEGIN__	__EPS__
h	h
o	ö
r	r

__BEGIN__	__EPS__
d	d
a	a
r	__EPS__
n	n
a	a
c	c
h	h

__BEGIN__	__EPS__
z	s
w	c
a	hw
e	e
r	r
t	t

__BEGIN__	__EPS__
s	s
e	e
i	i
n	n

__BEGIN__	__EPS__
m	m
e	e
n	n
s	sc
h	h
e	e
n	n

__BEGIN__	__EPS__
l	l
e	e
i	i
c	c
h	h
n	n
a	a
m	m

__BEGIN__	__EPS__
m	me
i	i
n	n

__BEGIN__	__EPS__
s	s
e	e
i	i
n	n

__BEGIN__	__EPS__
c	k
r	r
u	e
y	u
t	__EPS__
z	z
e	e

__BEGIN__	__EPS__
d	d
a	as
z	s

__BEGIN__	__EPS__
n	n
i	i
c	c
h	h
t	t

__BEGIN__	__EPS__
v	f
l	l
e	ec
k	k
e	i
h	g
t	__EPS__

__BEGIN__	__EPS__
h	h
e	e
l	l
f	f
f	__EPS__
e	e
n	n

__BEGIN__	__EPS__
e	e
i	i
n	n

__BEGIN__	__EPS__
a	a
l	l
s	s

__BEGIN__	__EPS__
v	v
a	o
n	n

__BEGIN__	__EPS__
s	s
i	ie

__BEGIN__	__EPS__
c	__EPS__
z	z
e	e
i	i
t	t

__BEGIN__	__EPS__
d	d
o	a

__BEGIN__	__EPS__
l	l
a	ä
e	__EPS__
s	s
t	t
e	e
r	r
l	l
e	__EPS__
i	i
c	c
h	h

__BEGIN__	__EPS__
b	b
e	e
f	f
a	a
l	__EPS__
c	h
h	l

__BEGIN__	__EPS__
d	d
a	a
s	ss

__BEGIN__	__EPS__
d	d
a	as
z	s

__BEGIN__	__EPS__
d	d
o	a

__BEGIN__	__EPS__
i	ih
m	m

__BEGIN__	__EPS__
b	b
i	i
s	s
t	t

__BEGIN__	__EPS__
s	s
p	p
r	r
a	a
c	c
h	h
e	e
n	n
t	__EPS__

__BEGIN__	__EPS__
n	n
a	ah
m	m

__BEGIN__	__EPS__
s	s
y	ie

__BEGIN__	__EPS__
w	w
i	i
e	e

__BEGIN__	__EPS__
v	u
m	m

__BEGIN__	__EPS__
w	w
i	i
s	s
s	s
e	e
n	n

__BEGIN__	__EPS__
b	b
i	i
s	s

__BEGIN__	__EPS__
d	d
e	e
m	m

__BEGIN__	__EPS__
m	m
i	i
c	c
h	h

__BEGIN__	__EPS__
d	d
o	a

__BEGIN__	__EPS__
w	w
a	a
r	r
t	d

__BEGIN__	__EPS__
k	k
i	i
n	n
t	d

__BEGIN__	__EPS__
d	da
z	s

__BEGIN__	__EPS__
q	k
u	__EPS__
a	a
m	m
e	e
n	n

__BEGIN__	__EPS__
l	le
u	u
d	t
e	e
n	n

__BEGIN__	__EPS__
v	u
n	n
s	s
e	er

__BEGIN__	__EPS__
d	d
e	e
n	n

__BEGIN__	__EPS__
d	d
i	i
e	e

__BEGIN__	__EPS__
s	s
a	e
i	i
l	l

__BEGIN__	__EPS__
b	__EPS__
e	e
s	__EPS__
u	i
n	n
d	z
e	el
r	n

__BEGIN__	__EPS__
d	d
a	a
z	s

__BEGIN__	__EPS__
m	m
i	i
c	c
h	h

__BEGIN__	__EPS__
m	me
y	i
n	n

__BEGIN__	__EPS__
d	d
o	a

__BEGIN__	__EPS__
s	s
p	p
r	r
a	a
c	c
h	h

__BEGIN__	__EPS__
d	d
u	u
r	r
c	c
h	h

__BEGIN__	__EPS__
d	d
a	a

__BEGIN__	__EPS__
i	j
o	o
h	h
a	a
n	n
n	n
e	e
s	s

__BEGIN__	be
g	g
e	eh
r	r
t	t
e	e

__BEGIN__	__EPS__
z	z
a	e
i	i
c	c
h	h
e	e
n	n

__BEGIN__	__EPS__
v	v
o	o
n	n

__BEGIN__	__EPS__
n	n
i	ich
t	t

__BEGIN__	__EPS__
d	d
i	i
e	e

__BEGIN__	__EPS__
h	h
a	a
m	mm
e	e
r	r

__BEGIN__	__EPS__
d	d
u	u
r	r
c	c
h	h

__BEGIN__	__EPS__
w	w
e	eh

__BEGIN__	__EPS__
k	k
o	om
m	m
e	e
n	n

__BEGIN__	__EPS__
e	e
r	r
l	le
i	i
d	d
e	e
n	n

__BEGIN__	__EPS__
s	s
t	t
i	i
m	mme

__BEGIN__	__EPS__
g	g
e	e
w	w
a	a
n	n
d	d
t	__EPS__

__BEGIN__	__EPS__
g	g
r	r
o	o
z	ss

__BEGIN__	__EPS__
b	b
e	e
g	g
u	a
n	n
t	n
e	__EPS__

__BEGIN__	__EPS__
a	a
n	n

__BEGIN__	__EPS__
z	s
u	og
h	l
a	e
n	ic
t	h

__BEGIN__	__EPS__
s	s
a	a
c	__EPS__
h	h
e	e
n	n

__BEGIN__	__EPS__
e	e
r	r

__BEGIN__	__EPS__
l	l
e	e
g	g
t	t
e	e
n	n

__BEGIN__	__EPS__
a	a
u	u
f	f

__BEGIN__	__EPS__
i	ih
n	n

__BEGIN__	__EPS__
e	e
i	i
g	ge
n	n
e	e
n	n

__BEGIN__	__EPS__
h	e
e	r

__BEGIN__	__EPS__
t	t
o	o
t	t

__BEGIN__	__EPS__
m	m
e	e
y	i
n	n
e	e
s	s

__BEGIN__	__EPS__
s	s
p	p
r	r
a	a
c	c
h	h

__BEGIN__	__EPS__
y	i
m	h
e	m

__BEGIN__	__EPS__
a	e
i	i
n	n

__BEGIN__	__EPS__
a	a
l	l
s	s
o	o

__BEGIN__	__EPS__
d	d
a	a
s	ss

__BEGIN__	__EPS__
n	n
a	a
g	g
e	e
l	l

__BEGIN__	__EPS__
m	me
y	i
n	n
e	e
r	r

__BEGIN__	__EPS__
m	m
i	i
r	r

__BEGIN__	__EPS__
g	g
l	l
a	a
w	u
b	b
e	e
n	n

__BEGIN__	__EPS__
a	a
n	n

__BEGIN__	__EPS__
w	w
a	a
i	h
r	r
h	h
e	e
i	i
t	t

__BEGIN__	__EPS__
m	m
u	u
t	tt
e	e
r	r

__BEGIN__	__EPS__
k	k
i	i
n	n
d	d
e	e
s	s
z	__EPS__

__BEGIN__	__EPS__
h	h
e	e
r	r
o	o
d	d
e	e
s	s

__BEGIN__	__EPS__
s	s
a	a
c	__EPS__
h	h

__BEGIN__	__EPS__
t	d
r	r
i	i
t	t
t	t
e	e
n	n

__BEGIN__	__EPS__
m	m
i	i
t	t

__BEGIN__	__EPS__
m	me
i	i
n	n

__BEGIN__	__EPS__
a	oh
n	n
e	e

__BEGIN__	__EPS__
s	se
i	i
n	n

__BEGIN__	__EPS__
h	h
e	e
r	rre
n	n

__BEGIN__	__EPS__
d	d
a	a
s	ss

__BEGIN__	__EPS__
d	d
i	ie
s	s
e	e
n	n

__BEGIN__	__EPS__
d	d
e	e
n	n

__BEGIN__	__EPS__
w	w
o	o
l	l
l	l
e	e

__BEGIN__	__EPS__
v	ü
b	b
e	e
r	r

__BEGIN__	__EPS__
e	e
s	s

__BEGIN__	__EPS__
e	e
i	i
n	n

__BEGIN__	__EPS__
e	e
y	i
a	__EPS__

__BEGIN__	__EPS__
f	f
r	r
a	a
u	u
w	__EPS__
e	__EPS__

__BEGIN__	__EPS__
s	m
l	a
a	r
c	t
h	e
t	r

__BEGIN__	__EPS__
w	w
o	o
l	ll
t	t
e	e

__BEGIN__	__EPS__
k	k
i	i
n	n
t	d

__BEGIN__	__EPS__
k	k
i	i
n	n
d	d

__BEGIN__	__EPS__
k	k
e	a
i	i
s	s
e	e
r	r

__BEGIN__	__EPS__
h	h
i	i
m	mm
e	e
l	l
s	s

__BEGIN__	__EPS__
d	d
u	u
r	r
c	c
h	h

__BEGIN__	__EPS__
d	d
e	e
r	r

__BEGIN__	__EPS__
g	g
e	e
n	n
u	ü
e	__EPS__
g	g
t	t
e	e

__BEGIN__	__EPS__
g	g
e	e
s	s
t	t
a	a
l	l
t	tet

__BEGIN__	__EPS__
m	m
a	a
r	r
i	i
a	a

__BEGIN__	__EPS__
i	j
o	o
s	s
e	e
p	p
h	h

__BEGIN__	__EPS__
v	u
n	n
d	d

__BEGIN__	__EPS__
d	d
c	as

__BEGIN__	__EPS__
d	d
o	a

__BEGIN__	__EPS__
m	j
e	un
g	gfr
t	äu
l	l
i	i
c	c
h	h
e	e
n	n

__BEGIN__	__EPS__
m	m
e	e
i	i
n	n
e	e

__BEGIN__	__EPS__
v	a
z	u
z	s

__BEGIN__	__EPS__
s	s
p	p
i	i
e	e
l	l
t	t

__BEGIN__	__EPS__
a	a
b	b

__BEGIN__	__EPS__
s	s
p	p
r	r
a	a
c	c
h	h

__BEGIN__	__EPS__
e	e
r	r

__BEGIN__	__EPS__
v	u
n	n
d	d

__BEGIN__	__EPS__
d	d
a	a

__BEGIN__	__EPS__
d	d
y	ie

__BEGIN__	__EPS__
g	g
e	e
b	b
i	i
l	l
d	d
o	e
t	t

__BEGIN__	__EPS__
d	d
e	e
r	r

__BEGIN__	__EPS__
w	w
u	u
r	r
d	de

__BEGIN__	__EPS__
n	n
i	i
c	c
h	h
t	t

__BEGIN__	__EPS__
v	u
n	n
d	d

__BEGIN__	__EPS__
y	ih
m	m

__BEGIN__	__EPS__
d	d
i	ie

__BEGIN__	__EPS__
s	s
a	a
l	l
o	o
m	m
o	o
n	n
i	__EPS__
s	s
z	__EPS__

__BEGIN__	__EPS__
d	d
o	a

__BEGIN__	__EPS__
s	s
o	o

__BEGIN__	__EPS__
s	s
i	i
n	n
d	d

__BEGIN__	__EPS__
a	a
l	l
s	s
o	o

__BEGIN__	__EPS__
n	n
o	o
c	c
h	h

__BEGIN__	__EPS__
i	ih
m	m

__BEGIN__	__EPS__
s	s
t	t
a	a
c	c
h	h

__BEGIN__	__EPS__
v	v
o	o
n	n

__BEGIN__	__EPS__
g	g
l	l
e	e
i	i
c	c
h	h

__BEGIN__	__EPS__
d	d
u	u

__BEGIN__	__EPS__
w	w
e	e
r	r
d	d
e	e
n	n

__BEGIN__	__EPS__
i	ih
m	m

__BEGIN__	__EPS__
n	n
i	i
e	e

__BEGIN__	__EPS__
n	n
u	i
i	ch
t	t

__BEGIN__	__EPS__
i	i
m	h
e	m

__BEGIN__	__EPS__
t	t
o	o
d	d
e	e

__BEGIN__	__EPS__
d	d
e	e
r	r

__BEGIN__	__EPS__
m	me
y	i
n	n

__BEGIN__	__EPS__
m	m
a	a
g	g
t	d

__BEGIN__	n
e	ich
n	t

__BEGIN__	__EPS__
m	mari
a	a

__BEGIN__	__EPS__
r	r
e	e
i	i
n	n
i	e

__BEGIN__	__EPS__
d	d
o	a

__BEGIN__	__EPS__
d	d
o	a
r	__EPS__
n	n
o	a
c	c
h	h

__BEGIN__	__EPS__
v	b
n	i
z	s

__BEGIN__	__EPS__
d	d
o	a

__BEGIN__	__EPS__
a	a
v	u
f	f

__BEGIN__	__EPS__
s	s
t	t
a	e
i	i
n	n
e	e

__BEGIN__	__EPS__
k	k
a	a
m	m

__BEGIN__	__EPS__
g	g
r	r
o	o
s	s
s	s
e	e
n	n

__BEGIN__	__EPS__
b	b
e	e
r	r
i	i
c	c
h	h
t	tet

__BEGIN__	__EPS__
w	w
a	a
t	s

__BEGIN__	__EPS__
a	a
n	n
s	s
a	a
c	__EPS__
h	h

__BEGIN__	__EPS__
g	g
e	e
i	i
s	s
t	t
e	e

__BEGIN__	__EPS__
g	g
e	e
s	s
e	e
l	l
l	l
e	e

__BEGIN__	__EPS__
d	d
y	ie

__BEGIN__	__EPS__
s	s
e	e
i	i
n	n
e	e
n	m

__BEGIN__	__EPS__
z	z
u	o
g	g
e	e
n	n

__BEGIN__	__EPS__
e	e
i	i
n	n
e	e
n	n

__BEGIN__	__EPS__
v	u
n	n
d	d

__BEGIN__	__EPS__
i	ih
n	n

__BEGIN__	__EPS__
n	n
y	ie
d	d
e	e
r	r

__BEGIN__	__EPS__
w	w
a	a
t	s

__BEGIN__	__EPS__
j	j
o	u
e	__EPS__
d	d
e	e
n	n

__BEGIN__	__EPS__
d	d
y	ie

__BEGIN__	__EPS__
e	ehe

__BEGIN__	__EPS__
e	e
y	i
n	n

__BEGIN__	__EPS__
w	w
i	i
e	e

__BEGIN__	__EPS__
g	g
e	e
s	s
c	c
h	h
i	i
c	e
h	h
t	t

__BEGIN__	__EPS__
i	ih
m	m

__BEGIN__	__EPS__
t	t
a	a
g	g
e	__EPS__

__BEGIN__	__EPS__
d	d
a	a
t	ss

__BEGIN__	__EPS__
w	w
u	u
n	n
d	d
e	e
n	n

__BEGIN__	__EPS__
s	r
c	__EPS__
h	ä
a	u
c	__EPS__
h	b
a	e
r	r

__BEGIN__	__EPS__
k	k
i	i
n	n
t	d

__BEGIN__	__EPS__
z	t
e	r
h	ä
e	n
r	e
n	n

__BEGIN__	__EPS__
w	w
i	ü
r	r
d	d
i	i
g	g

__BEGIN__	__EPS__
i	i
c	c
h	h

__BEGIN__	__EPS__
v	u
n	n
d	d

__BEGIN__	__EPS__
e	e
r	r

__BEGIN__	__EPS__
w	w
a	a
r	r
t	d

__BEGIN__	__EPS__
d	d
o	a

__BEGIN__	__EPS__
v	u
n	n
d	d
e	__EPS__

__BEGIN__	__EPS__
v	u
n	n
d	d

__BEGIN__	__EPS__
z	z
a	a
r	r
t	t
e	e
s	s

__BEGIN__	__EPS__
d	d
e	e
m	m

__BEGIN__	__EPS__
d	d
a	a
z	ss

__BEGIN__	__EPS__
g	g
a	a
r	r

__BEGIN__	__EPS__
r	r
e	e
c	c
h	h
t	t

__BEGIN__	__EPS__
g	g
e	e
f	f
l	l
o	o
s	s
s	s
e	e
n	n

__BEGIN__	__EPS__
g	g
e	e
b	b
e	e
n	n

__BEGIN__	__EPS__
w	w
a	ah
r	r
h	h
e	e
i	i
t	t

__BEGIN__	__EPS__
g	g
e	e
b	b
a	e
i	i
n	n

__BEGIN__	__EPS__
h	h
a	a
i	__EPS__
t	t

__BEGIN__	__EPS__
v	u
n	n
d	d

__BEGIN__	__EPS__
w	w
i	ie
d	d
e	e
r	r
m	m
a	a
c	c
h	h
e	e
n	n

__BEGIN__	__EPS__
h	h
u	o
l	l
t	__EPS__
z	z
e	__EPS__

__BEGIN__	__EPS__
d	d
e	e
n	n

__BEGIN__	__EPS__
p	p
i	i
l	l
a	a
t	t
u	u
s	s

__BEGIN__	__EPS__
c	k
l	l
a	a
g	ge

__BEGIN__	__EPS__
d	d
a	a
s	s
z	s

__BEGIN__	__EPS__
d	d
a	a
t	s

__BEGIN__	__EPS__
d	d
i	i
e	e

__BEGIN__	__EPS__
m	m
i	i
c	c
h	h

__BEGIN__	__EPS__
k	k
o	o
m	mm
e	e
n	n

__BEGIN__	__EPS__
m	v
a	i
n	e
i	l
g	e

__BEGIN__	__EPS__
v	u
n	n
d	d

__BEGIN__	__EPS__
s	s
e	e
i	i
n	n
e	e
m	m

__BEGIN__	__EPS__
d	d
o	a
r	__EPS__
n	n
o	a
c	c
h	h

__BEGIN__	__EPS__
f	f
r	r
u	ü
e	h

__BEGIN__	__EPS__
a	a
r	r
m	m
e	e
n	n

__BEGIN__	__EPS__
a	a
l	l
s	s
e	__EPS__

__BEGIN__	__EPS__
a	a
n	n

__BEGIN__	__EPS__
t	t
a	a
g	g

__BEGIN__	__EPS__
k	k
i	i
n	n
d	d
e	e
s	s

__BEGIN__	__EPS__
w	w
i	ir

__BEGIN__	__EPS__
t	t
o	o
d	d
e	e

__BEGIN__	__EPS__
g	g
e	e
t	t
e	e
i	i
l	l
t	t

