__BEGIN__	__EPS__
w	w
e	ä
r	r
e	e

__BEGIN__	__EPS__
v	ü
b	b
e	e
r	r

__BEGIN__	__EPS__
b	b
l	l
u	u
t	t
i	i
g	g

__BEGIN__	__EPS__
m	m
e	e
n	n
s	sch
l	l
i	i
c	c
h	h

__BEGIN__	__EPS__
r	r
a	a
t	t

__BEGIN__	__EPS__
d	d
e	e
n	n
n	n

__BEGIN__	__EPS__
w	w
a	a
r	r
e	e
n	n

__BEGIN__	__EPS__
d	d
o	a

__BEGIN__	__EPS__
s	s
i	ie
h	h
e	e

__BEGIN__	__EPS__
d	d
i	i
e	e

__BEGIN__	__EPS__
m	m
i	i
r	r

__BEGIN__	__EPS__
s	n
i	ac
n	h
d	dem

__BEGIN__	__EPS__
f	f
ü	ü
r	r
s	s
t	t
e	e
n	n

__BEGIN__	__EPS__
v	u
n	n
d	d

__BEGIN__	__EPS__
h	h
e	e
r	r
a	a
u	u
s	s

__BEGIN__	__EPS__
m	m
a	a
g	g

__BEGIN__	__EPS__
e	e
i	i
n	n

__BEGIN__	__EPS__
d	d
e	e
n	n
n	n
e	__EPS__

__BEGIN__	__EPS__
e	e
r	r

__BEGIN__	__EPS__
s	s
e	e
i	i
n	n

__BEGIN__	__EPS__
v	u
n	n
d	d

__BEGIN__	__EPS__
s	se
i	i
n	n

__BEGIN__	__EPS__
a	a
n	n

__BEGIN__	__EPS__
d	d
a	a
z	ss

__BEGIN__	__EPS__
m	m
a	a
r	r
i	i
a	a

__BEGIN__	__EPS__
w	w
a	a
s	s
s	s
e	e
r	r

__BEGIN__	__EPS__
g	g
e	e
s	s
e	e
h	h
e	e
n	n

__BEGIN__	__EPS__
h	h
i	i
n	n

__BEGIN__	__EPS__
v	u
n	n
d	d

__BEGIN__	__EPS__
i	i
c	c
h	h

__BEGIN__	__EPS__
l	l
e	eh
r	r
e	e

__BEGIN__	__EPS__
a	a
l	l
l	l
t	__EPS__
z	z
o	u
m	m
a	a
i	__EPS__
l	l
l	__EPS__

__BEGIN__	__EPS__
b	b
e	e
t	t
r	r
u	ü
e	__EPS__
b	b
t	t

__BEGIN__	__EPS__
s	s
t	t
y	i
m	mm
e	e
n	n

__BEGIN__	__EPS__
e	e
r	r

__BEGIN__	__EPS__
w	w
e	e
m	m

__BEGIN__	__EPS__
s	s
p	p
o	o
t	tt

__BEGIN__	__EPS__
n	n
o	o
c	c
h	h

__BEGIN__	__EPS__
d	d
i	i
e	e

__BEGIN__	__EPS__
v	v
a	a
t	t
i	e
r	r

__BEGIN__	__EPS__
v	v
o	o
n	n

__BEGIN__	__EPS__
s	s
o	o
l	ll
d	t
e	e
n	n

__BEGIN__	__EPS__
i	i
c	c
h	h

__BEGIN__	__EPS__
e	e
r	r
s	s
c	c
h	h
r	r
a	a
k	k
c	__EPS__
h	__EPS__
t	__EPS__
e	e
n	n

__BEGIN__	__EPS__
v	v
e	e
r	r
k	k
e	e
r	h
e	r
t	t

__BEGIN__	__EPS__
m	m
i	i
r	r

__BEGIN__	__EPS__
m	m
a	a
n	n

__BEGIN__	__EPS__
v	u
n	n
d	d

__BEGIN__	__EPS__
c	c
a	a
i	i
f	ph
a	a
s	s

__BEGIN__	__EPS__
d	d
a	a
s	ss

__BEGIN__	__EPS__
s	se
i	i
n	n

__BEGIN__	__EPS__
d	d
e	e
r	r

__BEGIN__	__EPS__
s	s
t	t
e	e
i	i
n	n

__BEGIN__	__EPS__
y	ih
n	n

__BEGIN__	__EPS__
d	d
i	i
r	r

__BEGIN__	__EPS__
h	h
ö	ö
r	r
t	t

__BEGIN__	__EPS__
s	se
i	i
n	n
e	e
r	r

__BEGIN__	__EPS__
a	a
l	l
l	l
e	e
n	n

__BEGIN__	__EPS__
s	s
e	ee
l	l
e	e

__BEGIN__	__EPS__
s	s
t	t
u	a
n	n
d	d
e	e
n	n

__BEGIN__	__EPS__
t	t
a	a
g	g

__BEGIN__	__EPS__
d	d
u	u

__BEGIN__	__EPS__
d	d
a	a
s	ss

__BEGIN__	__EPS__
a	a
m	n
p	b
l	l
i	i
c	c
h	__EPS__
k	k
s	s

__BEGIN__	__EPS__
s	s
y	ie

__BEGIN__	__EPS__
s	s
i	i
n	n
t	d

__BEGIN__	__EPS__
e	e
r	r

__BEGIN__	__EPS__
s	s
t	t
a	e
i	i
n	n

__BEGIN__	__EPS__
z	z
u	u

__BEGIN__	__EPS__
d	d
i	i
e	e

__BEGIN__	__EPS__
g	s
e	e
s	__EPS__
y	i
n	n

__BEGIN__	__EPS__
i	i
n	n

__BEGIN__	__EPS__
c	k
r	r
e	e
u	u
c	__EPS__
z	z
e	__EPS__

__BEGIN__	__EPS__
i	ih
n	n

__BEGIN__	__EPS__
h	h
a	a
b	b
e	e
n	n

__BEGIN__	__EPS__
h	h
e	e
r	r
r	r
e	__EPS__

__BEGIN__	__EPS__
m	m
i	i
c	c
h	h

__BEGIN__	__EPS__
d	t
u	u
t	t

__BEGIN__	__EPS__
d	d
y	ie
t	s

__BEGIN__	__EPS__
m	m
a	a
r	r
i	i
a	a

__BEGIN__	__EPS__
v	u
n	n
d	d

__BEGIN__	__EPS__
w	w
a	a
t	s

__BEGIN__	__EPS__
s	s
p	p
r	r
a	ä
e	__EPS__
c	c
h	h
e	e
n	n

__BEGIN__	__EPS__
a	a
n	n

__BEGIN__	__EPS__
m	m
a	a
n	n

__BEGIN__	__EPS__
d	d
a	a
s	s

__BEGIN__	__EPS__
s	s
y	ie

__BEGIN__	__EPS__
c	k
r	r
u	e
i	u
t	__EPS__
z	z
e	e

__BEGIN__	__EPS__
m	m
i	i
t	t

__BEGIN__	__EPS__
h	h
e	ä
n	n
d	d
e	e
n	n

__BEGIN__	__EPS__
m	m
i	i
c	c
h	h

__BEGIN__	__EPS__
w	w
i	i
r	r

__BEGIN__	__EPS__
s	s
o	o

__BEGIN__	__EPS__
p	p
y	i
l	l
a	a
t	t
u	u
s	s

__BEGIN__	__EPS__
d	d
e	e
m	m

__BEGIN__	__EPS__
i	joh
a	a
n	nnes

__BEGIN__	__EPS__
h	h
e	e
r	r
o	o
d	d
i	es

__BEGIN__	__EPS__
v	e
r	r
l	l
a	a
u	u
b	bnis

__BEGIN__	__EPS__
m	m
i	i
t	t

__BEGIN__	__EPS__
h	h
a	e
i	is
s	s
t	t

__BEGIN__	__EPS__
d	d
a	a

__BEGIN__	__EPS__
p	b
l	l
o	o
s	s
z	s

__BEGIN__	__EPS__
k	k
o	o
m	mm
e	e

__BEGIN__	__EPS__
g	g
i	i
n	n
g	g

__BEGIN__	__EPS__
n	n
a	ah
m	m

__BEGIN__	__EPS__
b	b
e	e
y	i

__BEGIN__	__EPS__
g	g
e	e
s	s
p	p
o	ö
t	tte
s	s

__BEGIN__	__EPS__
d	d
a	a
s	s

__BEGIN__	__EPS__
s	s
a	a
c	__EPS__
h	g
t	t

__BEGIN__	__EPS__
d	d
o	a

__BEGIN__	__EPS__
y	ih
m	m

__BEGIN__	__EPS__
m	m
a	a
n	n

__BEGIN__	__EPS__
s	s
p	p
r	r
a	a
c	c
h	h

__BEGIN__	__EPS__
d	d
a	as
s	s

__BEGIN__	__EPS__
e	e
z	s

__BEGIN__	__EPS__
v	u
n	n
d	d

__BEGIN__	__EPS__
d	d
e	e
n	n

__BEGIN__	__EPS__
g	g
e	e
r	r
e	ede
t	t

__BEGIN__	__EPS__
v	u
n	n
d	d

__BEGIN__	__EPS__
s	s
u	oh
n	n

__BEGIN__	__EPS__
g	g
e	e
d	d
u	u
l	l
t	d

__BEGIN__	__EPS__
s	s
p	p
r	r
a	a
c	c
h	h

__BEGIN__	__EPS__
b	b
i	i
s	s

__BEGIN__	__EPS__
t	t
o	o
d	d

__BEGIN__	__EPS__
v	f
r	r
a	a
g	g
e	__EPS__
d	t
e	e

__BEGIN__	__EPS__
d	d
a	a
t	s

__BEGIN__	__EPS__
e	e
r	r
l	l
ö	ö
s	s
e	__EPS__
t	t

__BEGIN__	__EPS__
i	ih
m	m

__BEGIN__	__EPS__
f	v
ü	o
r	r

__BEGIN__	__EPS__
d	d
u	u

__BEGIN__	__EPS__
v	u
n	n
d	d

__BEGIN__	__EPS__
n	n
i	ich
t	t

__BEGIN__	__EPS__
k	k
i	i
n	n
d	d

__BEGIN__	__EPS__
m	m
a	a
g	g
t	d
a	a
l	l
e	e
n	n
a	a

__BEGIN__	__EPS__
g	g
e	e
b	b
o	ä
u	u
d	d
e	e

__BEGIN__	__EPS__
s	s
e	e
i	i
n	n
e	e
s	s

__BEGIN__	__EPS__
o	a
u	u
c	c
h	h

__BEGIN__	__EPS__
w	w
a	a
s	s

__BEGIN__	__EPS__
d	d
e	e
m	m

__BEGIN__	__EPS__
d	da
z	ss

__BEGIN__	__EPS__
z	z
e	u

__BEGIN__	__EPS__
e	e
l	l
e	e
m	m
e	e
n	n
t	t

__BEGIN__	__EPS__
d	d
r	re
i	i
e	e
r	r
h	l
a	e
n	__EPS__
d	i
e	__EPS__

__BEGIN__	__EPS__
d	d
o	a

__BEGIN__	__EPS__
d	d
i	ie
s	s
e	e
r	r

__BEGIN__	__EPS__
h	h
o	ö
e	__EPS__
r	r
t	t

__BEGIN__	__EPS__
n	n
a	a
c	c
h	h

__BEGIN__	__EPS__
s	s
t	t
u	ü
r	r
b	b
e	e
n	n
t	__EPS__

__BEGIN__	__EPS__
i	ih
n	n

__BEGIN__	__EPS__
h	he
r	r
o	o
d	d
e	e
s	s

__BEGIN__	__EPS__
l	l
e	e
u	b
e	e
n	n

__BEGIN__	__EPS__
d	t
a	a
d	t
e	e
n	n

__BEGIN__	__EPS__
e	e
r	r
s	s
t	t
a	a
r	r
p	b

__BEGIN__	__EPS__
s	s
o	o

__BEGIN__	__EPS__
v	w
u	e
r	i
b	t
a	e
z	r

__BEGIN__	__EPS__
w	w
i	i
r	r
t	d

__BEGIN__	__EPS__
s	sch
w	w
e	e
s	s
t	t
e	e
r	r

__BEGIN__	__EPS__
k	k
i	i
n	n
t	d

__BEGIN__	__EPS__
z	z
u	u

__BEGIN__	__EPS__
h	h
a	a
b	b
e	e
n	n

__BEGIN__	__EPS__
g	g
i	i
e	__EPS__
n	n
c	g

__BEGIN__	__EPS__
g	g
e	__EPS__
l	le
i	i
c	c
h	h

__BEGIN__	__EPS__
i	ih
n	n

__BEGIN__	__EPS__
m	m
y	i
r	r

__BEGIN__	__EPS__
g	g
v	ü
o	__EPS__
t	t
l	__EPS__
i	i
c	g
h	__EPS__

__BEGIN__	__EPS__
c	__EPS__
z	z
a	a
r	r
t	t

__BEGIN__	__EPS__
d	d
e	e
m	m

__BEGIN__	__EPS__
e	e
r	r

__BEGIN__	__EPS__
c	c
r	r
ü	u
c	c
i	i
f	f
i	i
g	g
e	e

__BEGIN__	__EPS__
h	h
y	ie
s	r

__BEGIN__	__EPS__
i	j
e	ä
m	mm
e	e
r	r
l	l
i	i
c	c
h	h

__BEGIN__	__EPS__
s	s
c	c
h	h
o	o
s	s
z	s

__BEGIN__	__EPS__
s	s
c	c
h	h
o	o
i	__EPS__
n	n

__BEGIN__	__EPS__
a	a
l	l
l	l
e	e
r	r

__BEGIN__	__EPS__
w	w
i	ie
d	d
e	e
r	r
k	k
a	ä
e	__EPS__
m	me

__BEGIN__	__EPS__
s	s
e	eh
r	r

__BEGIN__	__EPS__
v	u
n	n
d	d

__BEGIN__	__EPS__
d	d
o	a

__BEGIN__	__EPS__
t	t
o	o
t	d

__BEGIN__	__EPS__
h	h
e	e
r	r
o	o
d	d
e	e
s	s

__BEGIN__	__EPS__
s	s
a	a
g	g
e	e

__BEGIN__	__EPS__
v	u
n	n
d	d

__BEGIN__	__EPS__
k	k
a	e
i	i
n	n
e	e
n	n

__BEGIN__	__EPS__
e	e
n	m
p	p
f	f
i	i
e	__EPS__
n	n
g	ge

__BEGIN__	__EPS__
a	a
b	b

__BEGIN__	__EPS__
n	n
a	a
i	__EPS__
c	c
h	h

__BEGIN__	__EPS__
h	h
e	e
r	r
c	__EPS__
z	z
e	e
n	n

__BEGIN__	__EPS__
h	i
a	h
e	__EPS__
r	r

__BEGIN__	__EPS__
g	zusamm
e	en
b	b
r	r
e	e
i	__EPS__
s	c
t	h
e	e
n	n

__BEGIN__	__EPS__
v	u
n	n
d	d

__BEGIN__	__EPS__
a	u
n	nd

__BEGIN__	__EPS__
d	de
i	i
n	n
e	e

__BEGIN__	__EPS__
h	h
e	ä
d	tte

__BEGIN__	__EPS__
d	d
e	e
r	r

__BEGIN__	__EPS__
a	a
l	l
l	l
e	e

__BEGIN__	__EPS__
r	r
e	e
i	i
n	n
e	e

__BEGIN__	__EPS__
g	g
r	r
o	o
z	ss

__BEGIN__	__EPS__
p	p
r	r
o	ü
e	__EPS__
u	f
e	e
n	n

__BEGIN__	__EPS__
g	g
e	e
s	s
c	c
h	h
i	i
c	e
h	h
t	t

__BEGIN__	__EPS__
e	e
t	t

__BEGIN__	__EPS__
d	d
e	e
z	s

__BEGIN__	__EPS__
l	l
i	e
e	i
t	d

__BEGIN__	__EPS__
d	d
a	a
s	s

__BEGIN__	__EPS__
d	d
i	i
e	e
b	b

__BEGIN__	__EPS__
f	f
r	r
a	a
g	g
e	__EPS__
t	t
e	e

__BEGIN__	__EPS__
b	b
e	e
g	g
r	r
e	e
i	i
f	f
f	__EPS__
e	e
n	n

__BEGIN__	__EPS__
n	m
o	i
n	t
c	tags
z	z
e	e
i	i
t	t

__BEGIN__	__EPS__
v	u
n	n
d	d

__BEGIN__	__EPS__
g	g
o	ö
t	tt
l	l
i	i
c	c
h	h
e	e
n	n

__BEGIN__	__EPS__
l	l
ü	i
f	e
f	f
e	e
n	n
d	__EPS__

__BEGIN__	__EPS__
s	s
o	o

__BEGIN__	__EPS__
w	we
i	i
s	sses

__BEGIN__	__EPS__
a	a
l	l
l	l
e	e

__BEGIN__	__EPS__
h	h
o	o
e	e

__BEGIN__	__EPS__
g	g
e	e
n	n
i	i
e	e
s	s
s	s
e	e
n	n

__BEGIN__	__EPS__
i	i
c	c
h	h

__BEGIN__	n
e	ich
n	t

__BEGIN__	__EPS__
h	h
e	e
r	rr
e	e
n	n

__BEGIN__	__EPS__
m	m
e	e
i	i
n	n
e	e
m	m

__BEGIN__	__EPS__
s	s
y	ie

__BEGIN__	__EPS__
m	m
a	a
g	g

__BEGIN__	__EPS__
a	a
n	n

__BEGIN__	__EPS__
m	m
e	ee
r	r

__BEGIN__	__EPS__
e	e
r	r

__BEGIN__	__EPS__
f	f
r	r
a	a
w	u

__BEGIN__	__EPS__
e	e
n	m
p	p
f	f
a	a
c	n
h	g
e	e
n	n

__BEGIN__	__EPS__
g	g
o	ot
t	t

__BEGIN__	__EPS__
i	ih
m	m

__BEGIN__	__EPS__
v	ü
b	b
e	e
r	r

__BEGIN__	__EPS__
s	s
i	i
e	e

__BEGIN__	__EPS__
g	g
e	e
l	l
o	a
u	u
f	f
f	__EPS__
e	e
n	n

__BEGIN__	__EPS__
i	ih
m	m

__BEGIN__	__EPS__
i	u
n	n
d	d

__BEGIN__	__EPS__
v	v
o	o
n	n

__BEGIN__	__EPS__
a	a
n	n
t	t
w	w
o	o
r	r
t	t
e	e
n	n

__BEGIN__	__EPS__
c	__EPS__
z	z
e	e
r	r
s	s
t	t
o	ö
r	r
t	t
e	e
n	n
d	__EPS__

__BEGIN__	__EPS__
i	ih
m	m

__BEGIN__	__EPS__
l	l
e	e
i	i
b	b

__BEGIN__	__EPS__
d	d
y	ie

__BEGIN__	__EPS__
i	i
c	c
h	h

__BEGIN__	__EPS__
b	b
i	i
s	s

__BEGIN__	__EPS__
r	r
o	o
i	__EPS__
t	t

__BEGIN__	__EPS__
z	z
u	u

__BEGIN__	n
e	ich
n	t

__BEGIN__	__EPS__
a	a
l	l
l	l
e	e
m	m

__BEGIN__	__EPS__
y	ih
n	n

__BEGIN__	__EPS__
n	ni
e	e
d	d
e	e
r	r
r	r
a	a
n	nn

__BEGIN__	__EPS__
s	s
e	e
i	i
n	n
e	e
r	r

__BEGIN__	__EPS__
p	b
e	e
i	i

__BEGIN__	__EPS__
v	u
n	n
d	d

__BEGIN__	__EPS__
i	i
c	c
h	h

__BEGIN__	__EPS__
v	u
n	n
d	d

__BEGIN__	__EPS__
e	e
r	r

__BEGIN__	__EPS__
a	a
b	b
e	e
r	r

__BEGIN__	__EPS__
a	a
n	n

__BEGIN__	__EPS__
t	t
r	r
o	o
i	__EPS__
s	s
t	t
e	e
s	s

__BEGIN__	__EPS__
v	u
n	n
d	d

__BEGIN__	__EPS__
s	s
t	t
u	a
n	n
t	d

__BEGIN__	__EPS__
v	f
u	ü
z	ss
e	e
n	n

__BEGIN__	__EPS__
d	d
a	as
s	s

__BEGIN__	__EPS__
s	s
v	i
i	e

__BEGIN__	__EPS__
h	h
a	a
b	b
e	e
n	n

__BEGIN__	__EPS__
f	f
u	ü
i	__EPS__
n	n
f	f

__BEGIN__	__EPS__
d	d
o	a

__BEGIN__	__EPS__
s	s
e	e
h	h
e	__EPS__
n	__EPS__
t	t

__BEGIN__	__EPS__
v	v
e	e
r	r
g	g
e	e
s	s
s	s
e	e
n	n

__BEGIN__	__EPS__
k	k
a	e
i	i
n	n

__BEGIN__	__EPS__
l	l
e	e
y	i
b	b

__BEGIN__	__EPS__
i	ih
r	r
e	e
m	m

__BEGIN__	__EPS__
m	m
a	a
r	r
i	i
a	a

__BEGIN__	__EPS__
m	m
e	e
i	i
n	n

__BEGIN__	__EPS__
a	a
n	n
t	t
l	l
i	i
t	tz

__BEGIN__	__EPS__
h	h
e	e
r	r
e	r

__BEGIN__	__EPS__
i	ih
m	m

__BEGIN__	__EPS__
h	h
i	i
e	e
s	s
z	s

__BEGIN__	__EPS__
i	j
u	u
d	d
e	e
n	n

__BEGIN__	__EPS__
a	a
l	l
s	s

__BEGIN__	__EPS__
m	m
e	e
n	n
s	s
c	c
h	h
e	e
n	n

__BEGIN__	__EPS__
c	k
h	__EPS__
a	e
i	i
n	n

__BEGIN__	__EPS__
v	f
u	ü
r	r

__BEGIN__	__EPS__
f	f
ü	üh
r	r
t	t
e	e
n	n

__BEGIN__	__EPS__
s	s
o	o

__BEGIN__	__EPS__
f	f
l	l
u	u
o	__EPS__
c	c
h	h
w	w
o	o
r	r
t	te

__BEGIN__	__EPS__
e	e
r	r
h	h
o	ö
r	r
t	t

__BEGIN__	__EPS__
g	g
e	e
s	s
p	p
r	r
o	o
c	c
h	h
e	e
n	n

__BEGIN__	__EPS__
k	k
o	o
l	l
b	b
e	e
n	n

__BEGIN__	__EPS__
a	a
l	l
l	l
i	e
r	r

__BEGIN__	__EPS__
w	w
i	i
l	l
l	l
e	e
n	n

__BEGIN__	a
v	u
f	f

__BEGIN__	__EPS__
e	e
n	nt
p	b
l	l
o	ö
s	ss
t	t
e	e
n	n

__BEGIN__	__EPS__
m	m
i	i
t	t

__BEGIN__	__EPS__
d	d
a	a

__BEGIN__	__EPS__
s	s
c	c
h	h
i	i
c	c
k	k
e	e
n	n

__BEGIN__	__EPS__
v	u
n	n
d	d

__BEGIN__	__EPS__
v	u
n	n
n	d

__BEGIN__	__EPS__
v	ü
e	__EPS__
b	b
e	e
r	r

__BEGIN__	__EPS__
w	w
i	i
r	r

__BEGIN__	__EPS__
k	k
i	i
n	n
t	d

__BEGIN__	__EPS__
v	v
o	o
n	n

__BEGIN__	__EPS__
e	ih
n	n

__BEGIN__	__EPS__
m	m
i	i
r	r

__BEGIN__	__EPS__
w	w
u	u
s	s
c	c
h	h

__BEGIN__	__EPS__
a	a
l	l
s	s
o	o

__BEGIN__	__EPS__
m	m
a	a
c	c
h	h
t	t

__BEGIN__	__EPS__
n	n
i	ic
e	h
t	t

__BEGIN__	__EPS__
z	z
u	u

__BEGIN__	__EPS__
h	i
e	h
m	m

__BEGIN__	__EPS__
a	a
u	u
f	f
f	__EPS__

__BEGIN__	__EPS__
v	v
o	o
l	ll

__BEGIN__	__EPS__
e	e
r	r
g	g
i	i
n	n
g	g

__BEGIN__	__EPS__
t	t
r	r
i	i
n	n
g	__EPS__
k	k
e	e
n	n

__BEGIN__	__EPS__
a	a
l	l
l	l
e	e
i	i
n	n

__BEGIN__	__EPS__
v	u
n	n
n	d

__BEGIN__	__EPS__
m	m
e	e
n	n
s	s
c	c
h	h
i	e
n	n

__BEGIN__	__EPS__
r	r
e	e
y	i
n	n
e	e
n	n

__BEGIN__	__EPS__
l	l
i	i
n	n
c	__EPS__
k	k
e	e
r	r

__BEGIN__	__EPS__
d	d
e	e
r	r

__BEGIN__	__EPS__
f	f
u	ü
n	n
f	f
t	t
e	e
n	n

__BEGIN__	__EPS__
h	h
a	a
d	t
d	t
e	e
n	n

__BEGIN__	__EPS__
v	v
o	o
r	r

__BEGIN__	__EPS__
p	b
e	e
y	i

__BEGIN__	__EPS__
l	l
i	i
e	e
u	b
e	e

__BEGIN__	__EPS__
e	e
r	r
l	l
a	o
s	s
c	c
h	h

__BEGIN__	__EPS__
z	z
v	u

__BEGIN__	__EPS__
p	p
i	i
l	l
a	a
t	t
u	u
s	s

__BEGIN__	__EPS__
a	a
u	u
f	f
f	__EPS__
s	s
e	e
t	t
z	z
e	e
n	n

__BEGIN__	__EPS__
v	v
o	o
n	n

__BEGIN__	__EPS__
l	l
a	e
w	u
e	__EPS__
t	t
e	e

__BEGIN__	__EPS__
a	a
n	n

__BEGIN__	__EPS__
d	d
e	e
s	s
t	t
e	o
r	__EPS__

__BEGIN__	__EPS__
r	r
u	u
e	h
t	te

__BEGIN__	__EPS__
k	k
u	o
m	mme

__BEGIN__	__EPS__
v	u
n	n
d	d

__BEGIN__	__EPS__
s	s
p	p
r	r
a	a
c	c
h	h

__BEGIN__	__EPS__
m	m
e	e
i	i
n	n

__BEGIN__	__EPS__
e	u
n	nd

__BEGIN__	__EPS__
e	e
t	t
l	l
i	i
c	c
h	h
e	e

__BEGIN__	__EPS__
v	u
n	n
d	d

__BEGIN__	__EPS__
u	u
n	n
d	d

__BEGIN__	__EPS__
i	ih
n	n

__BEGIN__	d
u	u

__BEGIN__	__EPS__
i	i
c	c
h	h

__BEGIN__	__EPS__
d	d
u	u

__BEGIN__	__EPS__
d	d
i	i
e	e

__BEGIN__	__EPS__
w	w
a	a
r	r
t	__EPS__

__BEGIN__	__EPS__
v	u
n	n
d	d

__BEGIN__	__EPS__
d	d
y	ie

__BEGIN__	__EPS__
g	g
i	in
e	g

__BEGIN__	__EPS__
s	s
e	e
i	i
n	n
e	e
s	s

__BEGIN__	__EPS__
t	__EPS__
z	z
a	e
r	rr
t	t

__BEGIN__	__EPS__
a	a
n	n

__BEGIN__	__EPS__
w	w
a	a
s	r

__BEGIN__	__EPS__
h	h
e	e
r	r
e	r

__BEGIN__	__EPS__
h	h
i	i
e	e
s	s
z	s

__BEGIN__	__EPS__
z	z
u	u
o	__EPS__

__BEGIN__	__EPS__
o	o
b	b

__BEGIN__	__EPS__
s	s
a	a
g	g
e	e
n	n

__BEGIN__	__EPS__
n	n
y	i
m	mm

__BEGIN__	__EPS__
i	ih
m	m

__BEGIN__	__EPS__
d	d
a	a
z	s

__BEGIN__	__EPS__
d	d
a	a
r	r
u	u
n	m
b	__EPS__

__BEGIN__	__EPS__
d	d
e	e
s	s

__BEGIN__	__EPS__
p	p
y	i
l	l
a	a
t	t
ü	u
s	s

__BEGIN__	__EPS__
v	f
a	a
d	d
e	e
m	n

__BEGIN__	__EPS__
h	h
a	a
d	t
d	t
e	e
n	n

__BEGIN__	__EPS__
m	m
e	e
n	n
s	s
c	c
h	h
e	e
n	n

__BEGIN__	__EPS__
d	d
o	a

__BEGIN__	__EPS__
a	a
b	b

__BEGIN__	__EPS__
d	d
e	e
r	r

__BEGIN__	__EPS__
a	a
m	m
e	e
n	n

__BEGIN__	__EPS__
k	k
l	l
a	a
g	ge

__BEGIN__	__EPS__
d	d
e	e
r	r

__BEGIN__	__EPS__
d	d
i	i
e	e

__BEGIN__	__EPS__
d	d
i	i
e	e

__BEGIN__	__EPS__
k	gr
i	i
r	e
c	c
h	h
e	e
n	n

__BEGIN__	__EPS__
h	h
a	a
m	mm
e	e
r	r
s	s
c	c
h	h
l	l
e	ä
g	ge

__BEGIN__	__EPS__
v	u
n	n
d	d

__BEGIN__	__EPS__
d	d
o	a

__BEGIN__	__EPS__
n	n
a	a
c	c
h	h

__BEGIN__	__EPS__
w	w
i	i
e	e

__BEGIN__	__EPS__
d	d
a	a
s	ss

__BEGIN__	__EPS__
k	k
i	i
n	n
t	d

__BEGIN__	__EPS__
m	m
i	i
t	t

__BEGIN__	__EPS__
c	__EPS__
h	k
o	o
e	m
m	m

__BEGIN__	__EPS__
l	l
e	ä
s	s
t	t
e	e
r	r
l	l
i	i
c	c
h	h
i	e
n	n

__BEGIN__	__EPS__
g	g
a	a
u	b
e	e
n	n

__BEGIN__	__EPS__
h	h
e	e
r	r
o	o
d	d
e	e
s	s

__BEGIN__	__EPS__
w	w
e	äh
r	r
t	t

__BEGIN__	__EPS__
m	m
o	u
d	tt
e	e
r	r

__BEGIN__	__EPS__
y	ih
m	m

__BEGIN__	__EPS__
y	ih
n	n

__BEGIN__	__EPS__
b	b
a	a
r	r
t	t

__BEGIN__	__EPS__
h	h
e	e
r	r
e	r

__BEGIN__	__EPS__
m	m
e	e
n	n
s	s
c	c
h	h
e	e
n	n

__BEGIN__	__EPS__
v	u
n	n
s	s

__BEGIN__	__EPS__
i	i
c	c
h	h

__BEGIN__	__EPS__
d	d
v	u
r	rc
h	h

__BEGIN__	__EPS__
m	me
y	i
n	n
e	e
s	s

__BEGIN__	__EPS__
h	h
e	a
t	t

__BEGIN__	__EPS__
i	ih
n	n

__BEGIN__	__EPS__
s	s
i	i
e	e

__BEGIN__	__EPS__
m	m
o	oc
h	h
t	te

__BEGIN__	__EPS__
m	m
i	i
c	c
h	h

__BEGIN__	__EPS__
s	se
i	i
n	n
e	e
n	n

__BEGIN__	__EPS__
a	a
l	l
l	l
e	e

__BEGIN__	__EPS__
b	b
i	i
s	s
t	t

__BEGIN__	__EPS__
s	s
o	o

__BEGIN__	__EPS__
w	w
o	ol
l	l
t	t

__BEGIN__	__EPS__
d	d
a	a
r	r
a	a
u	u
s	s
z	__EPS__

__BEGIN__	__EPS__
k	k
o	au
m	m

__BEGIN__	__EPS__
d	d
i	i
c	c
h	h

__BEGIN__	__EPS__
d	d
a	a
t	s

__BEGIN__	__EPS__
p	p
i	i
l	l
a	a
t	t
u	u
s	s

__BEGIN__	__EPS__
w	w
a	a
s	s
c	c
h	h
e	e

__BEGIN__	__EPS__
g	g
e	e
l	l
o	o
b	b
t	t

__BEGIN__	__EPS__
v	u
n	n
d	d

__BEGIN__	__EPS__
e	e
r	r

__BEGIN__	__EPS__
v	v
o	o
l	l
c	k
h	__EPS__
e	e
s	s

__BEGIN__	__EPS__
g	g
e	e
b	b
u	u
n	n
d	d
e	e
n	n

__BEGIN__	__EPS__
w	w
i	ie
d	d
e	e
r	r

__BEGIN__	__EPS__
s	se
i	i
n	n
e	e
s	s

__BEGIN__	__EPS__
p	p
e	e
y	i
n	n

__BEGIN__	__EPS__
n	n
a	a
c	c
h	h

__BEGIN__	__EPS__
d	d
e	e
n	n

__BEGIN__	__EPS__
s	se
i	i
n	n

__BEGIN__	__EPS__
v	u
n	n
n	d

__BEGIN__	__EPS__
s	s
p	p
r	r
a	a
c	c
h	h

__BEGIN__	__EPS__
d	d
a	a
s	s

__BEGIN__	__EPS__
m	m
a	a
n	n

__BEGIN__	__EPS__
w	w
i	i
e	e

__BEGIN__	__EPS__
m	me
i	i
n	n

__BEGIN__	__EPS__
z	z
u	u

__BEGIN__	__EPS__
b	b
r	r
u	u
s	s
t	t

__BEGIN__	__EPS__
d	d
e	e
r	r

__BEGIN__	__EPS__
h	h
u	o
b	b
e	e
n	n

__BEGIN__	__EPS__
n	n
a	a
c	c
h	h

__BEGIN__	__EPS__
m	m
a	a
n	n
i	i
g	g
f	f
a	a
l	l
t	t
i	ige

__BEGIN__	__EPS__
n	n
a	ac
e	h

__BEGIN__	__EPS__
i	j
v	u
d	d
e	e
n	n

__BEGIN__	__EPS__
s	s
a	a
g	g
t	t
e	e
n	n

__BEGIN__	__EPS__
d	d
i	i
e	e

__BEGIN__	__EPS__
v	u
n	n
d	d

__BEGIN__	__EPS__
a	a
v	u
z	s

__BEGIN__	__EPS__
s	s
p	p
r	r
a	a
c	c
h	h

__BEGIN__	__EPS__
d	d
o	a

__BEGIN__	__EPS__
o	o
w	w
e	eh

__BEGIN__	__EPS__
b	b
e	e
y	i
d	d
e	e

__BEGIN__	__EPS__
g	g
e	e
d	d
e	e
e	h
n	n
t	t

__BEGIN__	__EPS__
r	r
i	i
c	c
h	h
t	t
e	e
r	r

__BEGIN__	__EPS__
i	i
n	n

__BEGIN__	__EPS__
g	g
i	i
e	__EPS__
n	n
g	g

__BEGIN__	__EPS__
t	t
o	u
n	n
d	__EPS__

__BEGIN__	__EPS__
s	s
i	ie

__BEGIN__	__EPS__
w	w
a	a
s	s
s	s
e	e
r	r

__BEGIN__	__EPS__
n	n
v	un

__BEGIN__	__EPS__
v	v
o	o
n	n

__BEGIN__	__EPS__
d	__EPS__
u	o
c	__EPS__
k	f
e	t

__BEGIN__	__EPS__
g	g
e	e
g	g
r	r
u	ü
s	s
z	s
e	__EPS__
t	t

__BEGIN__	__EPS__
s	s
e	e
l	l
b	b
e	e
n	n

__BEGIN__	__EPS__
m	m
e	ehr

__BEGIN__	__EPS__
g	g
r	r
o	o
s	s
s	s
e	e
s	s

__BEGIN__	__EPS__
s	s
i	i
e	e

__BEGIN__	__EPS__
a	a
n	n
s	se
h	l
-	m

__BEGIN__	__EPS__
s	s
t	t
u	ü
r	r
b	b
e	e

__BEGIN__	__EPS__
b	b
e	e
y	i

__BEGIN__	__EPS__
v	u
n	n
d	d

__BEGIN__	__EPS__
d	d
i	i
e	e

__BEGIN__	__EPS__
l	l
a	a
s	s
t	t
e	e
r	r

__BEGIN__	__EPS__
s	s
y	ie

__BEGIN__	__EPS__
h	h
e	a
t	t

__BEGIN__	__EPS__
v	u
n	n
d	d

__BEGIN__	__EPS__
d	de
i	i
n	n
e	e
n	n

__BEGIN__	__EPS__
g	g
l	l
a	a
u	u
b	be

__BEGIN__	__EPS__
d	d
a	a
s	ss

__BEGIN__	__EPS__
a	a
l	l
s	s
o	o

__BEGIN__	__EPS__
g	z
e	e
t	__EPS__
z	__EPS__
u	u
g	ge

__BEGIN__	__EPS__
b	b
e	e
s	s
t	t
r	r
e	e
b	b
t	t

__BEGIN__	__EPS__
k	k
r	r
e	e
v	u
e	__EPS__
c	__EPS__
z	z

__BEGIN__	__EPS__
n	n
i	i
c	c
h	h
t	t

__BEGIN__	__EPS__
v	u
n	n
d	d

__BEGIN__	__EPS__
g	g
e	e
s	s
p	p
o	ö
t	t
t	t

__BEGIN__	__EPS__
s	s
t	t
u	a
n	n
d	d
e	e
n	n

__BEGIN__	__EPS__
w	w
u	u
r	r
d	d
e	e
n	n

__BEGIN__	__EPS__
k	k
i	i
n	n
d	d
e	__EPS__

__BEGIN__	__EPS__
w	w
e	ä
r	r
e	e

__BEGIN__	__EPS__
v	u
n	n
d	d

__BEGIN__	__EPS__
m	m
i	i
c	c
h	h

__BEGIN__	__EPS__
d	d
e	e
m	m

__BEGIN__	__EPS__
g	g
e	e
d	d
a	ac
h	h
t	t
e	e

__BEGIN__	__EPS__
s	se
i	i
n	n
e	e
m	m

__BEGIN__	__EPS__
z	z
w	u

__BEGIN__	__EPS__
v	u
n	n
s	s

__BEGIN__	__EPS__
w	w
a	a
s	s

__BEGIN__	__EPS__
g	g
e	__EPS__
l	l
i	ie
d	d
e	e
r	r

__BEGIN__	__EPS__
m	m
u	u
n	n
t	d

__BEGIN__	__EPS__
f	f
l	l
i	i
e	e
z	ss
e	e
n	n
d	d
e	e

__BEGIN__	__EPS__
a	a
n	n

__BEGIN__	__EPS__
e	ehe
r	r

__BEGIN__	__EPS__
v	v
e	e
r	r
s	s
c	c
h	h
m	m
e	ä
c	__EPS__
h	h
t	t
e	e
n	n

__BEGIN__	__EPS__
a	a
l	l
s	s

__BEGIN__	__EPS__
d	d
a	a
z	s

__BEGIN__	__EPS__
g	g
e	e
h	h
e	a
b	b
t	t

__BEGIN__	__EPS__
a	a
n	n
t	t
w	w
o	o
e	__EPS__
r	r
d	t
e	e

__BEGIN__	__EPS__
r	r
o	o
t	t

__BEGIN__	__EPS__
z	s
e	o
h	gl
a	e
n	ic
t	h

__BEGIN__	__EPS__
d	d
u	u

__BEGIN__	__EPS__
d	d
o	a

__BEGIN__	__EPS__
a	a
l	l
s	s

__BEGIN__	__EPS__
a	a
n	n
s	s
h	__EPS__
e	e
l	l
m	m
e	__EPS__

__BEGIN__	__EPS__
d	d
a	a
s	s
z	s

__BEGIN__	__EPS__
h	h
o	a
u	u
p	p
t	t

__BEGIN__	__EPS__
w	w
a	a
s	r

__BEGIN__	__EPS__
h	h
i	i
e	er

__BEGIN__	__EPS__
a	a
l	l
z	s

__BEGIN__	__EPS__
m	m
i	i
t	t
a	e
i	i
n	n
a	a
n	n
d	d
e	e
r	r

__BEGIN__	__EPS__
s	s
i	ie

__BEGIN__	__EPS__
d	d
e	i
w	e

__BEGIN__	__EPS__
v	v
e	e
r	r
l	l
a	a
s	s
s	s
e	e
n	n

__BEGIN__	__EPS__
d	d
a	a
r	r
a	a
u	u
s	s

__BEGIN__	__EPS__
g	g
a	a
l	l
i	i
l	l
e	e
a	a

__BEGIN__	__EPS__
t	t
h	__EPS__
u	u
n	n

__BEGIN__	__EPS__
m	m
u	u
t	t
t	t
e	e
r	r

__BEGIN__	__EPS__
i	j
u	u
d	d
e	e
n	n

__BEGIN__	__EPS__
d	d
u	u
r	r
c	c
h	h

__BEGIN__	__EPS__
d	d
o	a

__BEGIN__	__EPS__
d	d
i	i
e	e

__BEGIN__	d
ü	u

__BEGIN__	__EPS__
s	s
p	p
r	r
a	a
c	c
h	h

__BEGIN__	__EPS__
d	d
a	a

__BEGIN__	__EPS__
s	s
y	i
e	e

__BEGIN__	__EPS__
v	u
n	n
t	t
e	e
r	r

__BEGIN__	__EPS__
e	e
r	r

__BEGIN__	d
u	u

__BEGIN__	__EPS__
i	ih
m	m

__BEGIN__	__EPS__
m	m
e	an
n	n
i	i
c	g
h	__EPS__
v	f
a	a
l	l
t	t
i	i
g	g
e	e
n	n

__BEGIN__	__EPS__
c	k
h	__EPS__
i	i
n	n
d	d

__BEGIN__	__EPS__
s	s
y	ie

__BEGIN__	__EPS__
d	d
e	e
m	m

__BEGIN__	__EPS__
d	d
a	a
s	s

__BEGIN__	__EPS__
d	t
o	o
i	__EPS__
t	t

__BEGIN__	__EPS__
s	s
a	a
n	n
c	c
t	t
u	u
s	s

__BEGIN__	__EPS__
e	e
r	r

__BEGIN__	__EPS__
m	m
a	a
l	l

__BEGIN__	__EPS__
e	e
n	n
g	g
e	e
l	l

__BEGIN__	__EPS__
s	s
a	a
c	__EPS__
h	h

__BEGIN__	__EPS__
i	j
o	o
s	s
e	e
p	p
h	h

__BEGIN__	__EPS__
v	f
i	i
s	s
c	c
h	h
e	e
n	n

__BEGIN__	__EPS__
v	b
n	i
c	__EPS__
z	s

__BEGIN__	__EPS__
h	h
i	i
e	er

__BEGIN__	__EPS__
w	w
a	a
s	r

__BEGIN__	__EPS__
t	__EPS__
z	z
o	u

__BEGIN__	__EPS__
m	m
e	e
y	i
n	n
e	e
n	m

__BEGIN__	__EPS__
g	g
r	r
o	o
i	__EPS__
s	s
z	s

__BEGIN__	__EPS__
s	se
y	i
n	n
r	e
e	r

__BEGIN__	__EPS__
k	k
o	a
m	m

__BEGIN__	__EPS__
d	d
a	as
z	s

__BEGIN__	__EPS__
s	s
i	i
c	c
h	h

__BEGIN__	__EPS__
e	e
i	i
n	n

__BEGIN__	__EPS__
i	ih
m	m

__BEGIN__	__EPS__
k	ge
ü	s
n	ch
n	l
e	echt

__BEGIN__	__EPS__
c	k
r	r
u	e
c	u
z	z
e	e

__BEGIN__	__EPS__
s	s
p	p
o	o
t	t
t	t
e	e
n	n

__BEGIN__	__EPS__
a	a
n	n
g	g
e	e
s	s
i	i
c	c
h	h
t	t

__BEGIN__	__EPS__
m	me
i	i
n	n

__BEGIN__	__EPS__
g	g
a	eh
t	t

__BEGIN__	__EPS__
m	m
e	e
n	n
s	s
c	c
h	hh
e	e
i	i
d	t

__BEGIN__	__EPS__
g	g
e	e
b	b
o	o
r	r
e	e
n	n

__BEGIN__	__EPS__
e	e
r	r
s	s
t	t
a	a
r	r
r	r
e	__EPS__
t	te

__BEGIN__	__EPS__
v	u
n	n
r	r
e	e
c	c
h	h
t	t

__BEGIN__	__EPS__
d	d
a	a
t	s

__BEGIN__	__EPS__
d	d
u	u

__BEGIN__	__EPS__
i	j
o	o
h	h
a	a
n	n
n	n
e	es

__BEGIN__	__EPS__
s	s
o	o

__BEGIN__	__EPS__
h	h
e	a
t	t
t	__EPS__

__BEGIN__	__EPS__
m	m
i	i
c	c
h	h

__BEGIN__	__EPS__
k	k
a	a
m	m
e	e
n	n

__BEGIN__	__EPS__
g	g
e	e
w	w
a	a
n	nn

__BEGIN__	__EPS__
v	v
o	o
r	r

__BEGIN__	__EPS__
v	u
n	n
d	d

__BEGIN__	__EPS__
h	h
e	e
r	r
c	__EPS__
z	z

__BEGIN__	__EPS__
v	u
n	n
d	d

__BEGIN__	__EPS__
s	s
p	p
r	r
a	a
c	c
h	h
e	e
n	n

__BEGIN__	__EPS__
g	g
a	a
r	r

__BEGIN__	__EPS__
i	ih
n	n

__BEGIN__	__EPS__
d	d
a	ahi
r	n

__BEGIN__	__EPS__
m	m
i	i
c	c
h	h

__BEGIN__	__EPS__
d	d
u	ü
n	n
c	__EPS__
k	k
e	__EPS__
t	t

__BEGIN__	__EPS__
k	k
u	ö
e	__EPS__
n	n
c	i
k	g

__BEGIN__	__EPS__
d	d
o	a

__BEGIN__	__EPS__
f	f
i	i
e	e
l	l

__BEGIN__	__EPS__
z	z
u	u

__BEGIN__	__EPS__
z	z
u	u

__BEGIN__	__EPS__
k	k
i	i
n	n
t	d

__BEGIN__	__EPS__
v	b
n	i
c	__EPS__
z	s

__BEGIN__	__EPS__
v	u
n	n
d	d
e	__EPS__

__BEGIN__	__EPS__
h	h
a	a
u	b
e	e

__BEGIN__	__EPS__
t	t
o	ö
t	t
t	__EPS__
e	e
n	n

__BEGIN__	__EPS__
s	s
p	p
r	r
a	a
c	c
h	h

__BEGIN__	__EPS__
i	ih
n	n

__BEGIN__	__EPS__
a	a
u	u
c	c
h	h

__BEGIN__	__EPS__
f	f
u	ü
r	r
s	s
t	t
e	e
n	n

__BEGIN__	__EPS__
d	d
e	e
r	r

__BEGIN__	__EPS__
f	f
l	l
o	o
s	s
z	s

__BEGIN__	__EPS__
p	p
i	i
l	l
a	a
t	t
u	u
s	s

__BEGIN__	__EPS__
a	e
i	i
n	n

__BEGIN__	__EPS__
w	w
a	a
n	nn

__BEGIN__	__EPS__
t	zu

__BEGIN__	__EPS__
p	b
i	i
s	s
t	t

__BEGIN__	__EPS__
k	k
l	l
a	a
g	g
e	e

__BEGIN__	__EPS__
d	d
o	a

__BEGIN__	__EPS__
m	me
i	i
n	n

__BEGIN__	__EPS__
w	d
a	e
n	n
t	n

__BEGIN__	__EPS__
w	w
u	u
r	r
d	de

__BEGIN__	__EPS__
e	e
r	r

__BEGIN__	__EPS__
g	__EPS__
e	__EPS__
s	s
t	t
i	i
l	l
l	l
e	e
n	n

__BEGIN__	__EPS__
s	s
a	a
b	bb
a	a
t	tt
u	a
n	g

__BEGIN__	__EPS__
d	d
i	i
e	e

__BEGIN__	__EPS__
d	d
o	a

__BEGIN__	__EPS__
c	k
a	a
y	i
p	p
h	h
a	a
s	s

__BEGIN__	__EPS__
g	__EPS__
e	__EPS__
h	h
a	a
b	b
e	e
n	n

__BEGIN__	__EPS__
e	e
r	r

__BEGIN__	__EPS__
d	d
e	e
n	n
n	n

__BEGIN__	__EPS__
s	s
e	e
l	l
b	b
i	i
g	g
e	e
n	n

__BEGIN__	__EPS__
n	n
i	ich
t	t

__BEGIN__	__EPS__
g	g
a	a
b	b

__BEGIN__	__EPS__
i	i
c	c
h	h

__BEGIN__	__EPS__
v	v
o	o
n	n

__BEGIN__	__EPS__
d	d
a	a
s	ss

__BEGIN__	__EPS__
m	m
a	a
l	l

__BEGIN__	__EPS__
d	d
o	a

__BEGIN__	__EPS__
e	e
r	r

__BEGIN__	__EPS__
d	d
i	i
e	e

__BEGIN__	__EPS__
d	d
w	u
r	r
c	c
h	h

__BEGIN__	__EPS__
a	a
n	n

__BEGIN__	__EPS__
d	d
e	e
s	s

__BEGIN__	__EPS__
k	k
o	o
m	m
m	m
e	e
n	n

__BEGIN__	__EPS__
m	m
e	e
y	i
n	n

__BEGIN__	__EPS__
s	s
e	e
i	i
n	n
e	e
m	m

__BEGIN__	__EPS__
v	v
e	e
r	r
r	r
a	a
t	t
e	e
n	n

__BEGIN__	__EPS__
v	u
n	n
d	d

__BEGIN__	__EPS__
s	s
t	t
e	e
i	i
n	n

__BEGIN__	__EPS__
z	z
o	u

__BEGIN__	__EPS__
t	z
o	u
t	__EPS__

__BEGIN__	__EPS__
v	ü
b	b
e	e
r	r

__BEGIN__	__EPS__
s	s
a	o
l	ll

__BEGIN__	__EPS__
n	n
i	i
c	c
h	h
t	t

__BEGIN__	__EPS__
d	d
a	a
z	s

__BEGIN__	__EPS__
m	m
o	ö
r	r
d	d
e	e
r	r

__BEGIN__	__EPS__
d	t
r	r
e	e
y	i
f	b
f	e

__BEGIN__	__EPS__
m	m
u	us
s	s
t	t
e	e
n	n

__BEGIN__	__EPS__
h	h
e	ä
t	t
t	t
e	e

__BEGIN__	__EPS__
k	g
e	e
g	g
e	e
n	n

__BEGIN__	__EPS__
s	s
c	c
h	h
e	e
i	i
n	n

__BEGIN__	__EPS__
v	v
i	ie
l	l

__BEGIN__	__EPS__
i	i
c	c
h	h

__BEGIN__	__EPS__
o	o
b	b

__BEGIN__	__EPS__
m	m
i	i
t	t

__BEGIN__	__EPS__
g	g
e	e
m	m
e	e
i	i
n	n

__BEGIN__	__EPS__
d	d
i	ie
s	s
e	e
m	m

__BEGIN__	__EPS__
h	e
e	r

__BEGIN__	__EPS__
f	f
u	ü
e	h
r	re
n	n

__BEGIN__	__EPS__
a	a
l	l
l	l
i	e
r	r

__BEGIN__	__EPS__
n	n
a	a
m	m
e	e
n	n

__BEGIN__	__EPS__
w	b
i	i
s	s

__BEGIN__	__EPS__
e	e
d	d
e	__EPS__
l	le
n	n

__BEGIN__	__EPS__
d	d
y	ie

__BEGIN__	__EPS__
d	d
e	e
r	r

__BEGIN__	__EPS__
d	d
o	a

__BEGIN__	__EPS__
e	e
r	r

__BEGIN__	__EPS__
g	g
a	a
b	b

__BEGIN__	__EPS__
i	ih
m	m

__BEGIN__	__EPS__
k	k
l	l
a	a
g	g
t	t
e	e
n	n

__BEGIN__	__EPS__
v	v
e	e
r	r
s	sch
m	m
e	ä
h	h
t	t
e	e
n	n

__BEGIN__	__EPS__
v	u
n	n
d	d

__BEGIN__	__EPS__
d	d
i	i
e	e

__BEGIN__	__EPS__
s	s
y	i
n	n
t	d

__BEGIN__	__EPS__
s	s
e	eh
r	r
e	__EPS__

__BEGIN__	__EPS__
h	h
e	a
t	tt
e	e
n	n

__BEGIN__	__EPS__
d	d
e	e
r	r

__BEGIN__	__EPS__
v	u
n	n
d	d

__BEGIN__	__EPS__
v	u
n	n
d	d

__BEGIN__	__EPS__
d	d
a	a
s	ss

__BEGIN__	__EPS__
h	h
e	e
l	l
f	fe

__BEGIN__	__EPS__
m	m
i	i
r	r

__BEGIN__	__EPS__
a	a
l	l
s	s
o	o

__BEGIN__	__EPS__
d	d
a	a
z	s

__BEGIN__	__EPS__
i	u
n	n
d	d

__BEGIN__	__EPS__
s	s
e	e
i	i
t	t

__BEGIN__	__EPS__
m	l
y	i
n	__EPS__
n	__EPS__
e	e
n	b
c	__EPS__
l	l
i	i
c	c
h	h

__BEGIN__	__EPS__
z	z
e	u

__BEGIN__	__EPS__
n	n
u	un

__BEGIN__	__EPS__
m	m
u	u
s	ss
t	t
e	e

__BEGIN__	__EPS__
h	h
a	än
i	ge
n	n

__BEGIN__	__EPS__
s	s
p	p
r	r
a	a
c	c
h	h

__BEGIN__	__EPS__
d	d
o	o
c	c
h	h

__BEGIN__	__EPS__
d	d
o	a

__BEGIN__	__EPS__
d	d
e	eh
n	n
t	t
e	e
n	n

__BEGIN__	__EPS__
m	v
a	i
n	__EPS__
i	e
g	l
e	e
n	n

__BEGIN__	__EPS__
s	s
e	e
r	h
e	r

__BEGIN__	__EPS__
l	l
i	i
e	e
u	b
e	e

__BEGIN__	__EPS__
i	i
n	n

__BEGIN__	__EPS__
v	u
n	n
d	t
e	e
r	r

__BEGIN__	__EPS__
d	d
i	i
r	r

__BEGIN__	__EPS__
i	i
c	c
h	h

__BEGIN__	__EPS__
s	s
c	c
h	h
a	ä
e	__EPS__
c	c
h	h
e	e
r	r

__BEGIN__	__EPS__
d	d
a	a

__BEGIN__	__EPS__
v	u
n	n
d	d

__BEGIN__	__EPS__
i	ih
r	r
e	e
n	m

__BEGIN__	__EPS__
d	d
e	e
n	n

__BEGIN__	__EPS__
h	h
a	a
t	t

__BEGIN__	__EPS__
k	k
e	e
y	i
n	n
e	e

__BEGIN__	__EPS__
s	s
p	p
r	r
a	a
c	c
h	h

__BEGIN__	__EPS__
v	u
n	n
n	__EPS__
d	d

__BEGIN__	__EPS__
d	d
i	i
e	e

__BEGIN__	__EPS__
d	d
a	a
s	ss

__BEGIN__	e
v	uch

__BEGIN__	__EPS__
m	me
y	i
n	n

__BEGIN__	__EPS__
f	f
r	r
a	a
g	g
e	__EPS__
t	t
e	e

__BEGIN__	__EPS__
i	j
h	__EPS__
e	e
s	s
u	u
s	s

__BEGIN__	__EPS__
w	w
u	o
l	l
d	lt
e	e

__BEGIN__	__EPS__
o	o
w	w
e	eh

__BEGIN__	__EPS__
m	m
a	a
n	n

__BEGIN__	__EPS__
v	u
n	n
d	d

__BEGIN__	__EPS__
k	k
i	i
n	n
t	d

__BEGIN__	__EPS__
t	t
u	u
o	__EPS__
t	t

__BEGIN__	__EPS__
k	k
i	i
n	n
t	d

__BEGIN__	__EPS__
s	s
a	e
i	i
l	l

__BEGIN__	__EPS__
s	s
p	p
r	r
a	a
c	c
h	h

__BEGIN__	__EPS__
c	k
h	__EPS__
i	i
n	n
d	d

__BEGIN__	__EPS__
s	sch
w	w
e	e
s	s
t	t
e	e
r	r

__BEGIN__	__EPS__
d	d
e	e
n	n

__BEGIN__	__EPS__
a	a
l	l
l	l
e	e

__BEGIN__	__EPS__
i	i
s	s
t	t

__BEGIN__	__EPS__
d	d
a	a

__BEGIN__	__EPS__
d	d
e	e
s	s

__BEGIN__	e
n	r
v	p
i	r
z	o
e	b
t	t

__BEGIN__	__EPS__
t	t
o	o
d	d

__BEGIN__	__EPS__
a	a
n	n

__BEGIN__	__EPS__
n	n
i	ich
t	t

__BEGIN__	__EPS__
a	a
l	l
s	s
o	o

__BEGIN__	__EPS__
y	ih
n	n

__BEGIN__	__EPS__
d	d
i	i
c	c
h	h

__BEGIN__	__EPS__
s	s
e	e
e	h
r	r

__BEGIN__	__EPS__
f	f
u	ü
o	h
r	r
t	t

__BEGIN__	__EPS__
i	ih
n	n
e	e
n	n

__BEGIN__	__EPS__
z	z
w	u

__BEGIN__	__EPS__
v	v
o	o
n	n

__BEGIN__	__EPS__
d	de
i	i
n	n

__BEGIN__	__EPS__
s	se
y	i
n	n
e	e
n	n

__BEGIN__	__EPS__
t	t
r	r
o	a
u	u
m	m
e	__EPS__

__BEGIN__	__EPS__
d	d
e	e
r	r

__BEGIN__	__EPS__
k	k
i	i
n	n
t	d

__BEGIN__	__EPS__
g	g
e	e
l	l
a	a
s	s
s	s
e	e
n	n

__BEGIN__	__EPS__
d	d
a	a

__BEGIN__	__EPS__
l	l
a	ä
s	s
t	t
e	e
r	r
l	l
i	i
c	c
h	h
e	e
n	n

__BEGIN__	__EPS__
v	u
n	n
d	d

__BEGIN__	__EPS__
v	ü
i	__EPS__
b	b
e	e
l	l
i	__EPS__

__BEGIN__	__EPS__
d	d
a	a
z	s

__BEGIN__	__EPS__
g	g
e	e
s	s
e	e
g	g
e	__EPS__
n	ne
t	t

__BEGIN__	__EPS__
g	g
e	e
n	n

__BEGIN__	__EPS__
m	m
y	i
l	l
c	c
h	h

__BEGIN__	__EPS__
v	u
n	n
d	d

__BEGIN__	__EPS__
p	p
y	i
l	l
a	a
t	t
u	u
s	s

__BEGIN__	__EPS__
v	u
n	n
d	d

__BEGIN__	__EPS__
s	s
u	oh
n	n

__BEGIN__	__EPS__
w	au
t	s
g	g
h	__EPS__
e	e
r	r
e	e
c	ck
t	t

__BEGIN__	__EPS__
h	h
o	ö
r	r
t	t
e	e
s	s
t	t

__BEGIN__	__EPS__
d	d
i	i
e	e

__BEGIN__	__EPS__
w	w
e	e
i	i
z	ss

__BEGIN__	__EPS__
e	e
n	m
p	p
f	f
i	i
e	__EPS__
n	n
g	gs
t	t

__BEGIN__	__EPS__
v	v
o	o
n	n

__BEGIN__	__EPS__
l	l
i	i
e	e
b	b
e	e
s	s

__BEGIN__	__EPS__
k	k
i	i
n	n
d	d

__BEGIN__	__EPS__
p	b
a	a
d	de
s	sch
w	w
a	a
n	mm

__BEGIN__	__EPS__
b	b
e	e
d	t
r	ri
e	e
u	b
e	e
n	n

__BEGIN__	__EPS__
v	u
n	n
d	d

__BEGIN__	__EPS__
m	m
i	i
t	t

__BEGIN__	__EPS__
d	d
i	i
e	e

__BEGIN__	__EPS__
g	g
e	e
n	n
i	i
e	e
s	s
s	s
e	e
n	n

__BEGIN__	__EPS__
a	__EPS__
l	__EPS__
s	s
u	o
l	l
c	c
h	h
e	e
r	r

__BEGIN__	__EPS__
t	t
e	a
t	t
e	e
n	n

__BEGIN__	__EPS__
v	v
o	o
n	n

__BEGIN__	__EPS__
d	d
e	e
n	n

__BEGIN__	__EPS__
z	z
u	u

__BEGIN__	er
b	b
a	a
r	r
m	m
v	e
n	n
g	__EPS__
e	__EPS__

__BEGIN__	__EPS__
v	u
n	n
d	d

__BEGIN__	__EPS__
e	e
i	i
n	n

__BEGIN__	__EPS__
h	h
e	e
r	rr
n	n

__BEGIN__	__EPS__
m	m
i	i
c	c
h	h

__BEGIN__	__EPS__
c	__EPS__
z	z
e	e
r	r
c	__EPS__
h	r
l	i
u	s
b	s
e	e
n	n

__BEGIN__	__EPS__
i	j
e	e
r	r
u	u
s	s
a	a
l	l
e	e
m	m

__BEGIN__	__EPS__
b	b
l	l
u	u
i	__EPS__
t	t

__BEGIN__	__EPS__
v	e
r	r
l	l
a	a
u	u
b	bnis

__BEGIN__	__EPS__
d	d
i	i
s	e
s	s
i	e
n	n

__BEGIN__	__EPS__
e	e
r	r

__BEGIN__	__EPS__
s	s
e	e
i	i
n	n

__BEGIN__	__EPS__
e	e
r	r

__BEGIN__	__EPS__
w	w
o	oh
l	l

__BEGIN__	__EPS__
m	m
i	i
c	c
h	h

__BEGIN__	__EPS__
d	di
e	e
s	s
e	e

__BEGIN__	__EPS__
a	a
n	n
d	d
e	e
r	re

__BEGIN__	__EPS__
w	w
i	i
s	s
z	se

__BEGIN__	__EPS__
s	s
y	ie

__BEGIN__	__EPS__
k	k
i	i
n	n
d	d
e	e
s	s

__BEGIN__	__EPS__
n	n
y	i
m	mm
e	e
r	r

__BEGIN__	__EPS__
n	n
i	i
c	c
h	h
t	t

__BEGIN__	__EPS__
h	h
a	a
b	b
e	e
n	n

__BEGIN__	__EPS__
h	h
e	e
r	r
r	r

__BEGIN__	__EPS__
s	s
y	ie

__BEGIN__	__EPS__
i	i
n	n

__BEGIN__	__EPS__
h	h
o	ü
i	__EPS__
d	t
e	e

__BEGIN__	__EPS__
g	g
a	a
r	r

__BEGIN__	__EPS__
h	h
a	a
u	u
b	p
t	t

__BEGIN__	__EPS__
d	d
o	a

__BEGIN__	__EPS__
v	v
e	e
r	r
s	sch
m	m
e	ä
c	__EPS__
h	h
t	t

__BEGIN__	__EPS__
m	m
i	i
c	c
h	h

__BEGIN__	p
s	s
a	a
l	l
t	t
e	e
r	r

__BEGIN__	__EPS__
s	s
p	p
r	r
a	a
c	c
h	h

__BEGIN__	__EPS__
d	t
o	o
i	__EPS__
t	d

__BEGIN__	__EPS__
m	m
i	i
r	r

__BEGIN__	__EPS__
s	s
e	ee
l	l
e	e

__BEGIN__	__EPS__
l	l
y	ie
b	b
e	e

__BEGIN__	__EPS__
n	n
i	ich
t	t

__BEGIN__	__EPS__
p	b
r	r
ü	u
n	n
n	n
e	en

__BEGIN__	__EPS__
w	w
ö	o
l	l
l	l
e	e

__BEGIN__	__EPS__
g	g
r	r
o	o
i	__EPS__
s	s
s	s
e	e
r	r

__BEGIN__	__EPS__
d	d
e	e
m	m
e	__EPS__

__BEGIN__	__EPS__
i	j
u	u
d	d
e	e
n	n

__BEGIN__	__EPS__
m	m
i	i
r	r

__BEGIN__	__EPS__
w	w
a	a
t	s

__BEGIN__	__EPS__
s	s
t	t
a	a
n	n
d	d

__BEGIN__	__EPS__
m	m
a	a
r	r
i	i
a	a

__BEGIN__	__EPS__
o	o
b	b
e	e
n	n

__BEGIN__	__EPS__
d	d
a	a
t	ss

__BEGIN__	__EPS__
g	g
e	ege
s	s
s	s
e	e
n	n

__BEGIN__	__EPS__
v	u
n	n
d	d

__BEGIN__	__EPS__
i	j
o	o
h	h
a	a
n	n
n	n
e	es

__BEGIN__	__EPS__
d	d
a	a
n	n
n	n

__BEGIN__	__EPS__
v	u
n	n
d	d

__BEGIN__	__EPS__
v	v
e	e
r	r
g	g
e	e
z	ss
e	e
n	n

__BEGIN__	__EPS__
v	v
o	o
n	n

__BEGIN__	__EPS__
r	r
a	ä
c	c
h	h
e	e
n	n

__BEGIN__	__EPS__
m	g
e	eschich
r	te

__BEGIN__	__EPS__
w	w
e	ä
r	r
e	e

__BEGIN__	__EPS__
f	f
ü	a
n	n
d	d
e	e
n	n

__BEGIN__	__EPS__
d	d
o	a

__BEGIN__	__EPS__
a	a
l	l
l	l
e	e

__BEGIN__	__EPS__
h	h
o	o
e	__EPS__
c	c
h	h

__BEGIN__	__EPS__
e	e
z	s

__BEGIN__	__EPS__
d	d
o	a

__BEGIN__	__EPS__
g	__EPS__
e	__EPS__
w	w
a	ah
r	r
e	e
r	r

__BEGIN__	__EPS__
i	j
o	o
h	h
a	an
n	n
e	e
z	s

__BEGIN__	__EPS__
w	w
a	a
r	r
d	d

__BEGIN__	__EPS__
i	j
ü	u
i	__EPS__
d	d
a	a
s	s

__BEGIN__	__EPS__
g	g
e	e
g	g
a	a
n	n
g	g
e	e
n	n

__BEGIN__	__EPS__
c	__EPS__
z	z
u	u
n	n
g	g
e	e
n	n

__BEGIN__	__EPS__
z	z
u	u
o	__EPS__

__BEGIN__	__EPS__
i	i
c	c
h	h

__BEGIN__	__EPS__
s	s
e	e
y	i
n	n

__BEGIN__	__EPS__
n	n
o	ah
m	m
e	__EPS__

__BEGIN__	__EPS__
r	r
i	i
t	t
t	t
e	e
r	r

__BEGIN__	__EPS__
d	d
o	a

__BEGIN__	__EPS__
d	d
a	a

__BEGIN__	__EPS__
d	d
e	e
m	m

__BEGIN__	__EPS__
d	d
e	e
r	r

__BEGIN__	__EPS__
z	s
i	i
e	eh

__BEGIN__	__EPS__
l	l
e	e
i	i
b	b
e	e
s	s

__BEGIN__	__EPS__
m	me
i	i
n	n

__BEGIN__	__EPS__
d	d
a	a
e	__EPS__
r	r
o	u
m	m

__BEGIN__	__EPS__
e	e
r	r

__BEGIN__	__EPS__
s	s
e	e
i	i
n	n

__BEGIN__	__EPS__
s	s
a	a
g	g

__BEGIN__	__EPS__
m	m
i	i
c	c
h	h

__BEGIN__	__EPS__
m	m
e	a
n	n

__BEGIN__	__EPS__
d	d
i	i
r	r

__BEGIN__	__EPS__
v	u
m	m
b	__EPS__

__BEGIN__	__EPS__
s	s
e	e
h	h
e	e
n	n

__BEGIN__	__EPS__
s	s
i	i
c	e
h	h

__BEGIN__	__EPS__
d	d
o	a

__BEGIN__	__EPS__
d	d
o	a

__BEGIN__	__EPS__
d	t
o	o
i	__EPS__
t	t

__BEGIN__	__EPS__
g	g
e	e
s	s
c	c
h	h
a	a
c	__EPS__
h	h

__BEGIN__	__EPS__
p	p
i	i
l	l
a	a
t	t
u	u
s	s

__BEGIN__	__EPS__
g	__EPS__
e	__EPS__
s	s
c	c
h	h
r	r
i	i
f	f
f	__EPS__
t	t

__BEGIN__	__EPS__
i	ih
m	m

__BEGIN__	__EPS__
v	u
n	n
d	d

__BEGIN__	__EPS__
a	a
l	l
s	s
o	o

__BEGIN__	__EPS__
g	g
i	in
e	g

__BEGIN__	__EPS__
s	s
c	c
h	h
r	r
i	e
e	i
b	b
e	e
n	n

__BEGIN__	__EPS__
s	sä
u	u
l	le

__BEGIN__	__EPS__
v	u
n	n
d	t
e	e
r	r

__BEGIN__	__EPS__
r	r
a	a
n	nn

__BEGIN__	__EPS__
g	g
e	e
h	h
a	a
b	b
t	t

__BEGIN__	__EPS__
g	g
i	i
e	__EPS__
n	n
g	g
e	e
n	n

__BEGIN__	__EPS__
w	w
e	e
r	r

__BEGIN__	__EPS__
k	k
i	i
n	n
t	d

__BEGIN__	__EPS__
d	d
i	e
j	i
n	n

__BEGIN__	__EPS__
v	u
n	n
d	d

__BEGIN__	__EPS__
d	d
i	i
c	c
h	h

__BEGIN__	__EPS__
d	d
i	i
c	c
h	h

__BEGIN__	__EPS__
d	d
e	e
m	m
e	__EPS__

__BEGIN__	__EPS__
s	s
o	o

__BEGIN__	__EPS__
t	t
e	e
m	m
p	p
i	e
l	l

__BEGIN__	__EPS__
s	s
y	ie

__BEGIN__	__EPS__
d	d
e	e
r	r

__BEGIN__	__EPS__
v	u
n	n
s	__EPS__
e	__EPS__
g	g
l	l
e	e
i	i
c	c
h	h
e	e
r	r

__BEGIN__	__EPS__
v	u
n	n
d	d

__BEGIN__	__EPS__
l	l
i	i
e	e
b	b
e	e
r	r

__BEGIN__	__EPS__
d	d
a	a

__BEGIN__	__EPS__
i	i
c	c
h	h

__BEGIN__	__EPS__
v	v
e	e
r	r
d	d
e	e
r	r
b	b
e	e
n	n

__BEGIN__	__EPS__
d	d
e	e
r	r

__BEGIN__	__EPS__
t	t
o	o
d	d

__BEGIN__	__EPS__
c	__EPS__
z	z
e	e
r	r
z	r
a	i
r	s
t	s
t	__EPS__

__BEGIN__	__EPS__
r	re
i	i
k	ch
e	e

__BEGIN__	__EPS__
s	sch
w	w
e	e
s	s
t	t
e	e
r	r

__BEGIN__	__EPS__
a	a
n	n
s	s
z	__EPS__
h	__EPS__
e	e
l	l
m	m
u	__EPS__
s	__EPS__
z	__EPS__

__BEGIN__	__EPS__
i	ih
m	m

__BEGIN__	__EPS__
i	i
c	c
h	h

__BEGIN__	__EPS__
m	m
i	i
r	r

__BEGIN__	__EPS__
b	b
e	e
u	f
e	eh
l	l
e	e
n	n

__BEGIN__	__EPS__
y	ih
n	n

__BEGIN__	__EPS__
i	i
n	n

__BEGIN__	__EPS__
c	k
h	o
o	m
m	m
e	e
n	n

__BEGIN__	__EPS__
s	se
y	i
m	n
e	e

__BEGIN__	__EPS__
s	s
p	p
r	r
e	e
c	c
h	h
e	e
n	n

__BEGIN__	__EPS__
s	s
u	o
n	n
d	d
e	e
r	rn

__BEGIN__	__EPS__
d	d
i	i
e	e

__BEGIN__	__EPS__
s	s
c	c
h	h
w	w
o	__EPS__
e	e
s	s
t	t
e	e
r	r

__BEGIN__	__EPS__
d	d
e	e
r	r

__BEGIN__	__EPS__
w	w
i	i
d	d
e	e
r	r

__BEGIN__	__EPS__
n	n
i	ich
t	t

__BEGIN__	__EPS__
a	a
u	u
c	c
h	h

__BEGIN__	__EPS__
h	h
e	ä
t	tte

__BEGIN__	d
u	u

__BEGIN__	__EPS__
t	t
a	a
t	te
z	st

__BEGIN__	__EPS__
v	v
o	o
n	n

__BEGIN__	__EPS__
d	da
z	ss

__BEGIN__	__EPS__
s	s
t	t
a	ad
t	t

__BEGIN__	__EPS__
e	e
n	m
p	p
f	f
i	i
e	__EPS__
n	n
g	gs
d	t

__BEGIN__	__EPS__
i	j
o	o
h	h
a	a
n	nn
e	e
s	s

__BEGIN__	__EPS__
b	b
l	l
u	u
t	t
h	__EPS__

__BEGIN__	__EPS__
a	a
n	n
s	s
h	__EPS__
e	e
l	l
m	m
u	__EPS__
s	__EPS__

__BEGIN__	__EPS__
l	l
o	ö
e	__EPS__
s	s
e	e
n	n

__BEGIN__	__EPS__
s	s
e	e
i	i
t	t
t	__EPS__
e	e
n	n

__BEGIN__	__EPS__
o	o
w	w
e	eh

__BEGIN__	__EPS__
d	d
i	i
e	e

__BEGIN__	__EPS__
s	s
y	ie

__BEGIN__	__EPS__
d	d
a	a
z	s

__BEGIN__	__EPS__
p	b
l	l
u	u
o	__EPS__
t	t

__BEGIN__	__EPS__
i	j
o	o
h	h
a	a
n	nn
e	e
s	s

__BEGIN__	__EPS__
s	s
i	ie

__BEGIN__	__EPS__
k	k
ü	ö
n	ni
g	g

__BEGIN__	__EPS__
v	v
o	o
n	n

__BEGIN__	__EPS__
m	m
i	i
t	t

__BEGIN__	__EPS__
i	i
c	c
h	h

__BEGIN__	__EPS__
d	d
o	a

__BEGIN__	__EPS__
t	s
z	o
o	g
h	l
a	e
n	i
t	c
z	h

__BEGIN__	__EPS__
h	h
e	e
r	rr
s	s
c	c
h	h
a	a
f	__EPS__
f	f
t	t

__BEGIN__	__EPS__
g	g
r	r
o	o
i	__EPS__
s	s
s	s
e	e
r	r

__BEGIN__	__EPS__
d	d
e	e
i	i
n	n

__BEGIN__	__EPS__
d	d
a	a
s	s

__BEGIN__	__EPS__
d	d
e	e
n	n

__BEGIN__	__EPS__
v	u
n	n
d	d

__BEGIN__	__EPS__
n	n
y	i
m	mm

__BEGIN__	__EPS__
p	pf
l	l
e	e
g	g
e	e
r	r

__BEGIN__	__EPS__
s	s
e	e
l	l
b	b
e	e
r	r

__BEGIN__	__EPS__
g	g
r	r
o	o
s	s
s	s
e	e
m	m

__BEGIN__	__EPS__
s	s
o	oh
n	n

__BEGIN__	__EPS__
d	d
e	e
n	n

__BEGIN__	__EPS__
v	u
n	n
d	d
e	__EPS__

__BEGIN__	__EPS__
v	g
e	e
r	s
i	__EPS__
e	a
h	g
e	__EPS__
n	t

__BEGIN__	__EPS__
m	m
i	i
t	t

__BEGIN__	__EPS__
v	u
n	n
n	d

__BEGIN__	__EPS__
c	__EPS__
h	k
i	i
n	n
d	d

__BEGIN__	__EPS__
w	w
a	a
s	r

__BEGIN__	__EPS__
h	h
e	a
t	tte

__BEGIN__	__EPS__
k	k
l	l
a	a
g	g
t	t

__BEGIN__	__EPS__
f	f
r	r
o	a
w	u

__BEGIN__	__EPS__
d	d
e	e
r	r

__BEGIN__	__EPS__
d	d
o	a

__BEGIN__	__EPS__
w	w
e	e
i	i
s	ss

__BEGIN__	__EPS__
h	i
o	__EPS__
e	h
r	r

__BEGIN__	__EPS__
a	a
l	l
s	s
o	o

__BEGIN__	__EPS__
n	n
i	i
e	ch
t	t

__BEGIN__	__EPS__
a	a
l	l
s	s

__BEGIN__	__EPS__
s	s
o	o

__BEGIN__	__EPS__
h	h
e	e
r	r
e	r

__BEGIN__	__EPS__
w	w
a	a
s	r
z	__EPS__

__BEGIN__	__EPS__
s	s
c	c
h	h
r	r
e	__EPS__
y	i
r	__EPS__
e	e
n	n

__BEGIN__	__EPS__
t	t
u	u
u	u
n	__EPS__

__BEGIN__	__EPS__
s	se
i	i
n	n

__BEGIN__	__EPS__
g	g
r	r
o	o
z	ss

__BEGIN__	__EPS__
d	d
o	a

__BEGIN__	__EPS__
g	g
a	a
r	r

__BEGIN__	__EPS__
z	z
u	u

__BEGIN__	__EPS__
m	m
a	a
n	n

__BEGIN__	__EPS__
v	f
i	i
n	n
d	de

__BEGIN__	__EPS__
l	l
i	ie
b	b
e	e

__BEGIN__	__EPS__
p	b
a	a
l	l
d	d

