__BEGIN__	__EPS__
a	a
n	n
s	s
h	__EPS__
e	e
l	l
m	m

__BEGIN__	__EPS__
d	d
a	a
s	s

__BEGIN__	__EPS__
n	n
i	i
e	ch
t	t

__BEGIN__	__EPS__
h	h
a	a
n	be

__BEGIN__	__EPS__
m	me
y	i
n	n

__BEGIN__	__EPS__
v	v
i	ie
l	l

__BEGIN__	__EPS__
v	u
n	n
d	d

__BEGIN__	__EPS__
u	u
n	n
d	d

__BEGIN__	__EPS__
d	d
o	a

__BEGIN__	__EPS__
w	w
a	a
s	r

__BEGIN__	__EPS__
l	l
i	i
e	e
s	s
s	s
e	e
n	n

__BEGIN__	__EPS__
m	me
i	i
n	n
e	e
s	s

__BEGIN__	__EPS__
s	s
o	o
l	ll
t	t
e	e
n	n

__BEGIN__	n
i	i
c	c
h	h
t	t

__BEGIN__	__EPS__
s	s
p	p
r	r
a	a
c	c
h	h
e	e
n	n

__BEGIN__	__EPS__
a	a
l	l
l	l
e	e

__BEGIN__	__EPS__
u	v
o	o
n	n

__BEGIN__	__EPS__
v	v
o	o
r	r

__BEGIN__	__EPS__
n	n
a	a
c	c
h	h
t	t

__BEGIN__	__EPS__
w	w
i	i
e	e

__BEGIN__	__EPS__
d	d
a	a
n	nn

__BEGIN__	__EPS__
h	h
a	a
d	t
d	t
e	e
n	n

__BEGIN__	__EPS__
h	h
a	a
n	be

__BEGIN__	__EPS__
d	d
i	i
e	e

__BEGIN__	__EPS__
d	d
o	a

__BEGIN__	__EPS__
d	d
o	a

__BEGIN__	__EPS__
l	l
e	e
y	i
t	d

__BEGIN__	__EPS__
t	t
a	e
i	i
l	l

__BEGIN__	__EPS__
d	d
a	a

__BEGIN__	__EPS__
e	e
r	r
l	l
a	a
u	u
b	b
s	s
t	t

__BEGIN__	__EPS__
w	w
o	o
l	l
l	l
e	e
n	n

__BEGIN__	__EPS__
s	s
e	a
i	g
d	t
e	e

__BEGIN__	__EPS__
m	m
u	u
t	t
t	t
e	e
r	r

__BEGIN__	__EPS__
t	__EPS__
z	z
e	u

__BEGIN__	__EPS__
m	m
i	i
t	t

__BEGIN__	__EPS__
i	i
c	c
h	h

__BEGIN__	__EPS__
s	sch
w	w
e	e
s	s
t	t
e	e
r	r

__BEGIN__	__EPS__
g	g
i	i
n	n
g	g

__BEGIN__	__EPS__
v	u
n	n
d	d

__BEGIN__	__EPS__
w	w
a	a
r	r
e	e
n	n

__BEGIN__	__EPS__
i	ih
n	n

__BEGIN__	__EPS__
s	s
e	e
i	i
n	n

__BEGIN__	__EPS__
d	d
o	a

__BEGIN__	__EPS__
k	k
i	i
n	n
d	d
e	__EPS__

__BEGIN__	__EPS__
d	d
e	e
r	r

__BEGIN__	__EPS__
s	s
e	e
i	i
n	n

__BEGIN__	__EPS__
s	se
i	i
n	n
e	e
m	m

__BEGIN__	__EPS__
c	k
a	a
s	s
t	t
e	e
l	ll

__BEGIN__	__EPS__
e	i
n	n
m	m
i	i
t	t
t	t
e	e
n	n

__BEGIN__	__EPS__
a	a
n	n

__BEGIN__	__EPS__
s	s
i	i
j	e

__BEGIN__	__EPS__
m	m
a	a
c	c
h	h
e	__EPS__
t	t

__BEGIN__	__EPS__
f	f
l	l
v	u
o	__EPS__
c	c
h	h
w	w
o	o
r	r
t	te

__BEGIN__	__EPS__
v	u
n	n
d	d

__BEGIN__	__EPS__
m	m
o	o
c	c
h	h
t	te

__BEGIN__	__EPS__
m	m
i	i
c	c
h	h

__BEGIN__	__EPS__
v	u
n	n
n	d

__BEGIN__	__EPS__
v	v
o	o
n	n

__BEGIN__	__EPS__
m	m
i	e
j	i
n	n

__BEGIN__	__EPS__
v	v
a	o
n	n

__BEGIN__	__EPS__
m	m
i	i
e	__EPS__
r	r

__BEGIN__	__EPS__
v	u
n	n
d	d

__BEGIN__	__EPS__
s	s
p	p
r	r
a	a
c	c
h	h

__BEGIN__	__EPS__
i	ih
r	r

__BEGIN__	__EPS__
a	a
n	n

__BEGIN__	ge
w	w
o	o
r	r
d	d
e	e
n	n

__BEGIN__	__EPS__
i	i
c	c
h	h

__BEGIN__	__EPS__
i	i
c	c
h	h

__BEGIN__	__EPS__
d	d
o	a

__BEGIN__	__EPS__
a	oh
n	ne

__BEGIN__	__EPS__
w	w
i	i
r	r

__BEGIN__	__EPS__
m	m
e	e
i	i
n	n

__BEGIN__	__EPS__
a	a
u	u
f	f

__BEGIN__	__EPS__
h	h
a	a
n	n
t	d

__BEGIN__	__EPS__
d	d
v	u

__BEGIN__	__EPS__
d	d
e	e
r	r

__BEGIN__	__EPS__
g	g
r	r
o	o
s	s
s	s
e	e
z	s

__BEGIN__	__EPS__
h	i
e	h
m	m

__BEGIN__	__EPS__
g	g
a	a
b	b

__BEGIN__	__EPS__
k	k
o	a
m	m

__BEGIN__	__EPS__
i	ih
n	n

__BEGIN__	__EPS__
i	ih
m	m

__BEGIN__	__EPS__
m	m
i	i
t	t

__BEGIN__	__EPS__
m	h
i	e
n	r
i	r
g	__EPS__
c	__EPS__
l	l
i	i
c	c
h	h
e	e
s	s

__BEGIN__	__EPS__
h	e
e	r

__BEGIN__	__EPS__
d	d
u	u

__BEGIN__	__EPS__
s	s
e	eh
r	r

__BEGIN__	__EPS__
i	i
c	c
h	h

__BEGIN__	__EPS__
y	j
e	e
r	r
a	e
m	m
y	i
a	a
s	s

__BEGIN__	__EPS__
d	d
e	e
r	r

__BEGIN__	__EPS__
i	ih
n	n

__BEGIN__	__EPS__
v	v
e	e
r	r
g	g
a	a
s	s
s	s

__BEGIN__	__EPS__
k	k
o	a
m	m

__BEGIN__	__EPS__
y	ih
n	n

__BEGIN__	__EPS__
v	v
u	e
r	r
l	l
o	e
u	u
k	g
e	__EPS__
n	ne
t	t

__BEGIN__	__EPS__
c	__EPS__
z	z
u	u

__BEGIN__	__EPS__
e	e
i	i
n	n

__BEGIN__	__EPS__
l	l
i	i
e	e
p	be

__BEGIN__	__EPS__
s	s
e	e
i	i
n	n

__BEGIN__	__EPS__
a	e
i	i
n	n
e	e
n	n

__BEGIN__	__EPS__
t	t
r	r
e	ä
n	n
e	e
n	n

__BEGIN__	__EPS__
m	v
a	i
n	e
i	__EPS__
c	l
h	e

__BEGIN__	__EPS__
g	g
e	e
m	m
e	e
y	i
n	n
e	e

__BEGIN__	__EPS__
t	t
r	r
i	i
n	n
c	__EPS__
k	k
e	e
n	n

__BEGIN__	__EPS__
e	e
r	r
h	h
i	i
e	__EPS__
n	n
g	g

__BEGIN__	__EPS__
v	u
n	n
n	d

__BEGIN__	__EPS__
s	sc
h	h
o	ö
n	nhe
i	it

__BEGIN__	__EPS__
m	m
e	e
n	n
s	s
c	c
h	h
e	e
n	n

__BEGIN__	__EPS__
l	l
e	e
n	n
t	de

__BEGIN__	a
v	u
s	s

__BEGIN__	__EPS__
v	u
n	n
d	d

__BEGIN__	a
v	u
p	f

__BEGIN__	__EPS__
s	s
a	a
g	g
e	e

__BEGIN__	__EPS__
i	ih
n	n

__BEGIN__	__EPS__
n	n
i	ic
h	h
t	t

__BEGIN__	__EPS__
n	n
i	ich
t	t

__BEGIN__	__EPS__
d	d
i	i
e	e

__BEGIN__	__EPS__
s	s
c	c
h	h
r	re
i	i
b	b
e	e
n	n

__BEGIN__	__EPS__
d	d
o	a

__BEGIN__	__EPS__
e	e
r	r
b	b
a	a
r	r
m	m
e	e
n	n

__BEGIN__	__EPS__
v	u
n	n
d	d

__BEGIN__	__EPS__
i	i
c	c
h	h

__BEGIN__	__EPS__
s	s
v	oh
n	n

__BEGIN__	__EPS__
s	s
o	o
l	ll
t	t

__BEGIN__	__EPS__
w	w
a	a
s	r

__BEGIN__	__EPS__
s	s
t	t
e	ehe
n	n

__BEGIN__	__EPS__
a	e
i	i
n	n

__BEGIN__	__EPS__
d	d
a	a

__BEGIN__	__EPS__
v	u
n	n
d	d

__BEGIN__	__EPS__
v	u
n	n
d	d

__BEGIN__	__EPS__
m	m
y	i
r	r

__BEGIN__	__EPS__
v	f
i	i
n	n
d	de

__BEGIN__	__EPS__
v	u
n	n
d	d

__BEGIN__	__EPS__
k	k
y	i
n	n
d	d
e	e
r	r

__BEGIN__	__EPS__
s	s
t	t
a	a
e	__EPS__
n	n
d	d
e	e
n	n

__BEGIN__	__EPS__
y	i
m	h
e	m

__BEGIN__	__EPS__
v	v
o	o
n	n

__BEGIN__	__EPS__
v	u
n	n
n	d

__BEGIN__	__EPS__
d	d
a	a
s	ss

__BEGIN__	__EPS__
i	i
c	c
h	h

__BEGIN__	__EPS__
s	s
i	i
c	c
h	h

__BEGIN__	__EPS__
l	le
u	u
d	t
e	e

__BEGIN__	__EPS__
g	g
e	e
s	s
c	c
h	h
r	r
i	ie
b	b
e	e
n	n

__BEGIN__	__EPS__
b	b
e	e
t	t
r	r
a	ac
h	h
t	t
e	e
t	t

__BEGIN__	__EPS__
l	l
e	ö
y	__EPS__
w	w
i	i
n	__EPS__
n	n
e	__EPS__

__BEGIN__	__EPS__
d	d
a	a

__BEGIN__	__EPS__
v	u
n	n
d	d

__BEGIN__	__EPS__
d	d
a	a
r	r

__BEGIN__	__EPS__
k	k
i	i
n	n
d	d
e	__EPS__

__BEGIN__	__EPS__
v	u
n	n
s	s
c	c
h	h
u	u
l	l
d	d
i	i
c	g
h	__EPS__

__BEGIN__	__EPS__
g	g
r	r
o	o
s	s
z	s
e	e

__BEGIN__	__EPS__
l	l
e	e
b	b
e	e
n	n
d	d
i	i
n	__EPS__
g	g

__BEGIN__	__EPS__
e	e
r	r
t	d
r	re
i	i
c	c
h	h

__BEGIN__	__EPS__
d	d
u	u

__BEGIN__	__EPS__
e	e
y	i
n	n
e	e
m	m

__BEGIN__	__EPS__
i	ih
r	r
e	e
n	n

__BEGIN__	__EPS__
w	w
o	o
l	ll
t	t

__BEGIN__	__EPS__
d	d
a	a
z	s

__BEGIN__	__EPS__
e	e
r	r
t	t
o	ö
t	t
e	e
t	t

__BEGIN__	__EPS__
i	i
s	s
t	t

__BEGIN__	__EPS__
e	e
d	d
e	__EPS__
l	l
e	e
n	n

__BEGIN__	__EPS__
m	m
i	i
t	t

__BEGIN__	__EPS__
d	d
a	a

__BEGIN__	__EPS__
e	e
i	i
n	n

__BEGIN__	__EPS__
b	b
e	e
s	s
c	c
h	h
l	l
o	o
s	s
s	s
n	__EPS__
e	e
n	n

__BEGIN__	__EPS__
l	l
a	a
u	u
t	t
e	e
r	r

__BEGIN__	__EPS__
m	m
e	e
n	n
s	s
c	c
h	h
e	e
n	n

__BEGIN__	__EPS__
v	f
i	i
e	e
l	l

__BEGIN__	__EPS__
d	d
e	e
m	m

__BEGIN__	__EPS__
m	m
a	oc
h	h
t	t
e	e

__BEGIN__	__EPS__
v	ü
b	b
e	e
r	r
g	g
o	o
s	s
s	s
e	e
n	n

__BEGIN__	__EPS__
d	d
i	i
c	c
h	h

__BEGIN__	__EPS__
d	d
i	i
c	c
k	k

__BEGIN__	__EPS__
s	s
e	e
l	l
b	b
e	e

__BEGIN__	__EPS__
d	d
e	e
m	m

__BEGIN__	e
v	ue
r	r

__BEGIN__	__EPS__
s	s
e	e
i	i
n	n

__BEGIN__	__EPS__
i	i
s	s
t	t

__BEGIN__	__EPS__
t	t
o	o
e	__EPS__
t	t
e	e
n	n

__BEGIN__	__EPS__
d	d
i	i
r	r

__BEGIN__	__EPS__
h	h
e	e
i	i
l	l
i	i
g	g
e	e
n	n

__BEGIN__	__EPS__
m	m
i	i
r	r

__BEGIN__	__EPS__
s	sc
h	he
i	i
n	n

__BEGIN__	__EPS__
m	m
y	e
r	r
c	__EPS__
k	k
e	e
n	n

__BEGIN__	__EPS__
s	s
e	e
i	i
n	n
e	e
r	r

__BEGIN__	__EPS__
d	t
a	a
c	__EPS__
h	g

__BEGIN__	__EPS__
d	d
i	i
s	e
z	s

__BEGIN__	__EPS__
v	u
n	n
d	d

__BEGIN__	__EPS__
g	g
e	ehe
n	n

__BEGIN__	__EPS__
k	k
i	i
n	n
t	d
h	__EPS__

__BEGIN__	__EPS__
m	m
i	i
t	t

__BEGIN__	__EPS__
e	e
m	m

__BEGIN__	__EPS__
m	m
e	eh
r	r

__BEGIN__	__EPS__
s	s
o	o

__BEGIN__	__EPS__
e	e
r	r

__BEGIN__	__EPS__
s	s
o	o

__BEGIN__	__EPS__
e	e
n	n
d	d
e	e

__BEGIN__	__EPS__
v	u
n	n
d	d

__BEGIN__	__EPS__
c	__EPS__
z	z
u	u

__BEGIN__	__EPS__
z	z
u	u

__BEGIN__	__EPS__
d	d
e	e
m	m

__BEGIN__	__EPS__
o	o
s	s
t	t
e	e
r	r
n	n

__BEGIN__	__EPS__
i	ih
m	m

__BEGIN__	__EPS__
s	s
t	t
o	a
n	n
d	d

__BEGIN__	__EPS__
w	w
o	o
l	h
l	l

__BEGIN__	__EPS__
s	sch
n	n
e	e
y	ide
t	t

__BEGIN__	__EPS__
w	w
a	a
z	s

__BEGIN__	__EPS__
i	ih
n	n

__BEGIN__	__EPS__
d	d
o	a

__BEGIN__	__EPS__
m	m
i	i
n	n
n	n
e	e

__BEGIN__	__EPS__
v	u
n	n
d	d

__BEGIN__	__EPS__
k	k
o	ö
n	n
i	i
n	__EPS__
g	g

__BEGIN__	__EPS__
h	h
a	a
u	u
s	s

__BEGIN__	__EPS__
v	f
r	r
a	a
e	__EPS__
g	g
e	e
n	n

__BEGIN__	__EPS__
d	d
a	a
n	n
n	n

__BEGIN__	__EPS__
k	k
o	om
m	m
e	e
n	n

__BEGIN__	__EPS__
s	sch
w	w
e	e
s	s
t	t
e	e
r	r

__BEGIN__	__EPS__
m	m
i	i
r	r

__BEGIN__	__EPS__
v	f
u	ü
o	h
r	r
t	t
e	e

__BEGIN__	__EPS__
b	b
e	e
r	r
e	e
i	i
t	t
e	e
n	n

__BEGIN__	__EPS__
i	i
c	c
h	h

__BEGIN__	__EPS__
w	w
o	o
r	r
t	t

__BEGIN__	__EPS__
v	u
n	n
d	d

__BEGIN__	__EPS__
y	i
n	h
e	n

__BEGIN__	__EPS__
g	g
i	i
n	n
g	g

__BEGIN__	__EPS__
s	s
i	i
c	c
h	h

__BEGIN__	__EPS__
d	d
a	a
z	s

__BEGIN__	__EPS__
g	g
e	e
g	g
r	r
u	ü
s	s
s	s
e	__EPS__
t	t

__BEGIN__	__EPS__
a	a
l	l
l	l

__BEGIN__	__EPS__
i	i
n	n

__BEGIN__	__EPS__
d	d
i	i
e	e

__BEGIN__	__EPS__
k	k
i	i
n	n
t	d

__BEGIN__	__EPS__
o	o
w	w
e	eh

__BEGIN__	__EPS__
d	d
i	ie
s	s

__BEGIN__	__EPS__
s	s
e	e
l	l
b	b
e	e
n	r

__BEGIN__	__EPS__
e	e
r	r
f	f
v	ü
l	ll
t	t
e	e

__BEGIN__	__EPS__
w	w
o	oh
l	l

__BEGIN__	__EPS__
v	v
o	o
l	l
k	k

__BEGIN__	__EPS__
d	d
i	i
e	e

__BEGIN__	__EPS__
d	d
a	a
s	ss

__BEGIN__	__EPS__
e	e
s	s

__BEGIN__	__EPS__
s	s
c	c
h	h
e	ä
c	c
h	h
e	e
r	r
n	n

__BEGIN__	__EPS__
g	g
e	e
d	d
a	ac
h	h
t	t
e	e

__BEGIN__	__EPS__
h	h
e	e
i	i
l	l
i	i
g	g
e	e
n	n

__BEGIN__	__EPS__
g	g
a	a
r	r

__BEGIN__	__EPS__
s	s
t	t
r	r
i	i
t	t
t	t
e	e
n	n

__BEGIN__	__EPS__
b	b
i	i
s	st

__BEGIN__	__EPS__
h	h
e	e
r	r
c	__EPS__
z	z
e	e
n	n

__BEGIN__	__EPS__
g	g
r	r
o	o
s	s
s	s
i	e

__BEGIN__	__EPS__
d	d
v	u

__BEGIN__	__EPS__
d	d
y	ie

__BEGIN__	__EPS__
s	s
i	i
j	e

__BEGIN__	__EPS__
p	p
i	i
l	l
a	a
t	t
v	u
s	s

__BEGIN__	__EPS__
m	m
i	i
e	__EPS__
r	r

__BEGIN__	__EPS__
s	s
o	o

__BEGIN__	__EPS__
h	h
i	i
e	er

__BEGIN__	__EPS__
w	w
i	i
e	e

__BEGIN__	__EPS__
d	d
a	a
z	ss

__BEGIN__	__EPS__
r	r
e	e
c	c
h	h
t	t
e	e
r	r

__BEGIN__	__EPS__
d	d
e	e
n	n

__BEGIN__	__EPS__
d	d
o	a

__BEGIN__	__EPS__
d	d
i	i
e	e

__BEGIN__	__EPS__
a	a
n	n
d	d
e	e
r	re
n	n

__BEGIN__	__EPS__
e	e
r	r
s	s
c	c
h	h
r	r
a	ec
k	k
t	t
e	e
n	n

__BEGIN__	__EPS__
i	i
s	s
t	t

__BEGIN__	__EPS__
w	w
a	a
z	s

__BEGIN__	__EPS__
e	e
r	r
l	l
i	i
t	t
t	t
e	e
n	n

__BEGIN__	__EPS__
d	d
e	e
s	s

__BEGIN__	__EPS__
i	i
n	n

__BEGIN__	__EPS__
l	l
i	i
e	e
f	f
f	__EPS__

__BEGIN__	__EPS__
a	a
b	b
e	e
r	r

__BEGIN__	__EPS__
s	s
o	o

__BEGIN__	__EPS__
i	j
o	o
h	h
a	a
n	n
n	n
e	e
s	s

__BEGIN__	__EPS__
w	w
a	a
s	r

__BEGIN__	__EPS__
s	s
i	i
e	e

__BEGIN__	__EPS__
e	e
s	s

__BEGIN__	__EPS__
i	i
c	c
h	h

__BEGIN__	__EPS__
h	e
e	r

__BEGIN__	__EPS__
y	i
m	h
e	m

__BEGIN__	__EPS__
i	ih
n	n

__BEGIN__	__EPS__
v	f
e	e
i	i
n	n
d	d

__BEGIN__	__EPS__
p	b
l	l
u	u
e	__EPS__
t	t

__BEGIN__	__EPS__
s	s
p	p
r	r
a	a
c	c
h	h

__BEGIN__	__EPS__
m	m
o	o
c	c
h	h
t	te

__BEGIN__	__EPS__
s	s
i	i
c	c
h	h

__BEGIN__	__EPS__
s	s
a	a
i	g
t	t
e	e
n	n

__BEGIN__	__EPS__
d	d
i	i
e	e

__BEGIN__	__EPS__
g	g
e	e
h	h
a	a
b	b
t	t

__BEGIN__	__EPS__
g	__EPS__
e	__EPS__
s	s
e	e
i	i
n	n

__BEGIN__	__EPS__
k	k
i	i
n	n
t	d

__BEGIN__	__EPS__
m	m
a	a
g	g
d	d
a	a
l	l
e	e
n	n
a	a

__BEGIN__	__EPS__
m	m
i	i
n	nn
a	e
k	c
l	l
i	i
c	c
h	h

__BEGIN__	__EPS__
n	n
i	ic
h	h
t	t

__BEGIN__	__EPS__
h	h
e	e
r	r
r	r
e	e
n	n

__BEGIN__	__EPS__
i	i
c	c
h	h

__BEGIN__	__EPS__
z	z
u	u
c	c
h	h
t	t

__BEGIN__	__EPS__
h	h
a	a
d	t
d	t
e	e
n	n

__BEGIN__	__EPS__
h	h
e	a
t	t
t	t
e	e

__BEGIN__	__EPS__
m	m
u	u
s	s
z	s
t	t

__BEGIN__	__EPS__
d	d
i	i
e	e
u	b
e	e
n	n

__BEGIN__	__EPS__
v	u
n	n
d	d
e	__EPS__

__BEGIN__	__EPS__
d	d
v	i
i	e

__BEGIN__	__EPS__
g	g
e	e
g	g
e	e
b	b
e	e
n	n

__BEGIN__	__EPS__
a	a
c	c
h	h

__BEGIN__	__EPS__
i	i
u	u
d	d
e	e
o	o
r	r
u	u
n	m

__BEGIN__	__EPS__
n	n
i	ie
d	d
e	e
r	r
p	b
r	r
e	e
c	c
h	h
e	e
n	n

__BEGIN__	__EPS__
s	s
e	e
l	l
b	b
e	e
n	n

__BEGIN__	__EPS__
k	k
i	i
n	n
t	d

__BEGIN__	__EPS__
d	d
e	e
r	r

__BEGIN__	__EPS__
w	w
o	oh
l	l

__BEGIN__	__EPS__
n	n
o	o
c	c
h	h

__BEGIN__	__EPS__
v	v
o	o
n	n

__BEGIN__	__EPS__
d	d
a	a
z	s

__BEGIN__	__EPS__
v	u
r	r
t	t
a	e
i	i
l	l

__BEGIN__	__EPS__
i	ih
n	n

__BEGIN__	__EPS__
m	me
y	i
n	n

__BEGIN__	__EPS__
m	m
e	e
i	i
n	n

__BEGIN__	__EPS__
i	i
c	c
h	h

__BEGIN__	__EPS__
w	w
e	a
z	s

__BEGIN__	__EPS__
s	s
p	p
r	r
a	a
c	c
h	h

__BEGIN__	__EPS__
e	e
r	r

__BEGIN__	__EPS__
h	h
a	a
t	t

__BEGIN__	__EPS__
u	u
n	n
d	d

__BEGIN__	__EPS__
n	n
u	un

__BEGIN__	__EPS__
e	e
i	i
n	n
e	e
n	n

__BEGIN__	__EPS__
p	p
y	i
l	l
a	a
t	t
u	u
s	s

__BEGIN__	__EPS__
v	u
n	n
n	d

__BEGIN__	__EPS__
m	m
i	i
c	c
h	h

__BEGIN__	__EPS__
i	ih
m	m

__BEGIN__	__EPS__
h	h
e	e
r	r
a	a
b	b

__BEGIN__	__EPS__
i	i
c	c
h	h

__BEGIN__	__EPS__
s	sch
w	w
e	e
s	s
t	t
e	e
r	r

__BEGIN__	__EPS__
a	o
l	__EPS__
d	d
e	er

__BEGIN__	__EPS__
a	__EPS__
l	__EPS__
s	s
u	o
s	__EPS__

__BEGIN__	__EPS__
c	k
r	r
a	a
f	f
t	t

__BEGIN__	__EPS__
d	d
i	i
n	n
k	__EPS__
c	__EPS__
h	g

__BEGIN__	__EPS__
m	m
y	i
t	t

__BEGIN__	__EPS__
i	i
c	c
h	h

__BEGIN__	__EPS__
d	d
i	i
e	e

__BEGIN__	__EPS__
s	s
i	i
c	c
h	h

__BEGIN__	__EPS__
g	g
r	r
o	o
s	s
s	s
e	e
m	m

__BEGIN__	__EPS__
c	k
l	l
e	e
y	i
d	d
e	e
r	r
e	__EPS__

__BEGIN__	__EPS__
e	e
r	r

__BEGIN__	__EPS__
h	__EPS__
n	b
n	i
c	__EPS__
z	s

__BEGIN__	__EPS__
d	d
i	i
e	e

__BEGIN__	__EPS__
d	d
e	e
m	m

__BEGIN__	__EPS__
i	j
u	u
d	d
e	e
n	n

__BEGIN__	__EPS__
s	s
p	p
r	r
a	a
c	c
h	h
e	e
n	n
d	__EPS__

__BEGIN__	__EPS__
d	d
e	e
m	m

__BEGIN__	__EPS__
i	ih
m	m

__BEGIN__	__EPS__
t	t
r	r
a	a
n	n
c	__EPS__
k	k

__BEGIN__	__EPS__
s	s
c	__EPS__
e	__EPS__
t	__EPS__
e	__EPS__
r	__EPS__
a	an
-	k
t	t
u	__EPS__
s	__EPS__

__BEGIN__	__EPS__
m	m
o	o
c	c
h	h
t	te

__BEGIN__	__EPS__
l	l
a	a
c	c
r	r
i	i
m	m
e	e

__BEGIN__	__EPS__
i	ih
m	m

__BEGIN__	__EPS__
m	m
e	eh
r	r

__BEGIN__	__EPS__
m	m
e	e
i	i
n	n
e	e
s	s

__BEGIN__	__EPS__
i	ih
n	n

__BEGIN__	__EPS__
v	ü
b	b
e	e
l	l

__BEGIN__	__EPS__
a	a
l	l
s	s

__BEGIN__	__EPS__
p	b
e	__EPS__
l	l
a	e
i	i
b	b

__BEGIN__	__EPS__
c	z
i	i
n	n
s	s

__BEGIN__	__EPS__
e	e
i	i
n	n

__BEGIN__	__EPS__
l	le
i	i
d	d
e	e
n	n
n	__EPS__
e	__EPS__

__BEGIN__	__EPS__
e	e
r	r

__BEGIN__	__EPS__
a	a
l	l
s	s

__BEGIN__	__EPS__
d	d
e	e
m	m

__BEGIN__	__EPS__
w	w
u	u
r	r
d	de

__BEGIN__	__EPS__
v	u
n	n
d	d

__BEGIN__	__EPS__
e	e
s	s

__BEGIN__	__EPS__
d	d
e	e
n	n
n	__EPS__

__BEGIN__	__EPS__
m	m
a	a
c	c
h	h
e	__EPS__
t	t

__BEGIN__	__EPS__
l	l
a	a
n	n
g	g

__BEGIN__	__EPS__
i	j
u	ü
n	n
g	g
e	e
r	r

__BEGIN__	__EPS__
s	s
a	a
l	l
b	b
t	t
e	e
n	n

__BEGIN__	__EPS__
a	a
l	l
s	s

__BEGIN__	__EPS__
g	g
e	e
i	i
s	s
t	t

__BEGIN__	__EPS__
a	e
i	i
n	n

__BEGIN__	__EPS__
z	z
u	u
o	__EPS__

__BEGIN__	__EPS__
w	w
a	a
s	r

__BEGIN__	__EPS__
s	s
o	o
h	h
e	__EPS__
n	n

__BEGIN__	__EPS__
w	w
a	a
r	r
t	d

__BEGIN__	__EPS__
h	h
u	o
b	b
e	e
n	n

__BEGIN__	__EPS__
d	d
i	i
e	e

__BEGIN__	__EPS__
v	u
n	n
d	d

__BEGIN__	__EPS__
d	d
a	a
s	s

__BEGIN__	__EPS__
k	k
o	om
m	m
e	e
n	n

__BEGIN__	__EPS__
h	h
e	e
r	r
t	__EPS__
z	z
e	g
n	e
l	l
i	i
e	e
b	bt
e	e
r	r

__BEGIN__	__EPS__
h	h
e	ä
n	n
d	d
e	e
n	n

__BEGIN__	__EPS__
s	s
y	ie

__BEGIN__	__EPS__
a	a
u	u
f	f

__BEGIN__	__EPS__
s	s
i	i
e	e

__BEGIN__	__EPS__
d	t
o	ö
d	t
e	e
n	n

__BEGIN__	__EPS__
w	w
a	a
r	r
t	d

__BEGIN__	__EPS__
v	v
e	e
r	r
r	r
a	a
t	t
e	e
n	n

__BEGIN__	__EPS__
g	g
i	i
e	__EPS__
n	n
g	g
e	e
n	n

__BEGIN__	__EPS__
z	z
o	o
i	__EPS__
g	g
e	e
n	n

__BEGIN__	__EPS__
w	w
a	a
r	r
e	e
n	n

__BEGIN__	__EPS__
m	m
i	i
t	t

__BEGIN__	__EPS__
s	s
e	e
r	h
e	r

__BEGIN__	__EPS__
f	v
u	o
r	r

__BEGIN__	__EPS__
i	ih
n	n

__BEGIN__	__EPS__
v	v
e	e
r	r
k	k
o	a
f	u
e	f
t	t

__BEGIN__	__EPS__
s	s
c	c
h	h
m	m
e	e
r	r
c	__EPS__
z	z
e	e
n	n

__BEGIN__	__EPS__
i	i
c	c
h	h

__BEGIN__	__EPS__
v	u
n	n
d	d

__BEGIN__	__EPS__
d	d
y	ie

__BEGIN__	__EPS__
m	m
y	i
n	nn
e	i
c	g
l	l
i	i
c	c
h	h
e	e
n	n

__BEGIN__	__EPS__
d	d
e	e
n	n

__BEGIN__	__EPS__
v	u
n	n
d	d
e	__EPS__

__BEGIN__	__EPS__
d	d
e	e
r	r

__BEGIN__	__EPS__
h	h
o	o
c	c
h	h

__BEGIN__	__EPS__
s	s
e	ee
l	l
e	e

__BEGIN__	__EPS__
v	u
n	n
d	d

__BEGIN__	__EPS__
i	j
u	ü
n	n
g	g
l	l
i	i
n	n
g	g
s	s

__BEGIN__	__EPS__
s	s
i	i
e	e

__BEGIN__	__EPS__
k	k
a	e
i	i
n	n

__BEGIN__	__EPS__
h	h
e	e
y	i
s	ss
t	t

__BEGIN__	__EPS__
m	me
y	i
n	n

__BEGIN__	__EPS__
w	w
i	e
l	l
c	c
h	h
e	e
n	n

__BEGIN__	__EPS__
d	d
i	i
e	e

__BEGIN__	__EPS__
v	u
n	n
d	d

__BEGIN__	__EPS__
v	u
n	n
d	d

__BEGIN__	__EPS__
l	l
i	i
e	e
b	b
e	e

__BEGIN__	__EPS__
o	o
b	b

__BEGIN__	__EPS__
i	ih
r	re
m	m
e	__EPS__

__BEGIN__	__EPS__
e	e
r	r
b	b
e	a
r	r
m	m
e	e
d	n
e	__EPS__

__BEGIN__	__EPS__
a	a
n	n
s	s
e	e
l	l
m	m

__BEGIN__	__EPS__
i	i
c	c
h	h

__BEGIN__	__EPS__
v	u
n	n
d	d

__BEGIN__	__EPS__
s	s
e	e
i	i
n	n
e	e
n	n

__BEGIN__	__EPS__
w	d
a	e
n	n
t	n

__BEGIN__	__EPS__
i	ih
m	m

__BEGIN__	__EPS__
s	s
y	ie

__BEGIN__	__EPS__
g	g
r	r
o	o
i	__EPS__
s	s
z	s
e	e

__BEGIN__	__EPS__
v	u
n	n
d	d

__BEGIN__	__EPS__
w	w
ä	ä
r	re

__BEGIN__	__EPS__
s	s
p	p
r	r
e	e
c	c
h	h
e	e
n	n

__BEGIN__	__EPS__
c	k
r	r
e	e
u	u
t	__EPS__
z	z

__BEGIN__	__EPS__
m	m
i	i
t	t

__BEGIN__	__EPS__
e	n
n	icht

__BEGIN__	__EPS__
d	d
o	a

__BEGIN__	__EPS__
f	f
a	a
l	l
s	s
c	c
h	h
e	e
r	r

__BEGIN__	__EPS__
v	u
n	n
d	d

__BEGIN__	__EPS__
i	j
u	u
d	d
e	e

__BEGIN__	__EPS__
l	l
e	e
i	i
n	n
e	e
i	__EPS__
n	n

__BEGIN__	__EPS__
a	a
n	n
s	s
i	i
h	e
e	h
t	t

__BEGIN__	__EPS__
w	w
a	a
s	r

__BEGIN__	__EPS__
c	__EPS__
h	k
r	r
o	o
n	ne

__BEGIN__	__EPS__
v	u
n	n
d	d

__BEGIN__	__EPS__
e	e
n	m
p	p
f	f
a	a
n	n
g	g
e	e
n	n

__BEGIN__	__EPS__
c	c
r	r
ü	u
c	c
i	i
f	f
i	i
g	g
e	e

__BEGIN__	__EPS__
s	s
e	e
i	i
n	n
e	e
m	m

__BEGIN__	__EPS__
n	n
i	ic
h	h
t	t

__BEGIN__	__EPS__
c	c
r	r
u	u
c	c
i	i
f	f
i	i
g	g
e	e

__BEGIN__	__EPS__
s	s
p	p
r	r
a	a
c	c
h	h

__BEGIN__	__EPS__
h	h
o	ö
r	r
t	t
e	e

__BEGIN__	__EPS__
h	h
e	e
r	r
c	__EPS__
z	z
e	__EPS__

__BEGIN__	__EPS__
i	j
h	es
-	u
m	s

__BEGIN__	__EPS__
e	e
r	r

__BEGIN__	__EPS__
m	m
e	e
i	i
n	n

__BEGIN__	__EPS__
d	d
u	u
r	r
c	c
h	h

__BEGIN__	__EPS__
n	n
o	o
t	t
t	__EPS__

__BEGIN__	__EPS__
i	i
s	s
t	t

__BEGIN__	__EPS__
v	v
e	e
r	r
b	b
o	o
d	t
e	e
n	n

__BEGIN__	__EPS__
w	w
a	o
i	h
l	l
l	__EPS__

__BEGIN__	__EPS__
i	e
d	__EPS__
t	s

__BEGIN__	__EPS__
g	g
e	e
h	h
e	e
i	i
s	s
z	s
e	e
n	n

__BEGIN__	__EPS__
h	g
a	e
i	s
l	__EPS__
l	__EPS__
e	u
r	n
t	d
i	__EPS__
g	__EPS__

__BEGIN__	__EPS__
m	m
e	e
n	n
s	s
c	c
h	h
l	l
e	__EPS__
i	i
c	c
h	h

__BEGIN__	__EPS__
v	u
n	n
s	s
e	e
r	re
s	s

__BEGIN__	__EPS__
w	w
o	o
u	l
l	l
d	t
e	e

__BEGIN__	__EPS__
s	s
i	i
c	c
h	h

__BEGIN__	__EPS__
m	m
o	oc
h	h
t	te

__BEGIN__	__EPS__
v	u
n	n
d	d

__BEGIN__	__EPS__
d	d
i	i
c	c
h	h

__BEGIN__	__EPS__
w	w
a	a
s	r

__BEGIN__	__EPS__
h	h
e	e
l	l
y	i
a	a
m	m

__BEGIN__	__EPS__
i	i
c	c
h	h

__BEGIN__	__EPS__
s	s
p	p
r	r
a	a
c	c
h	h

__BEGIN__	__EPS__
h	h
a	e
i	i
l	le

__BEGIN__	__EPS__
b	b
i	i
s	s
t	t

__BEGIN__	ü
b	b
e	e
d	r
r	g
o	o
p	ss
e	e
n	n

__BEGIN__	__EPS__
d	d
e	e
r	r

__BEGIN__	__EPS__
v	a
f	u
f	f

__BEGIN__	__EPS__
r	r
u	e
w	u
e	e
n	n

__BEGIN__	__EPS__
s	s
t	t
a	e
i	i
n	n

__BEGIN__	__EPS__
v	u
n	n
d	d

__BEGIN__	__EPS__
g	z
e	e
z	ug
u	n
i	i
g	sse

__BEGIN__	__EPS__
h	h
o	o
c	c
h	h

__BEGIN__	__EPS__
e	e
r	r

__BEGIN__	__EPS__
s	s
y	ie

__BEGIN__	__EPS__
s	s
w	o
e	b
n	a
n	l
e	d

__BEGIN__	__EPS__
k	k
i	i
n	n
d	d

__BEGIN__	__EPS__
h	h
ü	a
s	u
e	s

__BEGIN__	__EPS__
n	n
i	i
e	ch
t	t

__BEGIN__	__EPS__
v	u
n	n
d	d

__BEGIN__	__EPS__
s	s
a	o
l	ll

__BEGIN__	__EPS__
d	d
a	a
r	__EPS__
n	n
a	a
c	c
h	h

__BEGIN__	__EPS__
s	s
a	a
g	g
e	e
n	n

__BEGIN__	__EPS__
u	u
n	n
d	d

__BEGIN__	__EPS__
v	u
n	n
d	d

__BEGIN__	__EPS__
v	u
n	n
d	d

__BEGIN__	__EPS__
w	w
a	a
n	n
g	g
e	e

__BEGIN__	__EPS__
z	z
v	u

__BEGIN__	__EPS__
w	w
e	ä
r	re

__BEGIN__	__EPS__
a	a
l	l
l	l
e	e

__BEGIN__	__EPS__
h	h
o	a
u	u
p	p
t	t

__BEGIN__	__EPS__
h	h
e	e
r	r
e	r

__BEGIN__	__EPS__
a	a
n	n
s	s
h	__EPS__
e	e
l	l
m	m

__BEGIN__	__EPS__
d	d
o	a

__BEGIN__	__EPS__
l	l
o	o
c	c
h	h

__BEGIN__	__EPS__
m	v
e	__EPS__
n	i
i	e
c	l
h	e

__BEGIN__	__EPS__
m	me
i	i
n	n

__BEGIN__	__EPS__
d	d
a	a
s	ss

__BEGIN__	__EPS__
s	s
c	c
h	h
r	r
i	i
e	e
r	__EPS__
e	__EPS__
n	n

__BEGIN__	__EPS__
d	d
o	a

__BEGIN__	__EPS__
i	ih
r	r

__BEGIN__	__EPS__
o	au
c	c
h	h

__BEGIN__	__EPS__
h	h
a	a
m	mm
e	e
r	r
s	sch
l	l
e	ä
g	g
e	e

__BEGIN__	__EPS__
m	m
i	i
t	t

__BEGIN__	__EPS__
v	ü
e	__EPS__
b	b
e	e
r	r

__BEGIN__	__EPS__
c	k
h	__EPS__
i	i
n	n
d	d

__BEGIN__	__EPS__
f	f
r	r
a	a
w	u

__BEGIN__	__EPS__
i	i
c	c
h	h

__BEGIN__	__EPS__
n	n
i	i
e	ch
t	t

__BEGIN__	__EPS__
d	d
i	i
e	e

__BEGIN__	__EPS__
a	a
l	l
l	l
e	e
n	n

__BEGIN__	__EPS__
g	g
e	e
l	l
o	o
b	b
t	t

__BEGIN__	__EPS__
d	d
e	e
m	m

__BEGIN__	__EPS__
e	e
r	r
g	g
i	i
e	__EPS__
n	n
g	g

__BEGIN__	__EPS__
v	v
o	e
r	r
l	li
e	e
r	r
e	e
n	n

__BEGIN__	__EPS__
k	k
o	o
m	mm
e	e
n	n

__BEGIN__	__EPS__
g	g
e	e
s	s
c	c
h	h
i	i
c	e
h	h
t	t

__BEGIN__	__EPS__
a	a
n	n
s	s
e	e
h	h
e	e
n	n

__BEGIN__	__EPS__
i	j
u	ü
n	n
g	g
e	e
r	r
e	__EPS__
n	n

__BEGIN__	s
v	echst
i	e

__BEGIN__	__EPS__
d	d
o	a

__BEGIN__	__EPS__
g	g
e	e
s	s
p	p
o	o
t	tt
e	e
t	t

__BEGIN__	__EPS__
n	n
i	ich
t	t

__BEGIN__	__EPS__
c	__EPS__
z	z
a	ä
r	r
t	t
l	l
i	i
c	c
h	h

__BEGIN__	__EPS__
a	a
l	l
s	s
o	o

__BEGIN__	__EPS__
m	m
e	e
i	i
n	n

__BEGIN__	__EPS__
d	d
o	o
c	c
h	h

__BEGIN__	__EPS__
d	d
o	a

__BEGIN__	__EPS__
s	s
o	o

__BEGIN__	__EPS__
i	j
a	ä
e	m
m	m
e	e
r	r
l	l
i	i
c	c
h	h

__BEGIN__	__EPS__
d	d
e	e
r	r

__BEGIN__	__EPS__
i	i
c	c
h	h

__BEGIN__	__EPS__
d	d
i	i
e	e
b	b

__BEGIN__	__EPS__
s	se
y	i
n	n

__BEGIN__	__EPS__
d	d
e	e
s	s

__BEGIN__	__EPS__
i	i
n	n

__BEGIN__	__EPS__
a	a
l	l
l	l
e	e
r	r
l	l
i	i
e	e
b	b
s	s
t	t
e	e
s	s

__BEGIN__	__EPS__
q	q
u	u
i	i

__BEGIN__	__EPS__
v	u
n	n
d	d

__BEGIN__	__EPS__
v	u
n	n
d	d

__BEGIN__	__EPS__
s	s
i	i
e	e
c	__EPS__
h	h

__BEGIN__	__EPS__
s	s
o	o
l	ll
t	t
e	e

__BEGIN__	__EPS__
d	d
i	i
r	r

__BEGIN__	__EPS__
m	m
e	e
n	n
s	s
c	c
h	h
e	e
n	n

__BEGIN__	__EPS__
a	a
l	l
l	l
e	e

__BEGIN__	__EPS__
v	u
n	n
d	d

__BEGIN__	__EPS__
i	j
o	o
h	h
a	a
n	nn
e	e
s	s

__BEGIN__	__EPS__
w	w
i	ie
d	d
e	e
r	r
k	k
a	a
m	m

__BEGIN__	__EPS__
d	d
a	a
z	s

__BEGIN__	__EPS__
s	s
i	e
h	h
e	e

__BEGIN__	__EPS__
d	d
e	e
r	r

__BEGIN__	__EPS__
f	f
u	ü
r	r

__BEGIN__	__EPS__
p	b
e	e
i	i

__BEGIN__	__EPS__
d	d
e	e
m	m

__BEGIN__	__EPS__
d	d
i	i
c	c
h	h

__BEGIN__	__EPS__
w	w
a	ä
e	__EPS__
r	re

__BEGIN__	__EPS__
m	m
e	e
i	i
n	n
e	e
n	n

__BEGIN__	__EPS__
z	z
w	u

__BEGIN__	__EPS__
d	d
o	a

__BEGIN__	__EPS__
v	u
n	n
d	t
e	e
r	r
w	w
e	e
g	g
e	e
n	n

__BEGIN__	__EPS__
r	r
i	i
c	c
h	h
t	t
e	e
r	r

__BEGIN__	__EPS__
n	n
i	ic
h	h
t	t

__BEGIN__	__EPS__
a	a
l	l
r	l
e	er
l	l
i	i
e	e
f	b
s	s
t	t
e	e

__BEGIN__	__EPS__
y	ih
n	n

__BEGIN__	__EPS__
v	u
n	n
d	d

__BEGIN__	__EPS__
g	g
a	a
b	b

__BEGIN__	__EPS__
d	d
e	e
r	r

__BEGIN__	__EPS__
m	m
e	e
i	i
n	n
e	e
n	n

__BEGIN__	__EPS__
g	g
o	u
i	__EPS__
t	t

__BEGIN__	__EPS__
i	ih
m	m

__BEGIN__	__EPS__
c	__EPS__
z	z
u	u

__BEGIN__	__EPS__
e	nich
n	t

__BEGIN__	__EPS__
e	__EPS__
n	__EPS__
m	m
o	o
c	c
h	h
t	te

__BEGIN__	__EPS__
i	i
c	c
h	h

__BEGIN__	__EPS__
l	l
i	i
e	e
s	s
s	s
e	e
n	n

__BEGIN__	__EPS__
m	m
i	i
r	r

__BEGIN__	__EPS__
d	d
i	i
c	c
h	h

__BEGIN__	__EPS__
i	i
c	c
h	h

__BEGIN__	__EPS__
d	d
a	a

__BEGIN__	__EPS__
i	i
c	ch

__BEGIN__	__EPS__
s	s
c	c
h	h
a	ä
c	c
h	h
e	e
r	r

__BEGIN__	__EPS__
a	a
l	l
s	s

__BEGIN__	__EPS__
v	v
e	e
r	r
l	l
o	o
r	re
n	n

__BEGIN__	__EPS__
b	b
e	e
t	t
r	r
v	ü
i	__EPS__
b	b
e	__EPS__
t	t

__BEGIN__	__EPS__
t	__EPS__
z	z
o	u

__BEGIN__	__EPS__
w	w
a	a
z	r

__BEGIN__	__EPS__
v	u
n	n
d	d

__BEGIN__	__EPS__
a	a
l	l
l	l
e	e
n	n

__BEGIN__	__EPS__
g	g
e	e
h	h
u	__EPS__
o	a
b	bte

__BEGIN__	__EPS__
d	d
o	a

__BEGIN__	__EPS__
h	h
a	a
b	b
e	e
n	n

__BEGIN__	__EPS__
t	t
a	a
g	g

__BEGIN__	__EPS__
v	u
n	n
d	d

__BEGIN__	__EPS__
m	me
i	i
n	n
e	e
r	r

__BEGIN__	__EPS__
m	m
o	ö
e	__EPS__
r	r
d	d
e	e
r	r

__BEGIN__	__EPS__
m	m
o	o
i	__EPS__
c	c
h	h
t	t
e	e

__BEGIN__	__EPS__
m	m
i	i
n	n
n	n
e	e
n	n
d	d
v	e
n	n

__BEGIN__	__EPS__
v	v
o	o
n	n

__BEGIN__	__EPS__
n	n
u	u
n	n

__BEGIN__	__EPS__
v	v
o	o
l	l
k	k

__BEGIN__	__EPS__
h	h
e	e
r	r
t	__EPS__
z	z
l	l
i	i
c	c
h	h
e	e
r	r

__BEGIN__	__EPS__
s	s
i	ie

__BEGIN__	__EPS__
i	j
h	es
-	u
m	s

__BEGIN__	__EPS__
p	b
i	i
n	n

__BEGIN__	__EPS__
a	a
l	l
s	s

__BEGIN__	__EPS__
i	i
s	s
t	t

__BEGIN__	__EPS__
e	e
i	i
n	n

__BEGIN__	__EPS__
p	p
y	i
l	l
a	a
t	t
u	u
s	s

__BEGIN__	__EPS__
g	g
a	a
r	r

__BEGIN__	__EPS__
d	d
o	a

__BEGIN__	__EPS__
t	t
h	__EPS__
o	o
r	r

__BEGIN__	__EPS__
s	s
e	e
y	i
e	__EPS__
s	s
t	t

__BEGIN__	__EPS__
m	m
e	i
d	t
e	__EPS__

__BEGIN__	__EPS__
s	s
p	p
r	r
a	a
c	c
h	h

__BEGIN__	__EPS__
s	s
a	a
c	__EPS__
h	h

__BEGIN__	__EPS__
w	w
a	a
z	r

__BEGIN__	__EPS__
v	u
n	n
d	d

__BEGIN__	__EPS__
r	r
i	i
e	e
f	f
f	__EPS__

__BEGIN__	__EPS__
p	p
l	l
o	o
r	r
a	a
u	u
i	i
t	t

__BEGIN__	__EPS__
b	b
e	e
r	r
i	i
c	c
h	h
t	te

__BEGIN__	__EPS__
i	ih
n	n

__BEGIN__	__EPS__
w	w
a	a
s	r

__BEGIN__	__EPS__
z	z
u	o
g	g
e	e
n	n

__BEGIN__	__EPS__
f	f
u	ü
e	h
r	r
t	t

__BEGIN__	__EPS__
s	s
o	o

__BEGIN__	__EPS__
h	h
a	a
t	t
t	t
e	e

__BEGIN__	__EPS__
g	g
r	r
o	o
s	s
z	s

__BEGIN__	__EPS__
g	g
o	o
t	tt

__BEGIN__	__EPS__
m	m
i	i
c	c
h	h

__BEGIN__	__EPS__
d	d
u	u

__BEGIN__	__EPS__
w	w
e	e
i	i
s	ss

__BEGIN__	__EPS__
g	g
e	e
w	w
a	a
n	n
d	d

__BEGIN__	__EPS__
g	g
r	r
o	o
i	__EPS__
s	s
s	s
e	e

__BEGIN__	__EPS__
h	he
u	u
d	t
e	e

__BEGIN__	__EPS__
a	a
n	n
s	s
h	__EPS__
e	e
l	l
m	m
e	__EPS__

__BEGIN__	__EPS__
w	w
a	a
n	n
n	n

__BEGIN__	__EPS__
g	g
r	r
e	ä
b	b
e	e
r	r

__BEGIN__	__EPS__
p	p
e	e
y	i
n	n

__BEGIN__	__EPS__
w	w
o	o
u	l
l	l
d	t
e	e

__BEGIN__	__EPS__
i	j
u	u
d	d
e	e
n	n

__BEGIN__	__EPS__
d	d
a	a
r	__EPS__
n	n
a	ach

__BEGIN__	__EPS__
d	d
a	a
z	s

__BEGIN__	__EPS__
d	d
i	i
e	e

__BEGIN__	__EPS__
e	e
s	s
s	s
i	i
c	__EPS__
h	g

__BEGIN__	__EPS__
d	d
a	a
s	s

__BEGIN__	__EPS__
i	i
c	c
h	h

__BEGIN__	__EPS__
s	se
y	i
n	n

__BEGIN__	__EPS__
i	i
c	c
h	h

__BEGIN__	__EPS__
v	ü
b	b
i	e
r	r

__BEGIN__	__EPS__
q	k
u	__EPS__
o	a
m	m
e	e
n	n

__BEGIN__	__EPS__
d	d
e	e
s	s

__BEGIN__	__EPS__
y	ih
n	n

__BEGIN__	__EPS__
n	n
i	ich
t	t

__BEGIN__	__EPS__
i	ih
n	n

__BEGIN__	__EPS__
a	a
l	l
l	l

__BEGIN__	__EPS__
v	u
n	n
d	d

__BEGIN__	__EPS__
s	s
y	i
m	m
y	e
a	o
n	n
y	__EPS__
s	s

__BEGIN__	__EPS__
s	s
c	c
h	h
r	r
e	e
y	i

__BEGIN__	__EPS__
d	d
o	a

__BEGIN__	__EPS__
e	e
i	i
n	n

__BEGIN__	__EPS__
a	a
u	u
s	s

__BEGIN__	__EPS__
m	m
e	e
i	i
n	n
e	e
r	r

__BEGIN__	__EPS__
i	i
n	n

__BEGIN__	__EPS__
d	d
o	a

__BEGIN__	__EPS__
t	t
a	a
g	g

__BEGIN__	__EPS__
m	m
e	e
n	n
i	i
g	g
e	e
n	n

__BEGIN__	__EPS__
b	b
e	e
h	h
a	a
l	l
t	t
e	e
n	n

__BEGIN__	__EPS__
d	d
e	e
s	s

__BEGIN__	__EPS__
p	b
e	e
i	i

__BEGIN__	__EPS__
a	a
n	n
s	s
h	__EPS__
e	e
l	l
m	m

__BEGIN__	__EPS__
i	ih
m	m

__BEGIN__	__EPS__
m	me
y	i
n	n

__BEGIN__	__EPS__
d	d
y	ie

__BEGIN__	__EPS__
e	e
r	r

__BEGIN__	__EPS__
i	i
n	n

__BEGIN__	__EPS__
m	m
i	i
r	r

__BEGIN__	d
u	u

__BEGIN__	__EPS__
v	u
n	n
d	d

__BEGIN__	__EPS__
w	w
i	i
l	lls
t	t

__BEGIN__	__EPS__
m	m
u	u
n	n
d	d
t	__EPS__

__BEGIN__	__EPS__
k	k
o	ö
e	__EPS__
n	n
y	i
n	__EPS__
c	__EPS__
k	g

__BEGIN__	__EPS__
d	d
o	a

__BEGIN__	__EPS__
a	a
n	n

__BEGIN__	__EPS__
e	e
t	t

__BEGIN__	__EPS__
i	i
c	c
h	h

__BEGIN__	__EPS__
h	h
o	ö
r	r
t	t

__BEGIN__	__EPS__
d	d
e	e
i	i
n	n
e	e
r	r

__BEGIN__	__EPS__
d	d
y	ie

__BEGIN__	__EPS__
i	i
n	n

__BEGIN__	__EPS__
d	d
e	e
r	r

__BEGIN__	__EPS__
a	e
i	i
n	n

__BEGIN__	__EPS__
k	k
r	r
o	o
n	ne

__BEGIN__	__EPS__
d	l
o	e
g	i
h	d
e	e
n	n

__BEGIN__	n
e	ich
n	t

__BEGIN__	__EPS__
y	ih
m	m

__BEGIN__	__EPS__
g	g
e	e
s	s
i	i
c	c
h	h
t	t

__BEGIN__	__EPS__
d	d
a	a
n	nn

__BEGIN__	__EPS__
i	i
c	c
h	h

__BEGIN__	__EPS__
w	w
e	e
i	i
n	n
t	t
e	e

__BEGIN__	__EPS__
f	f
a	a
l	l
s	s
c	c
h	h
e	e

__BEGIN__	__EPS__
g	g
e	e
l	l
e	e
u	b
e	__EPS__
d	t
e	e

__BEGIN__	__EPS__
m	m
i	i
r	r

__BEGIN__	__EPS__
i	i
c	c
h	h

__BEGIN__	__EPS__
w	w
a	a
n	nn

__BEGIN__	__EPS__
m	m
i	i
e	__EPS__
r	r

__BEGIN__	__EPS__
s	se
i	i
n	n

__BEGIN__	__EPS__
m	me
i	i
n	n

__BEGIN__	__EPS__
m	m
u	ö
g	g
e	e
n	n

__BEGIN__	__EPS__
d	d
c	ass

__BEGIN__	__EPS__
i	j
a	a
c	k
o	o
b	b

__BEGIN__	__EPS__
h	h
e	ä
n	n
d	d
e	e

__BEGIN__	__EPS__
i	i
n	n

__BEGIN__	__EPS__
t	tat
e	es
t	t

__BEGIN__	__EPS__
w	w
i	i
e	e

__BEGIN__	__EPS__
g	g
e	e
b	be

__BEGIN__	__EPS__
w	w
e	oh
l	l

__BEGIN__	__EPS__
s	s
e	a
g	g
g	__EPS__
h	__EPS__
e	__EPS__
t	t

__BEGIN__	__EPS__
s	s
o	o
e	h
n	n

__BEGIN__	__EPS__
u	u
n	n
d	d

__BEGIN__	__EPS__
k	k
o	om
m	m
e	e
n	n

__BEGIN__	__EPS__
d	d
a	a
t	ss

__BEGIN__	__EPS__
d	d
a	a
i	__EPS__
r	r
u	u
m	m
b	__EPS__

__BEGIN__	__EPS__
g	g
e	e
l	l
a	a
s	s
s	s
e	e
n	n

__BEGIN__	__EPS__
d	d
e	e
r	r

__BEGIN__	__EPS__
h	h
e	ä
n	n
d	d
e	e

__BEGIN__	__EPS__
e	e
r	r
b	b
o	o
d	t
e	e
n	n

__BEGIN__	__EPS__
d	d
e	e
n	n

__BEGIN__	__EPS__
p	pf
l	l
e	e
g	g
e	e
r	r

__BEGIN__	h
e	e
r	r
g	g
e	i
b	b
e	__EPS__
s	s
t	t

__BEGIN__	__EPS__
m	m
i	i
r	r

__BEGIN__	__EPS__
v	u
n	n
d	d

__BEGIN__	__EPS__
v	u
n	n
d	d

__BEGIN__	__EPS__
d	t
o	o
i	__EPS__
t	d

__BEGIN__	__EPS__
v	u
n	n
s	s
z	__EPS__

__BEGIN__	__EPS__
g	g
e	e
s	s
p	p
r	r
o	o
e	c
h	h
e	e
n	n

__BEGIN__	__EPS__
a	a
n	n

__BEGIN__	__EPS__
s	s
a	e
y	i
l	l

__BEGIN__	__EPS__
s	s
i	i
e	e

__BEGIN__	__EPS__
i	ih
m	m

__BEGIN__	__EPS__
d	d
e	e
s	s

__BEGIN__	__EPS__
g	g
i	i
e	__EPS__
n	n
g	g

__BEGIN__	__EPS__
v	u
n	n
d	d

__BEGIN__	__EPS__
e	e
r	r

__BEGIN__	__EPS__
k	k
i	i
n	n
d	d

__BEGIN__	__EPS__
m	m
u	u
o	__EPS__
t	t
t	t
e	e
r	r

__BEGIN__	__EPS__
l	l
i	i
e	e
f	f

__BEGIN__	__EPS__
v	u
n	n
d	d

__BEGIN__	__EPS__
w	w
a	a
n	n
n	n
e	__EPS__

__BEGIN__	__EPS__
s	se
i	i

__BEGIN__	__EPS__
m	m
u	u
t	tt
e	e
r	r

__BEGIN__	__EPS__
o	e
n	n
t	t
c	k
l	l
e	e
e	i
d	de
t	t

__BEGIN__	__EPS__
i	__EPS__
n	__EPS__
s	s
t	t
u	a
n	n
d	d

__BEGIN__	__EPS__
l	l
i	i
e	e
b	b
e	e

__BEGIN__	__EPS__
m	m
i	i
t	t

__BEGIN__	__EPS__
b	b
l	l
i	i
n	n
d	d
e	e
n	n

__BEGIN__	__EPS__
w	w
a	a
r	r
d	d

__BEGIN__	__EPS__
t	t
u	u
e	__EPS__
t	t

__BEGIN__	__EPS__
i	i
n	n

__BEGIN__	__EPS__
a	a
l	l
l	l
e	e

__BEGIN__	__EPS__
i	j
e	äm
m	m
e	e
r	r
l	l
i	i
c	c
h	h
e	e
n	n

__BEGIN__	__EPS__
i	ih
n	n

__BEGIN__	__EPS__
n	n
y	ie
m	m
a	a
n	nd

__BEGIN__	__EPS__
r	r
y	ie
m	m
e	e
n	n

__BEGIN__	__EPS__
i	j
o	o
h	h
a	a
n	nn
e	e
z	s

__BEGIN__	__EPS__
k	k
o	o
n	nn
d	t
e	e
n	n

__BEGIN__	__EPS__
g	g
o	o
t	t
t	t

__BEGIN__	__EPS__
g	g
r	r
o	o
s	ss
e	e
r	r

__BEGIN__	__EPS__
m	m
e	e
i	i
n	n

__BEGIN__	__EPS__
w	w
a	a
r	r
e	e
n	n

__BEGIN__	__EPS__
w	w
e	eh

__BEGIN__	__EPS__
g	g
e	e
f	f
l	l
o	o
s	s
s	s
e	e
n	n

__BEGIN__	__EPS__
v	u
n	n
d	d

__BEGIN__	__EPS__
h	h
e	e
r	r
c	__EPS__
z	z
e	__EPS__

__BEGIN__	__EPS__
w	m
a	a
n	n

__BEGIN__	__EPS__
i	ih
n	n

__BEGIN__	__EPS__
b	b
r	r
e	__EPS__
i	i
f	e
f	f

__BEGIN__	__EPS__
g	__EPS__
e	__EPS__
s	s
c	c
h	h
r	r
i	i
f	f
t	t

__BEGIN__	__EPS__
k	k
a	a
i	i
s	s
e	e
r	r

__BEGIN__	__EPS__
v	au
p	f
e	e
r	r
s	s
t	t
a	eh
i	e
n	n

__BEGIN__	__EPS__
v	u
n	n
d	d

__BEGIN__	__EPS__
r	r
a	a
n	nn

__BEGIN__	__EPS__
n	n
i	i
c	c
h	h
t	t
e	__EPS__
s	s

__BEGIN__	__EPS__
v	v
e	e
r	r
s	s
t	t
o	o
p	pf
t	t

__BEGIN__	__EPS__
m	m
y	i
r	r

__BEGIN__	__EPS__
k	k
r	r
u	e
i	u
c	__EPS__
z	z

__BEGIN__	__EPS__
w	w
i	i
e	e

__BEGIN__	__EPS__
m	m
i	i
r	r

__BEGIN__	__EPS__
w	w
o	o
r	r
t	t

__BEGIN__	__EPS__
n	n
i	ich
t	t

__BEGIN__	__EPS__
r	r
u	u
o	__EPS__
f	f
t	t

__BEGIN__	__EPS__
p	b
l	l
u	u
o	__EPS__
t	t
e	e
s	s

__BEGIN__	__EPS__
v	u
n	n
d	d

__BEGIN__	__EPS__
k	g
r	r
i	ie
c	c
h	h
i	i
s	s
c	c
h	h

__BEGIN__	__EPS__
e	e
r	r

__BEGIN__	__EPS__
d	d
o	a

__BEGIN__	__EPS__
d	d
e	e
r	r

__BEGIN__	__EPS__
c	k
r	re
v	u
c	z
e	i
g	g
o	__EPS__
t	t
o	e
n	n

__BEGIN__	__EPS__
w	w
y	i
r	r

__BEGIN__	__EPS__
g	g
h	__EPS__
e	e
s	s
c	ch
i	i
e	e
d	h
e	t

__BEGIN__	__EPS__
l	l
u	i
c	n
h	k
t	__EPS__
e	e
r	n

__BEGIN__	__EPS__
m	m
a	oc
h	h
t	t
e	e

__BEGIN__	__EPS__
m	m
y	i
r	r

__BEGIN__	__EPS__
e	e
r	r
f	f
u	ü
e	l
l	l
e	__EPS__
t	t

__BEGIN__	__EPS__
d	d
a	as
s	s

__BEGIN__	__EPS__
l	l
a	a
i	s
s	s
t	t

__BEGIN__	__EPS__
s	s
p	p
r	r
a	a
c	c
h	h

__BEGIN__	__EPS__
n	n
i	i
c	c
h	h
t	t

__BEGIN__	__EPS__
l	l
a	a
u	__EPS__
s	s
s	s
e	e
n	n

__BEGIN__	__EPS__
s	ve
c	r
h	w
a	a
f	l
f	t
e	e
r	r

__BEGIN__	__EPS__
h	h
i	i
n	n
c	__EPS__
k	g

__BEGIN__	__EPS__
k	k
i	i
n	n
t	d

__BEGIN__	__EPS__
a	a
u	u
s	s

__BEGIN__	__EPS__
c	__EPS__
z	z
e	er
p	b
r	r
a	__EPS__
e	e
c	c
h	h
e	e
n	n

__BEGIN__	__EPS__
i	i
c	c
h	h

__BEGIN__	__EPS__
e	e
r	r

__BEGIN__	__EPS__
m	m
e	e
i	i
n	n

__BEGIN__	__EPS__
l	l
i	ie
b	b
e	e
r	r

__BEGIN__	__EPS__
v	v
o	o
r	r

__BEGIN__	__EPS__
n	n
i	i
c	c
h	h
t	t

__BEGIN__	__EPS__
m	m
e	a
n	n

__BEGIN__	__EPS__
d	d
u	u

__BEGIN__	__EPS__
m	m
e	e
i	i
n	n
e	e
r	r

__BEGIN__	__EPS__
n	n
i	ich
t	t

__BEGIN__	__EPS__
d	d
i	i
e	e
b	b

__BEGIN__	__EPS__
k	k
o	om
m	m
e	e
n	n

__BEGIN__	__EPS__
w	w
a	a
s	r
z	__EPS__

__BEGIN__	__EPS__
s	s
y	ie

__BEGIN__	__EPS__
n	n
v	un

__BEGIN__	__EPS__
e	e
r	r

__BEGIN__	__EPS__
d	d
o	a

__BEGIN__	__EPS__
r	r
i	i
c	c
h	h
t	t
e	e
r	r

__BEGIN__	__EPS__
s	s
c	c
h	h
o	__EPS__
u	u
l	l
t	d

__BEGIN__	__EPS__
d	d
e	e
r	r

__BEGIN__	__EPS__
t	t
o	o
d	d

__BEGIN__	__EPS__
a	a
u	u
f	f

__BEGIN__	__EPS__
h	h
e	e
r	r
o	o
d	d
e	e
s	s

__BEGIN__	__EPS__
e	e
r	r

__BEGIN__	__EPS__
z	z
e	e
r	r
b	b
r	r
e	e
c	c
h	h
e	e
n	n
t	__EPS__

__BEGIN__	__EPS__
i	i
n	n

__BEGIN__	__EPS__
w	w
a	a
z	r

__BEGIN__	__EPS__
l	l
e	ä
n	n
g	ge

__BEGIN__	__EPS__
d	d
o	a

__BEGIN__	__EPS__
j	j
o	u
e	__EPS__
d	d
e	e
n	n

__BEGIN__	__EPS__
f	f
r	r
o	o
e	h

__BEGIN__	__EPS__
a	a
n	n
t	t
l	l
i	i
c	t
z	z

__BEGIN__	__EPS__
a	a
u	u
f	f
f	__EPS__

__BEGIN__	__EPS__
h	e
e	r

__BEGIN__	__EPS__
h	ha
u	u
s	s

__BEGIN__	__EPS__
i	j
o	o
s	s
e	e
p	p
h	h

__BEGIN__	__EPS__
q	k
w	__EPS__
a	a
m	m

__BEGIN__	__EPS__
e	e
r	r

__BEGIN__	__EPS__
s	s
i	i
m	m
e	e
o	o
n	n
i	__EPS__
s	s

__BEGIN__	__EPS__
e	e
r	r

__BEGIN__	__EPS__
h	h
e	e
r	r
o	o
d	d
e	e
s	s

__BEGIN__	__EPS__
g	g
e	e
i	i
t	t
e	e
w	w
i	i
z	z
o	__EPS__
t	t

__BEGIN__	__EPS__
h	h
a	a
u	__EPS__
t	t

__BEGIN__	__EPS__
d	d
e	e
s	s

__BEGIN__	__EPS__
s	s
i	ie

__BEGIN__	__EPS__
d	d
a	e
n	n
n	n
o	o
c	c
h	h

__BEGIN__	__EPS__
d	d
o	a

__BEGIN__	__EPS__
d	d
i	i
e	e

__BEGIN__	__EPS__
c	k
a	a
s	s
t	t
e	e
l	ll

__BEGIN__	__EPS__
s	s
p	p
r	r
a	a
c	c
h	h

__BEGIN__	__EPS__
c	__EPS__
z	z
w	u

__BEGIN__	__EPS__
i	j
u	u
d	d
e	e
n	n

__BEGIN__	__EPS__
v	u
n	nd

__BEGIN__	__EPS__
s	s
i	e
t	i
t	t
e	e
n	n

__BEGIN__	__EPS__
n	n
a	a
c	c
h	h

__BEGIN__	__EPS__
g	g
o	o
t	t
t	t
e	e
s	s

__BEGIN__	__EPS__
g	g
u	u
e	__EPS__
t	t
e	e
s	s

__BEGIN__	__EPS__
v	u
n	n
d	d

__BEGIN__	__EPS__
n	n
a	ah
m	m

__BEGIN__	__EPS__
p	p
s	s
a	a
l	l
t	t
e	e
r	r

__BEGIN__	__EPS__
s	s
a	a
n	n
d	kt

__BEGIN__	__EPS__
d	d
e	e
r	r

__BEGIN__	__EPS__
s	s
v	ie

__BEGIN__	__EPS__
u	u
n	n
d	d

__BEGIN__	__EPS__
d	d
i	i
e	e

__BEGIN__	__EPS__
e	e
r	r
t	d
r	r
e	e
i	i
c	c
h	h

__BEGIN__	__EPS__
a	a
n	n

__BEGIN__	__EPS__
s	sch
l	l
e	ä
c	g
h	__EPS__
t	t

__BEGIN__	__EPS__
m	m
e	e
i	i
n	n

__BEGIN__	__EPS__
o	a
u	u
f	f
t	t
u	u
e	__EPS__
t	t

__BEGIN__	__EPS__
y	ih
r	r
i	e
n	n

__BEGIN__	__EPS__
b	b
e	e
s	sch
l	l
o	os
z	s

__BEGIN__	__EPS__
s	s
e	e
l	l
b	b
e	e
r	r

__BEGIN__	__EPS__
s	s
p	p
r	r
a	a
c	c
h	h

__BEGIN__	__EPS__
w	w
o	o
l	ll
t	t
e	e
n	n

__BEGIN__	__EPS__
v	u
n	n
d	d

__BEGIN__	__EPS__
v	u
n	n
d	d

__BEGIN__	__EPS__
m	m
i	i
r	r

__BEGIN__	__EPS__
v	u
n	n
d	d

__BEGIN__	__EPS__
a	a
n	n
t	t
w	w
i	o
r	r
t	t
e	e
n	n

__BEGIN__	__EPS__
g	g
r	r
a	a
b	b
e	__EPS__

__BEGIN__	__EPS__
e	e
r	r

__BEGIN__	__EPS__
a	a
l	l
l	l
e	e

__BEGIN__	__EPS__
t	t
v	u
t	t

__BEGIN__	__EPS__
g	g
e	e
r	r
n	n
e	__EPS__

__BEGIN__	__EPS__
d	d
i	i
e	e

__BEGIN__	__EPS__
e	e
y	i
n	n

__BEGIN__	__EPS__
d	d
o	a

__BEGIN__	__EPS__
g	g
e	e
s	s
c	c
h	h
l	l
a	a
g	g
e	e
n	n

__BEGIN__	__EPS__
v	u
n	n
d	d

__BEGIN__	__EPS__
d	d
o	a

__BEGIN__	__EPS__
p	p
i	i
l	l
a	a
t	t
u	u
s	s

__BEGIN__	__EPS__
w	w
y	i
r	r
t	d

__BEGIN__	__EPS__
s	s
y	ie

__BEGIN__	__EPS__
a	o
l	__EPS__
d	d
e	er

__BEGIN__	__EPS__
t	t
r	r
e	ä
h	__EPS__
n	n
e	e
n	n

__BEGIN__	__EPS__
z	z
e	e
i	i
t	t

__BEGIN__	__EPS__
w	w
e	e
r	r

__BEGIN__	__EPS__
d	d
a	a
z	ss

__BEGIN__	__EPS__
s	s
u	o
l	l
d	lt
e	e
n	n

__BEGIN__	__EPS__
v	u
n	n
s	s
e	e
r	r

__BEGIN__	__EPS__
n	n
i	i
e	ch
t	t

__BEGIN__	__EPS__
y	j
e	e
g	g
l	l
i	i
c	c
h	h
e	e
r	r

__BEGIN__	__EPS__
w	w
a	a
s	s
s	s
e	e
r	r

__BEGIN__	__EPS__
v	u
n	n
d	d

__BEGIN__	__EPS__
n	n
i	i
e	ch
t	t

__BEGIN__	__EPS__
e	u
n	n
d	d
e	__EPS__

__BEGIN__	__EPS__
b	b
e	e
r	r
g	g
e	e
n	n

__BEGIN__	__EPS__
d	d
y	ie

__BEGIN__	__EPS__
d	d
u	u

__BEGIN__	__EPS__
l	l
a	e
y	i
t	d

__BEGIN__	__EPS__
h	h
e	e
r	r
a	a
u	u
s	s
z	__EPS__

__BEGIN__	__EPS__
a	a
n	n

__BEGIN__	__EPS__
y	ih
n	n

__BEGIN__	__EPS__
f	f
l	l
a	o
c	c
h	h
t	t

__BEGIN__	__EPS__
h	e
i	__EPS__
e	r

__BEGIN__	__EPS__
g	g
e	e
l	l
e	i
d	tt
i	e
n	n

__BEGIN__	__EPS__
d	d
e	e
m	m

__BEGIN__	__EPS__
a	a
m	m
e	e
n	n

__BEGIN__	__EPS__
h	h
a	a
s	s
t	t

__BEGIN__	__EPS__
d	de
y	i
n	n

__BEGIN__	__EPS__
p	b
e	e
i	i

__BEGIN__	__EPS__
m	m
i	i
c	c
h	h

__BEGIN__	__EPS__
f	f
r	r
o	a
c	__EPS__
h	g
t	t

__BEGIN__	__EPS__
r	r
e	e
i	i
n	n
e	e

__BEGIN__	__EPS__
d	d
e	e
m	m

__BEGIN__	__EPS__
a	a
l	l
s	s

__BEGIN__	__EPS__
h	e
e	r

__BEGIN__	__EPS__
k	k
a	a
m	m

__BEGIN__	__EPS__
m	m
a	an
n	n
i	i
c	g
h	__EPS__
v	f
a	a
l	l
t	tig

__BEGIN__	__EPS__
d	d
o	o
c	c
h	h

__BEGIN__	__EPS__
m	m
a	a
r	r
i	i
a	a

__BEGIN__	__EPS__
h	h
o	o
c	c
h	h
z	ze
i	i
t	t
l	l
i	i
c	c
h	h

__BEGIN__	__EPS__
w	w
i	i
l	l
l	l
e	e
n	n

__BEGIN__	__EPS__
p	p
i	i
l	l
a	a
t	t
u	u
s	s

__BEGIN__	__EPS__
v	u
r	r
t	t
e	e
i	i
l	l

__BEGIN__	__EPS__
v	u
n	n
d	d

__BEGIN__	__EPS__
h	h
o	ö
r	r
e	__EPS__
s	s
t	t

__BEGIN__	__EPS__
w	w
a	e
i	i
n	n
t	t

__BEGIN__	__EPS__
d	d
i	i
e	e

__BEGIN__	__EPS__
v	u
n	n
d	d

__BEGIN__	__EPS__
d	d
o	a

__BEGIN__	__EPS__
s	s
p	p
r	r
a	a
c	c
h	h

__BEGIN__	__EPS__
w	w
a	a
s	r

__BEGIN__	__EPS__
n	n
a	ah
n	m

__BEGIN__	__EPS__
s	s
i	i
e	e

__BEGIN__	__EPS__
d	d
e	e
m	m

__BEGIN__	__EPS__
s	s
t	t
v	__EPS__
o	a
n	n
t	d

__BEGIN__	__EPS__
s	s
c	__EPS__
h	o
o	l
l	l
t	t

__BEGIN__	__EPS__
v	u
n	n
d	d

__BEGIN__	__EPS__
s	s
a	a
s	s
z	s
e	e
n	n

__BEGIN__	__EPS__
s	sankt

__BEGIN__	__EPS__
d	d
o	a

__BEGIN__	__EPS__
v	u
n	n
d	d

__BEGIN__	__EPS__
i	ih
m	m

__BEGIN__	__EPS__
k	k
y	i
n	n
t	d
h	h
e	e
i	i
t	t

__BEGIN__	__EPS__
e	e
u	u
n	m

__BEGIN__	__EPS__
e	e
r	r
s	s
t	t
a	a
n	n
d	d
e	e
n	n

__BEGIN__	__EPS__
d	d
a	a
r	r
a	a
u	u
z	s

__BEGIN__	__EPS__
s	sch
l	l
a	age
n	n

__BEGIN__	__EPS__
v	u
n	n
d	d

__BEGIN__	__EPS__
s	se
i	i
n	n
e	e

__BEGIN__	__EPS__
n	n
i	ich
t	t

__BEGIN__	__EPS__
w	w
o	oh
l	l

__BEGIN__	__EPS__
v	u
m	m
b	__EPS__
e	__EPS__

__BEGIN__	__EPS__
p	b
e	e
g	g
e	eh
r	r
t	t

__BEGIN__	__EPS__
d	d
v	i
i	e

__BEGIN__	__EPS__
a	a
n	n

__BEGIN__	__EPS__
d	d
e	e
m	m

__BEGIN__	__EPS__
d	d
i	ie
s	s
e	e
n	n

