__BEGIN__	__EPS__
e	e
y	i
n	n
e	e
r	r

__BEGIN__	__EPS__
m	m
e	e
a	a

__BEGIN__	__EPS__
v	u
n	n
d	d

__BEGIN__	a
v	u
s	s
z	__EPS__
f	f
u	üh
r	r
t	t
h	__EPS__
e	e

__BEGIN__	__EPS__
d	d
a	a
z	ss

__BEGIN__	__EPS__
m	m
y	i
r	r

__BEGIN__	__EPS__
o	o
b	b

__BEGIN__	__EPS__
a	a
n	n
s	s
h	__EPS__
e	e
l	l
m	m

__BEGIN__	__EPS__
v	f
i	i
e	__EPS__
n	n
g	g

__BEGIN__	__EPS__
s	s
o	o

__BEGIN__	__EPS__
i	ih
r	r

__BEGIN__	__EPS__
d	d
i	i
e	e

__BEGIN__	__EPS__
w	p
i	r
s	o
s	ph
a	e
g	t

__BEGIN__	__EPS__
s	s
e	e
i	i
n	n

__BEGIN__	__EPS__
w	w
o	ol
l	l
d	t
e	e
n	n

__BEGIN__	__EPS__
w	we
i	i
s	s
s	s
a	a
g	g
u	u
n	n
g	g
e	__EPS__

__BEGIN__	__EPS__
d	d
o	a
r	__EPS__
n	n
a	a
c	c
h	h

__BEGIN__	__EPS__
d	d
a	as
s	s

__BEGIN__	__EPS__
v	u
n	n
d	t
e	e
r	r

__BEGIN__	__EPS__
e	e
r	r
t	d
e	__EPS__
r	re
i	i
c	c
h	h

__BEGIN__	__EPS__
m	m
a	a
r	r
i	i
a	a

__BEGIN__	__EPS__
d	d
o	a
r	r
v	u
m	m
b	__EPS__

__BEGIN__	__EPS__
h	h
a	a
b	b
e	e
n	n

__BEGIN__	__EPS__
i	ih
m	m

__BEGIN__	__EPS__
k	k
o	a
m	m
e	e
n	n

__BEGIN__	__EPS__
s	s
o	o

__BEGIN__	__EPS__
i	i
u	u
d	d
e	e
o	o
r	r
u	u
m	m

__BEGIN__	__EPS__
m	v
a	i
n	e
i	l
g	e

__BEGIN__	__EPS__
w	w
o	oh
l	l

__BEGIN__	__EPS__
h	h
e	a
t	t

__BEGIN__	__EPS__
c	__EPS__
h	k
l	l
a	a
g	g
u	e
n	n
d	d

__BEGIN__	__EPS__
h	h
e	ät
t	te

__BEGIN__	__EPS__
h	h
e	ä
n	n
d	d
e	e
n	n

__BEGIN__	__EPS__
z	z
v	u

__BEGIN__	__EPS__
d	d
o	a

__BEGIN__	__EPS__
a	a
n	n
d	d
e	e
r	re
n	n

__BEGIN__	__EPS__
g	z
e	e
z	u
u	g
i	e
g	n

__BEGIN__	__EPS__
v	f
r	ri
e	e
d	d
e	e
n	n

__BEGIN__	__EPS__
h	h
e	a
t	t

__BEGIN__	__EPS__
a	a
b	b
e	e
r	r

__BEGIN__	__EPS__
o	u
r	r
t	t
e	e
i	i
l	l

__BEGIN__	__EPS__
d	d
a	a
s	ss

__BEGIN__	__EPS__
i	j
o	o
h	h
a	a
n	n
n	n
e	e
s	s

__BEGIN__	__EPS__
d	d
o	a

__BEGIN__	__EPS__
y	ih
n	n

__BEGIN__	__EPS__
b	b
e	e
g	g
r	r
a	a
b	be

__BEGIN__	__EPS__
h	ha
u	u
s	s

__BEGIN__	__EPS__
s	s
p	p
o	o
t	tt

__BEGIN__	__EPS__
v	u
n	n
d	d

__BEGIN__	__EPS__
a	a
l	l
s	s
o	o

__BEGIN__	__EPS__
h	h
e	a
t	t

__BEGIN__	__EPS__
v	f
e	ü
r	r
u	c
a	h
e	t
r	e
d	t
e	e
n	n

__BEGIN__	__EPS__
d	d
i	i
e	e

__BEGIN__	__EPS__
h	h
a	ä
n	n
d	d
e	e
n	n

__BEGIN__	d
u	u

__BEGIN__	__EPS__
e	e
r	r

__BEGIN__	__EPS__
e	e
z	s

__BEGIN__	__EPS__
v	u
n	n
d	d

__BEGIN__	__EPS__
v	f
o	__EPS__
r	r
w	a
e	u

__BEGIN__	__EPS__
s	s
p	p
r	r
a	a
c	c
h	h

__BEGIN__	__EPS__
g	s
e	e
s	__EPS__
i	i
n	n

__BEGIN__	__EPS__
e	e
i	i
n	n

__BEGIN__	__EPS__
a	a
l	l
l	l
e	e
r	r
s	s
c	c
h	h
o	ö
n	n
s	s
t	te

__BEGIN__	__EPS__
a	a
b	b
z	z
i	i
e	e
h	h
e	e
n	n

__BEGIN__	__EPS__
v	v
o	o
n	n

__BEGIN__	__EPS__
n	n
i	i
c	c
h	h
t	t

__BEGIN__	__EPS__
d	d
e	e
r	r

__BEGIN__	__EPS__
t	ze
u	u
g	g
h	__EPS__
e	e
n	n

__BEGIN__	__EPS__
g	g
e	e
n	n
i	ie
s	s
s	s
e	e
n	n

__BEGIN__	__EPS__
r	r
e	e
c	c
h	h
t	t
e	e
r	r

__BEGIN__	__EPS__
m	m
e	e
i	i
n	n

__BEGIN__	__EPS__
s	s
i	i
c	c
h	h

__BEGIN__	__EPS__
s	s
p	p
r	r
i	i
c	c
h	h
t	t

__BEGIN__	__EPS__
h	e
e	r

__BEGIN__	__EPS__
d	d
i	i
e	e

__BEGIN__	__EPS__
d	d
o	a

__BEGIN__	__EPS__
a	e
i	i
n	n
e	e
r	r

__BEGIN__	__EPS__
a	a
n	n
g	g
e	e
s	s
i	i
c	c
h	h
t	t
e	__EPS__

__BEGIN__	__EPS__
w	w
a	a
r	r
t	d

__BEGIN__	__EPS__
n	n
a	a
g	ge
l	l
o	__EPS__
t	t
e	e
n	n
d	__EPS__

__BEGIN__	__EPS__
i	i
c	c
h	h

__BEGIN__	__EPS__
i	i
c	c
h	h

__BEGIN__	__EPS__
m	m
i	i
t	t

__BEGIN__	__EPS__
s	s
p	p
r	r
i	i
h	c
e	h
t	t

__BEGIN__	__EPS__
n	n
a	a
c	c
h	h
t	t

__BEGIN__	__EPS__
d	d
a	a
s	ss

__BEGIN__	__EPS__
w	w
a	a
t	s

__BEGIN__	__EPS__
g	g
a	a
b	b

__BEGIN__	__EPS__
s	m
c	__EPS__
h	ö
a	r
c	__EPS__
h	d
e	e
r	r

__BEGIN__	__EPS__
k	k
y	i
n	n
t	d

__BEGIN__	__EPS__
r	r
e	e
x	x

__BEGIN__	__EPS__
g	g
r	r
o	o
z	s
z	s
e	e
m	m

__BEGIN__	__EPS__
o	ih
n	n

__BEGIN__	__EPS__
h	h
a	a
m	mm
e	e
r	r
s	sch
l	l
e	ä
g	ge

__BEGIN__	__EPS__
s	s
e	e
i	i
n	n

__BEGIN__	__EPS__
d	d
i	i
r	r

__BEGIN__	__EPS__
g	g
e	eh
e	e
n	n

__BEGIN__	__EPS__
p	b
e	e
g	g
r	r
u	ü
b	be

__BEGIN__	__EPS__
i	j
u	u
d	d
e	e
n	n

__BEGIN__	__EPS__
d	d
o	a

__BEGIN__	__EPS__
s	s
i	i
c	c
h	h

__BEGIN__	__EPS__
d	d
e	e
m	m

__BEGIN__	__EPS__
c	__EPS__
h	k
r	r
a	a
f	f
f	__EPS__
t	t

__BEGIN__	__EPS__
m	m
i	i
t	t

__BEGIN__	__EPS__
w	w
u	a
r	r
f	f
e	e
n	n
d	__EPS__

__BEGIN__	__EPS__
t	t
o	o
d	t
e	e

__BEGIN__	__EPS__
v	u
n	n
d	d

__BEGIN__	__EPS__
w	w
a	a
s	r

__BEGIN__	__EPS__
v	v
o	o
n	n

__BEGIN__	__EPS__
w	w
o	o
l	ll
t	te

__BEGIN__	__EPS__
v	u
n	n
d	d

__BEGIN__	__EPS__
a	a
n	n
g	g
e	e
s	s
e	e
h	h
e	e
n	n

__BEGIN__	__EPS__
n	n
u	un

__BEGIN__	__EPS__
d	d
e	e
n	n

__BEGIN__	__EPS__
d	d
a	a
z	ss

__BEGIN__	__EPS__
v	f
i	i
n	n
s	s
t	t
e	e
r	r
n	n
ü	i
s	s
z	__EPS__

__BEGIN__	__EPS__
g	g
e	e
w	w
a	a
n	n
t	d

__BEGIN__	__EPS__
v	u
n	n
d	d
e	__EPS__

__BEGIN__	__EPS__
e	e
d	d
e	e
l	l
s	s
t	t
e	e
n	n

__BEGIN__	__EPS__
e	e
y	i
n	n

__BEGIN__	__EPS__
h	h
o	ö
r	r
t	t
e	e
s	s
t	t

__BEGIN__	__EPS__
s	s
c	c
h	h
e	e
i	i
d	de

__BEGIN__	__EPS__
v	v
o	o
n	n

__BEGIN__	__EPS__
m	m
e	ehr

__BEGIN__	__EPS__
w	w
o	o
l	ll
d	t
e	e

__BEGIN__	__EPS__
i	j
u	u
d	d
e	e
n	n

__BEGIN__	__EPS__
a	a
l	l
z	s

__BEGIN__	__EPS__
s	s
o	o
e	__EPS__

__BEGIN__	__EPS__
v	u
n	n
d	d

__BEGIN__	__EPS__
i	j
u	u
d	d
e	e
n	n

__BEGIN__	__EPS__
d	d
i	i
e	e

__BEGIN__	__EPS__
v	v
o	o
n	n

__BEGIN__	__EPS__
v	v
e	e
r	r
l	l
a	a
s	s
z	s
e	e
n	n

__BEGIN__	__EPS__
a	a
l	l
s	s
o	o

__BEGIN__	__EPS__
v	u
n	n
d	d

__BEGIN__	__EPS__
a	a
b	b
g	g
r	r
v	u
n	n
d	d
e	__EPS__

__BEGIN__	__EPS__
g	i
h	h
i	r

__BEGIN__	__EPS__
w	w
a	a
s	s

__BEGIN__	__EPS__
r	r
e	e
y	i
n	n
e	e
n	n

__BEGIN__	__EPS__
d	d
u	u

__BEGIN__	__EPS__
v	u
m	m
e	__EPS__

__BEGIN__	__EPS__
l	l
a	as
z	s
e	e
n	n

__BEGIN__	__EPS__
a	a
n	n

__BEGIN__	__EPS__
i	ih
r	r

__BEGIN__	__EPS__
v	u
n	n
d	d

__BEGIN__	__EPS__
s	s
i	ie

__BEGIN__	__EPS__
v	u
n	n
d	d

__BEGIN__	__EPS__
m	m
y	i
r	r

__BEGIN__	__EPS__
m	m
a	o
c	c
h	h
t	t

__BEGIN__	__EPS__
d	d
a	a
r	__EPS__
n	n
a	a
c	c
h	h

__BEGIN__	__EPS__
s	s
e	i
d	tt
e	e
n	n

__BEGIN__	__EPS__
g	g
e	ehe
n	n

__BEGIN__	__EPS__
e	e
r	r
t	d
e	__EPS__
r	re
i	i
c	c
h	h

__BEGIN__	__EPS__
d	d
i	i
e	e

__BEGIN__	__EPS__
g	g
e	e
r	r
n	n
e	e

__BEGIN__	__EPS__
s	s
u	ü
n	n
d	d
e	e

__BEGIN__	__EPS__
a	e
i	i
n	n
e	e
r	r

__BEGIN__	__EPS__
d	d
a	a
r	r
v	u
m	m
b	__EPS__

__BEGIN__	__EPS__
m	m
i	i
r	r

__BEGIN__	__EPS__
s	se
y	i
n	n

__BEGIN__	__EPS__
d	d
a	a
n	n
n	n
e	e
n	n

__BEGIN__	__EPS__
v	u
n	n
d	d

__BEGIN__	__EPS__
a	a
r	r
e	__EPS__
m	m

__BEGIN__	__EPS__
z	z
u	u

__BEGIN__	__EPS__
m	me
y	i
n	n

__BEGIN__	__EPS__
k	k
a	e
i	i
n	n

__BEGIN__	__EPS__
s	s
o	o

__BEGIN__	__EPS__
s	s
p	p
r	r
a	a
c	c
h	h

__BEGIN__	__EPS__
d	d
i	i
c	c
h	h

__BEGIN__	__EPS__
z	z
a	e
i	i
c	c
h	h
e	e
n	n

__BEGIN__	__EPS__
e	e
r	r
h	h
e	ä
n	n
g	g
e	__EPS__
t	t

__BEGIN__	__EPS__
f	f
u	ü
e	h
r	r
t	t

__BEGIN__	__EPS__
m	m
i	i
t	t

__BEGIN__	__EPS__
g	g
e	e
t	t
r	r
a	a
g	g
e	e
n	n

__BEGIN__	__EPS__
w	w
o	o
r	r
d	d
e	e
n	n

__BEGIN__	__EPS__
e	e
t	t

__BEGIN__	__EPS__
v	v
o	o
r	__EPS__
r	r

__BEGIN__	__EPS__
d	de
i	i
n	n
e	e
m	m

__BEGIN__	__EPS__
d	d
y	ie

__BEGIN__	__EPS__
d	d
e	e
r	r

__BEGIN__	__EPS__
a	a
m	m
e	e
n	n

__BEGIN__	__EPS__
e	e
r	r

__BEGIN__	__EPS__
r	r
i	i
e	e
m	m
e	e
n	n

__BEGIN__	__EPS__
s	s
e	e
i	i
n	n
e	e
m	m

__BEGIN__	__EPS__
y	ih
n	n

__BEGIN__	__EPS__
w	w
i	i
e	e

__BEGIN__	__EPS__
i	ih
m	m

__BEGIN__	__EPS__
g	g
e	e
s	s
e	e
h	h
e	e
n	n
d	__EPS__
e	__EPS__

__BEGIN__	__EPS__
e	e
i	i
n	n
e	e
m	m

__BEGIN__	__EPS__
v	u
n	n
d	d

__BEGIN__	__EPS__
z	z
e	e
r	r
p	b
r	r
e	e
c	c
h	h
e	e
n	n

__BEGIN__	__EPS__
g	g
e	e
m	m
a	e
i	i
n	n

__BEGIN__	__EPS__
e	e
r	r
t	d
r	re
i	i
c	c
h	h

__BEGIN__	__EPS__
t	t
u	u
e	e

__BEGIN__	__EPS__
v	u
n	n
d	d

__BEGIN__	__EPS__
m	m
u	u
s	ss
t	t

__BEGIN__	__EPS__
i	i
c	c
h	h

__BEGIN__	__EPS__
w	w
a	a
t	s

__BEGIN__	__EPS__
m	m
o	o
c	c
h	h
t	t
e	e
n	n

__BEGIN__	__EPS__
m	m
i	i
t	t

__BEGIN__	__EPS__
g	g
e	e
r	r
n	n
e	e

__BEGIN__	__EPS__
m	m
i	i
c	c
h	h

__BEGIN__	__EPS__
d	d
i	ir

__BEGIN__	__EPS__
k	k
i	i
n	n
d	d

__BEGIN__	__EPS__
v	v
o	o
n	n

__BEGIN__	__EPS__
i	i
c	c
h	h

__BEGIN__	__EPS__
g	g
e	e
d	d
o	u
i	__EPS__
l	l
t	d

__BEGIN__	__EPS__
d	d
e	e
n	n

__BEGIN__	__EPS__
n	n
o	o
c	c
h	h

__BEGIN__	__EPS__
d	d
i	i
r	r

__BEGIN__	__EPS__
m	m
e	e
n	n
s	s
c	c
h	h

__BEGIN__	__EPS__
m	m
e	e
n	n
s	s
c	c
h	h
l	l
e	__EPS__
i	i
c	c
h	h

__BEGIN__	__EPS__
a	a
l	l
s	s

__BEGIN__	__EPS__
h	h
e	e
r	rr

__BEGIN__	__EPS__
p	p
e	e
i	i
n	n

__BEGIN__	__EPS__
m	m
i	i
t	t

__BEGIN__	__EPS__
a	a
b	b
e	e
r	r

__BEGIN__	__EPS__
d	t
o	o
i	__EPS__
t	t

__BEGIN__	__EPS__
w	w
i	i
e	e
d	d
e	e
r	r

__BEGIN__	__EPS__
f	f
l	l
a	e
i	i
s	s
c	c
h	h

__BEGIN__	__EPS__
s	s
a	a
g	g
e	e

__BEGIN__	__EPS__
d	d
i	i
e	e

__BEGIN__	__EPS__
s	s
y	ie

__BEGIN__	__EPS__
s	s
e	e
l	l
u	b
e	e
r	r

__BEGIN__	__EPS__
i	i
c	ch

__BEGIN__	__EPS__
w	w
a	a
s	r

__BEGIN__	__EPS__
b	b
l	l
u	u
t	t
i	i
g	g

__BEGIN__	__EPS__
v	u
n	n
g	g
e	e
t	t
r	r
o	ö
e	__EPS__
s	s
t	t
e	e
t	t

__BEGIN__	__EPS__
a	a
l	l
l	l
e	e

__BEGIN__	__EPS__
v	u
n	n
d	t
e	e
r	r

__BEGIN__	__EPS__
g	g
e	e
l	l
e	e
g	g
i	e
n	n

__BEGIN__	__EPS__
c	k
r	r
e	e
a	a
t	t
u	u
r	r
e	en

__BEGIN__	__EPS__
v	u
n	n
d	d

__BEGIN__	__EPS__
g	g
e	e
s	s
t	t
o	o
c	c
h	h
e	e
n	n

__BEGIN__	__EPS__
g	g
a	a
r	r

__BEGIN__	__EPS__
m	m
a	a
c	c
h	h
t	t

__BEGIN__	__EPS__
g	z
e	e
t	__EPS__
z	__EPS__
u	u
i	__EPS__
c	g
h	e

__BEGIN__	__EPS__
m	me
i	i
n	n

__BEGIN__	__EPS__
d	d
a	a
z	ss

__BEGIN__	__EPS__
i	j
e	ä
m	mm
e	e
n	r
l	l
i	i
c	c
h	h
e	e
n	n

__BEGIN__	__EPS__
m	m
e	e
r	r
c	k
k	e

__BEGIN__	__EPS__
v	u
n	n
d	d

__BEGIN__	__EPS__
n	n
i	i
c	c
h	h
t	t

__BEGIN__	__EPS__
r	r
e	e
d	d
e	e
n	n

__BEGIN__	__EPS__
p	p
y	i
l	l
a	a
t	t
u	u
s	s

__BEGIN__	__EPS__
d	d
a	a
z	s

__BEGIN__	__EPS__
z	z
u	u

__BEGIN__	__EPS__
w	w
u	o
r	r
d	d
i	e
n	n

__BEGIN__	__EPS__
o	o
w	w
e	eh

__BEGIN__	__EPS__
d	di
e	e
s	s
e	e
r	r

__BEGIN__	__EPS__
f	f
i	i
n	n
g	g
e	e

__BEGIN__	__EPS__
b	b
i	i
s	s
t	t

__BEGIN__	__EPS__
e	u
n	n
d	d
e	__EPS__

__BEGIN__	__EPS__
d	d
o	a

__BEGIN__	__EPS__
d	d
u	u

__BEGIN__	__EPS__
d	d
a	a
t	s

__BEGIN__	__EPS__
d	d
a	a

__BEGIN__	__EPS__
g	g
e	e
b	b
e	e

__BEGIN__	__EPS__
v	u
n	n
d	d

__BEGIN__	__EPS__
h	h
e	e
r	r
c	__EPS__
z	z
e	e
n	n

__BEGIN__	__EPS__
a	e
i	i
n	n
e	e
r	r

__BEGIN__	__EPS__
s	s
e	e
i	i
n	n

__BEGIN__	__EPS__
c	c
e	e
t	t
e	e
r	r
a	a

__BEGIN__	__EPS__
s	s
y	i
m	m
o	o
n	n

__BEGIN__	__EPS__
v	v
i	ie
l	l

__BEGIN__	__EPS__
w	w
a	ah
r	re
n	n

__BEGIN__	__EPS__
i	i
n	n

__BEGIN__	__EPS__
v	v
o	o
l	l
k	k

__BEGIN__	__EPS__
v	ü
b	b
e	e
r	r

__BEGIN__	__EPS__
w	w
e	e
r	r
d	d
e	e
n	n

__BEGIN__	__EPS__
e	e
i	i
n	n

__BEGIN__	__EPS__
v	u
n	n
d	d

__BEGIN__	__EPS__
d	d
a	a
s	ss

__BEGIN__	__EPS__
r	r
e	e
d	d
e	e
n	n

__BEGIN__	__EPS__
e	e
u	u
c	c
h	h

__BEGIN__	__EPS__
m	m
i	i
r	r

__BEGIN__	__EPS__
s	s
i	i
e	e

__BEGIN__	__EPS__
s	s
i	i
c	c
h	h

__BEGIN__	__EPS__
d	d
e	e
r	r

__BEGIN__	__EPS__
v	f
a	ah
r	r
e	e
n	n

__BEGIN__	__EPS__
w	d
e	e
n	nn

__BEGIN__	__EPS__
v	v
o	o
r	r

__BEGIN__	__EPS__
k	k
y	i
n	n
t	d

__BEGIN__	__EPS__
e	e
y	i
n	n
i	i
c	__EPS__
h	g

__BEGIN__	__EPS__
g	g
e	e
m	m
a	a
c	c
h	h
t	t

__BEGIN__	__EPS__
w	w
a	a
t	s

__BEGIN__	__EPS__
g	g
r	r
o	o
z	ss
e	e
r	r

__BEGIN__	__EPS__
v	u
n	n
d	d

__BEGIN__	__EPS__
e	__EPS__
n	__EPS__
h	k
e	e
i	i
n	n
e	e

__BEGIN__	__EPS__
m	m
i	i
r	r

__BEGIN__	__EPS__
m	m
e	e
i	i
n	n

__BEGIN__	__EPS__
l	l
e	e
i	i
b	b

__BEGIN__	__EPS__
d	d
y	ie

__BEGIN__	__EPS__
s	s
i	i
e	e

__BEGIN__	__EPS__
p	p
y	i
l	l
a	a
t	t
u	u
s	s

__BEGIN__	__EPS__
i	i
c	c
h	h

__BEGIN__	__EPS__
i	i
e	h
r	r

__BEGIN__	__EPS__
d	d
e	e
n	m

__BEGIN__	__EPS__
h	h
e	e
r	r
c	__EPS__
z	z
e	e
n	__EPS__
l	l
a	e
i	i
d	d
e	e
s	s

__BEGIN__	__EPS__
n	n
i	i
c	c
h	h
t	t

__BEGIN__	__EPS__
w	p
e	r
i	o
s	p
a	h
g	__EPS__
e	et

__BEGIN__	__EPS__
d	d
a	a
s	ss

__BEGIN__	__EPS__
l	le
i	i
b	b
e	__EPS__

__BEGIN__	__EPS__
d	d
e	e
r	r

__BEGIN__	__EPS__
d	d
e	e
m	m

__BEGIN__	__EPS__
v	ü
b	b
e	e
r	r

__BEGIN__	__EPS__
f	f
u	ü
i	__EPS__
r	r
s	s
t	t
e	e
n	n

__BEGIN__	__EPS__
z	z
u	u
o	__EPS__

__BEGIN__	__EPS__
z	z
a	a
r	r
t	t
e	e
n	n

__BEGIN__	__EPS__
m	m
i	e
j	i
n	n

__BEGIN__	__EPS__
s	s
e	e
i	i
n	n
e	e
r	r

__BEGIN__	__EPS__
m	m
i	i
t	t

__BEGIN__	__EPS__
y	j
u	u
d	d
e	e
n	n

__BEGIN__	__EPS__
m	m
i	i
t	t

__BEGIN__	__EPS__
v	u
n	n
d	d

__BEGIN__	__EPS__
a	a
l	lle
s	s

__BEGIN__	__EPS__
d	d
u	u

__BEGIN__	__EPS__
m	m
e	e
i	i
n	n
e	e
m	m

__BEGIN__	__EPS__
w	w
e	e
r	r
f	__EPS__
f	f
e	e
n	n

__BEGIN__	__EPS__
k	k
v	__EPS__
i	ö
n	n
i	i
c	g
h	__EPS__

__BEGIN__	__EPS__
l	l
a	ass

__BEGIN__	__EPS__
v	u
n	n
d	d

__BEGIN__	__EPS__
e	ei
n	n

__BEGIN__	__EPS__
s	sch
w	w
a	a
n	n
g	g
e	e
r	r

__BEGIN__	__EPS__
w	w
u	u
r	r
d	d
e	e
n	n

__BEGIN__	__EPS__
g	g
e	e
a	a
c	c
h	h
t	t
e	e
t	t

__BEGIN__	__EPS__
e	e
s	s

__BEGIN__	__EPS__
d	d
o	a

__BEGIN__	__EPS__
d	d
i	i
e	e

__BEGIN__	__EPS__
k	k
e	e
i	i
n	n

__BEGIN__	__EPS__
d	d
e	e
s	s

__BEGIN__	__EPS__
v	v
o	ol
l	l

__BEGIN__	__EPS__
g	g
e	e
l	l
i	i
e	t
d	t
e	e
n	n

__BEGIN__	__EPS__
b	be
i	i

__BEGIN__	__EPS__
s	s
a	a
c	c
h	he

__BEGIN__	__EPS__
w	w
a	a
r	r
t	d

__BEGIN__	__EPS__
o	o
b	b

__BEGIN__	__EPS__
d	d
a	a
n	nn

__BEGIN__	__EPS__
a	a
l	l
l	l
e	e
s	s

__BEGIN__	__EPS__
t	t
o	ö
t	t
t	__EPS__
e	e
n	n

__BEGIN__	__EPS__
s	se
y	i
n	n
e	e
s	s

__BEGIN__	__EPS__
e	e
i	i
n	n

__BEGIN__	__EPS__
n	n
i	i
c	c
h	h
t	t

__BEGIN__	__EPS__
b	b
r	r
u	u
e	__EPS__
d	d
e	e
r	r

__BEGIN__	__EPS__
d	de
i	i
n	n

__BEGIN__	__EPS__
d	d
e	e
i	i
n	n

__BEGIN__	__EPS__
l	l
o	o
s	s
z	__EPS__

__BEGIN__	__EPS__
g	g
e	e
d	d
a	a
c	c
h	h
t	te

__BEGIN__	__EPS__
d	d
a	a
z	ss

__BEGIN__	__EPS__
h	h
a	a
n	n
t	d

__BEGIN__	__EPS__
s	s
e	ee
l	le

__BEGIN__	__EPS__
p	p
i	i
l	l
a	a
t	t
u	u
s	s

__BEGIN__	__EPS__
f	f
u	ü
e	s
s	s
z	e

__BEGIN__	__EPS__
d	d
a	a
i	__EPS__
r	__EPS__

__BEGIN__	__EPS__
i	u
n	n
d	d

__BEGIN__	__EPS__
g	g
e	e
s	s
c	c
h	h
e	e
c	__EPS__
h	he

__BEGIN__	__EPS__
n	n
i	i
c	c
h	h
t	t

__BEGIN__	__EPS__
r	r
e	e
i	__EPS__
c	c
h	h
t	t
e	e

__BEGIN__	__EPS__
h	h
e	e
r	r

__BEGIN__	__EPS__
d	d
y	i
e	e

__BEGIN__	__EPS__
m	me
i	i
n	n

__BEGIN__	__EPS__
n	n
u	un

__BEGIN__	__EPS__
n	n
i	i
e	e

__BEGIN__	__EPS__
w	w
a	a
s	r

__BEGIN__	__EPS__
d	d
o	a

__BEGIN__	__EPS__
a	a
l	l
s	s

__BEGIN__	__EPS__
h	h
o	ä
e	u
p	p
t	t
e	e
r	r

__BEGIN__	__EPS__
d	d
o	a

__BEGIN__	__EPS__
n	n
o	o
c	c
h	h

__BEGIN__	__EPS__
k	k
i	i
n	n
d	d

__BEGIN__	__EPS__
g	g
e	e
t	t
a	a
n	n

__BEGIN__	__EPS__
v	v
o	e
r	r
t	d
h	__EPS__
u	a
m	m
e	m
n	n
i	i
s	s
s	__EPS__
e	__EPS__

__BEGIN__	__EPS__
a	a
n	n

__BEGIN__	__EPS__
e	e
r	r

__BEGIN__	__EPS__
v	u
n	n
d	d

__BEGIN__	__EPS__
s	s
a	a
g	h
s	s
t	t

__BEGIN__	__EPS__
s	s
u	ü
e	__EPS__
s	s
s	s
e	e
n	n

__BEGIN__	__EPS__
m	m
a	o
c	c
h	h
t	te

__BEGIN__	__EPS__
g	g
e	e
m	m
e	e
i	i
n	n

__BEGIN__	__EPS__
v	v
o	o
r	r

__BEGIN__	__EPS__
v	v
o	o
n	n

__BEGIN__	__EPS__
m	m
i	i
r	r

__BEGIN__	__EPS__
k	k
l	l
a	a
g	ge

__BEGIN__	__EPS__
d	d
a	a

__BEGIN__	__EPS__
t	t
o	ö
t	t
e	e
n	n

__BEGIN__	__EPS__
g	g
e	e
w	w
e	e
r	r
l	l
i	i
c	c
h	h

__BEGIN__	__EPS__
h	h
e	e
i	i
s	s
z	s
e	e
n	n

__BEGIN__	__EPS__
d	d
a	a
z	s

__BEGIN__	__EPS__
m	m
u	u
t	t
t	t
e	e
r	r

__BEGIN__	__EPS__
a	a
l	l
l	l
e	e
m	m

__BEGIN__	__EPS__
s	s
y	ie

__BEGIN__	__EPS__
h	h
a	a
n	be

__BEGIN__	__EPS__
l	l
e	eh
r	r
e	e
r	r

__BEGIN__	__EPS__
v	u
n	n
d	d

__BEGIN__	__EPS__
b	b
i	i
s	s
t	t

__BEGIN__	__EPS__
h	h
e	e
r	r
t	__EPS__
z	z

__BEGIN__	__EPS__
s	s
t	t
i	im
m	m
e	e

__BEGIN__	__EPS__
d	t
a	a
d	t
e	e
n	n

__BEGIN__	__EPS__
b	b
e	e
h	h
a	a
l	l
t	te

__BEGIN__	__EPS__
c	k
r	r
e	e
u	u
c	__EPS__
z	z
e	__EPS__

__BEGIN__	__EPS__
v	u
n	n
d	d

__BEGIN__	__EPS__
d	d
o	a

__BEGIN__	__EPS__
o	o
b	b
e	e
n	n

__BEGIN__	__EPS__
v	u
n	n
d	d

__BEGIN__	__EPS__
v	v
e	e
r	r
d	d
e	e
r	r
u	b
e	e
n	n

__BEGIN__	__EPS__
v	u
n	n
d	d

__BEGIN__	__EPS__
v	v
o	o
n	n

__BEGIN__	__EPS__
s	s
y	ie

__BEGIN__	__EPS__
d	d
a	a
n	nn

__BEGIN__	__EPS__
e	e
r	r

__BEGIN__	__EPS__
v	u
n	n
d	d

__BEGIN__	__EPS__
r	r
o	o
i	__EPS__
t	t

__BEGIN__	__EPS__
i	j
e	e
s	s
u	u
s	s

__BEGIN__	__EPS__
l	l
e	e
i	i
d	d
e	e
n	n
s	s

__BEGIN__	__EPS__
m	m
o	ö
e	__EPS__
r	r
d	d
e	e
r	r

__BEGIN__	__EPS__
n	n
a	e
y	i
g	g
t	t

__BEGIN__	__EPS__
k	k
o	a
m	m
e	e
n	n
d	__EPS__

__BEGIN__	__EPS__
i	e
s	s

__BEGIN__	__EPS__
w	w
a	a
s	r

__BEGIN__	__EPS__
i	i
n	n

__BEGIN__	__EPS__
d	d
e	e
n	n

__BEGIN__	__EPS__
m	m
i	i
t	t

__BEGIN__	__EPS__
m	m
i	i
r	r

__BEGIN__	__EPS__
e	e
r	r
m	m
a	ah
n	n
t	t

__BEGIN__	__EPS__
g	g
e	e
p	b
a	a
r	r
s	s
t	t

__BEGIN__	ge
p	b
u	u
e	__EPS__
r	r
d	t
e	__EPS__

__BEGIN__	__EPS__
a	a
n	n

__BEGIN__	__EPS__
t	__EPS__
z	z
o	u

__BEGIN__	__EPS__
w	w
i	ie
d	d
e	e
r	r

__BEGIN__	__EPS__
m	m
i	i
t	t

__BEGIN__	__EPS__
z	z
v	u
o	__EPS__

__BEGIN__	__EPS__
m	me
y	i
n	n

__BEGIN__	__EPS__
f	f
u	üh
r	r
t	t
e	e
n	n

__BEGIN__	__EPS__
d	d
w	ie

__BEGIN__	__EPS__
d	d
a	a
s	ss

__BEGIN__	__EPS__
s	s
e	e
i	i
n	n
e	e
r	r

__BEGIN__	__EPS__
s	s
a	a
g	g
e	e
n	n

__BEGIN__	__EPS__
g	g
e	e
w	w
e	e
s	s
s	__EPS__
e	e
n	n

__BEGIN__	__EPS__
w	w
a	ä
e	__EPS__
r	re

__BEGIN__	__EPS__
m	m
e	e
i	i
n	n

__BEGIN__	__EPS__
d	d
e	e
r	r

__BEGIN__	__EPS__
d	d
y	i
r	r

__BEGIN__	__EPS__
m	m
o	o
c	c
h	h
t	te

__BEGIN__	__EPS__
i	ih
m	m

__BEGIN__	__EPS__
f	f
r	r
e	e
ü	u
n	n
d	d

__BEGIN__	__EPS__
b	b
e	e
h	h
a	a
l	l
t	te

__BEGIN__	__EPS__
s	s
e	a
g	g
g	__EPS__
h	__EPS__
e	e
n	n

__BEGIN__	__EPS__
i	i
s	s
t	t

__BEGIN__	__EPS__
d	di
e	e
s	s
e	e

__BEGIN__	__EPS__
d	d
a	a
t	s

__BEGIN__	__EPS__
m	v
a	__EPS__
n	i
i	e
c	l
h	e

__BEGIN__	__EPS__
t	t
a	e
i	i
l	l

__BEGIN__	__EPS__
s	s
e	e
r	h
e	r

__BEGIN__	__EPS__
s	s
y	ie

__BEGIN__	__EPS__
d	d
e	e
n	n

__BEGIN__	__EPS__
d	d
a	a

__BEGIN__	__EPS__
f	f
u	ü
i	__EPS__
r	r
s	s
t	t
e	e
n	n

__BEGIN__	__EPS__
s	s
p	p
r	r
a	a
c	c
h	h

__BEGIN__	__EPS__
d	de
i	i
n	n

__BEGIN__	__EPS__
g	k
e	e
y	i
n	n
e	e
n	n

__BEGIN__	__EPS__
v	u
n	n
d	d

__BEGIN__	__EPS__
d	d
a	a
s	s

__BEGIN__	__EPS__
i	i
c	c
h	h

__BEGIN__	__EPS__
i	ih
n	n

__BEGIN__	__EPS__
s	s
t	t
y	i
m	m
m	m
e	e

__BEGIN__	__EPS__
s	s
a	a
c	__EPS__
h	h
e	e
n	n
d	__EPS__

__BEGIN__	__EPS__
s	s
i	i
c	e
h	h

__BEGIN__	__EPS__
i	i
c	c
h	h

__BEGIN__	__EPS__
l	l
i	i
e	e
p	b
l	l
i	i
c	c
h	h

__BEGIN__	__EPS__
k	k
i	i
n	n
d	d

__BEGIN__	__EPS__
g	g
o	o
t	t
t	t
e	__EPS__

__BEGIN__	__EPS__
d	d
i	i
r	r

__BEGIN__	__EPS__
d	d
a	a
s	ss

__BEGIN__	__EPS__
p	p
i	i
l	l
a	a
t	t
u	u
s	s

__BEGIN__	__EPS__
m	m
a	oc
h	h
t	t
e	e

__BEGIN__	__EPS__
s	s
e	a
n	nk
t	t
e	__EPS__

__BEGIN__	__EPS__
d	d
o	a

__BEGIN__	__EPS__
v	u
n	n
d	d

__BEGIN__	__EPS__
c	k
h	__EPS__
i	i
n	n
d	d

__BEGIN__	__EPS__
m	m
i	i
c	c
h	h

__BEGIN__	__EPS__
m	m
i	i
t	t

__BEGIN__	__EPS__
d	d
i	i
e	e

__BEGIN__	__EPS__
s	s
t	t
y	i
m	m
m	m
e	e
n	n

__BEGIN__	__EPS__
d	d
a	a
s	s

__BEGIN__	t
z	r
a	ä
h	n
e	e
r	__EPS__

__BEGIN__	__EPS__
b	be
y	i

__BEGIN__	__EPS__
d	d
i	ie
t	s

__BEGIN__	__EPS__
s	s
e	e
i	i
t	t
t	__EPS__
e	e
n	n

__BEGIN__	__EPS__
i	i
c	c
h	h

__BEGIN__	__EPS__
v	b
o	e
r	r
m	ü
e	h
r	m
t	t
e	e

__BEGIN__	__EPS__
g	g
e	e
b	b
e	e
n	n

__BEGIN__	__EPS__
d	d
y	ie
s	s
e	e

__BEGIN__	__EPS__
d	d
e	e
m	m

__BEGIN__	__EPS__
m	m
e	e
i	i
n	n

__BEGIN__	__EPS__
i	j
o	o
s	s
e	e
p	p
h	h
e	__EPS__
n	__EPS__

__BEGIN__	__EPS__
d	t
e	ä
d	t
e	e

__BEGIN__	__EPS__
n	n
v	un

__BEGIN__	__EPS__
g	g
o	ö
t	tt
l	l
i	i
c	c
h	h
e	e
n	n

__BEGIN__	__EPS__
m	m
e	eh
r	r

__BEGIN__	__EPS__
h	h
a	a
n	b
d	t

__BEGIN__	__EPS__
d	d
i	i
c	c
h	h

__BEGIN__	__EPS__
s	s
o	o

__BEGIN__	__EPS__
w	w
e	e
m	m

__BEGIN__	__EPS__
i	i
c	c
h	h

__BEGIN__	__EPS__
i	i
n	n

__BEGIN__	__EPS__
e	e
r	r

__BEGIN__	__EPS__
w	w
e	ä
r	re

__BEGIN__	__EPS__
a	a
l	l
l	l
e	e
n	n

__BEGIN__	__EPS__
a	ansel
:	m

__BEGIN__	__EPS__
d	d
a	a

__BEGIN__	__EPS__
e	e
r	r

__BEGIN__	__EPS__
w	w
a	a
n	n
d	n

__BEGIN__	__EPS__
h	h
a	a
i	be
n	n

__BEGIN__	__EPS__
w	w
a	a
r	r
d	d

__BEGIN__	__EPS__
l	l
i	i
e	e
b	b
e	e

__BEGIN__	__EPS__
s	s
i	i
j	e

__BEGIN__	__EPS__
w	w
a	a
s	r

__BEGIN__	__EPS__
s	s
e	e
i	i
n	n

__BEGIN__	__EPS__
s	s
t	t
u	a
n	n
d	d

__BEGIN__	__EPS__
a	a
l	l
s	s

__BEGIN__	__EPS__
d	d
i	i
c	c
h	h

__BEGIN__	__EPS__
d	d
e	e
r	r

__BEGIN__	__EPS__
h	h
u	o
e	__EPS__
b	b

__BEGIN__	__EPS__
s	s
p	p
a	a
n	n
n	n
e	e

__BEGIN__	__EPS__
d	d
a	a
s	s

__BEGIN__	__EPS__
d	t
e	ä
d	t
e	e

__BEGIN__	__EPS__
l	l
e	e
i	i
b	b

__BEGIN__	__EPS__
y	ih
n	n

__BEGIN__	__EPS__
d	da
z	s

__BEGIN__	__EPS__
n	n
i	ich
t	t

__BEGIN__	__EPS__
m	m
e	e
n	n
s	s
c	c
h	h
e	e
n	n

__BEGIN__	__EPS__
v	u
n	n
d	d

__BEGIN__	__EPS__
f	f
r	re
u	u
n	n
d	d
e	e

__BEGIN__	__EPS__
d	d
o	a
e	__EPS__

__BEGIN__	__EPS__
m	m
i	i
t	t

__BEGIN__	__EPS__
d	d
o	a

__BEGIN__	__EPS__
b	b
e	e
y	i

__BEGIN__	__EPS__
a	a
u	u
f	f
f	__EPS__

__BEGIN__	__EPS__
t	t
o	o
d	d
e	__EPS__

__BEGIN__	__EPS__
h	h
a	a
s	s
t	t

__BEGIN__	__EPS__
b	b
y	i
n	n

__BEGIN__	__EPS__
d	d
a	a
n	n
k	k
o	e
n	n

__BEGIN__	__EPS__
p	b
l	l
u	u
t	t

__BEGIN__	__EPS__
v	u
n	n
d	d

__BEGIN__	__EPS__
d	d
i	i
e	e

__BEGIN__	a
v	u
f	f
g	g
e	e
r	r
i	i
c	c
h	h
t	tet

__BEGIN__	__EPS__
e	e
r	r

__BEGIN__	__EPS__
m	m
o	ö
e	__EPS__
g	g
e	e
n	n

__BEGIN__	__EPS__
d	d
a	a

__BEGIN__	__EPS__
p	b
e	e
s	s
t	t
e	ä
r	r
k	k
c	__EPS__
h	__EPS__
t	t

__BEGIN__	__EPS__
k	k
i	i
n	n
t	d

__BEGIN__	__EPS__
r	r
o	o
c	c
k	k

__BEGIN__	__EPS__
h	h
a	a
u	u
p	p
p	t

__BEGIN__	__EPS__
i	i
c	c
h	h

__BEGIN__	__EPS__
m	m
a	a
g	g
t	d

__BEGIN__	__EPS__
s	s
a	a
c	__EPS__
h	h

__BEGIN__	__EPS__
y	ih
n	n

__BEGIN__	__EPS__
s	s
p	p
r	r
a	a
c	c
h	h

__BEGIN__	__EPS__
m	m
u	u
t	t
t	t
e	e
r	r

__BEGIN__	__EPS__
a	a
n	n

__BEGIN__	__EPS__
a	a
l	l
r	l
e	er
l	l
i	i
e	e
f	b
s	s
t	t
e	e

__BEGIN__	__EPS__
s	s
c	c
h	h
r	r
e	e
y	i

__BEGIN__	__EPS__
i	ih
n	n

__BEGIN__	__EPS__
s	s
o	o

__BEGIN__	__EPS__
w	w
a	a
s	r

__BEGIN__	__EPS__
g	g
r	r
o	o
s	s
s	s
e	e
n	n

__BEGIN__	__EPS__
w	w
e	e
r	r

__BEGIN__	__EPS__
a	a
l	l
s	s

__BEGIN__	__EPS__
d	d
i	i
e	e

__BEGIN__	__EPS__
n	n
a	ah
m	m

__BEGIN__	__EPS__
a	e
i	i
n	n

__BEGIN__	__EPS__
w	w
a	a
t	s

__BEGIN__	__EPS__
v	u
n	n
d	d

__BEGIN__	__EPS__
n	n
a	ah
m	m

__BEGIN__	__EPS__
h	h
e	e
i	i
z	s
e	s
t	t

__BEGIN__	__EPS__
i	i
c	c
h	h

__BEGIN__	__EPS__
d	d
e	e
n	n

__BEGIN__	__EPS__
d	d
e	e
s	s

__BEGIN__	__EPS__
s	se
y	i
n	n

__BEGIN__	__EPS__
m	m
i	i
r	r

__BEGIN__	__EPS__
d	d
u	u

__BEGIN__	__EPS__
n	n
e	e
m	h
p	m
t	t

__BEGIN__	__EPS__
d	de
i	i
n	n
e	e
r	r

__BEGIN__	__EPS__
d	d
a	a
r	r
a	a
u	u
s	s
z	__EPS__

__BEGIN__	__EPS__
d	d
e	e
s	s

__BEGIN__	__EPS__
w	w
a	a
n	nn

__BEGIN__	__EPS__
v	u
n	n
d	d

__BEGIN__	__EPS__
v	v
o	o
n	n

__BEGIN__	__EPS__
a	a
l	l
l	l
e	e
s	s

__BEGIN__	__EPS__
s	s
a	a
n	n
c	k
t	t

__BEGIN__	__EPS__
a	o
w	w
e	eh

__BEGIN__	__EPS__
d	d
o	a

__BEGIN__	__EPS__
g	g
e	e
l	l
e	e
y	h
n	n
i	__EPS__
t	t

__BEGIN__	__EPS__
f	f
l	l
o	o
s	s
z	s

__BEGIN__	__EPS__
i	ih
n	n

__BEGIN__	__EPS__
g	g
a	eh
i	e
n	n

__BEGIN__	__EPS__
d	d
e	e
s	s

__BEGIN__	__EPS__
l	l
i	i
e	e
f	f
f	__EPS__
e	e
n	n

__BEGIN__	__EPS__
h	ha
u	u
s	s

__BEGIN__	__EPS__
i	ih
n	n

__BEGIN__	__EPS__
p	p
i	i
l	l
a	a
t	t
u	u
s	s

__BEGIN__	__EPS__
a	a
n	n
l	l
e	e
g	g
e	e
n	n

__BEGIN__	__EPS__
v	u
n	n
d	d

__BEGIN__	__EPS__
h	h
a	a
b	b
e	e
n	n

__BEGIN__	__EPS__
y	ih
n	n

__BEGIN__	__EPS__
w	w
e	ä
r	r
e	e

__BEGIN__	__EPS__
v	w
o	oh
l	l

__BEGIN__	__EPS__
c	k
h	__EPS__
u	ö
n	n
i	i
g	g

__BEGIN__	__EPS__
y	ih
m	m

__BEGIN__	__EPS__
p	ph
l	l
a	a
c	c
h	__EPS__

__BEGIN__	__EPS__
a	a
n	n
d	d
e	e
r	r
r	e
n	n

__BEGIN__	__EPS__
n	n
u	un

__BEGIN__	__EPS__
w	w
e	e
i	i
s	ss

__BEGIN__	__EPS__
d	d
e	e
n	m

__BEGIN__	__EPS__
l	l
a	e
y	i
d	d

__BEGIN__	__EPS__
w	w
a	a
s	r

__BEGIN__	__EPS__
d	d
e	e
n	n

__BEGIN__	__EPS__
m	m
e	e
i	i
s	s
t	t
e	e
r	r

__BEGIN__	__EPS__
w	w
o	oh
l	l

__BEGIN__	__EPS__
z	z
e	u

__BEGIN__	__EPS__
p	p
y	i
l	l
a	a
t	t
u	u
s	s

__BEGIN__	__EPS__
w	w
i	i
e	e

__BEGIN__	__EPS__
f	f
r	r
o	a
w	u
e	__EPS__

__BEGIN__	__EPS__
d	d
e	e
s	s
z	__EPS__

__BEGIN__	__EPS__
a	a
n	n
t	t
w	w
o	o
e	__EPS__
r	r
d	t
e	e
s	st

__BEGIN__	__EPS__
q	b
u	ö
a	s
d	__EPS__
e	e

__BEGIN__	__EPS__
i	i
c	c
h	h

__BEGIN__	__EPS__
w	w
o	o
r	r
d	d
e	e
n	n

__BEGIN__	__EPS__
s	s
y	ie

__BEGIN__	__EPS__
d	d
a	a
r	__EPS__
n	n
a	a
c	c
h	h

__BEGIN__	__EPS__
d	d
e	e
n	n

__BEGIN__	__EPS__
f	f
r	r
a	a
ü	u
w	__EPS__
e	__EPS__

__BEGIN__	__EPS__
k	k
l	l
a	a
g	g
e	e

__BEGIN__	n
e	ich
n	t

__BEGIN__	__EPS__
v	v
o	o
n	n

__BEGIN__	__EPS__
c	__EPS__
z	z
e	e
i	i
t	t

__BEGIN__	__EPS__
c	k
h	__EPS__
i	i
n	n
d	d

__BEGIN__	__EPS__
t	__EPS__
z	z
e	ä
n	h
d	n
e	e

__BEGIN__	__EPS__
m	m
e	ehr

__BEGIN__	__EPS__
g	g
e	e
b	b
e	ä
r	r
e	e
n	n

__BEGIN__	__EPS__
d	d
a	a
t	s

__BEGIN__	__EPS__
d	d
o	a

__BEGIN__	__EPS__
z	z
w	we
i	i
r	m
n	a
t	l

__BEGIN__	__EPS__
w	w
e	e
n	n
n	n

__BEGIN__	__EPS__
e	e
r	r
s	s
c	c
h	h
i	iene
n	n

__BEGIN__	__EPS__
v	u
n	n
d	d

__BEGIN__	__EPS__
d	d
i	i
e	e

__BEGIN__	__EPS__
d	d
o	o
r	r
n	n
e	e
n	n

__BEGIN__	__EPS__
m	m
i	i
r	r

__BEGIN__	__EPS__
d	d
y	ie

__BEGIN__	__EPS__
i	i
c	c
h	h

__BEGIN__	__EPS__
o	o
w	w
e	eh

__BEGIN__	__EPS__
d	d
o	a

__BEGIN__	__EPS__
g	g
e	e
m	m
e	e
y	i
n	n
e	e

__BEGIN__	__EPS__
i	i
n	n

__BEGIN__	__EPS__
a	a
l	l
l	l

__BEGIN__	__EPS__
f	f
r	r
a	a
g	g
t	t

__BEGIN__	__EPS__
s	s
c	c
h	h
r	r
i	i
r	__EPS__
e	e
n	n

__BEGIN__	__EPS__
v	u
n	n
d	d

__BEGIN__	__EPS__
i	ih
n	n

__BEGIN__	__EPS__
t	t
a	ä
e	__EPS__
t	t
e	e

__BEGIN__	__EPS__
s	s
y	ie

__BEGIN__	__EPS__
e	__EPS__
r	__EPS__
b	b
a	a
r	r
m	m
e	__EPS__
h	h
e	e
r	r
z	z
e	__EPS__
k	__EPS__
l	__EPS__
i	i
c	g
h	__EPS__
e	e
r	r

__BEGIN__	__EPS__
e	e
s	s

__BEGIN__	__EPS__
e	e
z	s

__BEGIN__	__EPS__
d	d
e	e
n	n

__BEGIN__	__EPS__
w	w
u	u
s	ss
t	t
e	e

__BEGIN__	d
u	u

__BEGIN__	__EPS__
h	h
a	a
n	be

__BEGIN__	__EPS__
s	s
a	a
g	g

__BEGIN__	__EPS__
i	j
u	u
d	d
e	e
n	n

__BEGIN__	__EPS__
g	g
e	e
n	n
e	e
i	i
g	g
e	__EPS__
t	t

__BEGIN__	__EPS__
d	d
i	i
e	e

__BEGIN__	a
v	u
f	f
t	t
v	u
n	n

__BEGIN__	__EPS__
m	me
i	i
n	n

__BEGIN__	__EPS__
g	g
e	e
l	l
a	a
u	u
f	f
f	__EPS__
e	e
n	n

__BEGIN__	__EPS__
i	i
c	c
h	h

__BEGIN__	__EPS__
i	ih
n	n

__BEGIN__	__EPS__
w	w
a	o
r	r
d	d
e	e
n	n

__BEGIN__	__EPS__
a	a
n	n
s	s
e	e
l	l
m	m
i	s

__BEGIN__	__EPS__
g	g
r	r
e	ä
b	b
e	e
r	r

__BEGIN__	__EPS__
y	ih
n	n

__BEGIN__	__EPS__
w	w
e	e
r	r
d	d
e	e
n	n

__BEGIN__	__EPS__
a	a
l	l
s	s
o	o

__BEGIN__	__EPS__
y	ih
n	n

__BEGIN__	__EPS__
d	d
i	i
e	e

__BEGIN__	__EPS__
a	a
u	u
d	d
i	i

__BEGIN__	__EPS__
s	s
t	t
e	eh

__BEGIN__	__EPS__
s	s
p	p
r	r
a	a
c	c
h	h

__BEGIN__	__EPS__
a	a
l	l
s	s

__BEGIN__	__EPS__
a	a
l	l
l	l
e	e
r	r

__BEGIN__	__EPS__
w	w
a	a
r	r
t	d

__BEGIN__	__EPS__
d	d
e	e
m	m

__BEGIN__	__EPS__
v	v
e	e
r	r
l	l
o	o
r	r

__BEGIN__	__EPS__
n	n
o	o
c	c
h	h

__BEGIN__	__EPS__
e	e
w	w
i	i
g	g
e	e

__BEGIN__	__EPS__
t	t
e	e
i	i
l	l

__BEGIN__	__EPS__
v	u
n	n
r	r
a	e
i	i
n	n

__BEGIN__	__EPS__
v	v
o	o
n	n

__BEGIN__	__EPS__
h	h
e	ä
t	tte

__BEGIN__	__EPS__
m	m
i	i
t	t

__BEGIN__	__EPS__
i	i
c	c
h	h

__BEGIN__	__EPS__
v	u
n	n
d	d

__BEGIN__	__EPS__
v	u
n	n
d	d

__BEGIN__	__EPS__
o	a
u	u
g	g
e	e
n	n

__BEGIN__	__EPS__
i	ih
r	r

__BEGIN__	__EPS__
d	d
a	a
z	ss

__BEGIN__	__EPS__
d	d
a	as
z	s

__BEGIN__	__EPS__
a	a
n	n
d	d
e	e
r	re

__BEGIN__	__EPS__
i	i
c	c
h	h

__BEGIN__	__EPS__
o	o
w	w
e	eh

__BEGIN__	__EPS__
w	w
i	i
e	e

__BEGIN__	__EPS__
m	m
e	e
i	i
n	n

__BEGIN__	__EPS__
c	k
h	__EPS__
a	e
i	i
n	n
e	e
n	n

__BEGIN__	__EPS__
v	v
o	o
n	n

__BEGIN__	__EPS__
v	f
r	r
a	a
g	g
e	e
n	n

__BEGIN__	__EPS__
w	w
u	u
r	r
d	d
e	e
n	n

__BEGIN__	__EPS__
w	w
i	i
e	e

__BEGIN__	__EPS__
b	b
e	e
h	h
a	a
l	l
t	t

__BEGIN__	__EPS__
g	g
e	e
n	n
i	i
e	e
s	s
s	s
e	e
n	n

__BEGIN__	__EPS__
s	s
e	e
i	i
n	n

__BEGIN__	__EPS__
n	n
a	a
g	ge
l	l

__BEGIN__	__EPS__
n	n
a	a
g	g
e	e
l	l

__BEGIN__	__EPS__
n	n
a	a
s	s
e	e

__BEGIN__	__EPS__
a	a
n	n

__BEGIN__	__EPS__
b	b
e	e
g	g
r	r
a	a
u	b
e	e
n	n

__BEGIN__	__EPS__
e	e
r	r

__BEGIN__	__EPS__
d	o
i	f
k	t
e	__EPS__

__BEGIN__	__EPS__
a	a
n	n
t	t
l	l
u	i
t	t
z	z

__BEGIN__	__EPS__
d	d
o	a

__BEGIN__	__EPS__
d	d
a	a
n	nn

__BEGIN__	__EPS__
h	h
e	ä
t	t
t	te

__BEGIN__	__EPS__
v	u
n	n
s	s
e	e
r	r

__BEGIN__	__EPS__
g	__EPS__
e	__EPS__
s	s
p	p
r	r
a	a
c	c
h	h

__BEGIN__	__EPS__
w	w
i	i
l	l
l	l

__BEGIN__	__EPS__
s	s
i	i
c	c
h	h

__BEGIN__	__EPS__
m	m
a	a
r	r
i	i
a	a

__BEGIN__	__EPS__
w	w
a	a
z	r

__BEGIN__	__EPS__
e	n
n	icht

__BEGIN__	__EPS__
v	v
o	o
n	n

__BEGIN__	__EPS__
v	u
n	n
d	d

__BEGIN__	__EPS__
i	i
c	c
h	h

__BEGIN__	__EPS__
i	j
o	u
e	__EPS__
d	d
e	e
n	n

__BEGIN__	be
s	s
u	o
n	n
d	d
e	e
r	r
l	s
e	__EPS__
i	__EPS__
c	__EPS__
h	__EPS__
e	__EPS__
n	__EPS__

__BEGIN__	__EPS__
m	m
a	o
c	c
h	h
t	te

__BEGIN__	__EPS__
c	k
h	__EPS__
l	l
a	a
g	g
e	e

__BEGIN__	__EPS__
d	d
a	a

__BEGIN__	__EPS__
a	a
u	u
f	f

__BEGIN__	__EPS__
e	e
i	i
n	n

__BEGIN__	__EPS__
h	__EPS__
e	e
r	r

__BEGIN__	__EPS__
t	z
w	we
i	i
u	f
e	e
l	l

__BEGIN__	__EPS__
v	u
n	n
d	d

__BEGIN__	__EPS__
d	d
e	e
n	n

__BEGIN__	__EPS__
h	h
o	o
l	l
z	z
e	__EPS__

__BEGIN__	__EPS__
s	s
o	o
n	h
e	n

__BEGIN__	__EPS__
c	k
r	r
u	__EPS__
y	e
t	u
z	z
e	e

__BEGIN__	__EPS__
e	e
i	i
n	n
e	e
m	m

__BEGIN__	__EPS__
a	a
l	l
l	l
e	e
r	r
l	l
i	i
e	e
b	b
s	s
t	t

__BEGIN__	__EPS__
v	v
o	o
n	n

__BEGIN__	__EPS__
s	s
e	i
d	tt
e	e
n	n

__BEGIN__	__EPS__
s	s
u	ü
e	__EPS__
s	s
s	s
e	e
s	s

__BEGIN__	__EPS__
z	z
u	u

__BEGIN__	__EPS__
p	b
l	l
i	i
n	n
d	d
e	e
n	n

__BEGIN__	__EPS__
i	i
n	n

__BEGIN__	__EPS__
s	s
o	o

__BEGIN__	__EPS__
s	s
e	e
l	l
b	b
e	e

__BEGIN__	__EPS__
e	e
y	i
n	n

__BEGIN__	__EPS__
v	u
n	n
d	d

__BEGIN__	__EPS__
e	e
r	r

__BEGIN__	__EPS__
w	w
e	e
r	r
d	d
i	e
n	n

__BEGIN__	__EPS__
d	d
a	a
r	r

__BEGIN__	__EPS__
m	me
i	i
n	n
e	e
s	s

__BEGIN__	__EPS__
d	d
e	e
z	s

__BEGIN__	__EPS__
p	p
f	f
e	e
n	n
n	n
i	i
n	__EPS__
g	g

__BEGIN__	__EPS__
i	j
o	o
h	h
a	a
n	nnes

__BEGIN__	__EPS__
w	w
a	a
n	n
g	ge

__BEGIN__	__EPS__
m	m
a	a
n	n

__BEGIN__	__EPS__
l	l
a	a
n	n
g	g
e	e

__BEGIN__	__EPS__
a	a
l	l
s	s

__BEGIN__	__EPS__
v	v
o	e
r	r
b	b
i	i
r	r
g	g

__BEGIN__	__EPS__
i	i
s	st

__BEGIN__	__EPS__
s	s
y	ie

__BEGIN__	__EPS__
s	s
e	e
i	i
t	d

__BEGIN__	__EPS__
a	a
l	l
l	l
e	e
r	r

__BEGIN__	__EPS__
s	s
e	e
i	i
n	n
e	e
m	m

__BEGIN__	__EPS__
m	me
y	i
n	n

__BEGIN__	__EPS__
m	m
a	a
g	g
t	d

__BEGIN__	__EPS__
e	e
s	s

__BEGIN__	__EPS__
m	m
i	i
c	c
h	h

__BEGIN__	__EPS__
g	g
l	l
i	e
e	i
c	c
h	h

__BEGIN__	__EPS__
m	m
e	e
y	i
n	n
e	e
n	n

__BEGIN__	__EPS__
d	d
r	r
i	i
t	t
t	t
e	e
n	n

__BEGIN__	__EPS__
d	d
i	i
e	e

__BEGIN__	__EPS__
d	d
a	a
v	v
o	o
n	n

__BEGIN__	__EPS__
w	w
e	e
r	r

__BEGIN__	__EPS__
s	s
a	a
g	h
e	e
n	n

__BEGIN__	__EPS__
d	d
e	e
m	m

__BEGIN__	__EPS__
s	s
o	o
u	ll
d	t
e	e
n	n

__BEGIN__	__EPS__
w	w
a	a
z	s

__BEGIN__	__EPS__
d	d
e	e
n	n

__BEGIN__	__EPS__
s	s
a	a
c	c
h	h
e	e

__BEGIN__	__EPS__
v	u
n	n
d	d

__BEGIN__	__EPS__
s	s
e	e
i	i
n	n

__BEGIN__	__EPS__
p	b
l	l
u	u
o	__EPS__
t	t

__BEGIN__	__EPS__
e	e
r	r

__BEGIN__	__EPS__
e	e
r	r

__BEGIN__	__EPS__
t	t
u	u
c	c
h	h

__BEGIN__	__EPS__
r	r
e	e
i	i
n	n
e	e

__BEGIN__	__EPS__
i	j
u	u
d	d
e	e
n	n

__BEGIN__	__EPS__
h	h
i	__EPS__
n	__EPS__
a	e
h	u
t	te

__BEGIN__	__EPS__
d	__EPS__
a	als

__BEGIN__	__EPS__
m	m
e	e
i	i

__BEGIN__	__EPS__
k	k
y	i
n	n
d	d
e	e
r	r

__BEGIN__	__EPS__
g	g
a	a
p	b

__BEGIN__	__EPS__
v	f
a	ah
r	r
e	e
n	n

__BEGIN__	__EPS__
y	ih
n	n

__BEGIN__	__EPS__
w	w
a	a
z	r

__BEGIN__	__EPS__
i	ih
n	n

__BEGIN__	__EPS__
d	d
e	e
t	s

__BEGIN__	__EPS__
d	d
a	a
z	ss

__BEGIN__	__EPS__
d	de
i	i
n	n

__BEGIN__	__EPS__
i	ih
n	n

__BEGIN__	__EPS__
v	u
n	n
d	d

__BEGIN__	__EPS__
h	h
a	a
u	u
p	p
t	t

__BEGIN__	__EPS__
v	v
i	ie
l	l

__BEGIN__	__EPS__
d	d
e	e
m	m

__BEGIN__	__EPS__
v	u
n	n
d	d

__BEGIN__	__EPS__
v	v
e	e
r	r
s	s
c	c
h	h
m	m
e	ä
h	h
e	__EPS__
t	t

__BEGIN__	__EPS__
p	p
y	i
l	l
a	a
t	t
u	u
s	s

__BEGIN__	__EPS__
m	m
i	i
c	c
h	h

__BEGIN__	__EPS__
h	h
e	a
t	t

__BEGIN__	__EPS__
d	d
a	a
n	n
n	n

__BEGIN__	__EPS__
d	d
v	i
i	e

__BEGIN__	__EPS__
i	i
s	s
t	t

__BEGIN__	__EPS__
c	k
h	__EPS__
o	a
m	m

__BEGIN__	__EPS__
c	k
h	__EPS__
i	i
n	n
d	d

__BEGIN__	__EPS__
d	d
i	i
e	e

__BEGIN__	__EPS__
a	a
n	n

__BEGIN__	__EPS__
i	i
c	c
h	h

__BEGIN__	__EPS__
d	d
e	e
n	n

__BEGIN__	__EPS__
v	u
n	n
d	d

__BEGIN__	__EPS__
w	w
a	a
r	r
d	d

__BEGIN__	__EPS__
v	v
o	o
n	n

__BEGIN__	__EPS__
e	e
s	s

__BEGIN__	__EPS__
d	d
e	e
n	m

__BEGIN__	__EPS__
g	g
e	e
t	t
h	__EPS__
a	a
n	n

__BEGIN__	__EPS__
w	w
e	ä
r	re

__BEGIN__	__EPS__
w	w
n	o
n	n
e	n
n	i
c	g
l	l
i	i
c	c
h	h
e	e
s	s

__BEGIN__	__EPS__
s	s
p	p
r	r
a	a
c	c
h	h

__BEGIN__	__EPS__
d	d
a	a
t	s

__BEGIN__	__EPS__
a	a
u	u
s	s
z	__EPS__

__BEGIN__	__EPS__
i	i
c	c
h	h

__BEGIN__	__EPS__
v	u
n	n
d	d

__BEGIN__	__EPS__
g	g
e	__EPS__
l	l
a	a
u	u
b	be

__BEGIN__	__EPS__
e	e
r	r
p	b
i	e
b	b
e	__EPS__
m	t
e	e
t	__EPS__

__BEGIN__	__EPS__
e	e
r	r

__BEGIN__	__EPS__
z	z
ü	u

__BEGIN__	__EPS__
h	h
a	a
i	be
n	n

__BEGIN__	__EPS__
i	ih
r	r

__BEGIN__	__EPS__
d	d
i	i
e	e

__BEGIN__	__EPS__
d	d
o	a

__BEGIN__	__EPS__
w	w
a	a
s	__EPS__
z	r

__BEGIN__	__EPS__
d	d
e	e
r	r

__BEGIN__	__EPS__
d	d
e	e
r	r

__BEGIN__	__EPS__
s	s
i	i
c	c
h	h

__BEGIN__	__EPS__
d	d
o	a

__BEGIN__	__EPS__
s	s
y	i
b	__EPS__
e	e
n	b
t	t
e	e
n	n

__BEGIN__	__EPS__
v	u
n	n
d	d

__BEGIN__	__EPS__
e	u
n	nd

__BEGIN__	__EPS__
d	d
e	e
r	r

__BEGIN__	__EPS__
s	s
c	c
h	h
e	e
l	l
t	t
w	w
o	o
r	r
t	t

__BEGIN__	__EPS__
i	i
s	s
t	t

__BEGIN__	__EPS__
p	b
i	i
t	t
t	t
e	e
r	r
l	l
i	i
c	c
h	h
e	e
n	n

__BEGIN__	__EPS__
s	s
e	e
i	i
n	n

__BEGIN__	__EPS__
s	s
e	a
g	g
s	s
t	t

__BEGIN__	__EPS__
n	n
a	ah
m	m
e	e
n	n

__BEGIN__	__EPS__
d	d
i	ie

__BEGIN__	__EPS__
g	g
a	a
l	l
l	__EPS__
i	i
l	l
e	e
a	a

__BEGIN__	__EPS__
e	e
i	i
n	n

__BEGIN__	__EPS__
d	d
e	e
m	m

__BEGIN__	__EPS__
p	b
o	ö
z	s
e	e
r	r

__BEGIN__	__EPS__
w	w
u	a
r	r
p	f
e	e
n	n

__BEGIN__	__EPS__
p	b
i	i
s	s
t	t

__BEGIN__	__EPS__
b	b
e	e
g	g
r	r
a	a
b	b
e	e

__BEGIN__	__EPS__
s	s
p	p
r	r
a	a
c	c
h	h

__BEGIN__	__EPS__
s	s
i	i
c	c
h	h

__BEGIN__	__EPS__
s	se
i	i
n	n

__BEGIN__	__EPS__
i	ih
m	m

__BEGIN__	__EPS__
e	e
r	r

__BEGIN__	__EPS__
m	m
e	e
i	i
s	s
t	t
e	e
r	r

__BEGIN__	__EPS__
a	o
w	w
e	eh

__BEGIN__	__EPS__
w	w
a	a
n	nn

__BEGIN__	__EPS__
d	d
a	a
z	ss

__BEGIN__	__EPS__
s	s
t	t
e	e
r	r
b	b
e	e
n	n

__BEGIN__	__EPS__
v	u
n	n
d	d

__BEGIN__	__EPS__
m	m
i	i
t	t

__BEGIN__	__EPS__
g	g
r	r
o	o
z	s
z	s
e	e

__BEGIN__	__EPS__
m	m
i	i
t	t

__BEGIN__	__EPS__
d	d
e	e
r	r

__BEGIN__	__EPS__
v	u
n	n
d	d

__BEGIN__	__EPS__
g	g
e	e
b	b
e	e
n	n

__BEGIN__	__EPS__
d	d
i	i
e	e

__BEGIN__	__EPS__
h	h
a	a
s	s
t	t

__BEGIN__	__EPS__
v	f
a	a
l	ll
t	t

__BEGIN__	__EPS__
w	w
u	u
c	c
h	h
z	s

__BEGIN__	__EPS__
g	g
e	e
d	d
e	e
n	n
c	__EPS__
h	__EPS__
k	k

__BEGIN__	__EPS__
d	d
i	i
e	e

__BEGIN__	__EPS__
s	s
e	eh
t	t

__BEGIN__	__EPS__
d	w
a	e
n	__EPS__
n	g
e	__EPS__
n	b
f	r
v	i
e	n
r	g
e	e
n	n

__BEGIN__	__EPS__
i	ih
m	m

__BEGIN__	__EPS__
p	b
e	e
g	g
r	r
a	a
b	b
e	e
n	n

__BEGIN__	__EPS__
g	g
a	a
r	r

__BEGIN__	__EPS__
e	e
r	r

__BEGIN__	__EPS__
f	f
r	r
o	a
w	u
e	__EPS__

__BEGIN__	__EPS__
d	d
e	e
m	m

__BEGIN__	__EPS__
d	d
e	e
n	n

__BEGIN__	__EPS__
i	i
c	c
h	h

__BEGIN__	__EPS__
v	u
n	n
d	d

__BEGIN__	__EPS__
d	d
o	a

__BEGIN__	__EPS__
m	m
i	i
r	r

__BEGIN__	__EPS__
l	l
u	e
i	u
t	t
t	__EPS__
e	e
n	__EPS__

__BEGIN__	__EPS__
d	d
r	r
e	e
y	i
e	__EPS__
r	__EPS__
h	__EPS__
a	__EPS__
n	__EPS__
t	__EPS__

__BEGIN__	__EPS__
h	h
a	a
n	n
t	d

__BEGIN__	__EPS__
i	j
u	u
d	d
e	e

__BEGIN__	__EPS__
i	ih
n	n

__BEGIN__	__EPS__
e	e
i	i
n	n

__BEGIN__	__EPS__
f	f
u	ü
o	h
r	r
t	t
e	e
n	n

__BEGIN__	__EPS__
d	d
o	a

__BEGIN__	__EPS__
r	r
u	ie
f	f
t	__EPS__
e	e
n	n

__BEGIN__	__EPS__
d	d
o	a

__BEGIN__	__EPS__
d	d
o	a

__BEGIN__	__EPS__
m	m
i	i
t	t

__BEGIN__	__EPS__
d	d
a	a

__BEGIN__	__EPS__
s	s
t	t
i	i
e	e
z	ss

__BEGIN__	__EPS__
d	d
a	a
i	b
r	e
b	__EPS__
y	i

__BEGIN__	__EPS__
g	g
e	e
b	b
e	e
n	n

__BEGIN__	__EPS__
k	k
i	i
n	n
t	d

__BEGIN__	__EPS__
n	n
a	ah
m	m

__BEGIN__	__EPS__
s	s
v	i
i	e

__BEGIN__	__EPS__
v	u
n	n
n	d

__BEGIN__	__EPS__
e	e
d	d
e	__EPS__
l	le
n	n

__BEGIN__	__EPS__
d	d
i	i
e	e

__BEGIN__	__EPS__
d	d
y	ie

__BEGIN__	__EPS__
w	w
a	a
z	r

__BEGIN__	__EPS__
a	e
i	i
g	g
e	e
n	n

__BEGIN__	__EPS__
m	m
i	i
c	c
h	h

__BEGIN__	__EPS__
v	u
n	n
d	d

__BEGIN__	__EPS__
a	a
n	n

__BEGIN__	__EPS__
l	l
a	ä
s	s
t	t
e	e
r	r
l	l
e	__EPS__
y	i
c	c
h	h
e	e
n	n

__BEGIN__	__EPS__
b	b
e	e
k	k
a	a
n	nn
t	t

__BEGIN__	__EPS__
g	g
l	l
e	e
y	i
c	c
h	h

__BEGIN__	__EPS__
n	n
a	a
c	c
h	h

__BEGIN__	__EPS__
d	d
e	e
r	r

__BEGIN__	__EPS__
a	a
n	n

__BEGIN__	__EPS__
e	a
l	l
l	l
v	__EPS__
i	e

__BEGIN__	__EPS__
c	k
r	r
e	e
u	u
c	__EPS__
z	z
e	__EPS__

__BEGIN__	__EPS__
v	v
o	o
n	n

__BEGIN__	__EPS__
v	v
o	o
l	ll
e	e
n	n
d	d
e	e
t	t

__BEGIN__	__EPS__
e	u
e	n
n	d

__BEGIN__	__EPS__
a	a
n	n

__BEGIN__	__EPS__
v	u
r	r
t	t
e	ei
l	l

__BEGIN__	__EPS__
h	h
i	i
e	e
s	s
z	s

__BEGIN__	__EPS__
k	k
i	i
n	n
d	d

__BEGIN__	__EPS__
i	i
c	c
h	h

__BEGIN__	__EPS__
d	d
e	e
r	r

__BEGIN__	__EPS__
g	g
e	e
s	s
c	c
h	h
e	e
h	h
e	e
n	n

__BEGIN__	__EPS__
h	h
a	abe
n	n

__BEGIN__	__EPS__
w	w
e	oh
l	l

__BEGIN__	__EPS__
h	h
e	e
r	rr

__BEGIN__	__EPS__
w	w
i	i
l	l
l	l
e	e
n	n

__BEGIN__	__EPS__
m	m
i	i
r	r

__BEGIN__	__EPS__
b	b
e	e
g	g
i	in
e	g

__BEGIN__	__EPS__
r	r
e	e
i	i
c	c
h	h

__BEGIN__	__EPS__
s	s
i	ie

__BEGIN__	__EPS__
v	u
n	n
d	d

__BEGIN__	__EPS__
v	v
o	o
n	n

__BEGIN__	__EPS__
m	me
y	i
n	n

__BEGIN__	__EPS__
d	d
a	a
z	s

__BEGIN__	__EPS__
s	s
i	i
c	c
i	i
o	o

__BEGIN__	__EPS__
g	g
e	e
t	t
a	a
n	n

__BEGIN__	__EPS__
v	u
n	n
d	d

__BEGIN__	__EPS__
d	d
o	a

__BEGIN__	__EPS__
e	e
s	s

__BEGIN__	a
v	u
f	f

__BEGIN__	__EPS__
n	n
i	i
e	ch
t	t

__BEGIN__	__EPS__
s	s
p	p
r	r
i	i
c	c
h	h
t	t

__BEGIN__	__EPS__
k	kl
.	arhe
.	it

__BEGIN__	__EPS__
d	d
a	a
z	ss

__BEGIN__	__EPS__
m	m
o	ö
r	r
d	d
e	e
r	r

__BEGIN__	__EPS__
s	s
a	a
n	n
d	kt

__BEGIN__	__EPS__
s	s
e	e
i	i
n	n
e	e
n	n

__BEGIN__	__EPS__
v	v
a	a
t	t
e	e
r	r

__BEGIN__	__EPS__
c	k
r	r
e	e
ü	u
c	__EPS__
z	z

__BEGIN__	__EPS__
e	e
r	r
f	f
u	ü
l	l
l	l
e	__EPS__
t	t

__BEGIN__	__EPS__
k	k
i	i
n	n
d	d

__BEGIN__	__EPS__
a	a
n	n

__BEGIN__	__EPS__
i	e
r	r
w	w
i	i
r	r
p	b

__BEGIN__	__EPS__
n	n
u	un

__BEGIN__	__EPS__
e	e
r	r
s	s
t	t
o	o
r	r
b	b
e	e
n	n

__BEGIN__	__EPS__
k	k
u	ö
i	__EPS__
n	n
i	i
g	g

