__BEGIN__	__EPS__
m	m
i	i
t	t

__BEGIN__	__EPS__
v	u
n	n
d	d

__BEGIN__	__EPS__
d	d
a	a

__BEGIN__	__EPS__
d	d
i	i
e	e

__BEGIN__	__EPS__
k	k
o	ö
e	__EPS__
n	n
y	i
n	__EPS__
c	__EPS__
k	g

__BEGIN__	__EPS__
d	d
e	e
n	n

__BEGIN__	__EPS__
p	p
i	i
l	l
a	a
t	t
u	u
s	s

__BEGIN__	__EPS__
e	u
n	nd

__BEGIN__	__EPS__
h	h
e	ä
t	t
t	t
e	e

__BEGIN__	__EPS__
d	d
o	a

__BEGIN__	__EPS__
m	m
i	i
r	r

__BEGIN__	__EPS__
v	u
n	n
n	__EPS__
d	d

__BEGIN__	__EPS__
b	b
e	e
r	r
u	ü
o	h
r	r
e	e
n	n
t	d

__BEGIN__	__EPS__
b	b
l	le
i	i
b	b
e	e
n	n

__BEGIN__	__EPS__
d	d
a	a
s	ss

__BEGIN__	__EPS__
m	m
i	i
c	c
h	h

__BEGIN__	__EPS__
v	v
e	e
r	r
k	k
o	a
f	u
e	f
t	t

__BEGIN__	__EPS__
s	s
p	p
r	r
a	a
c	c
h	h

__BEGIN__	__EPS__
v	u
n	n
d	d

__BEGIN__	__EPS__
d	d
e	e
n	n
n	n
e	__EPS__

__BEGIN__	__EPS__
t	t
r	r
a	ä
c	__EPS__
h	n
e	e
r	n

__BEGIN__	__EPS__
m	m
a	a
r	r
i	i
a	a

__BEGIN__	__EPS__
d	d
i	i
c	c
h	h

__BEGIN__	__EPS__
w	w
a	a
s	r

__BEGIN__	__EPS__
z	z
u	u
o	__EPS__

__BEGIN__	__EPS__
y	ih
n	n

__BEGIN__	__EPS__
w	w
a	e
i	i
n	n
e	e
n	n
t	d

__BEGIN__	__EPS__
v	u
n	n
t	t
e	e
r	r
t	t
a	ä
e	__EPS__
n	nt
i	i
g	g

__BEGIN__	__EPS__
g	g
i	i
e	__EPS__
n	n
g	g

__BEGIN__	__EPS__
h	h
e	e
r	r
t	__EPS__
z	z
l	le
i	i
e	__EPS__
d	d

__BEGIN__	__EPS__
i	ih
m	m

__BEGIN__	__EPS__
a	a
l	l
l	l
e	e
r	r

__BEGIN__	__EPS__
m	m
i	i
t	t

__BEGIN__	__EPS__
s	s
e	e
c	c
h	h
s	s
t	t
e	e
n	n

__BEGIN__	__EPS__
v	u
n	n
t	z
z	e

__BEGIN__	__EPS__
o	a
v	u
c	c
h	h

__BEGIN__	__EPS__
g	g
i	i
e	__EPS__
n	n
g	g

__BEGIN__	__EPS__
d	d
o	a

__BEGIN__	__EPS__
u	u
n	n
s	s
e	e
r	r

__BEGIN__	__EPS__
z	z
u	u

__BEGIN__	__EPS__
z	z
o	u

__BEGIN__	__EPS__
k	k
i	i
n	n
t	d

__BEGIN__	__EPS__
s	s
u	ü
n	n
d	d
e	e

__BEGIN__	__EPS__
k	k
u	ö
o	n
n	i
k	g
r	re
i	i
c	c
h	h

__BEGIN__	__EPS__
s	s
e	e
r	h
e	r

__BEGIN__	__EPS__
d	d
e	e
r	r

__BEGIN__	__EPS__
d	d
o	a

__BEGIN__	__EPS__
d	d
o	a

__BEGIN__	__EPS__
w	w
a	a
z	r

__BEGIN__	__EPS__
d	d
a	a
s	s

__BEGIN__	__EPS__
w	w
o	o
l	ll
t	t

__BEGIN__	__EPS__
a	a
n	n
d	d
e	e
r	r
s	s

__BEGIN__	__EPS__
m	m
i	i
t	t
t	__EPS__

__BEGIN__	__EPS__
d	d
a	a
s	s

__BEGIN__	__EPS__
v	u
n	n
d	d

__BEGIN__	a
v	u
p	f

__BEGIN__	__EPS__
v	u
n	n
d	d

__BEGIN__	__EPS__
e	e
r	r

__BEGIN__	__EPS__
d	d
a	as
s	s

__BEGIN__	__EPS__
v	u
n	n
d	d

__BEGIN__	__EPS__
w	w
u	u
n	n
d	d
e	e
n	n

__BEGIN__	__EPS__
g	g
e	e
s	s
c	c
h	h
i	i
c	c
k	k
t	t

__BEGIN__	__EPS__
p	se
u	i
r	de
p	n
p	g
e	e
r	wand

__BEGIN__	__EPS__
v	u
r	r
t	t
e	e
i	i
l	l

__BEGIN__	__EPS__
d	t
a	a
g	g
e	e
n	n

__BEGIN__	be
d	t
r	r
o	ü
e	__EPS__
g	g
e	e
n	__EPS__
e	__EPS__
r	r
e	__EPS__

__BEGIN__	__EPS__
v	f
e	e
l	l
d	d

__BEGIN__	__EPS__
m	v
a	i
n	e
n	l
i	__EPS__
c	__EPS__
h	e

__BEGIN__	__EPS__
i	j
v	u
d	d
e	e
n	n

__BEGIN__	__EPS__
m	m
a	a
l	l
e	__EPS__

__BEGIN__	__EPS__
v	u
n	n
d	d

__BEGIN__	__EPS__
a	a
n	n
s	s
i	__EPS__
e	e
c	__EPS__
h	he

__BEGIN__	__EPS__
g	g
e	e
r	r
e	__EPS__
n	n

__BEGIN__	__EPS__
d	d
o	a

__BEGIN__	__EPS__
s	s
i	ie

__BEGIN__	__EPS__
s	s
p	p
r	r
a	a
c	c
h	h

__BEGIN__	__EPS__
a	a
u	u
s	s
e	e
i	i
n	n
a	a
n	n
d	d
e	e
r	r

__BEGIN__	__EPS__
n	n
i	ich
t	t

__BEGIN__	__EPS__
g	g
e	e
t	t
a	a
n	n

__BEGIN__	__EPS__
v	u
n	n
d	d

__BEGIN__	__EPS__
v	v
i	ie
l	l

__BEGIN__	__EPS__
s	s
e	eh
y	e
n	n

__BEGIN__	__EPS__
n	n
ü	u
n	n

__BEGIN__	__EPS__
k	k
e	e
i	i
n	n

__BEGIN__	__EPS__
s	s
i	ie

__BEGIN__	__EPS__
i	j
u	u
d	d
e	e
n	n

__BEGIN__	__EPS__
i	i
n	n

__BEGIN__	__EPS__
w	w
a	a
z	r

__BEGIN__	__EPS__
v	u
r	r
s	s
a	a
c	c
h	he

__BEGIN__	__EPS__
d	d
i	i
e	e

__BEGIN__	__EPS__
s	se
i	i
n	n
e	e
n	n

__BEGIN__	__EPS__
y	ih
n	n

__BEGIN__	__EPS__
c	__EPS__
z	z
o	o
g	g
e	e
n	n

__BEGIN__	__EPS__
c	k
h	__EPS__
i	i
n	n
t	d

__BEGIN__	__EPS__
b	b
e	e
g	g
r	r
a	a
b	be

__BEGIN__	a
v	ufe
r	r
s	s
t	t
e	ehu
n	n
d	g

__BEGIN__	__EPS__
k	k
i	i
n	n
d	d

__BEGIN__	__EPS__
d	d
o	a

__BEGIN__	__EPS__
a	a
r	r
m	m
e	e

__BEGIN__	__EPS__
a	a
n	n

__BEGIN__	__EPS__
c	k
h	__EPS__
i	i
n	n
d	d

__BEGIN__	__EPS__
w	w
i	i
d	d
e	e
r	r

__BEGIN__	__EPS__
w	w
e	e
g	g
e	__EPS__

__BEGIN__	__EPS__
v	u
n	n
d	d
e	__EPS__

__BEGIN__	__EPS__
i	ih
m	m

__BEGIN__	__EPS__
m	m
e	e
i	i
n	n
e	e
s	s

__BEGIN__	__EPS__
s	s
p	p
r	r
a	a
c	c
h	h
e	e
n	n

__BEGIN__	__EPS__
h	h
e	e
r	r
c	__EPS__
z	z

__BEGIN__	__EPS__
a	a
n	n

__BEGIN__	__EPS__
s	s
i	e
e	h
t	t

__BEGIN__	__EPS__
w	w
a	a
t	s

__BEGIN__	__EPS__
s	sch
w	w
e	e
r	r
e	e

__BEGIN__	__EPS__
s	s
e	e
l	l
i	i
g	g

__BEGIN__	__EPS__
i	i
c	c
h	h

__BEGIN__	__EPS__
r	r
a	e
i	i
n	n
e	e

__BEGIN__	__EPS__
d	d
i	i
e	e

__BEGIN__	__EPS__
s	s
c	c
h	h
o	ö
n	n
h	h
e	e
i	i
t	t

__BEGIN__	__EPS__
c	__EPS__
z	z
w	w
e	e
n	i

__BEGIN__	__EPS__
d	d
e	e
n	n

__BEGIN__	__EPS__
s	s
e	e
y	i

__BEGIN__	__EPS__
s	s
c	c
h	h
l	l
u	u
o	__EPS__
g	g
e	e
n	n
t	__EPS__

__BEGIN__	__EPS__
a	a
l	l
l	l
e	e
r	r

__BEGIN__	__EPS__
i	ih
n	n

__BEGIN__	e
a	r
b	b
a	a
r	r
m	m
e	__EPS__
t	t
e	e
n	n

__BEGIN__	__EPS__
m	m
i	i
t	t

__BEGIN__	__EPS__
m	m
i	i
t	t

__BEGIN__	__EPS__
y	i
n	n

__BEGIN__	__EPS__
h	i
e	h
m	m

__BEGIN__	__EPS__
m	m
u	u
o	s
s	s
t	te

__BEGIN__	__EPS__
k	k
i	i
n	n
d	de
s	s

__BEGIN__	__EPS__
m	a
a	u
l	s
a	s
i	ä
t	t
s	zi
c	g
h	er

__BEGIN__	__EPS__
y	ih
n	n

__BEGIN__	__EPS__
h	h
a	a
u	u
b	p
t	t

__BEGIN__	__EPS__
w	w
a	a
s	r

__BEGIN__	bar
m	mh
i	e
l	r
d	z
e	ig
k	k
e	e
i	i
t	t

__BEGIN__	__EPS__
m	m
a	a
r	r
i	i
a	a

__BEGIN__	__EPS__
d	d
o	a

__BEGIN__	__EPS__
s	s
c	c
h	h
w	w
e	e
r	r
t	t

__BEGIN__	__EPS__
m	m
a	a
n	nn
i	i
g	g
f	f
a	a
l	l
t	t
i	i
g	g

__BEGIN__	__EPS__
d	d
a	ahi
r	n

__BEGIN__	__EPS__
d	d
a	a
t	ss

__BEGIN__	__EPS__
k	k
i	i
n	n
t	d

__BEGIN__	__EPS__
a	a
b	b
e	e
r	r

__BEGIN__	__EPS__
l	l
a	a
t	t
e	e
i	i
n	n

__BEGIN__	__EPS__
i	j
u	u
d	d
e	e
n	n

__BEGIN__	__EPS__
e	nich
n	t

__BEGIN__	__EPS__
d	d
e	e
n	n

__BEGIN__	__EPS__
s	s
i	i
c	c
h	h

__BEGIN__	__EPS__
i	j
e	e
r	r
u	u
s	s
a	a
l	l
e	e
m	m

__BEGIN__	__EPS__
t	t
e	a
t	t
e	e
n	n

__BEGIN__	__EPS__
m	m
i	i
c	c
h	h

__BEGIN__	__EPS__
v	u
n	n
d	d

__BEGIN__	__EPS__
k	k
i	i
n	n
t	d

__BEGIN__	__EPS__
z	z
v	u
o	__EPS__

__BEGIN__	__EPS__
l	l
a	a
m	m
a	a
z	z
a	a
b	b
a	a
t	t
h	h
a	a
n	n
i	i

__BEGIN__	__EPS__
k	k
i	i
n	n
d	d

__BEGIN__	__EPS__
y	ih
m	m

__BEGIN__	__EPS__
d	d
e	e
s	s

__BEGIN__	__EPS__
a	a
b	b
e	e
r	r

__BEGIN__	__EPS__
i	ih
n	n

__BEGIN__	__EPS__
d	d
e	e
n	n

__BEGIN__	__EPS__
e	e
n	n
t	t
s	s
c	c
h	h
u	u
l	l
d	d
i	i
g	g
e	e
n	n

__BEGIN__	__EPS__
m	m
i	i
t	t

__BEGIN__	__EPS__
g	g
h	l
e	a
l	__EPS__
o	u
u	b
e	e

__BEGIN__	__EPS__
d	d
o	a

__BEGIN__	__EPS__
m	m
e	e
i	i
n	n

__BEGIN__	__EPS__
d	d
e	e
r	r

__BEGIN__	__EPS__
d	d
o	a

__BEGIN__	__EPS__
v	u
n	n
d	d

__BEGIN__	__EPS__
l	le
i	i
b	b
e	__EPS__

__BEGIN__	__EPS__
g	k
e	e
y	i
n	n
e	e
n	n

__BEGIN__	__EPS__
ü	a
s	u
z	s

__BEGIN__	__EPS__
m	m
a	a
c	c
h	h
t	t
e	e
n	n

__BEGIN__	__EPS__
k	k
v	on
n	n
d	t
e	e
n	n
t	__EPS__

__BEGIN__	__EPS__
n	n
a	ac
h	h
t	t

__BEGIN__	__EPS__
m	me
y	i
n	n

__BEGIN__	__EPS__
a	a
l	l
s	s
e	o

__BEGIN__	__EPS__
w	w
a	a
z	r

__BEGIN__	__EPS__
v	u
n	n
d	d

__BEGIN__	__EPS__
d	d
i	i
e	e

__BEGIN__	__EPS__
d	d
i	i
e	e

__BEGIN__	__EPS__
m	m
e	e
n	n
t	__EPS__
s	s
c	c
h	h
l	l
i	i
c	c
h	h

__BEGIN__	__EPS__
i	ih
n	n

__BEGIN__	__EPS__
s	s
v	i
i	e

__BEGIN__	__EPS__
d	d
a	a
s	ss

__BEGIN__	__EPS__
c	k
r	r
o	o
n	ne

__BEGIN__	__EPS__
m	m
e	eh
r	r

__BEGIN__	__EPS__
m	m
a	a
c	g
h	__EPS__

__BEGIN__	__EPS__
n	n
i	i
c	c
h	h
t	t

__BEGIN__	__EPS__
s	s
p	p
r	r
a	a
c	c
h	h

__BEGIN__	__EPS__
a	a
n	n

__BEGIN__	__EPS__
n	n
i	i
c	c
h	h
t	t

__BEGIN__	__EPS__
s	s
c	c
h	h
a	e
i	i
t	t
e	e
l	l

__BEGIN__	__EPS__
i	ih
n	n

__BEGIN__	__EPS__
o	o
d	d
e	e
r	r

__BEGIN__	__EPS__
v	u
n	n
n	d

__BEGIN__	__EPS__
e	e
i	i
n	n
g	s
e	c
s	h
l	l
u	u
g	g
e	e
n	n

__BEGIN__	__EPS__
e	e
d	d
e	__EPS__
l	le

__BEGIN__	__EPS__
v	u
n	n
d	d

__BEGIN__	__EPS__
a	a
l	l
l	l
e	e

__BEGIN__	__EPS__
d	d
i	i
e	e

__BEGIN__	__EPS__
e	e
r	r
s	s
a	a
c	__EPS__
h	h

__BEGIN__	__EPS__
s	s
p	p
i	i
b	__EPS__
e	e
n	n

__BEGIN__	__EPS__
s	s
c	c
h	h
e	e
i	i
d	d
e	e

__BEGIN__	__EPS__
m	me
i	i
n	n

__BEGIN__	__EPS__
e	e
r	r

__BEGIN__	__EPS__
s	s
i	ie

__BEGIN__	__EPS__
n	n
i	ich
t	t

__BEGIN__	__EPS__
s	s
o	o

__BEGIN__	__EPS__
v	u
n	n
d	d

__BEGIN__	__EPS__
e	e
r	r

__BEGIN__	__EPS__
d	d
o	a

__BEGIN__	__EPS__
v	u
n	n
d	d

__BEGIN__	__EPS__
h	h
e	e
r	r
z	z
e	e
l	l
e	e
i	i
d	d
e	__EPS__

__BEGIN__	__EPS__
v	v
o	o
n	n

__BEGIN__	__EPS__
m	m
i	i
r	r

__BEGIN__	__EPS__
o	oh

__BEGIN__	__EPS__
s	s
p	p
r	r
a	a
c	c
h	h
e	e
n	n

__BEGIN__	__EPS__
m	m
i	i
c	c
h	h

__BEGIN__	__EPS__
i	ih
n	n

__BEGIN__	__EPS__
s	s
e	eh
y	e
n	n

__BEGIN__	__EPS__
g	g
r	r
o	o
s	s
s	s
e	e
n	n

__BEGIN__	__EPS__
s	sc
h	h
r	re
i	i
b	b
e	e
n	n
t	__EPS__

__BEGIN__	__EPS__
l	l
i	i
e	e
s	s
s	s
e	e
n	n

__BEGIN__	__EPS__
v	u
n	n
d	d

__BEGIN__	__EPS__
s	s
e	eh
r	r

__BEGIN__	__EPS__
u	u
r	r
t	t
e	e
i	i
l	l

__BEGIN__	__EPS__
i	i
n	n

__BEGIN__	__EPS__
c	c
e	e
n	n
t	t
u	u
r	r
i	i
o	o

__BEGIN__	__EPS__
h	h
e	er
r	r
n	n

__BEGIN__	__EPS__
e	ehe

__BEGIN__	__EPS__
k	k
u	o
m	mme

__BEGIN__	__EPS__
l	l
i	i
e	e
b	b
e	e

__BEGIN__	__EPS__
e	e
i	i
n	n

__BEGIN__	__EPS__
d	d
e	e
r	r

__BEGIN__	__EPS__
w	w
e	e
r	r

__BEGIN__	__EPS__
d	da
z	s

__BEGIN__	ge
b	b
r	r
a	a
c	c
h	h
t	t

__BEGIN__	__EPS__
i	ih
n	n

__BEGIN__	__EPS__
s	s
e	e
y	i

__BEGIN__	__EPS__
s	sch
w	w
e	e
r	r
t	t

__BEGIN__	__EPS__
g	k
e	e
y	i
n	n

__BEGIN__	__EPS__
w	w
a	o
i	h
l	l

__BEGIN__	__EPS__
s	s
e	ehe
n	n

__BEGIN__	__EPS__
m	m
e	e
i	i
n	n

__BEGIN__	__EPS__
v	u
n	n
d	d

__BEGIN__	__EPS__
m	m
i	i
t	t

__BEGIN__	__EPS__
d	d
i	i
n	n
g	g
k	__EPS__

__BEGIN__	__EPS__
v	u
n	n
d	d

__BEGIN__	__EPS__
a	a
n	n
s	s
e	e
l	l
m	m
e	__EPS__

__BEGIN__	__EPS__
v	u
n	n
d	d

__BEGIN__	__EPS__
n	n
a	e
i	i
n	n

__BEGIN__	__EPS__
m	m
i	i
z	s
e	s
v	f
a	a
l	l
l	l
e	e
n	n
n	__EPS__
e	__EPS__

__BEGIN__	__EPS__
g	g
e	e
l	l
o	o
p	b
t	t

__BEGIN__	__EPS__
i	i
n	n

__BEGIN__	__EPS__
w	w
u	a
r	r
f	f
f	__EPS__
e	e
n	n

__BEGIN__	__EPS__
d	d
e	e
r	r

__BEGIN__	__EPS__
i	ih
n	n

__BEGIN__	__EPS__
w	w
i	i
l	ll

__BEGIN__	__EPS__
d	d
a	a
s	s

__BEGIN__	__EPS__
s	s
t	t
i	i
l	l
l	l
e	e

__BEGIN__	__EPS__
v	v
o	o
n	n

__BEGIN__	__EPS__
d	d
e	e
r	r

__BEGIN__	__EPS__
n	n
o	o
t	t
t	d
u	u
r	r
f	f
t	t

__BEGIN__	__EPS__
d	d
o	a

__BEGIN__	__EPS__
e	e
i	i
n	n
e	e

__BEGIN__	__EPS__
e	e
r	r
d	d
e	e
n	n
k	k
e	e
n	n

__BEGIN__	__EPS__
v	u
n	n
s	s

__BEGIN__	__EPS__
g	g
r	r
o	o
z	s
z	s
e	e
m	m

__BEGIN__	__EPS__
m	me
i	i
n	n
e	e
n	n

__BEGIN__	__EPS__
i	i
s	s
t	t

__BEGIN__	__EPS__
v	v
e	e
r	r
n	n
o	o
m	mm
e	e
n	n

__BEGIN__	__EPS__
s	s
c	__EPS__
h	o
o	l
l	l

__BEGIN__	__EPS__
m	m
e	e
i	i
n	n

__BEGIN__	__EPS__
a	a
n	n
d	d
e	e
r	r
s	s

__BEGIN__	__EPS__
i	i
e	h
r	r

__BEGIN__	__EPS__
h	h
e	e
r	r
c	__EPS__
z	z

__BEGIN__	__EPS__
s	s
o	oh
n	n

__BEGIN__	__EPS__
w	w
a	a
r	r
t	d

__BEGIN__	__EPS__
m	m
a	o
c	c
h	h
t	t

__BEGIN__	__EPS__
a	a
l	l
l	__EPS__
s	s
o	o

__BEGIN__	__EPS__
d	d
o	a

__BEGIN__	__EPS__
d	de
y	i
n	n

__BEGIN__	__EPS__
d	d
i	e
e	i
n	n

__BEGIN__	__EPS__
n	n
a	a
g	g
e	e
l	l

__BEGIN__	__EPS__
w	w
a	a
r	r
t	d

__BEGIN__	__EPS__
v	u
n	n
d	d

__BEGIN__	__EPS__
w	w
a	a
s	s

__BEGIN__	__EPS__
d	d
a	a

__BEGIN__	__EPS__
w	w
i	i
c	c
h	h
t	t

__BEGIN__	__EPS__
w	w
o	o
u	l
l	l
d	t
e	e

__BEGIN__	__EPS__
m	m
i	i
t	t

__BEGIN__	__EPS__
i	j
e	e

__BEGIN__	__EPS__
h	h
a	a
b	b
e	e
n	n

__BEGIN__	__EPS__
e	e
r	r

__BEGIN__	__EPS__
d	d
o	a

__BEGIN__	__EPS__
i	ih
n	n

__BEGIN__	__EPS__
e	e
i	i
n	n

__BEGIN__	__EPS__
a	a
n	n
d	d
e	e
r	re
n	n

__BEGIN__	__EPS__
c	__EPS__
z	z
i	e
e	i
t	t
h	__EPS__

__BEGIN__	__EPS__
n	n
a	ah
m	m
e	e
n	n

__BEGIN__	__EPS__
y	ih
n	n

__BEGIN__	__EPS__
d	d
a	a
z	s

__BEGIN__	__EPS__
i	ih
n	n

__BEGIN__	__EPS__
w	w
o	o
r	r
d	d
e	e
n	n

__BEGIN__	__EPS__
d	d
e	e
r	r

__BEGIN__	__EPS__
d	d
o	a

__BEGIN__	__EPS__
d	d
o	a

__BEGIN__	__EPS__
g	g
e	e
g	g
e	e
n	n

__BEGIN__	__EPS__
i	j
u	u
n	n
g	g
e	e

__BEGIN__	__EPS__
s	s
a	a
n	nd
t	t
e	e

__BEGIN__	__EPS__
v	u
n	n
d	d

__BEGIN__	__EPS__
p	p
y	i
l	l
a	a
t	t
u	u
s	s

__BEGIN__	__EPS__
w	w
u	u
r	r
d	d
e	e
n	n

__BEGIN__	__EPS__
v	u
n	n
d	d

__BEGIN__	__EPS__
d	d
u	u

__BEGIN__	__EPS__
a	a
l	l
l	l
e	e
n	n

__BEGIN__	__EPS__
e	u
n	nd

__BEGIN__	__EPS__
g	g
e	__EPS__
l	l
v	ü
i	c
k	k
e	__EPS__

__BEGIN__	__EPS__
j	j
e	ä
m	mm
e	e
r	r
l	l
i	i
c	c
h	h
e	e
n	n

__BEGIN__	__EPS__
l	la
u	u
d	t
e	e
r	r

__BEGIN__	__EPS__
w	w
e	ä
r	r
e	e

__BEGIN__	__EPS__
d	d
o	a

__BEGIN__	__EPS__
a	a
l	l
z	s

__BEGIN__	__EPS__
a	a
n	n

__BEGIN__	__EPS__
i	ih
m	m

__BEGIN__	__EPS__
m	m
i	ir

__BEGIN__	__EPS__
m	m
u	ü
e	s
s	s
t	t
e	e
n	n

__BEGIN__	__EPS__
i	i
c	c
h	h

__BEGIN__	__EPS__
t	t
o	o
d	d

__BEGIN__	__EPS__
m	m
i	i
t	t

__BEGIN__	__EPS__
d	d
e	e
r	r

__BEGIN__	__EPS__
e	e
v	uch

__BEGIN__	d
u	u

__BEGIN__	__EPS__
d	d
o	a

__BEGIN__	__EPS__
a	a
n	n
t	t
l	l
i	i
t	t
z	z

__BEGIN__	__EPS__
g	g
a	eh
e	e
n	n

__BEGIN__	__EPS__
g	i
h	h
i	r

__BEGIN__	__EPS__
d	d
e	e
m	m

__BEGIN__	__EPS__
w	w
e	e
r	r
t	de

__BEGIN__	__EPS__
v	v
o	o
n	n

__BEGIN__	__EPS__
s	se
y	i
n	n

__BEGIN__	__EPS__
s	s
a	a
n	n
t	k
e	t

__BEGIN__	__EPS__
m	m
i	i
r	r

__BEGIN__	__EPS__
v	v
u	o
r	r

__BEGIN__	__EPS__
d	d
u	u

__BEGIN__	__EPS__
v	v
i	i
e	e
r	r

__BEGIN__	__EPS__
g	g
e	e
r	r
n	n
e	e

__BEGIN__	__EPS__
a	a
b	b
e	e
r	r

__BEGIN__	__EPS__
v	u
n	n
n	d

__BEGIN__	__EPS__
f	f
r	r
e	e
w	u
e	e
n	n

__BEGIN__	__EPS__
e	e
s	s

__BEGIN__	__EPS__
d	d
e	e
m	m

__BEGIN__	__EPS__
d	d
i	i
e	e

__BEGIN__	__EPS__
a	a
n	n
n	__EPS__

__BEGIN__	__EPS__
s	s
o	o

__BEGIN__	__EPS__
l	l
e	e
y	i
d	d
e	e
n	n

__BEGIN__	__EPS__
b	b
a	a
l	l
d	d
e	__EPS__

__BEGIN__	__EPS__
v	v
o	o
l	l
k	k

__BEGIN__	__EPS__
s	s
p	p
r	r
a	a
c	c
h	h

__BEGIN__	__EPS__
m	m
i	i
l	l
c	c
h	h

__BEGIN__	__EPS__
v	v
o	o
n	n

__BEGIN__	__EPS__
w	p
i	r
s	o
s	p
a	h
g	e
e	t

__BEGIN__	__EPS__
d	d
i	i
e	e

__BEGIN__	__EPS__
t	t
r	r
o	o
i	__EPS__
s	s
t	t

__BEGIN__	__EPS__
e	e
r	r

__BEGIN__	__EPS__
d	d
a	a
r	r

__BEGIN__	__EPS__
i	j
u	ü
n	n
g	g
e	e
r	r

__BEGIN__	__EPS__
e	e
r	r

__BEGIN__	__EPS__
d	d
e	e
s	s

__BEGIN__	__EPS__
d	d
a	a

__BEGIN__	__EPS__
a	a
l	l
l	l
e	e
n	n

__BEGIN__	__EPS__
c	__EPS__
z	z
u	u

__BEGIN__	__EPS__
v	ü
e	__EPS__
b	b
e	e
r	r

__BEGIN__	__EPS__
m	m
o	o
c	c
h	h
t	t
e	e

__BEGIN__	__EPS__
d	d
e	e
n	n

__BEGIN__	__EPS__
d	d
a	a
n	n
n	__EPS__
o	a
c	c
h	h

__BEGIN__	__EPS__
l	l
i	i
e	e
p	b
l	l
i	i
c	c
h	h
e	e

__BEGIN__	__EPS__
i	i
c	c
h	h

__BEGIN__	__EPS__
e	e
r	r

__BEGIN__	__EPS__
d	d
a	a
r	__EPS__
n	n
a	a
c	c
h	h

__BEGIN__	__EPS__
z	z
u	u

__BEGIN__	__EPS__
d	d
e	e
m	m

__BEGIN__	__EPS__
d	d
e	e
r	r

__BEGIN__	__EPS__
d	d
a	a
z	ss

__BEGIN__	__EPS__
w	w
a	a
s	r

__BEGIN__	__EPS__
e	e
r	r
l	l
i	__EPS__
d	__EPS__
e	ö
g	s
e	__EPS__
t	t

__BEGIN__	__EPS__
v	u
n	n
d	d

__BEGIN__	__EPS__
t	__EPS__
z	z
o	u
n	n
g	g
e	e

__BEGIN__	__EPS__
w	w
e	ä
r	r
e	e
n	n

__BEGIN__	__EPS__
g	g
e	e
w	f
a	a
l	l
l	l
e	e
n	n

__BEGIN__	__EPS__
i	ih
m	m

__BEGIN__	__EPS__
m	m
i	i
c	c
h	h

__BEGIN__	__EPS__
d	d
e	e
r	r

__BEGIN__	__EPS__
a	e
i	i
n	n

__BEGIN__	__EPS__
s	s
t	t
u	u
n	n
d	d
e	e
n	__EPS__

__BEGIN__	__EPS__
z	z
u	u
o	__EPS__

__BEGIN__	__EPS__
i	i
c	c
h	h

__BEGIN__	__EPS__
t	t
h	h
r	r
o	o
i	__EPS__
n	n

__BEGIN__	__EPS__
b	b
e	e
g	g
r	r
v	ü
e	__EPS__
b	b
e	e

__BEGIN__	__EPS__
e	e
r	r
b	b
u	o
t	t
t	__EPS__
e	e
n	n
t	__EPS__

__BEGIN__	__EPS__
h	h
i	i
e	e
s	s
s	s

__BEGIN__	__EPS__
f	f
u	ür
c	c
h	hte
s	s
t	t

__BEGIN__	__EPS__
h	h
a	a
n	be

__BEGIN__	__EPS__
c	__EPS__
h	k
a	e
i	i
n	n

__BEGIN__	__EPS__
y	j
u	u
d	d
e	e
n	n

__BEGIN__	__EPS__
a	a
l	l
l	l

__BEGIN__	__EPS__
n	n
a	ah
m	m

__BEGIN__	__EPS__
d	d
e	e
m	m

__BEGIN__	__EPS__
d	d
u	u

__BEGIN__	__EPS__
d	d
e	e
m	m

__BEGIN__	__EPS__
s	s
y	ie

__BEGIN__	__EPS__
r	r
ü	ö
m	m
i	i
s	s
c	c
h	h

__BEGIN__	__EPS__
v	u
n	n
s	s
e	e
r	r

__BEGIN__	__EPS__
s	se
y	i

__BEGIN__	__EPS__
l	l
a	a
n	n
g	g
e	e

__BEGIN__	__EPS__
u	a
f	u
f	f

__BEGIN__	__EPS__
d	d
i	i
e	e

__BEGIN__	__EPS__
i	i
n	n

__BEGIN__	__EPS__
a	a
m	m
p	t
t	s
l	l
u	e
i	u
t	te

__BEGIN__	__EPS__
h	h
a	a
m	mm
e	e
r	r
s	sch
l	l
e	ä
g	g
e	e

__BEGIN__	__EPS__
l	l
e	e
y	i
d	d
e	e
r	r

__BEGIN__	__EPS__
d	d
i	i
e	e

__BEGIN__	__EPS__
t	t
a	a
g	g

__BEGIN__	__EPS__
d	d
i	i
e	e
s	s
e	e
l	l
b	be

__BEGIN__	__EPS__
v	u
n	n
d	d
e	__EPS__

__BEGIN__	__EPS__
d	d
u	u
r	r
c	c
h	h

__BEGIN__	__EPS__
d	d
e	e
n	n

__BEGIN__	__EPS__
s	s
e	ee
l	le

__BEGIN__	__EPS__
e	nich
n	t

__BEGIN__	__EPS__
s	s
p	p
r	r
a	a
c	c
h	h

__BEGIN__	__EPS__
v	v
o	o
l	l
k	k
c	__EPS__
h	__EPS__

__BEGIN__	__EPS__
v	u
n	n
d	d

__BEGIN__	__EPS__
g	g
o	ö
t	tt
l	l
e	__EPS__
i	i
c	c
h	h
e	e
n	n

__BEGIN__	__EPS__
w	s
e	e
s	__EPS__
e	i
n	n

__BEGIN__	__EPS__
z	z
e	u

__BEGIN__	__EPS__
d	d
a	a
s	ss

__BEGIN__	__EPS__
i	ih
m	m

__BEGIN__	__EPS__
w	w
e	e
r	r
c	k

__BEGIN__	__EPS__
d	d
u	ü
r	r
s	s
t	t
e	e
t	t

__BEGIN__	__EPS__
a	a
n	n

__BEGIN__	__EPS__
v	u
n	n
d	d

__BEGIN__	__EPS__
d	d
e	e
r	r

__BEGIN__	__EPS__
d	d
ü	u
r	r
c	c
h	h
m	m
a	a
r	r
t	t
e	e
l	r
e	t

__BEGIN__	__EPS__
d	d
e	e
r	r

__BEGIN__	__EPS__
w	w
e	e
r	r
f	f
e	e
n	n
d	d

__BEGIN__	__EPS__
v	u
n	n
d	d

__BEGIN__	__EPS__
d	d
e	e
z	s

__BEGIN__	__EPS__
l	l
a	e
i	i
d	d

__BEGIN__	__EPS__
i	j
o	o
s	s
e	e
p	p
h	h
e	__EPS__
n	__EPS__

__BEGIN__	__EPS__
m	m
u	u
t	tt
e	e
r	r

__BEGIN__	__EPS__
v	v
e	e
r	r
r	r
a	a
t	t
t	__EPS__
e	e
n	n

__BEGIN__	__EPS__
s	se
i	i
n	n
e	e
n	n

__BEGIN__	__EPS__
m	m
o	o
c	c
h	h
t	te

__BEGIN__	__EPS__
s	s
v	u
c	c
h	h
t	t
i	e

__BEGIN__	__EPS__
a	a
l	l
s	s
e	o

__BEGIN__	__EPS__
a	a
l	l
d	l
e	e
r	r
h	h
o	ö
e	__EPS__
c	c
h	h
s	s
t	t
e	e
n	n

__BEGIN__	__EPS__
s	s
o	oh
n	n

__BEGIN__	__EPS__
d	d
o	a

__BEGIN__	__EPS__
a	a
l	l
s	s

__BEGIN__	__EPS__
s	s
o	o
e	__EPS__

__BEGIN__	__EPS__
s	se
y	i
n	ne
s	s

__BEGIN__	__EPS__
l	l
a	e
y	i
d	d
e	__EPS__

__BEGIN__	__EPS__
a	a
l	l
s	s

__BEGIN__	__EPS__
s	s
c	c
h	h
r	r
i	i
r	__EPS__
e	e
n	n

__BEGIN__	__EPS__
s	s
p	p
r	r
o	a
c	c
h	h
i	e
n	n

__BEGIN__	__EPS__
v	u
n	n
n	d

__BEGIN__	__EPS__
v	u
n	n
d	d

__BEGIN__	__EPS__
m	m
a	a
r	r
i	i
a	a

__BEGIN__	__EPS__
m	m
e	e
i	i
n	n

__BEGIN__	__EPS__
v	u
n	n
d	d

__BEGIN__	__EPS__
c	__EPS__
h	k
o	o
m	mm
e	e
n	n

__BEGIN__	__EPS__
a	a
l	l
s	s
o	o

__BEGIN__	__EPS__
d	d
e	e
n	n

__BEGIN__	__EPS__
n	n
i	ic
h	h
t	t

__BEGIN__	__EPS__
d	d
a	a
r	__EPS__
n	n
a	a
c	c
h	h

__BEGIN__	__EPS__
m	m
y	i
r	r

__BEGIN__	__EPS__
s	s
p	p
r	r
a	a
c	c
h	h

__BEGIN__	__EPS__
i	ih
m	m

__BEGIN__	__EPS__
h	h
e	ä
n	n
d	d
e	e

__BEGIN__	__EPS__
w	w
a	a
s	r

__BEGIN__	__EPS__
d	d
i	i
c	c
h	h

__BEGIN__	__EPS__
d	d
i	i
e	e

__BEGIN__	__EPS__
i	j
a	a
m	mm
e	e
r	r

__BEGIN__	__EPS__
v	u
e	__EPS__
n	nd

__BEGIN__	__EPS__
h	h
e	a
t	t

__BEGIN__	__EPS__
v	v
o	o
n	n

__BEGIN__	__EPS__
h	h
o	ö
r	r
t	t

__BEGIN__	__EPS__
t	t
u	u
o	__EPS__
c	c
h	h

__BEGIN__	__EPS__
s	sch
m	m
o	a
c	c
h	h
e	__EPS__
i	__EPS__
t	__EPS__

__BEGIN__	__EPS__
t	t
o	o
e	__EPS__
d	t

__BEGIN__	__EPS__
a	a
u	u
f	f

__BEGIN__	__EPS__
d	d
o	a

__BEGIN__	__EPS__
v	u
n	n
d	d

__BEGIN__	__EPS__
e	e
i	i
n	n
e	e

__BEGIN__	__EPS__
d	d
e	e
m	m

__BEGIN__	__EPS__
s	s
y	ie

__BEGIN__	__EPS__
a	a
n	n

__BEGIN__	__EPS__
s	s
i	i
j	e

__BEGIN__	__EPS__
g	g
a	a
r	r

__BEGIN__	__EPS__
z	z
e	e
r	r
b	b
r	r
e	e
c	c
h	h
e	e
n	n

__BEGIN__	__EPS__
d	d
a	an
n	n

__BEGIN__	__EPS__
d	d
i	i
e	e

__BEGIN__	__EPS__
m	m
e	e
i	i
n	n

__BEGIN__	__EPS__
t	__EPS__
z	z
o	u

__BEGIN__	__EPS__
e	ei
n	n
e	e
n	n

__BEGIN__	__EPS__
g	g
n	n
a	a
d	d
e	e
n	n

__BEGIN__	__EPS__
v	u
n	n
d	d

__BEGIN__	__EPS__
b	b
u	i
i	t
t	t
e	e
r	r
l	l
i	i
c	c
h	h
e	e
s	s

__BEGIN__	__EPS__
d	d
o	a

__BEGIN__	__EPS__
s	s
c	c
h	h
r	r
u	__EPS__
w	i
e	e
n	n
d	__EPS__

__BEGIN__	__EPS__
f	f
u	üh
r	re
n	n

__BEGIN__	__EPS__
h	i
o	__EPS__
e	h
r	r

__BEGIN__	__EPS__
a	a
n	n

__BEGIN__	__EPS__
d	d
o	a

__BEGIN__	__EPS__
d	d
u	u

__BEGIN__	__EPS__
m	m
y	i
r	r

__BEGIN__	__EPS__
s	s
p	p
r	r
a	a
c	c
h	h

__BEGIN__	__EPS__
f	f
r	r
a	e
w	u
e	e
n	n

__BEGIN__	__EPS__
v	u
n	n
d	d

__BEGIN__	__EPS__
m	m
o	o
r	r
g	g
e	e
n	n

__BEGIN__	__EPS__
g	g
e	e
e	h

__BEGIN__	__EPS__
c	t
z	r
e	ä
c	n
h	__EPS__
e	e
r	__EPS__
n	n

__BEGIN__	__EPS__
s	s
e	e
i	i
n	n

__BEGIN__	__EPS__
m	me
i	i
n	n
e	e
r	r

__BEGIN__	__EPS__
o	o
b	b

__BEGIN__	__EPS__
p	p
i	i
l	l
a	a
t	t
u	u
s	s

__BEGIN__	__EPS__
z	z
e	e
i	i
c	c
h	h
e	e
n	n

__BEGIN__	__EPS__
u	f
a	ü
r	r
i	__EPS__
c	c
h	hte
t	te

__BEGIN__	__EPS__
v	f
r	r
o	oh

__BEGIN__	__EPS__
l	la
ü	u
t	t
e	e
r	r

__BEGIN__	__EPS__
m	m
a	a
r	r
t	t
e	e
r	r

__BEGIN__	__EPS__
v	a
s	u
s	s
g	g
e	e
f	f
u	ü
e	h
r	r
t	t

__BEGIN__	__EPS__
h	h
e	a
t	tte

__BEGIN__	__EPS__
d	d
a	a
z	ss

__BEGIN__	__EPS__
o	o
d	d
e	e
r	r

__BEGIN__	__EPS__
e	e
r	r

__BEGIN__	__EPS__
a	a
u	u
s	s
z	__EPS__

__BEGIN__	__EPS__
a	a
n	n

__BEGIN__	__EPS__
a	a
n	n
s	s
c	c
h	h
r	r
e	e
i	i
g	__EPS__
i	e
n	n

__BEGIN__	__EPS__
s	s
y	ie

__BEGIN__	__EPS__
d	d
o	a

__BEGIN__	__EPS__
w	w
o	o
l	l
c	__EPS__
k	k
e	e
n	n

__BEGIN__	__EPS__
y	ih
n	n

__BEGIN__	__EPS__
w	w
u	u
r	r
d	de

__BEGIN__	__EPS__
d	d
e	e
r	r

__BEGIN__	__EPS__
h	h
i	i
e	__EPS__
n	n
g	g
e	e
n	n

__BEGIN__	e
u	u
c	c
h	h

__BEGIN__	__EPS__
w	w
i	i
r	r
t	d

__BEGIN__	__EPS__
d	d
a	e
s	s
t	t
e	__EPS__
r	o

__BEGIN__	__EPS__
i	j
u	u
d	d
e	e
n	n

__BEGIN__	__EPS__
g	g
r	r
v	ü
i	__EPS__
n	n
e	e
m	m

__BEGIN__	__EPS__
v	u
r	r
t	t
e	e
i	i
l	l

__BEGIN__	__EPS__
v	v
o	o
n	n

__BEGIN__	__EPS__
d	d
u	u

__BEGIN__	__EPS__
s	s
i	i
e	e

__BEGIN__	__EPS__
e	e
s	s
z	__EPS__

__BEGIN__	__EPS__
v	u
n	n
d	d

__BEGIN__	__EPS__
g	g
i	i
e	__EPS__
n	n
g	g

__BEGIN__	__EPS__
s	se
i	i
n	n
v	__EPS__
i	e

__BEGIN__	__EPS__
w	w
a	a
z	r

__BEGIN__	__EPS__
m	m
e	e
y	i
n	n

__BEGIN__	__EPS__
h	e
e	r

__BEGIN__	__EPS__
d	d
e	e
n	n

__BEGIN__	__EPS__
d	d
e	e
n	n

__BEGIN__	__EPS__
e	e
r	r
l	l
i	i
t	t
t	t
e	e
n	n

__BEGIN__	__EPS__
v	u
n	n
d	d

__BEGIN__	__EPS__
a	a
l	l
s	s

__BEGIN__	__EPS__
g	g
i	in
e	g

__BEGIN__	__EPS__
d	d
a	a
s	s

__BEGIN__	__EPS__
v	u
n	n
d	d

__BEGIN__	__EPS__
i	ih
m	m

__BEGIN__	__EPS__
h	h
a	a
t	t

__BEGIN__	__EPS__
s	s
t	t
i	i
m	mm
e	e

__BEGIN__	__EPS__
d	d
i	i
e	e

__BEGIN__	h
e	e
r	r
a	a
b	b

__BEGIN__	__EPS__
e	e
i	i
n	n
e	e
n	n

__BEGIN__	__EPS__
m	m
i	i
c	c
h	h

__BEGIN__	__EPS__
d	d
e	e
m	m

__BEGIN__	__EPS__
d	d
u	ü
i	r
r	r
e	e
n	n

__BEGIN__	__EPS__
d	d
e	e
i	i
n	n

__BEGIN__	__EPS__
e	e
r	r
s	sch
l	l
a	a
g	g
e	e
n	n

__BEGIN__	__EPS__
d	d
a	a
s	s

__BEGIN__	__EPS__
b	b
e	e
s	s
e	e
s	s
s	s
e	e
n	n

__BEGIN__	__EPS__
d	d
i	i
c	c
h	h

__BEGIN__	__EPS__
o	o
w	w
e	eh

__BEGIN__	a
v	u
f	f

__BEGIN__	__EPS__
m	m
u	u
n	n
d	d

__BEGIN__	__EPS__
s	s
c	c
h	h
e	el
m	m
e	e
l	__EPS__

__BEGIN__	__EPS__
m	m
i	i
c	c
h	h

__BEGIN__	__EPS__
m	m
i	i
t	t

__BEGIN__	__EPS__
g	g
o	ö
t	t
t	t
l	l
e	__EPS__
i	i
c	c
h	h
e	e
n	n

__BEGIN__	__EPS__
a	a
u	u
c	c
h	h

__BEGIN__	__EPS__
a	a
l	l
l	l
e	e

__BEGIN__	__EPS__
i	i
n	n

__BEGIN__	__EPS__
g	g
e	e
h	h
a	a
b	b
t	t

__BEGIN__	__EPS__
o	o
w	w
e	eh

__BEGIN__	__EPS__
y	ih
m	m

__BEGIN__	__EPS__
s	s
i	i
c	c
h	h

__BEGIN__	__EPS__
i	i
c	c
h	h

__BEGIN__	__EPS__
s	s
p	p
r	r
a	a
c	c
h	h

__BEGIN__	__EPS__
j	j
e	ä
m	mm
e	e
r	r
l	l
i	i
c	c
h	h
e	e

__BEGIN__	__EPS__
g	g
i	i
e	__EPS__
n	n
g	g

__BEGIN__	__EPS__
s	s
t	t
o	ö
s	s
s	s
e	e

__BEGIN__	__EPS__
g	g
u	u
e	__EPS__
t	t

__BEGIN__	__EPS__
p	b
i	i
t	t
t	t
e	e
r	re
n	n

__BEGIN__	__EPS__
h	h
e	a
t	t

__BEGIN__	__EPS__
k	k
i	i
n	n
t	d
h	__EPS__

__BEGIN__	__EPS__
d	d
a	a

__BEGIN__	__EPS__
v	u
n	n
d	d

__BEGIN__	__EPS__
d	d
a	a

__BEGIN__	__EPS__
v	__EPS__
u	__EPS__
r	__EPS__
g	g
r	r
o	o
z	s
z	s
e	e
m	m

__BEGIN__	__EPS__
a	a
l	l
l	l
e	e
r	r

__BEGIN__	__EPS__
i	e
u	u
c	c
h	h

__BEGIN__	__EPS__
f	f
u	ü
e	s
s	se

__BEGIN__	__EPS__
i	i
s	s
t	t

__BEGIN__	__EPS__
d	d
i	i
c	c
h	h

__BEGIN__	__EPS__
v	v
o	o
n	n

__BEGIN__	__EPS__
i	i
c	c
h	h

__BEGIN__	__EPS__
g	g
e	e
n	n
e	e
s	s
s	__EPS__
e	e
n	n

__BEGIN__	__EPS__
s	s
p	p
e	e
c	c
i	i
o	o
s	s
u	u
s	s

__BEGIN__	__EPS__
s	se
i	i
n	n

__BEGIN__	__EPS__
a	a
u	u
g	g
u	u
s	st

__BEGIN__	__EPS__
i	i
s	s
t	t

__BEGIN__	__EPS__
a	a
n	n
s	s
e	e
l	l
m	m
e	__EPS__

__BEGIN__	__EPS__
v	u
n	n
s	s

__BEGIN__	__EPS__
h	h
e	e
r	r
o	o
d	d
e	e
s	s

__BEGIN__	__EPS__
d	d
a	a
r	r
v	u
m	m
b	__EPS__

__BEGIN__	__EPS__
h	h
e	a
m	m
m	m
e	e
r	r
s	sch
l	l
e	ä
g	g
e	e

__BEGIN__	__EPS__
y	ih
n	n

__BEGIN__	__EPS__
m	m
i	i
c	c
h	h

__BEGIN__	__EPS__
d	d
e	e
m	m

__BEGIN__	__EPS__
m	m
a	a
r	r
i	i
a	a

__BEGIN__	__EPS__
k	k
i	i
n	n
d	d

__BEGIN__	__EPS__
h	hä
o	u
b	p
t	t
e	e
r	r

__BEGIN__	__EPS__
k	k
e	e
i	i
n	n

__BEGIN__	__EPS__
s	s
o	o
u	ll
d	t
e	e
n	n

__BEGIN__	__EPS__
n	n
o	o
t	__EPS__
t	t

__BEGIN__	__EPS__
d	d
e	e
r	r

__BEGIN__	__EPS__
r	r
e	e
i	i
c	c
h	h

__BEGIN__	__EPS__
i	i
n	n

__BEGIN__	__EPS__
x	x
x	x
x	x

__BEGIN__	__EPS__
d	d
o	a

__BEGIN__	__EPS__
e	e
i	i
n	n

__BEGIN__	__EPS__
h	h
o	a
n	tte

__BEGIN__	__EPS__
y	ih
n	n

__BEGIN__	__EPS__
w	w
a	a
r	r
d	d

__BEGIN__	__EPS__
m	m
i	i
r	r

__BEGIN__	__EPS__
s	s
e	e
l	l
b	be

__BEGIN__	__EPS__
s	sch
w	w
e	e
s	s
t	t
e	e
r	r

__BEGIN__	__EPS__
h	h
a	a
e	b
n	e

__BEGIN__	__EPS__
v	v
i	ie
l	l

__BEGIN__	__EPS__
m	m
e	e
i	i
n	n

__BEGIN__	__EPS__
d	d
i	i
n	n
g	g

__BEGIN__	__EPS__
r	r
i	i
e	e
f	f
f	__EPS__

__BEGIN__	__EPS__
d	d
e	e
m	m

__BEGIN__	__EPS__
i	i
c	c
h	h

__BEGIN__	__EPS__
e	e
r	r

__BEGIN__	__EPS__
w	w
e	e
n	nn

__BEGIN__	__EPS__
a	a
n	n

__BEGIN__	__EPS__
a	a
n	n
s	s
h	__EPS__
e	e
l	l
e	__EPS__
m	m

__BEGIN__	__EPS__
v	v
o	o
n	n

__BEGIN__	__EPS__
w	w
a	a
z	s

__BEGIN__	__EPS__
m	me
i	i
n	n

__BEGIN__	__EPS__
d	d
c	ass

__BEGIN__	__EPS__
g	g
a	a
f	b
f	__EPS__

__BEGIN__	__EPS__
s	s
i	ie

__BEGIN__	__EPS__
c	__EPS__
h	k
u	ö
n	n
i	i
k	__EPS__
c	__EPS__
h	g

__BEGIN__	__EPS__
y	ih
n	n

__BEGIN__	__EPS__
v	u
n	n
s	s
e	e
r	r

__BEGIN__	__EPS__
m	m
i	i
c	c
h	h

__BEGIN__	__EPS__
d	d
a	a
s	s

__BEGIN__	__EPS__
l	l
i	i
e	e
b	b
e	e
n	n

__BEGIN__	__EPS__
s	s
a	a
c	c
h	he

__BEGIN__	__EPS__
n	n
a	a
c	c
h	h

__BEGIN__	__EPS__
a	a
u	u
f	f

__BEGIN__	__EPS__
m	m
o	o
c	c
h	h
t	te

__BEGIN__	__EPS__
g	g
e	e
f	f
a	a
n	n
g	g
e	e
n	n

__BEGIN__	__EPS__
v	v
o	o
n	n

__BEGIN__	__EPS__
d	d
r	r
i	i
t	t
t	t
e	e
n	n

__BEGIN__	__EPS__
h	e
e	r

__BEGIN__	__EPS__
z	z
u	u
o	__EPS__

__BEGIN__	__EPS__
w	w
e	a
r	r
e	e
n	n
t	__EPS__

__BEGIN__	__EPS__
l	l
ä	ä
s	ss
t	t

__BEGIN__	__EPS__
t	t
r	r
u	e
w	u
e	e

__BEGIN__	__EPS__
s	s
a	o
l	ll
t	t

__BEGIN__	__EPS__
s	s
i	i
j	e

__BEGIN__	__EPS__
v	a
f	u
f	f

__BEGIN__	__EPS__
h	h
u	a
y	u
s	s
z	__EPS__

__BEGIN__	__EPS__
c	ch
r	r
i	i
s	s
t	t
u	u
s	s

__BEGIN__	__EPS__
a	a
n	n

__BEGIN__	__EPS__
d	d
o	a

__BEGIN__	__EPS__
l	le
i	i
b	b

__BEGIN__	__EPS__
g	__EPS__
e	__EPS__
s	s
e	e
i	i
n	n

__BEGIN__	__EPS__
i	ih
r	r
e	e
m	m

__BEGIN__	__EPS__
l	l
i	ie
p	b

__BEGIN__	__EPS__
h	h
e	ä
n	n
d	d
e	e
n	n

__BEGIN__	__EPS__
d	d
a	a
s	ss

__BEGIN__	__EPS__
g	g
r	r
ü	ü
n	n
e	e
n	n

__BEGIN__	__EPS__
s	s
c	c
h	h
r	r
e	e
i	i

__BEGIN__	__EPS__
v	u
n	n
d	d

__BEGIN__	__EPS__
d	d
a	a

__BEGIN__	__EPS__
d	d
y	ie

__BEGIN__	__EPS__
h	h
i	im
m	m
e	e
l	l
r	r
e	e
i	i
c	c
h	h

__BEGIN__	__EPS__
w	w
a	a
r	r
t	d

__BEGIN__	__EPS__
e	e
r	r
b	b
a	a
r	r
m	m
e	e
n	n

__BEGIN__	__EPS__
s	s
u	ü
n	n
d	d
e	e
n	n

__BEGIN__	__EPS__
v	u
n	n
n	d

__BEGIN__	__EPS__
b	b
e	e
g	g
e	eh
r	r
t	t

__BEGIN__	__EPS__
e	e
y	i
n	n

__BEGIN__	__EPS__
s	s
o	o

__BEGIN__	__EPS__
i	i
c	c
h	h

__BEGIN__	__EPS__
v	u
n	n
s	s
e	e
r	r

__BEGIN__	__EPS__
e	ih
n	n

__BEGIN__	__EPS__
g	g
e	e
s	s
a	a
n	nd
t	t

__BEGIN__	__EPS__
c	__EPS__
h	k
o	o
m	mm

__BEGIN__	__EPS__
d	d
i	ie
s	s
e	e
m	m

__BEGIN__	__EPS__
e	e
r	r
l	l
o	ö
s	s
e	e

__BEGIN__	__EPS__
c	k
h	__EPS__
r	r
e	e
u	u
t	__EPS__
z	z

__BEGIN__	__EPS__
d	d
a	as
z	s

__BEGIN__	__EPS__
e	e
r	r

__BEGIN__	__EPS__
v	v
o	o
n	n

__BEGIN__	__EPS__
v	v
o	o
n	n

__BEGIN__	a
v	u
p	f

__BEGIN__	__EPS__
d	d
a	a
z	ss

__BEGIN__	__EPS__
s	s
o	o

__BEGIN__	__EPS__
l	l
a	a
g	g

__BEGIN__	__EPS__
m	m
i	i
t	t

__BEGIN__	__EPS__
v	u
n	n
s	s
e	e
r	r

__BEGIN__	__EPS__
w	w
o	ol
l	l
t	te

__BEGIN__	__EPS__
v	v
i	i
j	e
l	l

__BEGIN__	__EPS__
d	d
e	e
n	n

__BEGIN__	__EPS__
d	d
u	ü
r	r
r	r
e	e
n	n

__BEGIN__	__EPS__
n	n
u	ah
m	m
e	e
n	n

__BEGIN__	__EPS__
n	n
e	a
g	g
e	e
l	l
t	t
e	e
n	n
t	__EPS__

__BEGIN__	__EPS__
s	s
e	e
l	l
b	b
e	e
r	r

__BEGIN__	__EPS__
p	p
y	i
l	l
a	a
t	t
u	u
s	s

__BEGIN__	__EPS__
i	ih
m	m

__BEGIN__	__EPS__
s	se
y	i
n	n
e	e
n	n

__BEGIN__	__EPS__
v	f
i	ie
l	l

__BEGIN__	__EPS__
s	s
o	o

__BEGIN__	__EPS__
g	g
e	e
f	f
l	l
o	o
h	h
e	e
n	n

__BEGIN__	__EPS__
v	u
n	n
n	d

__BEGIN__	__EPS__
k	k
a	a
m	m

__BEGIN__	__EPS__
s	s
o	o

__BEGIN__	__EPS__
w	w
a	ä
e	__EPS__
r	r
e	e

__BEGIN__	__EPS__
d	d
e	e
r	r

__BEGIN__	__EPS__
c	__EPS__
z	z
w	w
e	e
n	i

__BEGIN__	__EPS__
k	k
i	i
n	n
t	d

__BEGIN__	__EPS__
i	ih
r	r

__BEGIN__	__EPS__
n	n
y	i
c	c
h	h
t	t

__BEGIN__	__EPS__
s	s
o	o
l	ll
s	s
t	t

__BEGIN__	__EPS__
v	u
n	n
d	d

__BEGIN__	__EPS__
u	u
n	n
d	d

__BEGIN__	__EPS__
w	w
u	u
n	n
d	d
e	e
n	n

__BEGIN__	__EPS__
m	me
i	i
n	n

__BEGIN__	__EPS__
d	d
ü	u

__BEGIN__	__EPS__
e	e
s	s

__BEGIN__	__EPS__
h	h
a	a
l	l
z	s

__BEGIN__	__EPS__
l	l
i	i
e	e
b	be

__BEGIN__	__EPS__
i	i
n	n

__BEGIN__	__EPS__
i	i
c	c
h	h

__BEGIN__	__EPS__
v	v
i	ie
l	l

__BEGIN__	__EPS__
d	d
o	a

__BEGIN__	__EPS__
n	n
o	o
n	n

__BEGIN__	__EPS__
d	d
e	e
m	m

__BEGIN__	__EPS__
a	a
n	n

__BEGIN__	__EPS__
h	h
a	e
i	i
l	l
i	i
g	g
e	e
n	n

__BEGIN__	__EPS__
s	s
i	ie

__BEGIN__	__EPS__
u	ü
b	b
e	e
r	r

__BEGIN__	__EPS__
i	ih
m	m

__BEGIN__	__EPS__
v	v
e	e
r	r
d	d
i	i
r	r
b	b
e	__EPS__
t	t

__BEGIN__	__EPS__
d	d
o	a

__BEGIN__	__EPS__
f	f
r	r
a	a
u	u
w	__EPS__
e	__EPS__

__BEGIN__	__EPS__
w	w
a	a
s	r

__BEGIN__	__EPS__
d	d
c	ass

__BEGIN__	__EPS__
v	u
n	n
d	d

__BEGIN__	__EPS__
w	w
u	u
r	r
d	d
e	e
n	n

__BEGIN__	__EPS__
a	a
n	n

__BEGIN__	__EPS__
i	i
c	c
h	h

__BEGIN__	__EPS__
b	b
e	__EPS__
l	l
a	i
i	e
b	b

__BEGIN__	__EPS__
e	e
i	i
n	n
e	e
n	n

__BEGIN__	__EPS__
d	d
o	a

__BEGIN__	__EPS__
o	o
w	w
e	eh

__BEGIN__	__EPS__
s	s
y	ie

__BEGIN__	__EPS__
d	d
o	a
e	__EPS__

__BEGIN__	__EPS__
a	a
n	n

__BEGIN__	__EPS__
d	d
e	e
m	m

__BEGIN__	__EPS__
e	e
r	r

__BEGIN__	__EPS__
k	k
o	o
m	mm
e	e
n	n

__BEGIN__	__EPS__
d	d
e	e
n	n

__BEGIN__	__EPS__
a	a
n	n
g	g
e	e
l	l
e	e
g	g
e	__EPS__
t	t
e	e
n	n

__BEGIN__	__EPS__
v	v
o	o
r	r

__BEGIN__	__EPS__
e	u
n	nd

__BEGIN__	__EPS__
w	w
u	u
r	r
d	d
i	e
n	n

__BEGIN__	__EPS__
d	d
o	a

__BEGIN__	__EPS__
e	e
r	r

__BEGIN__	__EPS__
m	m
i	i
c	c
h	h

__BEGIN__	__EPS__
f	f
i	i
n	n
s	s
t	t
e	e
r	rnis

__BEGIN__	__EPS__
b	b
u	o
t	t
e	e
n	n

__BEGIN__	__EPS__
h	h
e	e
r	r
c	__EPS__
z	z
e	__EPS__

__BEGIN__	__EPS__
m	m
i	i
c	c
h	h

__BEGIN__	__EPS__
t	t
o	o
t	d

__BEGIN__	__EPS__
i	ih
n	n

__BEGIN__	__EPS__
h	e
i	r

__BEGIN__	__EPS__
a	o
b	b
e	__EPS__

__BEGIN__	__EPS__
g	g
r	r
o	o
s	s
s	s
e	e
r	r

__BEGIN__	__EPS__
k	k
i	i
n	n
t	d

__BEGIN__	__EPS__
d	d
e	e
m	m

__BEGIN__	__EPS__
e	e
r	r

__BEGIN__	__EPS__
a	a
n	n

__BEGIN__	__EPS__
d	d
a	a
s	s

__BEGIN__	__EPS__
m	m
i	i
r	r

__BEGIN__	__EPS__
w	w
e	ah
r	rl
i	i
c	c
h	h

__BEGIN__	__EPS__
g	g
e	e
w	w
u	a
n	nn
e	e
n	n

__BEGIN__	__EPS__
v	u
n	n
d	d

__BEGIN__	__EPS__
s	s
o	oh
l	l
e	e
n	n

__BEGIN__	__EPS__
h	h
e	ä
n	n
d	d
e	e
n	n

__BEGIN__	__EPS__
s	s
o	o

__BEGIN__	__EPS__
g	g
a	a
r	r

__BEGIN__	a
v	u
p	f

__BEGIN__	__EPS__
a	a
n	n

__BEGIN__	__EPS__
m	l
y	i
n	__EPS__
n	__EPS__
e	e
c	b
l	l
i	i
c	c
h	h
e	__EPS__

__BEGIN__	__EPS__
t	__EPS__
z	z
o	u

__BEGIN__	__EPS__
v	u
n	n
d	d

__BEGIN__	__EPS__
w	d
a	e
n	n
t	n

__BEGIN__	__EPS__
f	f
r	r
a	a
w	u
e	e
n	n

__BEGIN__	__EPS__
g	g
a	a
l	lle
n	n

__BEGIN__	__EPS__
m	m
i	i
c	c
h	h

__BEGIN__	__EPS__
s	s
c	__EPS__
h	o
o	l
l	l
t	t

__BEGIN__	__EPS__
v	u
n	n
d	d

__BEGIN__	__EPS__
v	u
n	n
d	d

__BEGIN__	__EPS__
d	d
o	a

__BEGIN__	__EPS__
v	u
n	n
d	d

__BEGIN__	__EPS__
d	d
o	a

__BEGIN__	__EPS__
i	i
c	c
h	h

__BEGIN__	__EPS__
n	n
y	i
e	e

__BEGIN__	__EPS__
d	d
e	e
m	m

__BEGIN__	__EPS__
c	__EPS__
z	z
ü	u

__BEGIN__	__EPS__
a	a
l	l
l	l
e	e

__BEGIN__	__EPS__
i	i
c	c
h	h

__BEGIN__	__EPS__
s	s
p	p
r	r
a	a
c	c
h	h

__BEGIN__	__EPS__
d	d
e	e
m	m

__BEGIN__	__EPS__
v	ü
b	b
e	e
r	r

__BEGIN__	__EPS__
g	g
e	e
s	s
e	e
g	g
n	n
e	e
t	t

__BEGIN__	__EPS__
m	m
o	o
c	c
h	h
t	te

__BEGIN__	__EPS__
h	h
e	e
r	r
o	o
d	d
e	e
s	s

__BEGIN__	__EPS__
a	a
l	l
s	s
o	o

__BEGIN__	__EPS__
h	h
a	a
d	t
d	t
e	e
n	n

__BEGIN__	__EPS__
m	m
i	i
t	t
e	e
i	i
n	n
a	a
n	n
d	d
e	e
r	r

__BEGIN__	__EPS__
d	de
y	i
n	n
r	e
e	r

__BEGIN__	__EPS__
h	h
e	ä
n	n
d	d
e	e
n	n

__BEGIN__	__EPS__
a	a
l	l
s	s
o	o

__BEGIN__	__EPS__
d	d
e	e
n	n

__BEGIN__	__EPS__
m	m
i	i
t	t

__BEGIN__	__EPS__
s	s
p	p
r	r
a	a
c	c
h	h

__BEGIN__	__EPS__
w	w
a	a
r	r
e	e
n	n

__BEGIN__	__EPS__
v	u
n	n
d	d

__BEGIN__	__EPS__
k	k
e	a
y	i
s	s
e	e
r	r

__BEGIN__	__EPS__
v	v
o	o
l	ll
b	b
r	r
a	a
c	c
h	h
t	t

__BEGIN__	__EPS__
l	l
i	e
j	i
u	b
e	__EPS__

__BEGIN__	__EPS__
s	s
i	ie

__BEGIN__	__EPS__
s	s
t	t
a	ät
t	te

__BEGIN__	__EPS__
f	f
r	r
a	a
w	u

__BEGIN__	__EPS__
d	d
o	a

__BEGIN__	__EPS__
d	t
a	a
c	g
h	__EPS__

__BEGIN__	__EPS__
l	l
y	ie
b	b
e	e
n	n

__BEGIN__	__EPS__
w	w
a	a
s	r

__BEGIN__	__EPS__
d	d
a	a
s	s

__BEGIN__	__EPS__
m	m
o	ö
r	r
d	d
e	e
r	r

__BEGIN__	__EPS__
s	s
o	o

__BEGIN__	__EPS__
t	z
e	eh
n	n

__BEGIN__	__EPS__
a	a
l	l
s	s
o	o

__BEGIN__	__EPS__
v	f
i	i
e	e
l	l

__BEGIN__	__EPS__
h	h
o	ö
e	__EPS__
r	re

__BEGIN__	__EPS__
v	a
s	u
s	s
e	e
i	i
n	n
a	a
n	n
d	d
e	e
r	r

__BEGIN__	__EPS__
v	u
n	n
d	d

__BEGIN__	__EPS__
k	k
i	i
n	n
d	d

__BEGIN__	__EPS__
d	d
a	a

__BEGIN__	__EPS__
d	d
i	i
e	e

__BEGIN__	__EPS__
h	h
e	ä
n	n
d	d
e	e

__BEGIN__	__EPS__
s	s
y	ie

__BEGIN__	__EPS__
p	b
e	e
r	r
i	__EPS__
g	g
e	e
n	n

__BEGIN__	__EPS__
d	d
a	a
i	__EPS__
r	__EPS__
n	n
a	a
e	ch

__BEGIN__	__EPS__
a	a
l	l
z	s

__BEGIN__	__EPS__
w	w
e	e
r	r

__BEGIN__	__EPS__
m	m
i	i
t	t

__BEGIN__	__EPS__
v	u
n	n
d	d

__BEGIN__	__EPS__
p	b
l	l
i	i
n	n
t	d
e	e
n	n

__BEGIN__	__EPS__
h	h
a	a
t	t

__BEGIN__	__EPS__
a	a
l	l
l	l
e	e

__BEGIN__	__EPS__
s	s
y	i
m	me
o	o
n	n

__BEGIN__	__EPS__
e	e
r	r

__BEGIN__	__EPS__
w	w
u	u
s	ss
t	t
e	e
n	n

__BEGIN__	__EPS__
v	u
n	n
d	t
e	e
r	r

__BEGIN__	__EPS__
m	m
i	i
c	c
h	h

__BEGIN__	__EPS__
g	g
e	e
s	s
a	a
g	g
t	t

__BEGIN__	__EPS__
s	s
a	a
c	c
h	he

__BEGIN__	__EPS__
a	a
u	u
c	c
h	h

__BEGIN__	__EPS__
l	l
i	ie
b	b
s	s
t	t
e	e
n	n

__BEGIN__	__EPS__
m	m
i	i
c	c
h	h

__BEGIN__	__EPS__
s	s
t	t
y	i
m	m
m	me

__BEGIN__	__EPS__
v	u
n	n
d	d

__BEGIN__	__EPS__
i	i
c	c
h	h

__BEGIN__	__EPS__
l	l
a	a
t	t
e	e
i	i
n	n
i	i
s	s
c	c
h	h

__BEGIN__	__EPS__
m	m
a	a
n	n

__BEGIN__	__EPS__
l	l
i	i
e	e
b	b
e	e
s	s

__BEGIN__	__EPS__
g	g
i	i
n	n
g	g
e	e
n	n

__BEGIN__	__EPS__
a	a
b	b
i	e
r	r

__BEGIN__	__EPS__
h	h
a	a
t	t

__BEGIN__	__EPS__
i	ih
n	n

__BEGIN__	__EPS__
d	d
e	e
m	m

__BEGIN__	__EPS__
a	a
u	u
f	f

__BEGIN__	__EPS__
n	n
a	a
c	c
h	h

__BEGIN__	__EPS__
l	l
i	ie
b	b
e	e

__BEGIN__	__EPS__
d	d
e	e
r	r

__BEGIN__	__EPS__
i	ih
m	m

__BEGIN__	__EPS__
d	d
a	a

__BEGIN__	__EPS__
h	h
e	e
r	r

__BEGIN__	__EPS__
v	v
e	e
r	r
s	s
e	eh
r	r
t	t
e	e
s	s

__BEGIN__	__EPS__
s	s
y	ie

__BEGIN__	__EPS__
e	e
r	r

__BEGIN__	__EPS__
w	w
i	i
e	e

__BEGIN__	__EPS__
c	k
l	l
e	ä
g	g
l	l
i	i
c	c
h	h

__BEGIN__	__EPS__
b	b
l	l
i	i
n	n
d	d
e	e
n	n

__BEGIN__	__EPS__
s	s
e	e
l	l
u	b
e	e
r	r

__BEGIN__	__EPS__
m	m
u	o
c	c
h	h
t	t
e	e

__BEGIN__	__EPS__
s	se
i	i
n	n
e	e
r	r

__BEGIN__	__EPS__
c	__EPS__
z	z
e	e
h	h
e	__EPS__
n	n

__BEGIN__	__EPS__
d	d
a	ahi
r	n

__BEGIN__	__EPS__
g	g
r	r
o	o
s	s
z	s

__BEGIN__	__EPS__
n	n
e	eh
m	m
e	e
n	n

__BEGIN__	__EPS__
a	a
n	n

__BEGIN__	__EPS__
e	e
r	r

__BEGIN__	__EPS__
m	m
i	i
t	t

__BEGIN__	__EPS__
d	d
i	i
n	n
g	g
h	__EPS__
e	e
n	n

__BEGIN__	__EPS__
n	n
i	ich
t	t

__BEGIN__	__EPS__
v	u
n	n
d	d

__BEGIN__	__EPS__
j	j
o	u
e	__EPS__
d	d
e	e
n	n

__BEGIN__	__EPS__
d	d
a	a
z	s

__BEGIN__	__EPS__
h	h
a	aa
r	r

__BEGIN__	__EPS__
v	v
o	o
u	__EPS__
l	l
c	__EPS__
k	k

__BEGIN__	__EPS__
w	w
a	a
s	r

__BEGIN__	__EPS__
v	u
n	n
d	d

__BEGIN__	__EPS__
e	e
r	r

__BEGIN__	__EPS__
p	p
y	i
l	l
a	a
t	t
u	u
s	s

__BEGIN__	__EPS__
g	__EPS__
e	__EPS__
s	s
t	t
i	i
l	l
l	l
e	e
n	n

__BEGIN__	__EPS__
b	b
l	l
o	u
i	__EPS__
t	t

__BEGIN__	__EPS__
d	d
u	u
r	r
c	c
h	h

__BEGIN__	__EPS__
g	g
l	le
i	i
c	c
h	h
i	e
r	r
w	w
e	e
i	i
z	se

__BEGIN__	__EPS__
i	i
c	c
h	h

__BEGIN__	__EPS__
g	g
e	e
t	t
a	a
n	n

__BEGIN__	__EPS__
v	f
a	a
n	n
d	d

__BEGIN__	__EPS__
m	me
i	i
n	n
e	e
s	s

__BEGIN__	__EPS__
d	d
i	i
e	e

__BEGIN__	__EPS__
d	d
e	e
r	r

__BEGIN__	__EPS__
s	s
i	ie

__BEGIN__	__EPS__
m	m
v	u
t	tt
e	e
r	r

__BEGIN__	__EPS__
d	d
i	i
e	e

__BEGIN__	__EPS__
v	__EPS__
e	e
r	r
h	l
e	a
n	u
g	b
t	t

__BEGIN__	__EPS__
g	g
r	r
ü	ü
s	s
z	se

__BEGIN__	__EPS__
p	b
i	i
t	t
t	t
e	e
r	r
l	l
i	i
c	c
h	h

__BEGIN__	__EPS__
s	se
y	i

__BEGIN__	__EPS__
d	d
i	ie
n	n
e	e
r	r

__BEGIN__	__EPS__
e	e
u	u
r	r
e	e

__BEGIN__	__EPS__
h	h
e	e
r	rrn

__BEGIN__	__EPS__
g	g
e	e
l	l
e	e
g	g
t	t
e	e
n	n

__BEGIN__	__EPS__
k	k
u	ö
e	n
n	i
g	g

__BEGIN__	__EPS__
s	s
a	a
h	h
e	e
n	n

__BEGIN__	__EPS__
h	h
e	a
t	t

__BEGIN__	__EPS__
i	i
n	n

__BEGIN__	__EPS__
t	zu

__BEGIN__	__EPS__
d	d
o	a

__BEGIN__	__EPS__
v	u
n	n
r	r
e	e
i	i
n	n

__BEGIN__	__EPS__
m	m
i	i
t	t

__BEGIN__	__EPS__
d	d
e	e
r	r

__BEGIN__	__EPS__
g	__EPS__
e	__EPS__
s	s
c	c
h	h
r	r
i	i
f	f
f	__EPS__
t	t

__BEGIN__	__EPS__
w	w
a	a
s	r

__BEGIN__	__EPS__
e	e
i	i
n	n

__BEGIN__	__EPS__
g	g
e	e
s	s
u	u
n	n
d	d

__BEGIN__	__EPS__
s	sie

__BEGIN__	__EPS__
s	se
y	i

__BEGIN__	__EPS__
i	u
n	n
d	d

__BEGIN__	__EPS__
v	v
e	e
r	r
s	sch
m	m
a	ä
h	h
e	__EPS__
t	t
e	e

__BEGIN__	__EPS__
z	ze
u	r
b	b
r	r
o	o
c	c
h	h
e	e
n	n

__BEGIN__	__EPS__
w	w
e	e
y	i
l	l
e	e

__BEGIN__	__EPS__
v	u
n	n
d	d

__BEGIN__	__EPS__
d	t
o	u
e	__EPS__
t	t

__BEGIN__	__EPS__
l	l
o	o
f	b

__BEGIN__	__EPS__
d	d
u	u
r	r
c	c
h	h

__BEGIN__	__EPS__
s	s
e	e
l	l
b	b
e	e
n	n

__BEGIN__	__EPS__
s	s
c	c
h	h
a	ä
e	__EPS__
f	f
f	__EPS__
t	t
e	e

__BEGIN__	__EPS__
v	v
o	o
r	r

__BEGIN__	__EPS__
v	u
n	n
d	d

__BEGIN__	__EPS__
w	w
a	a
s	r

__BEGIN__	__EPS__
d	d
a	a
r	__EPS__
n	n
a	a
c	c
h	h

__BEGIN__	__EPS__
g	g
e	e
n	n
i	i
e	e
z	s
z	s
e	e
n	n

__BEGIN__	__EPS__
s	s
p	p
r	r
a	a
c	c
h	h

__BEGIN__	__EPS__
k	k
a	e
i	i
n	n

__BEGIN__	__EPS__
e	__EPS__
r	__EPS__
s	s
a	a
c	__EPS__
h	h
e	e
n	n
t	__EPS__

