__BEGIN__	__EPS__
w	w
u	u
n	n
d	d
e	e
n	n

__BEGIN__	__EPS__
s	s
e	e
i	i
n	n
e	e
r	r

__BEGIN__	__EPS__
z	ze
ü	r
b	b
r	r
e	e
c	c
h	h
e	e
n	n

__BEGIN__	__EPS__
h	e
e	r

__BEGIN__	__EPS__
v	u
n	n
d	d

__BEGIN__	__EPS__
d	d
a	a
e	__EPS__

__BEGIN__	__EPS__
d	d
e	e
r	r

__BEGIN__	__EPS__
l	l
e	eh
r	r
e	e

__BEGIN__	__EPS__
e	e
r	r
f	f
ü	ül
l	l
t	t
e	e

__BEGIN__	__EPS__
m	m
i	i
t	t

__BEGIN__	__EPS__
d	d
e	e
i	i
n	n

__BEGIN__	__EPS__
e	e
r	r

__BEGIN__	__EPS__
v	u
n	n
d	d

__BEGIN__	__EPS__
r	r
a	ä
e	__EPS__
c	c
h	h
e	e
n	n

__BEGIN__	__EPS__
m	m
e	e
i	i
n	n

__BEGIN__	__EPS__
i	i
c	c
h	h

__BEGIN__	__EPS__
b	b
e	e
g	g
e	eh
r	r
t	t

__BEGIN__	__EPS__
s	se
y	i
n	n

__BEGIN__	__EPS__
c	__EPS__
h	k
o	o
m	mm
e	e
n	n
t	__EPS__

__BEGIN__	__EPS__
i	ih
m	m

__BEGIN__	__EPS__
s	s
p	p
r	r
a	a
c	c
h	h
e	e
n	n

__BEGIN__	__EPS__
r	r
v	u
t	t
e	e

__BEGIN__	__EPS__
v	u
n	n
s	s
z	__EPS__
e	e
r	r

__BEGIN__	__EPS__
a	a
n	n
t	t
w	w
o	o
e	__EPS__
r	r
d	t
e	e

__BEGIN__	__EPS__
v	u
n	n
d	d

__BEGIN__	__EPS__
s	s
y	ie

__BEGIN__	__EPS__
g	g
e	e
s	s
c	c
h	h
r	ri
e	e
u	b
e	e
n	n

__BEGIN__	__EPS__
e	e
r	r

__BEGIN__	__EPS__
m	m
i	i
c	c
h	h

__BEGIN__	__EPS__
v	v
i	ie
l	l

__BEGIN__	__EPS__
v	u
n	n
d	d

__BEGIN__	__EPS__
y	ih
m	m

__BEGIN__	__EPS__
v	v
i	ie
l	l

__BEGIN__	__EPS__
s	sch
w	w
e	e
r	r
t	t

__BEGIN__	__EPS__
l	l
a	e
i	i
d	d

__BEGIN__	__EPS__
v	u
n	n
d	d

__BEGIN__	__EPS__
w	w
e	e
y	i
n	n
e	e
n	n

__BEGIN__	__EPS__
m	m
a	a
l	l
e	__EPS__

__BEGIN__	__EPS__
p	b
r	r
a	a
c	c
h	h
t	t
e	e
n	n

__BEGIN__	__EPS__
s	s
v	i
i	e

__BEGIN__	__EPS__
v	u
n	n
d	d

__BEGIN__	__EPS__
e	e
i	i
n	n

__BEGIN__	__EPS__
m	m
i	i
c	c
h	h

__BEGIN__	__EPS__
d	d
e	e
r	r

__BEGIN__	__EPS__
s	__EPS__
v	a
n	l
d	l
e	e
r	__EPS__
l	__EPS__
i	i
c	__EPS__
h	n

__BEGIN__	__EPS__
w	w
i	i
d	d
e	e
r	r

__BEGIN__	__EPS__
e	e
r	r

__BEGIN__	__EPS__
v	u
n	n
d	d
t	__EPS__

__BEGIN__	__EPS__
v	u
n	nd

__BEGIN__	__EPS__
m	m
a	a
g	g
e	__EPS__
t	d

__BEGIN__	__EPS__
m	m
i	i
r	r

__BEGIN__	__EPS__
d	d
e	e
m	m

__BEGIN__	__EPS__
f	f
r	r
e	e
w	u
d	de

__BEGIN__	__EPS__
d	d
a	a
e	a
r	r
b	b
u	ui
t	t
e	e
n	n

__BEGIN__	__EPS__
g	g
a	a
l	lle
n	n

__BEGIN__	__EPS__
d	d
e	e
r	r

__BEGIN__	__EPS__
i	j
e	e
s	s
v	us

__BEGIN__	__EPS__
t	t
h	__EPS__
e	ä
t	t
e	e

__BEGIN__	__EPS__
t	t
a	a
t	t
i	e
n	n

__BEGIN__	__EPS__
e	e
s	s
z	__EPS__

__BEGIN__	__EPS__
h	e
e	r

__BEGIN__	__EPS__
a	a
l	l
l	l
e	e

__BEGIN__	__EPS__
d	d
o	a

__BEGIN__	__EPS__
d	d
o	a

__BEGIN__	__EPS__
i	ih
n	n

__BEGIN__	__EPS__
i	i
c	c
h	h

__BEGIN__	__EPS__
d	d
e	e
m	m

__BEGIN__	__EPS__
i	j
a	a
m	mm
e	e
r	r

__BEGIN__	__EPS__
g	g
e	e
w	w
a	a
n	n
d	d

__BEGIN__	__EPS__
s	s
t	t
o	ö
e	s
s	s
z	e

__BEGIN__	__EPS__
n	n
u	un

__BEGIN__	__EPS__
e	e
i	i
m	n
e	em

__BEGIN__	__EPS__
w	w
a	ah
r	r
h	h
a	e
i	i
t	t

__BEGIN__	__EPS__
u	ü
b	b
e	e
r	r

__BEGIN__	__EPS__
h	h
a	a
t	t
t	t
e	e

__BEGIN__	__EPS__
o	u
n	n
d	t
e	e
r	r

__BEGIN__	__EPS__
w	w
i	i
l	l
l	l
e	e

__BEGIN__	__EPS__
v	u
n	n
d	d

__BEGIN__	__EPS__
s	s
o	o

__BEGIN__	__EPS__
k	k
i	i
n	n
t	d

__BEGIN__	__EPS__
w	w
a	a
n	n
n	n

__BEGIN__	__EPS__
d	d
o	a

__BEGIN__	__EPS__
b	b
e	e
g	g
o	a
n	n
d	n
e	__EPS__

__BEGIN__	__EPS__
d	d
o	a

__BEGIN__	__EPS__
m	m
i	i
t	t

__BEGIN__	__EPS__
l	l
o	o
i	__EPS__
s	s
z	__EPS__

__BEGIN__	__EPS__
i	i
n	n

__BEGIN__	__EPS__
g	g
e	e
l	l
a	a
n	n
g	g
e	e
n	n

__BEGIN__	__EPS__
s	s
e	e
i	i
n	n

__BEGIN__	__EPS__
i	i
n	n

__BEGIN__	__EPS__
m	m
i	i
c	c
h	h

__BEGIN__	__EPS__
d	d
e	e
m	m

__BEGIN__	__EPS__
h	h
e	ä
t	tte

__BEGIN__	__EPS__
v	u
n	n
d	d
e	__EPS__

__BEGIN__	__EPS__
e	e
r	r

__BEGIN__	__EPS__
h	h
i	i
m	mme
l	l
r	r
e	e
i	i
c	c
h	h

__BEGIN__	__EPS__
u	v
o	o
l	l
k	k

__BEGIN__	__EPS__
m	me
y	i
n	n

__BEGIN__	__EPS__
t	t
r	r
o	o
s	s
t	t
e	e
s	s

__BEGIN__	__EPS__
w	w
a	a
r	r
d	d

__BEGIN__	__EPS__
w	w
o	o
r	r
t	t

__BEGIN__	__EPS__
v	u
e	__EPS__
r	r
t	t
a	e
i	i
l	l

__BEGIN__	__EPS__
w	w
a	a
t	s

__BEGIN__	__EPS__
h	h
e	e
r	r
o	o
d	d
i	es

__BEGIN__	__EPS__
t	__EPS__
w	w
a	asche
n	n

__BEGIN__	__EPS__
d	d
i	i
e	e

__BEGIN__	__EPS__
s	s
y	ie

__BEGIN__	__EPS__
d	d
e	e
m	m

__BEGIN__	__EPS__
w	w
a	a
t	s

__BEGIN__	__EPS__
a	a
l	l
l	l

__BEGIN__	__EPS__
v	u
n	n
d	d

__BEGIN__	__EPS__
v	f
r	r
o	e
e	u
t	t
e	e

__BEGIN__	__EPS__
d	d
a	a

__BEGIN__	__EPS__
v	u
n	n
d	d

__BEGIN__	__EPS__
v	v
o	o
n	n

__BEGIN__	__EPS__
m	m
e	e
i	i
n	n

__BEGIN__	__EPS__
v	u
n	n
b	__EPS__
e	__EPS__
h	h
e	a
n	n
d	dl
e	ich

__BEGIN__	__EPS__
i	j
u	u
d	d
e	e
n	n

__BEGIN__	__EPS__
a	a
n	n

__BEGIN__	__EPS__
e	e
r	r
s	s
t	t
e	e
n	n

__BEGIN__	__EPS__
m	m
e	e
n	n
s	s
c	c
h	h
l	l
e	__EPS__
i	i
c	c
h	h
s	e

__BEGIN__	__EPS__
g	g
e	e
s	s
c	c
h	h
i	i
c	e
h	h
t	t

__BEGIN__	__EPS__
m	m
o	ö
e	__EPS__
r	r
d	d
e	e
r	r

__BEGIN__	__EPS__
a	a
l	l
s	s

__BEGIN__	__EPS__
e	e
r	r

__BEGIN__	__EPS__
h	h
o	o
e	__EPS__
r	c
h	h
c	__EPS__
z	z
e	e
n	it
l	l
e	__EPS__
i	i
c	c
h	he

__BEGIN__	__EPS__
y	ih
n	n

__BEGIN__	__EPS__
w	w
a	a
s	r

__BEGIN__	__EPS__
d	d
i	i
c	c
h	h

__BEGIN__	__EPS__
a	a
n	n

__BEGIN__	__EPS__
g	g
i	i
e	__EPS__
n	n
g	g
e	e
n	n

__BEGIN__	__EPS__
g	g
e	e
t	t
a	a
n	n

__BEGIN__	__EPS__
v	u
n	n
d	d

__BEGIN__	__EPS__
w	we
i	i
s	s
s	s

__BEGIN__	__EPS__
d	d
a	a
n	n
n	n

__BEGIN__	__EPS__
d	d
o	a

__BEGIN__	__EPS__
v	u
n	n
d	d

__BEGIN__	__EPS__
v	u
n	n
d	d

__BEGIN__	__EPS__
l	l
e	e
b	b
e	e
n	n

__BEGIN__	__EPS__
l	l
a	a
g	g

__BEGIN__	__EPS__
m	m
i	i
t	t

__BEGIN__	__EPS__
c	k
r	re
u	u
c	__EPS__
z	z
e	e

__BEGIN__	__EPS__
m	m
i	i
c	c
h	h

__BEGIN__	__EPS__
d	d
y	ie

__BEGIN__	__EPS__
v	v
o	o
n	n

__BEGIN__	__EPS__
m	m
u	u
t	tt
e	e
r	r

__BEGIN__	__EPS__
h	h
e	a
t	t

__BEGIN__	__EPS__
s	s
o	o
e	__EPS__

__BEGIN__	__EPS__
w	w
a	ah
r	r

__BEGIN__	d
u	u

__BEGIN__	__EPS__
d	d
ü	u

__BEGIN__	__EPS__
i	i
c	c
h	h

__BEGIN__	__EPS__
s	s
i	i
e	e

__BEGIN__	__EPS__
m	m
o	ö
e	__EPS__
g	g
e	e
n	n

__BEGIN__	__EPS__
l	le
u	u
d	t
e	e

__BEGIN__	__EPS__
n	n
e	e
f	b
f	__EPS__
e	e
n	n
s	__EPS__

__BEGIN__	__EPS__
e	e
n	n
t	t
s	s
c	c
h	h
u	u
l	l
d	d
i	i
g	g
e	e
n	n

__BEGIN__	__EPS__
z	z
w	w
e	e
n	i

__BEGIN__	__EPS__
a	a
l	l
s	s
o	o

__BEGIN__	__EPS__
g	g
e	e
w	w
a	a
n	n
t	d

__BEGIN__	__EPS__
v	u
n	n
s	s

__BEGIN__	__EPS__
i	j
o	o
h	h
a	a
n	nnes

__BEGIN__	__EPS__
n	n
u	u
n	n

__BEGIN__	__EPS__
d	d
y	ie

__BEGIN__	__EPS__
w	w
z	ar

__BEGIN__	__EPS__
v	u
n	n
n	d

__BEGIN__	__EPS__
v	u
n	n
d	d

__BEGIN__	__EPS__
a	a
u	u
f	f

__BEGIN__	__EPS__
t	t
e	ä
t	te

__BEGIN__	__EPS__
d	d
c	ass

__BEGIN__	__EPS__
r	r
e	e
i	i
n	n
e	e

__BEGIN__	__EPS__
v	v
o	o
r	r
t	t
r	r
a	a
y	ge
n	n

__BEGIN__	__EPS__
w	w
a	a
r	r
t	d

__BEGIN__	__EPS__
w	w
a	a
r	r
t	d

__BEGIN__	__EPS__
m	m
i	i
t	t

__BEGIN__	__EPS__
d	d
a	a
t	ss

__BEGIN__	__EPS__
d	d
e	e
n	n
c	k
k	e

__BEGIN__	__EPS__
c	k
h	__EPS__
i	i
n	n
d	d

__BEGIN__	__EPS__
o	oh

__BEGIN__	__EPS__
m	m
i	i
t	t

__BEGIN__	__EPS__
h	h
e	a
t	t

__BEGIN__	__EPS__
s	s
e	e
n	n
d	d
e	e

__BEGIN__	__EPS__
v	u
n	n
d	d

__BEGIN__	__EPS__
k	k
r	r
e	e
w	u
c	__EPS__
z	z
i	i
g	g
t	t

__BEGIN__	__EPS__
v	u
n	nd

__BEGIN__	__EPS__
s	s
e	e
r	h
e	r

__BEGIN__	__EPS__
w	w
i	i
l	ll

__BEGIN__	__EPS__
h	h
a	a
t	t
h	__EPS__

__BEGIN__	__EPS__
d	d
i	ie
s	s
e	e

__BEGIN__	__EPS__
d	d
i	ie
t	s

__BEGIN__	__EPS__
i	ih
m	m

__BEGIN__	__EPS__
m	m
e	e
i	i
n	n

__BEGIN__	__EPS__
a	a
l	l
s	s

__BEGIN__	__EPS__
s	s
p	p
r	r
a	a
c	c
h	h

__BEGIN__	__EPS__
d	d
e	e
n	n

__BEGIN__	__EPS__
g	g
e	__EPS__
l	l
i	ie
d	d
e	e
r	r

__BEGIN__	__EPS__
t	t
r	r
i	i
n	n
k	k
e	e
n	n

__BEGIN__	__EPS__
g	g
a	a
l	l
y	i
l	l
e	e
a	a

__BEGIN__	__EPS__
w	w
o	o
l	ll
d	t

__BEGIN__	__EPS__
s	s
a	a
c	__EPS__
h	h

__BEGIN__	__EPS__
v	f
r	r
o	a
w	u
n	__EPS__

__BEGIN__	__EPS__
d	d
i	i
e	e

__BEGIN__	__EPS__
o	o
w	w
e	eh

__BEGIN__	__EPS__
a	a
l	l
l	l
e	e
n	n

__BEGIN__	__EPS__
i	i
n	n

__BEGIN__	__EPS__
n	n
o	ah
m	m
e	e
n	n

__BEGIN__	__EPS__
s	s
a	o
l	ll
t	t

__BEGIN__	__EPS__
d	d
a	a
i	__EPS__
r	__EPS__
v	f
u	ü
r	r

__BEGIN__	__EPS__
t	t
o	o
d	d

__BEGIN__	__EPS__
s	se
i	i
n	n

__BEGIN__	__EPS__
i	j
ü	u
d	d
e	e
n	n

__BEGIN__	__EPS__
g	g
e	e
w	w
a	a
l	l
t	t

__BEGIN__	__EPS__
u	ü
b	b
e	e
r	r

__BEGIN__	__EPS__
k	k
i	i
n	n
t	d

__BEGIN__	__EPS__
s	s
p	p
r	r
a	a
c	c
h	h

__BEGIN__	__EPS__
g	b
e	e
w	w
a	a
f	f
f	f
e	__EPS__
n	ne
t	te

__BEGIN__	__EPS__
s	sch
m	m
e	ä
c	c
h	h
l	l
i	i
c	c
h	h

__BEGIN__	__EPS__
v	v
o	o
l	l
c	k
h	__EPS__

__BEGIN__	__EPS__
a	a
l	l
l	l
i	e
u	__EPS__

__BEGIN__	__EPS__
m	m
e	e
r	r
k	k
e	e

__BEGIN__	__EPS__
h	h
e	e
r	r
e	r

__BEGIN__	__EPS__
v	u
n	n
d	d

__BEGIN__	__EPS__
d	d
o	a

__BEGIN__	__EPS__
d	d
i	i
e	e
s	s
e	e
m	m

__BEGIN__	__EPS__
n	n
o	ah
m	m
e	e
n	n

__BEGIN__	__EPS__
d	d
o	a

__BEGIN__	__EPS__
v	u
n	n
d	d

__BEGIN__	__EPS__
v	u
n	n
d	d

__BEGIN__	__EPS__
d	d
a	a
z	s

__BEGIN__	__EPS__
b	b
e	e
g	g
r	r
a	a
b	b
e	e
n	n

__BEGIN__	__EPS__
m	l
i	i
n	e
n	b
i	e
g	v
k	o
l	l
i	__EPS__
c	__EPS__
h	l
e	e

__BEGIN__	__EPS__
l	l
e	e
i	i
c	c
h	h
n	n
a	a
n	m

__BEGIN__	__EPS__
d	d
i	i
e	e
p	b

__BEGIN__	__EPS__
a	a
n	n
s	s
e	e
l	l
m	m
e	__EPS__

__BEGIN__	__EPS__
g	g
e	e
s	s
p	p
r	r
o	o
c	c
h	h
e	e
n	n

__BEGIN__	__EPS__
v	u
n	n
d	d

__BEGIN__	__EPS__
b	b
l	li
e	e
u	b
e	e
n	n

__BEGIN__	__EPS__
u	u
n	n
d	d

__BEGIN__	__EPS__
d	d
a	a
s	s

__BEGIN__	__EPS__
d	d
a	a
s	s
z	s

__BEGIN__	__EPS__
s	s
a	a
s	s
s	s
e	e
n	n

__BEGIN__	__EPS__
i	i
s	s
t	t

__BEGIN__	__EPS__
m	m
a	a
r	r
i	i
a	a

__BEGIN__	__EPS__
d	d
y	ie

__BEGIN__	__EPS__
c	k
a	a
y	i
p	p
h	h
a	a
s	s

__BEGIN__	__EPS__
n	n
a	ah
m	m

__BEGIN__	__EPS__
s	s
e	ee
l	l
e	e

__BEGIN__	__EPS__
g	g
r	r
o	o
s	s
z	s

__BEGIN__	__EPS__
w	w
a	a
s	s

__BEGIN__	__EPS__
e	e
s	s
z	__EPS__

__BEGIN__	__EPS__
v	v
e	e
r	r
d	d
e	e
r	r
u	b
e	e
n	n

__BEGIN__	__EPS__
d	d
a	a
s	ss

__BEGIN__	__EPS__
z	z
u	u

__BEGIN__	__EPS__
n	n
i	ie
d	d
e	e
r	r

__BEGIN__	__EPS__
v	u
n	n
d	d

__BEGIN__	__EPS__
p	b
i	i
s	s
c	c
h	h
o	o
f	f
f	__EPS__

__BEGIN__	__EPS__
d	d
i	i
e	e

__BEGIN__	__EPS__
v	u
n	n
d	d

__BEGIN__	__EPS__
i	j
a	a
c	c
o	o
b	bus

__BEGIN__	__EPS__
s	s
e	e
i	i
n	n

__BEGIN__	__EPS__
d	d
o	a

__BEGIN__	__EPS__
v	u
n	n
d	d

__BEGIN__	__EPS__
a	a
n	n

__BEGIN__	__EPS__
f	f
r	r
o	a
w	u

__BEGIN__	__EPS__
e	e
r	r

__BEGIN__	__EPS__
v	u
n	n
d	d

__BEGIN__	__EPS__
i	i
c	c
h	h

__BEGIN__	__EPS__
v	v
i	ie
l	l

__BEGIN__	__EPS__
d	d
e	e
n	n

__BEGIN__	__EPS__
d	d
a	a

__BEGIN__	__EPS__
v	u
n	n
d	d

__BEGIN__	__EPS__
r	r
i	e
j	i
c	c
h	h

__BEGIN__	__EPS__
t	t
r	r
o	o
s	s
t	t

__BEGIN__	__EPS__
e	e
r	r

__BEGIN__	__EPS__
d	d
i	i
e	e

__BEGIN__	__EPS__
v	b
n	i
t	__EPS__
z	s

__BEGIN__	__EPS__
m	m
a	a
r	r
i	i
a	a

__BEGIN__	__EPS__
w	w
e	e
i	i
n	n
e	e
n	n

__BEGIN__	__EPS__
i	i
m	m

__BEGIN__	__EPS__
d	d
a	a
z	ss

__BEGIN__	__EPS__
s	s
p	p
r	r
a	a
c	c
h	h
s	s
e	__EPS__
s	__EPS__
t	t

__BEGIN__	__EPS__
m	m
e	eh
r	r

__BEGIN__	__EPS__
g	g
r	r
o	o
s	s
s	s
e	e
n	n

__BEGIN__	__EPS__
b	b
e	i
n	n

__BEGIN__	__EPS__
d	d
a	a
t	s

__BEGIN__	__EPS__
d	d
v	u

__BEGIN__	__EPS__
i	ih
n	n

__BEGIN__	__EPS__
z	z
u	e
i	u
g	g
n	n
u	__EPS__
i	i
s	s
z	__EPS__

__BEGIN__	__EPS__
d	d
e	e
n	n

__BEGIN__	__EPS__
b	b
e	e
s	s
o	o
r	r
g	g
e	e
n	n

__BEGIN__	__EPS__
b	b
y	i
n	n

__BEGIN__	__EPS__
a	a
n	n

__BEGIN__	__EPS__
d	d
o	a

__BEGIN__	__EPS__
e	e
r	r

__BEGIN__	__EPS__
v	ü
e	__EPS__
b	b
e	e
r	r

__BEGIN__	__EPS__
d	d
e	e
m	m

__BEGIN__	__EPS__
d	w
a	__EPS__
n	__EPS__
n	__EPS__
e	e
n	g

__BEGIN__	__EPS__
v	u
n	n
d	d

__BEGIN__	__EPS__
d	d
a	a
z	ss

__BEGIN__	__EPS__
w	w
a	a
s	s

__BEGIN__	__EPS__
d	d
r	r
e	e
y	i
e	e
r	r
h	l
a	e
n	i
d	__EPS__

__BEGIN__	__EPS__
h	h
a	a
t	t

__BEGIN__	__EPS__
v	u
n	n
d	d

__BEGIN__	__EPS__
e	e
y	i
n	n

__BEGIN__	__EPS__
w	w
u	u
n	n
d	d
e	e
n	__EPS__

__BEGIN__	__EPS__
n	n
i	i
c	c
h	h
t	t

__BEGIN__	__EPS__
m	m
u	u
o	__EPS__
t	t
t	t
e	e
r	r

__BEGIN__	__EPS__
a	a
n	n

__BEGIN__	__EPS__
d	d
a	a
r	r
v	u
m	m
b	__EPS__

__BEGIN__	__EPS__
a	a
n	n
s	s
e	e
l	l
m	m
u	__EPS__
s	s

__BEGIN__	__EPS__
s	s
p	p
r	r
a	a
c	c
h	h

__BEGIN__	__EPS__
t	t
r	r
o	o
i	__EPS__
s	s
t	t

__BEGIN__	__EPS__
s	se
y	i
n	n
e	e
m	m

__BEGIN__	__EPS__
d	d
i	i
e	e

__BEGIN__	__EPS__
d	d
e	e
m	m

__BEGIN__	__EPS__
t	__EPS__
z	z
o	u

__BEGIN__	__EPS__
r	r
i	i
e	e
f	f
f	__EPS__
e	e
n	n

__BEGIN__	__EPS__
d	da
z	s

__BEGIN__	__EPS__
l	l
e	e
b	b
e	e
n	n
t	d
i	i
g	g

__BEGIN__	__EPS__
v	v
e	e
r	r
t	__EPS__
z	z
a	a
g	g
e	__EPS__
t	t

__BEGIN__	__EPS__
g	g
e	e
b	b
a	e
i	i
n	n

__BEGIN__	__EPS__
n	n
e	eh
m	m
e	e
n	n

__BEGIN__	__EPS__
v	v
o	o
n	n

__BEGIN__	__EPS__
f	f
r	r
a	a
u	u
w	__EPS__
e	__EPS__

__BEGIN__	__EPS__
s	s
o	o

__BEGIN__	__EPS__
f	v
u	o
e	__EPS__
r	r

__BEGIN__	__EPS__
d	d
e	e
s	s

__BEGIN__	__EPS__
t	__EPS__
z	z
o	u

__BEGIN__	__EPS__
s	sch
m	m
e	e
r	r
t	__EPS__
z	z
e	__EPS__

__BEGIN__	__EPS__
s	s
c	c
h	h
o	os
s	s

__BEGIN__	__EPS__
g	__EPS__
e	__EPS__
m	m
e	e
r	r
k	k
e	e
n	n

__BEGIN__	__EPS__
h	e
i	__EPS__
e	r

__BEGIN__	__EPS__
m	m
u	u
t	t
t	t
e	e
r	r

__BEGIN__	__EPS__
m	me
i	i
n	n

__BEGIN__	__EPS__
h	h
e	a
t	t
t	__EPS__

__BEGIN__	__EPS__
m	m
e	ehr

__BEGIN__	__EPS__
m	m
i	i
t	t

__BEGIN__	g
e	esetz

__BEGIN__	__EPS__
d	d
o	a

__BEGIN__	__EPS__
v	u
n	n
d	d
e	__EPS__

__BEGIN__	__EPS__
e	i
m	h
e	m

__BEGIN__	__EPS__
g	g
e	eh
e	e

__BEGIN__	__EPS__
v	u
n	n
d	d

__BEGIN__	__EPS__
d	d
a	a

__BEGIN__	__EPS__
h	h
e	a
t	tt
e	e
n	n

__BEGIN__	__EPS__
d	d
a	a

__BEGIN__	__EPS__
v	v
e	e
r	r
g	g
a	a
s	s
z	s

__BEGIN__	__EPS__
g	g
e	e
b	be

__BEGIN__	__EPS__
i	j
e	ä
m	mm
e	e
r	r
l	l
i	i
c	c
h	he
s	s

__BEGIN__	__EPS__
e	e
i	i
n	n

__BEGIN__	__EPS__
f	f
u	ü
e	h
r	r
t	t

__BEGIN__	__EPS__
g	g
e	e
d	t
r	r
e	ä
n	n
c	__EPS__
k	k
t	t

__BEGIN__	__EPS__
e	e
y	i
n	n
e	e
n	n

__BEGIN__	__EPS__
w	w
y	i
r	r

__BEGIN__	__EPS__
g	g
a	a
l	l
i	i
l	l
e	e
a	a

__BEGIN__	__EPS__
w	w
a	a
z	s

__BEGIN__	__EPS__
i	ih
n	n

__BEGIN__	__EPS__
v	u
n	n
d	d

__BEGIN__	__EPS__
i	i
c	c
h	h

__BEGIN__	__EPS__
h	h
a	a
n	n
t	d

__BEGIN__	__EPS__
g	g
e	e
t	t
r	r
a	a
g	g
e	e
n	n

__BEGIN__	__EPS__
n	n
a	a
c	c
h	h

__BEGIN__	__EPS__
s	s
p	p
i	i
e	e
z	ss
e	e
n	n

__BEGIN__	__EPS__
h	h
i	i
e	e
l	l
t	t

__BEGIN__	__EPS__
h	e
i	__EPS__
e	r

__BEGIN__	__EPS__
g	g
e	e
s	s
a	a
n	nd
t	t

__BEGIN__	a
w	uss
a	e
n	r

__BEGIN__	__EPS__
v	v
e	e
r	r
o	u
e	__EPS__
r	r
d	t
e	ei
l	l
t	t

__BEGIN__	__EPS__
c	c
e	e
t	t
e	e
r	r
a	a

__BEGIN__	__EPS__
m	m
v	u
t	tt
e	e
r	r

__BEGIN__	__EPS__
i	ih
n	n

__BEGIN__	__EPS__
h	e
e	r

__BEGIN__	__EPS__
v	u
n	n
d	d

__BEGIN__	__EPS__
s	se
y	i

__BEGIN__	__EPS__
t	__EPS__
z	z
o	u

__BEGIN__	__EPS__
s	s
i	i
j	e

__BEGIN__	__EPS__
v	v
o	o
n	n

__BEGIN__	__EPS__
e	e
r	r

__BEGIN__	__EPS__
i	ih
m	m

__BEGIN__	__EPS__
s	s
e	e
i	i
n	n

__BEGIN__	__EPS__
q	k
w	__EPS__
a	a
m	m
e	e
n	n

__BEGIN__	__EPS__
f	f
r	r
a	a
g	g
t	t

__BEGIN__	__EPS__
i	i
c	c
h	h

__BEGIN__	__EPS__
c	k
r	re
u	u
c	__EPS__
z	z
e	e

__BEGIN__	__EPS__
h	h
a	ab
n	e

__BEGIN__	__EPS__
m	m
e	e
i	i
n	n

__BEGIN__	__EPS__
n	n
o	ö
e	__EPS__
t	t
e	e
n	n

__BEGIN__	__EPS__
i	j
a	a
c	c
o	o
b	bus

__BEGIN__	__EPS__
i	i
n	n

__BEGIN__	__EPS__
y	j
e	ä
m	mm
e	e
r	r
l	l
i	i
c	c
h	h
e	e
n	n

__BEGIN__	d
u	u

__BEGIN__	__EPS__
l	le
i	i
b	b

__BEGIN__	__EPS__
s	s
a	a
g	g
e	e
n	n

__BEGIN__	__EPS__
m	m
e	e
i	i
n	n

__BEGIN__	__EPS__
s	s
y	ie

__BEGIN__	__EPS__
e	e
r	r

__BEGIN__	__EPS__
v	u
n	n
d	d
e	__EPS__

__BEGIN__	__EPS__
c	__EPS__
h	k
i	i
n	n
d	d

__BEGIN__	__EPS__
d	d
o	a

__BEGIN__	__EPS__
g	g
o	o
t	tt

__BEGIN__	__EPS__
a	a
b	b
e	e
r	r

__BEGIN__	__EPS__
e	e
r	r
l	l
o	ö
e	__EPS__
s	s
e	__EPS__
t	t

__BEGIN__	__EPS__
m	m
i	i
r	r

__BEGIN__	__EPS__
g	g
r	r
a	a
b	b

__BEGIN__	__EPS__
a	e
i	i
n	n

__BEGIN__	__EPS__
v	u
n	n
d	d

__BEGIN__	__EPS__
s	s
c	c
h	h
a	e
i	i
d	d
e	e
n	n

__BEGIN__	__EPS__
s	sch
w	w
e	e
s	s
t	t
e	e
r	r

__BEGIN__	__EPS__
e	e
r	r

__BEGIN__	__EPS__
s	s
u	oh
n	n

__BEGIN__	__EPS__
v	v
e	e
n	n
i	i
a	a
m	m

__BEGIN__	__EPS__
a	a
u	u
f	f
f	__EPS__
e	e
r	r
s	s
t	t
a	a
n	n
d	d
e	e
n	n

__BEGIN__	__EPS__
g	g
e	es
f	t
u	an
g	d
i	e
t	n

__BEGIN__	__EPS__
g	g
e	e
b	b
e	e
n	n

__BEGIN__	__EPS__
a	a
l	l
s	s

__BEGIN__	__EPS__
a	a
l	l
s	s
o	o

__BEGIN__	__EPS__
h	e
e	r

__BEGIN__	__EPS__
d	d
a	a
u	v
o	o
n	n

__BEGIN__	__EPS__
d	di
e	e
s	s
e	e
n	n

__BEGIN__	__EPS__
d	d
a	a
s	ss

__BEGIN__	__EPS__
v	u
n	n
d	d

__BEGIN__	__EPS__
d	d
v	u
r	r
c	c
h	h

__BEGIN__	__EPS__
h	h
e	a
t	t

__BEGIN__	__EPS__
d	t
o	o
i	__EPS__
t	d

__BEGIN__	__EPS__
m	m
i	i
t	t

__BEGIN__	__EPS__
z	z
u	u

__BEGIN__	__EPS__
e	e
r	r

__BEGIN__	__EPS__
h	h
e	e
y	i
l	li
g	g
e	e
n	n

__BEGIN__	__EPS__
s	s
y	i
m	m
e	e
o	o
n	n
i	__EPS__
s	s

__BEGIN__	__EPS__
e	__EPS__
n	__EPS__
w	w
o	o
l	l
d	lt
e	e

__BEGIN__	__EPS__
s	s
i	ie

__BEGIN__	__EPS__
d	d
e	e
n	n

__BEGIN__	__EPS__
i	ih
m	m

__BEGIN__	__EPS__
g	g
e	e
n	n
i	i
e	e
s	s
s	s
e	e
n	n

__BEGIN__	__EPS__
p	b
l	l
u	u
t	t
i	i
g	g
e	e
n	n

__BEGIN__	__EPS__
v	u
n	n
s	s
c	c
h	h
u	u
l	l
d	d
i	i
c	__EPS__
h	g

__BEGIN__	__EPS__
d	d
a	a
n	nn

__BEGIN__	__EPS__
d	d
e	e
n	n

__BEGIN__	__EPS__
v	u
n	n
d	d

__BEGIN__	__EPS__
d	d
e	e
m	m

__BEGIN__	__EPS__
i	ih
m	m

__BEGIN__	__EPS__
n	n
i	ich
t	t

__BEGIN__	__EPS__
a	a
u	u
c	c
h	h

__BEGIN__	__EPS__
w	w
a	a
s	r

__BEGIN__	__EPS__
d	d
e	e
r	r

__BEGIN__	__EPS__
a	a
u	u
c	c
h	h

__BEGIN__	__EPS__
d	d
o	a
r	__EPS__
n	n
o	a
c	c
h	h

__BEGIN__	__EPS__
l	l
i	i
e	e
f	b
l	l
i	i
c	ch

__BEGIN__	__EPS__
d	d
i	i
e	e

__BEGIN__	__EPS__
v	v
i	ie
l	l

__BEGIN__	__EPS__
d	d
a	a
s	ss

__BEGIN__	__EPS__
g	g
e	e
s	s
c	c
h	h
a	a
c	__EPS__
h	h

__BEGIN__	__EPS__
d	d
e	e
r	r

__BEGIN__	__EPS__
m	m
i	i
c	c
h	h

__BEGIN__	__EPS__
p	p
l	l
o	o
r	r
a	a
n	n
s	s

__BEGIN__	__EPS__
d	d
e	e
n	n

__BEGIN__	__EPS__
i	ih
r	r

__BEGIN__	__EPS__
s	s
c	c
h	h
a	a
r	r
f	f
f	__EPS__

__BEGIN__	__EPS__
s	s
o	ol
l	l
t	t
e	e
s	s
t	t

__BEGIN__	__EPS__
v	u
n	n
d	d

__BEGIN__	__EPS__
a	a
b	b

__BEGIN__	__EPS__
i	j
o	o
h	h
-	ann
e	es

__BEGIN__	__EPS__
n	n
o	ah
m	m
e	e
n	n

__BEGIN__	__EPS__
d	d
e	e
n	n

__BEGIN__	__EPS__
g	g
i	in
e	g

__BEGIN__	__EPS__
g	g
r	r
o	o
z	s
z	s
e	e
w	__EPS__

__BEGIN__	__EPS__
k	k
y	i
n	n
d	d
e	e
s	s

__BEGIN__	__EPS__
h	h
o	a
t	t

__BEGIN__	__EPS__
h	h
a	a
s	s
t	t

__BEGIN__	__EPS__
s	s
a	a
h	h
e	e
n	n

__BEGIN__	__EPS__
t	t
o	o
d	d
e	e

__BEGIN__	__EPS__
u	e
i	u
c	c
h	h

__BEGIN__	__EPS__
s	se
y	i
n	n

__BEGIN__	__EPS__
i	ih
m	m

__BEGIN__	__EPS__
m	m
i	i
c	c
h	h

__BEGIN__	__EPS__
h	h
y	i
m	mm
i	e
l	l
r	re
i	i
e	__EPS__
c	c
h	h

__BEGIN__	__EPS__
d	d
o	a

__BEGIN__	__EPS__
m	m
a	an
n	n

__BEGIN__	__EPS__
n	n
e	e
y	i
n	n

__BEGIN__	__EPS__
i	j
a	ä
e	m
m	m
e	e
r	r
l	l
i	i
c	c
h	h

__BEGIN__	__EPS__
a	a
n	n
s	s
z	__EPS__
h	__EPS__
e	e
l	l
m	m
u	__EPS__
s	s
z	__EPS__

__BEGIN__	__EPS__
w	w
u	u
o	__EPS__
s	s
c	c
h	h

__BEGIN__	__EPS__
w	w
o	o
u	l
l	l
t	t

__BEGIN__	__EPS__
h	h
e	e
r	r
c	__EPS__
z	z

__BEGIN__	__EPS__
w	w
o	o
r	r
t	t

__BEGIN__	__EPS__
v	u
n	n
d	d

__BEGIN__	__EPS__
g	g
e	e
g	g
e	e
u	b
e	e
n	n

__BEGIN__	__EPS__
a	a
n	n

__BEGIN__	__EPS__
s	se
i	i
n	n

__BEGIN__	__EPS__
h	h
i	i
n	n
g	g
e	e
n	n

__BEGIN__	e
v	u
c	c
h	h

__BEGIN__	__EPS__
l	l
a	a
s	s
t	t
e	e
r	r

__BEGIN__	__EPS__
k	k
o	o
m	mm
e	e
n	n

__BEGIN__	__EPS__
s	s
i	i
n	n
t	d

__BEGIN__	__EPS__
h	h
e	a
t	t
t	te

__BEGIN__	__EPS__
r	r
e	ec
h	h
t	t

__BEGIN__	__EPS__
b	b
r	r
ü	ü
s	s
t	t
e	e

__BEGIN__	__EPS__
d	d
e	e
m	m

__BEGIN__	__EPS__
d	d
a	a
z	s

__BEGIN__	__EPS__
i	ih
r	r

__BEGIN__	__EPS__
s	s
p	pe
e	e
r	r
e	__EPS__

__BEGIN__	__EPS__
m	me
i	i
n	n
e	e
r	r

__BEGIN__	__EPS__
i	j
a	a
v	m
m	m
e	e
r	r

__BEGIN__	__EPS__
w	w
a	a
s	s
z	s
e	e
r	r

__BEGIN__	__EPS__
w	w
y	i
r	r

__BEGIN__	__EPS__
w	w
i	i
r	r

__BEGIN__	__EPS__
g	g
a	a
l	l
g	g
e	e
n	n

__BEGIN__	__EPS__
k	k
i	i
n	n
d	d

__BEGIN__	__EPS__
z	z
a	a
r	r
t	t
e	e
s	s

__BEGIN__	__EPS__
d	d
e	e
r	r

__BEGIN__	__EPS__
g	g
v	u
t	t
e	e
n	n

__BEGIN__	__EPS__
p	b
e	e
c	c
k	k
e	e
n	n

__BEGIN__	__EPS__
m	m
a	a
l	l

__BEGIN__	__EPS__
d	d
a	a
s	ss

__BEGIN__	__EPS__
b	b
i	i
s	st

__BEGIN__	__EPS__
e	e
r	r
p	b
a	a
r	r
m	m
u	u
n	n
g	g
e	__EPS__

__BEGIN__	__EPS__
d	d
i	i
e	e

__BEGIN__	d
u	u

__BEGIN__	__EPS__
w	w
i	i
l	ll

__BEGIN__	__EPS__
w	w
a	a
z	r

__BEGIN__	__EPS__
s	s
y	i
m	m
e	e
o	o
n	n

__BEGIN__	__EPS__
e	e
r	r

__BEGIN__	__EPS__
k	k
o	om
m	m
e	e
n	n

__BEGIN__	__EPS__
m	m
a	a
g	g
d	d
a	a
l	l
e	e
n	n
a	a

__BEGIN__	__EPS__
m	m
i	i
t	t

__BEGIN__	__EPS__
m	m
e	e
i	i
n	n

__BEGIN__	__EPS__
y	ih
n	n

__BEGIN__	__EPS__
d	d
e	e
r	r

__BEGIN__	__EPS__
h	h
o	o
m	m
i	i
n	n
u	u
m	m

__BEGIN__	__EPS__
i	ih
m	m

__BEGIN__	__EPS__
w	w
o	o
r	r
d	den

__BEGIN__	__EPS__
d	d
o	a

__BEGIN__	__EPS__
v	u
n	n
d	d

__BEGIN__	__EPS__
v	u
n	n
d	d

__BEGIN__	__EPS__
e	e
i	i
n	n

__BEGIN__	__EPS__
d	d
o	o
c	c
h	h

__BEGIN__	__EPS__
r	r
y	ie
f	f

__BEGIN__	__EPS__
s	s
o	o

__BEGIN__	__EPS__
s	s
p	p
r	r
a	a
c	c
h	h

__BEGIN__	__EPS__
w	w
y	i
r	r

__BEGIN__	__EPS__
g	g
i	i
e	__EPS__
n	n
g	g
e	e
n	n

__BEGIN__	__EPS__
a	a
l	l
s	s

__BEGIN__	__EPS__
g	g
e	e
s	s
e	e
l	l
l	l
e	e

__BEGIN__	__EPS__
w	w
a	a
n	n
n	n

__BEGIN__	__EPS__
o	oh

__BEGIN__	__EPS__
n	n
i	ic
h	h
t	t

__BEGIN__	__EPS__
v	ü
i	__EPS__
b	b
e	e
r	r

__BEGIN__	__EPS__
v	v
u	o
r	r

__BEGIN__	__EPS__
a	a
l	l
s	s
o	o

__BEGIN__	__EPS__
f	f
r	r
o	a
u	u
w	__EPS__
e	__EPS__
n	__EPS__

__BEGIN__	__EPS__
h	h
e	e
r	r
t	__EPS__
z	z

__BEGIN__	__EPS__
e	u
e	n
n	d

__BEGIN__	__EPS__
g	g
a	i
n	n
g	g
e	e
n	n

__BEGIN__	__EPS__
v	v
e	ollb
r	r
i	a
e	c
h	h
e	__EPS__
n	t

__BEGIN__	__EPS__
d	d
e	e
n	n

__BEGIN__	__EPS__
n	n
a	ah
m	m

__BEGIN__	__EPS__
d	d
o	a

__BEGIN__	__EPS__
v	u
n	n
n	d

__BEGIN__	__EPS__
k	k
i	i
n	n
t	d

__BEGIN__	__EPS__
d	d
o	a

__BEGIN__	__EPS__
w	w
a	a
s	s

__BEGIN__	__EPS__
s	s
i	i
c	c
h	h

__BEGIN__	__EPS__
n	n
e	e
i	i
g	g
e	__EPS__
t	t
e	e

__BEGIN__	__EPS__
v	b
n	i
t	__EPS__
z	s

__BEGIN__	__EPS__
w	w
o	o
r	r
t	t

__BEGIN__	__EPS__
d	d
i	i
r	r

__BEGIN__	__EPS__
r	r
i	i
t	t
t	t
e	e
r	r

__BEGIN__	__EPS__
l	l
a	ah
m	m
e	e
n	n

__BEGIN__	__EPS__
m	me
i	i
n	n

__BEGIN__	__EPS__
m	m
e	e
y	i
n	n
i	e
s	s

__BEGIN__	__EPS__
d	d
i	i
e	e

__BEGIN__	__EPS__
i	ih
n	n

__BEGIN__	__EPS__
v	u
n	n
n	d

__BEGIN__	__EPS__
n	n
i	ich
t	t

__BEGIN__	__EPS__
d	d
i	i
c	c
h	h

__BEGIN__	__EPS__
s	s
e	eh
r	r

__BEGIN__	__EPS__
w	w
a	o
i	h
l	l
l	__EPS__

__BEGIN__	__EPS__
i	ih
n	n

__BEGIN__	__EPS__
d	d
e	e
r	r

__BEGIN__	__EPS__
s	s
p	p
r	r
a	a
c	c
h	h

__BEGIN__	__EPS__
s	s
p	p
r	r
a	a
c	c
h	h

__BEGIN__	__EPS__
b	b
l	l
o	u
i	__EPS__
t	t

__BEGIN__	__EPS__
i	i
e	h
r	r

__BEGIN__	__EPS__
m	m
e	e
i	i
n	n

__BEGIN__	__EPS__
v	ü
b	b
e	e
r	r

__BEGIN__	__EPS__
g	g
e	e
m	m
e	e
y	i
n	n
e	e

__BEGIN__	__EPS__
a	o
d	d
e	e
r	r

__BEGIN__	__EPS__
s	s
c	c
h	h
r	r
u	i
w	__EPS__
e	e
n	n

__BEGIN__	__EPS__
s	s
i	i
c	c
h	h

__BEGIN__	__EPS__
b	b
i	e
e	i

__BEGIN__	__EPS__
v	v
e	e
r	r
r	r
y	ie
t	t

__BEGIN__	__EPS__
d	d
o	a

__BEGIN__	__EPS__
h	h
i	ä
e	t
t	te

__BEGIN__	__EPS__
a	a
l	l
l	l
e	e
i	i
n	n

__BEGIN__	__EPS__
v	v
o	o
n	n

__BEGIN__	__EPS__
d	d
a	a
t	ss

__BEGIN__	__EPS__
u	u
n	n
d	d

__BEGIN__	__EPS__
d	d
e	e
n	n

__BEGIN__	__EPS__
r	r
e	e
c	c
h	h
t	t

__BEGIN__	__EPS__
d	d
i	i
e	e

__BEGIN__	__EPS__
v	v
o	o
n	n

__BEGIN__	__EPS__
m	m
i	i
r	r

__BEGIN__	__EPS__
g	g
e	e
b	b
o	o
r	r
r	e
n	n

__BEGIN__	__EPS__
s	s
o	o

__BEGIN__	__EPS__
s	s
i	i
c	e
h	h

__BEGIN__	__EPS__
a	a
l	l
l	l
e	e

__BEGIN__	__EPS__
w	w
a	a
r	r
t	d

__BEGIN__	__EPS__
p	p
i	i
l	l
a	a
t	t
u	u
s	s

__BEGIN__	__EPS__
h	h
a	a
i	be
n	n

__BEGIN__	__EPS__
w	w
a	a
s	r

__BEGIN__	__EPS__
d	d
o	a

__BEGIN__	__EPS__
v	u
n	n
g	g
e	__EPS__
l	l
i	e
e	i
c	c
h	h

__BEGIN__	n
e	ich
n	t

__BEGIN__	__EPS__
h	h
i	ä
e	t
t	t
e	e
n	n

__BEGIN__	__EPS__
d	d
e	e
r	r

__BEGIN__	__EPS__
i	i
c	c
h	h

__BEGIN__	__EPS__
i	i
c	c
h	h

__BEGIN__	__EPS__
z	z
ü	u

__BEGIN__	__EPS__
p	p
y	i
l	l
a	a
t	t
u	u
n	s

__BEGIN__	__EPS__
i	ih
m	m

__BEGIN__	__EPS__
m	m
a	a
r	r
i	i
a	a

__BEGIN__	__EPS__
e	e
i	i
n	n

__BEGIN__	__EPS__
d	d
i	i
e	e

__BEGIN__	__EPS__
w	__EPS__
r	r
e	ä
c	c
h	h
e	e
n	n

__BEGIN__	__EPS__
a	e
i	i
n	n
e	e
r	r

__BEGIN__	__EPS__
a	a
n	n
t	t
w	w
e	o
r	r
t	t
e	e

__BEGIN__	__EPS__
s	s
i	e
j	i
n	ne
s	s

__BEGIN__	__EPS__
p	b
i	i
s	s
t	t

__BEGIN__	__EPS__
e	e
n	n
g	g
i	e
l	l

__BEGIN__	__EPS__
d	d
o	a

__BEGIN__	__EPS__
d	d
o	a

__BEGIN__	__EPS__
h	h
e	a
t	t

__BEGIN__	__EPS__
s	s
c	c
h	h
a	a
r	r
p	__EPS__
f	f
f	__EPS__

__BEGIN__	__EPS__
b	b
e	e
s	s
e	e
s	s
s	s
e	e
n	n

__BEGIN__	__EPS__
i	j
u	u
d	d
e	e
n	n

__BEGIN__	__EPS__
m	m
i	i
t	t

__BEGIN__	__EPS__
h	h
o	o
n	h
e	n

__BEGIN__	__EPS__
d	d
o	a

__BEGIN__	__EPS__
s	s
t	t
e	e
y	i
n	n

__BEGIN__	__EPS__
d	d
u	u

__BEGIN__	__EPS__
g	g
e	e
r	r
n	n

__BEGIN__	__EPS__
m	m
i	i
r	r

__BEGIN__	__EPS__
n	n
i	i
c	c
h	h
t	t

__BEGIN__	__EPS__
f	f
r	r
a	a
w	u
o	__EPS__

__BEGIN__	__EPS__
m	m
i	i
c	c
h	h

__BEGIN__	__EPS__
s	s
e	__EPS__
i	ie

__BEGIN__	__EPS__
i	i
n	n

__BEGIN__	__EPS__
w	w
o	o

__BEGIN__	__EPS__
s	s
y	i
e	e

__BEGIN__	__EPS__
s	s
y	ie

__BEGIN__	__EPS__
m	m
e	a
n	n

__BEGIN__	__EPS__
v	u
n	n
d	d

__BEGIN__	__EPS__
d	d
y	ie

__BEGIN__	__EPS__
d	d
a	a
s	ss

__BEGIN__	__EPS__
h	h
a	a
i	__EPS__
t	t

__BEGIN__	__EPS__
o	o
w	w
e	eh

__BEGIN__	__EPS__
a	a
n	n

__BEGIN__	__EPS__
d	d
u	u
r	r
c	c
h	h

__BEGIN__	__EPS__
h	h
e	e
i	i
l	l
i	i
g	g
e	e
n	n

__BEGIN__	__EPS__
c	__EPS__
z	z
u	u

__BEGIN__	__EPS__
d	d
e	e
r	r

__BEGIN__	__EPS__
d	d
e	e
n	n
n	n

__BEGIN__	__EPS__
w	w
y	i
r	r

__BEGIN__	__EPS__
p	p
i	i
a	a

__BEGIN__	__EPS__
i	ih
m	m

__BEGIN__	__EPS__
l	l
i	i
e	e
s	s
s	s
e	e
n	n

__BEGIN__	__EPS__
p	p
a	a
r	r
a	a
d	d
y	ie
s	s
e	__EPS__

__BEGIN__	__EPS__
a	a
l	l
s	s
o	o

__BEGIN__	__EPS__
s	s
u	oh
n	n

__BEGIN__	__EPS__
r	r
a	e
i	i
n	n
e	e
w	__EPS__

__BEGIN__	__EPS__
i	ih
m	m

__BEGIN__	__EPS__
d	da
z	ss

__BEGIN__	__EPS__
w	w
e	e
c	g
h	__EPS__
l	l
e	e
i	i
d	t
e	e
n	n

__BEGIN__	__EPS__
h	h
o	ö
r	r
t	__EPS__
t	t
e	e
n	n

__BEGIN__	__EPS__
i	i
c	c
h	h

__BEGIN__	__EPS__
a	a
r	r
g	g

__BEGIN__	__EPS__
g	g
e	e
t	t
r	r
e	ä
n	n
c	k
h	__EPS__
e	__EPS__
t	t

__BEGIN__	__EPS__
s	s
o	o

__BEGIN__	__EPS__
d	d
o	a

__BEGIN__	__EPS__
m	m
e	a
n	n

__BEGIN__	__EPS__
w	w
i	ie
d	d
e	e
r	r
m	m
a	a
c	c
h	h
e	e
n	n

__BEGIN__	__EPS__
a	a
u	u
d	d
i	i

__BEGIN__	__EPS__
d	d
e	e
r	r

__BEGIN__	__EPS__
s	s
o	o
e	h
n	n

__BEGIN__	__EPS__
w	w
a	a
s	r

__BEGIN__	__EPS__
d	d
o	a

__BEGIN__	__EPS__
i	j
o	o
h	h
a	a
n	n
n	n
e	e
s	s

__BEGIN__	__EPS__
e	e
y	i
n	n

__BEGIN__	__EPS__
l	l
e	e
i	i
c	c
h	h
n	n
a	a
n	m

__BEGIN__	__EPS__
i	i
c	c
h	h

__BEGIN__	__EPS__
w	w
a	a
z	s

__BEGIN__	__EPS__
v	v
e	e
r	r
d	d
r	r
o	o
s	s
z	s

__BEGIN__	__EPS__
d	d
a	a
s	ss

__BEGIN__	__EPS__
d	d
e	eh
n	n
t	t
e	e
n	n

__BEGIN__	__EPS__
a	a
n	n
d	d
e	e
r	re

__BEGIN__	__EPS__
m	m
y	i
c	c
h	h

__BEGIN__	__EPS__
s	s
i	i
c	c
h	h

__BEGIN__	__EPS__
s	s
e	e
i	i
n	n

__BEGIN__	__EPS__
d	d
o	a

__BEGIN__	__EPS__
d	d
a	a
s	ss

__BEGIN__	__EPS__
h	h
i	i
e	__EPS__
n	n
g	g
e	e
n	n

__BEGIN__	__EPS__
d	d
o	a

__BEGIN__	__EPS__
e	e
r	r

__BEGIN__	__EPS__
a	a
n	n
s	s
h	__EPS__
e	e
l	l
m	m
u	__EPS__
s	__EPS__

__BEGIN__	__EPS__
m	me
y	i
n	n

__BEGIN__	__EPS__
h	h
a	a
s	s
t	t

__BEGIN__	__EPS__
v	v
u	e
r	r
e	e
i	i
n	n
e	__EPS__
t	t

__BEGIN__	__EPS__
d	d
a	a
s	s

__BEGIN__	__EPS__
d	d
a	a
s	ss

__BEGIN__	__EPS__
b	b
a	a
r	r
r	r
a	a
b	b
a	a
n	s

__BEGIN__	__EPS__
d	d
o	a

__BEGIN__	__EPS__
m	m
e	e
i	i
n	n
e	e
e	__EPS__
t	m

__BEGIN__	a
v	u
z	s

__BEGIN__	__EPS__
f	f
r	r
i	e
u	u
n	n
d	d

__BEGIN__	__EPS__
e	e
n	m
p	p
f	f
i	i
n	n
g	g

__BEGIN__	__EPS__
i	ih
m	m

__BEGIN__	__EPS__
d	d
i	e
j	i
n	n

__BEGIN__	__EPS__
k	k
r	r
a	ä
e	h
t	t
t	__EPS__

__BEGIN__	__EPS__
g	__EPS__
e	__EPS__
t	t
r	r
o	ö
e	__EPS__
s	s
t	t
e	e
n	n

__BEGIN__	__EPS__
c	k
r	r
u	e
i	u
c	__EPS__
z	z

__BEGIN__	__EPS__
v	u
n	n
r	r
a	e
i	i
n	n
e	e
n	n

__BEGIN__	__EPS__
y	ih
n	n

__BEGIN__	__EPS__
v	v
a	a
t	t
e	e
r	r

__BEGIN__	__EPS__
d	d
a	a
s	s

__BEGIN__	__EPS__
v	u
n	n
d	d

__BEGIN__	__EPS__
k	g
u	esch
n	l
e	echt

__BEGIN__	__EPS__
m	m
e	e
i	i
n	n
e	e
s	s

__BEGIN__	__EPS__
n	n
i	i
t	ch
t	t

__BEGIN__	__EPS__
g	g
r	r
o	o
s	s
z	s
e	e

__BEGIN__	__EPS__
s	s
p	p
r	r
a	a
c	c
h	h

__BEGIN__	__EPS__
m	m
i	i
r	r

__BEGIN__	__EPS__
i	ih
m	m

__BEGIN__	__EPS__
s	s
p	p
r	r
a	a
c	c
h	h

__BEGIN__	__EPS__
t	t
o	o
d	d

__BEGIN__	__EPS__
s	s
c	c
h	h
r	r
i	i
r	e
n	n

__BEGIN__	__EPS__
m	m
i	i
t	t

__BEGIN__	__EPS__
a	a
l	l
l	l
e	e

__BEGIN__	__EPS__
m	m
i	i
r	r

__BEGIN__	__EPS__
w	w
o	o
l	ll
t	t
e	e
n	n

__BEGIN__	__EPS__
q	k
u	__EPS__
a	a
m	m
e	e
n	n

__BEGIN__	__EPS__
e	e
r	r

__BEGIN__	__EPS__
y	ih
m	m

__BEGIN__	__EPS__
m	m
i	i
t	t

__BEGIN__	__EPS__
s	s
a	a
n	nd
t	t
e	e

__BEGIN__	__EPS__
w	w
a	ä
e	__EPS__
r	r
e	e
n	n

__BEGIN__	__EPS__
d	d
a	a
s	ss

__BEGIN__	__EPS__
v	v
o	o
n	n

__BEGIN__	__EPS__
s	s
o	o

__BEGIN__	__EPS__
v	u
n	n
d	d

__BEGIN__	__EPS__
e	e
r	r

__BEGIN__	__EPS__
m	m
a	e
i	i
s	s
t	t
e	e
r	r

__BEGIN__	__EPS__
d	d
o	a

__BEGIN__	__EPS__
s	s
i	ie

__BEGIN__	__EPS__
b	b
l	l
u	u
e	__EPS__
t	t

__BEGIN__	__EPS__
m	m
a	a
n	n

__BEGIN__	__EPS__
l	l
o	ö
e	__EPS__
s	s
e	e

__BEGIN__	__EPS__
d	d
u	u
r	r
c	c
h	h

__BEGIN__	__EPS__
s	se
i	i
n	n
e	e
n	n

__BEGIN__	__EPS__
m	m
i	i
t	t

__BEGIN__	__EPS__
b	b
e	e
h	h
a	a
l	l
t	te

__BEGIN__	__EPS__
n	n
i	i
t	ch
t	t

__BEGIN__	__EPS__
v	v
o	o
n	n

__BEGIN__	__EPS__
l	l
a	a
i	s
s	s
t	t

__BEGIN__	__EPS__
v	u
n	n
d	d

__BEGIN__	__EPS__
c	k
r	r
u	e
c	u
z	z
e	e

__BEGIN__	__EPS__
v	u
n	n
s	s
e	e
r	r

__BEGIN__	__EPS__
s	s
p	p
r	r
a	a
c	c
h	h

__BEGIN__	__EPS__
t	t
r	r
o	o
p	p
p	f
e	en

__BEGIN__	__EPS__
i	i
s	s
t	t

__BEGIN__	__EPS__
e	e
y	i
n	n

__BEGIN__	__EPS__
w	w
a	a
s	r

__BEGIN__	__EPS__
s	s
t	t
i	i
l	lle

__BEGIN__	__EPS__
m	m
o	o
c	c
h	h
t	te

__BEGIN__	__EPS__
r	r
v	u
f	f
t	t
e	e

__BEGIN__	__EPS__
n	n
u	un

__BEGIN__	__EPS__
v	u
n	n
d	d

__BEGIN__	__EPS__
i	i
c	ch

__BEGIN__	__EPS__
e	g
r	e
t	t
o	öt
e	e
t	t

__BEGIN__	__EPS__
s	s
e	i
y	e

__BEGIN__	__EPS__
v	v
o	o
n	n

__BEGIN__	__EPS__
v	ü
b	b
e	e
r	r

__BEGIN__	__EPS__
l	l
a	a
w	u
t	t
e	e
r	r

__BEGIN__	__EPS__
s	s
c	c
h	h
w	w
o	__EPS__
e	e
s	s
t	t
e	e
r	r

__BEGIN__	__EPS__
o	au
p	f
w	w
a	ä
e	__EPS__
r	r
t	ts

__BEGIN__	__EPS__
d	d
a	a
u	v
o	o
n	n

__BEGIN__	__EPS__
s	s
i	ie

__BEGIN__	__EPS__
i	i
c	c
h	h

__BEGIN__	__EPS__
d	d
e	e
s	s

__BEGIN__	__EPS__
b	b
e	e
f	f
a	ah
l	l

__BEGIN__	__EPS__
i	ih
n	n

__BEGIN__	__EPS__
a	a
n	n
s	s
a	a
c	__EPS__
h	h

__BEGIN__	__EPS__
v	v
a	o
n	n

__BEGIN__	__EPS__
z	z
o	u

__BEGIN__	__EPS__
m	m
i	i
r	r

__BEGIN__	__EPS__
m	m
o	o
c	c
h	h
t	te

__BEGIN__	__EPS__
s	sch
w	w
e	e
r	r
t	t

__BEGIN__	__EPS__
v	v
i	ie
l	l

__BEGIN__	a
v	u
p	f

__BEGIN__	__EPS__
q	k
u	__EPS__
a	a
m	m
e	e
n	n

__BEGIN__	__EPS__
m	m
i	i
c	c
h	h

__BEGIN__	__EPS__
c	k
h	__EPS__
o	a
m	m
e	e
n	n

__BEGIN__	__EPS__
m	m
e	e
i	i
n	n

__BEGIN__	__EPS__
s	s
i	ie

__BEGIN__	__EPS__
a	a
n	n

__BEGIN__	__EPS__
e	e
y	i
n	n
t	t
r	r
i	i
t	tt

__BEGIN__	a
o	u
c	c
h	h

__BEGIN__	__EPS__
g	g
e	e
l	l
a	a
s	ss
e	e
n	n

__BEGIN__	__EPS__
e	e
s	s
s	s
e	e
n	n

__BEGIN__	__EPS__
s	s
c	c
h	h
a	e
i	i
d	d
e	e
n	n

__BEGIN__	__EPS__
d	d
o	a

__BEGIN__	__EPS__
d	d
a	a
t	ss

__BEGIN__	__EPS__
i	ih
n	n

__BEGIN__	__EPS__
h	h
a	a
i	__EPS__
s	s
t	t

__BEGIN__	__EPS__
r	r
i	it
t	t
e	e
r	r

__BEGIN__	__EPS__
g	g
e	e
d	t
a	a
i	__EPS__
n	n

__BEGIN__	__EPS__
s	s
c	c
h	h
a	a
f	f
t	t

__BEGIN__	__EPS__
r	r
u	ü
g	c
g	k
l	l
i	i
n	n
g	g
e	__EPS__
n	s

__BEGIN__	__EPS__
c	k
h	__EPS__
r	r
a	a
n	n
c	k
h	__EPS__
e	e
t	s

__BEGIN__	__EPS__
v	v
i	ie
l	l

__BEGIN__	__EPS__
v	f
r	r
o	a
u	u
w	__EPS__
e	__EPS__

__BEGIN__	__EPS__
a	a
u	u
s	s
z	__EPS__
e	e
r	r
v	w
o	ä
e	h
l	l
t	t
e	e

__BEGIN__	__EPS__
a	a
u	u
f	f

__BEGIN__	__EPS__
g	g
v	u
t	t
e	e
s	s

__BEGIN__	__EPS__
l	l
e	e
i	i
b	b

__BEGIN__	__EPS__
f	f
r	r
v	e
i	u
n	n
d	d
e	e
n	n

__BEGIN__	__EPS__
d	d
o	a

__BEGIN__	__EPS__
r	re
i	i
c	c
h	h
t	t
v	u
n	m

__BEGIN__	__EPS__
k	k
y	i
n	n
t	d

__BEGIN__	__EPS__
s	s
p	p
r	r
a	a
c	c
h	h
e	e
n	n

__BEGIN__	__EPS__
d	d
o	a

__BEGIN__	__EPS__
g	g
n	n
a	a
d	d
e	e
n	n

__BEGIN__	__EPS__
v	u
n	n
n	d

__BEGIN__	__EPS__
i	j
u	u
d	d
e	e
n	n

__BEGIN__	__EPS__
d	d
a	a
z	ss

__BEGIN__	__EPS__
w	w
u	ü
i	__EPS__
r	r
d	de

__BEGIN__	__EPS__
d	d
o	a

__BEGIN__	__EPS__
z	z
a	e
i	i
g	g
e	e
n	n

__BEGIN__	__EPS__
d	d
i	ie

__BEGIN__	__EPS__
e	e
r	r
w	w
e	e
r	r
u	b
e	e
n	n

__BEGIN__	__EPS__
i	ih
n	n

__BEGIN__	__EPS__
c	k
r	r
u	e
c	u
z	z
e	e

__BEGIN__	__EPS__
a	a
l	l
s	s
o	o

__BEGIN__	__EPS__
p	b
i	i
n	n

__BEGIN__	__EPS__
l	l
i	i
e	e
u	b
e	e

__BEGIN__	__EPS__
n	n
a	a
z	z
a	a
r	r
e	e
n	__EPS__
u	t
m	h

__BEGIN__	__EPS__
m	m
u	u
t	tt
e	e
r	r

__BEGIN__	__EPS__
d	d
a	a
s	ss

__BEGIN__	__EPS__
w	w
a	a
s	r

__BEGIN__	__EPS__
f	f
u	ü
l	ll
t	t
e	e
n	n

__BEGIN__	__EPS__
n	n
a	ah
m	m
e	e
n	n

__BEGIN__	__EPS__
m	m
i	i
t	t
t	__EPS__

__BEGIN__	__EPS__
v	u
n	n
d	d

__BEGIN__	__EPS__
d	d
o	a

__BEGIN__	__EPS__
s	r
c	__EPS__
h	ä
a	u
c	__EPS__
h	b
e	e
r	r

__BEGIN__	__EPS__
n	n
i	ich
t	t

__BEGIN__	__EPS__
h	e
e	r

__BEGIN__	__EPS__
p	p
y	i
l	l
a	a
t	t
u	u
s	s

__BEGIN__	__EPS__
l	l
a	a
n	n
g	g

__BEGIN__	__EPS__
g	g
e	e
b	b
e	e
t	t
h	__EPS__

__BEGIN__	__EPS__
d	d
o	a

__BEGIN__	__EPS__
d	d
i	i
r	r

__BEGIN__	__EPS__
h	hi
e	e
r	r
w	__EPS__
e	h
r	i
t	n

__BEGIN__	__EPS__
d	d
i	i
e	e

__BEGIN__	__EPS__
i	ih
m	m

__BEGIN__	__EPS__
i	s
t	__EPS__
c	c
z	h
u	o
n	n
t	__EPS__

__BEGIN__	__EPS__
v	u
n	n
d	d

__BEGIN__	__EPS__
a	a
l	l
s	s

__BEGIN__	__EPS__
e	u
e	n
n	d

__BEGIN__	__EPS__
l	le
i	i
d	d
e	e
n	n
n	__EPS__
e	__EPS__

__BEGIN__	__EPS__
l	l
e	e
u	u
t	t
h	__EPS__
e	e

__BEGIN__	__EPS__
n	n
a	a
g	g
e	e
l	l
l	__EPS__

__BEGIN__	__EPS__
m	m
e	e
n	n
s	s
c	c
h	h
i	e
n	n

__BEGIN__	__EPS__
v	u
n	n
d	d

__BEGIN__	__EPS__
v	u
n	n
d	d

__BEGIN__	__EPS__
d	d
o	a

__BEGIN__	__EPS__
y	ih
r	r
e	e
n	n

__BEGIN__	__EPS__
a	a
n	n

__BEGIN__	__EPS__
v	u
n	n
d	d

__BEGIN__	__EPS__
h	h
e	ä
t	t
t	te

__BEGIN__	__EPS__
s	sch
w	w
a	e
i	i
g	ge

__BEGIN__	__EPS__
d	d
e	e
m	m

__BEGIN__	__EPS__
v	u
n	n
d	d

__BEGIN__	__EPS__
k	k
i	i
n	n
t	d

__BEGIN__	__EPS__
v	u
n	n
d	d

__BEGIN__	__EPS__
z	z
v	uc
h	h
t	t

__BEGIN__	__EPS__
e	e
n	n
d	de

__BEGIN__	__EPS__
w	w
i	i
l	l
l	l
e	e

__BEGIN__	__EPS__
a	a
u	u
c	c
h	h

__BEGIN__	__EPS__
d	d
a	a

__BEGIN__	__EPS__
g	g
e	e
s	s
t	t
e	e
r	rn

__BEGIN__	__EPS__
d	d
a	a
z	s

__BEGIN__	__EPS__
v	f
r	r
o	a
w	u
e	__EPS__

__BEGIN__	__EPS__
e	e
r	r
u	b
e	e

__BEGIN__	__EPS__
s	s
i	i
c	c
h	h

__BEGIN__	__EPS__
d	da
z	ss

__BEGIN__	__EPS__
d	d
i	ir

__BEGIN__	__EPS__
l	l
a	a
n	n
g	g
e	e

__BEGIN__	__EPS__
d	d
a	a
s	s

__BEGIN__	__EPS__
l	l
e	e
d	d
i	i
g	g

__BEGIN__	__EPS__
d	d
o	a

__BEGIN__	__EPS__
e	e
r	r
f	f
u	ü
e	__EPS__
l	l
l	l
e	__EPS__
t	t

__BEGIN__	__EPS__
g	__EPS__
e	__EPS__
h	h
a	a
b	b
i	e
n	n

__BEGIN__	__EPS__
g	g
e	e
s	s
p	p
r	r
o	o
c	c
h	h
e	e
n	n

__BEGIN__	__EPS__
i	ih
n	n

__BEGIN__	__EPS__
d	d
o	a
e	__EPS__

__BEGIN__	__EPS__
h	h
e	a
t	tt
e	e
n	n

__BEGIN__	__EPS__
d	d
o	a

__BEGIN__	__EPS__
j	j
e	e
r	r
u	u
s	s
a	a
l	l
e	e
m	m

__BEGIN__	__EPS__
a	a
n	n
d	t
r	r
ü	u
g	g
e	e
n	n

__BEGIN__	__EPS__
v	u
n	n
s	s
e	e
r	r

__BEGIN__	__EPS__
m	m
a	a
g	g
d	d
a	a
l	l
e	e
n	n
a	a

__BEGIN__	__EPS__
d	d
a	a
s	s

__BEGIN__	__EPS__
m	m
i	i
c	c
h	h

__BEGIN__	__EPS__
a	a
u	u
f	f
f	__EPS__

__BEGIN__	__EPS__
m	m
i	i
c	c
h	h

__BEGIN__	__EPS__
k	k
y	i
n	n
d	d
e	e
r	r
e	__EPS__

__BEGIN__	__EPS__
v	v
e	e
r	r
s	s
t	t
a	a
n	n
d	d
e	e
n	n

__BEGIN__	__EPS__
s	s
y	ie

__BEGIN__	__EPS__
v	u
n	n
d	d

__BEGIN__	__EPS__
v	u
n	n
d	t
e	e
r	r
t	t
a	a
e	__EPS__
n	n

__BEGIN__	__EPS__
t	t
y	i
s	s
c	c
h	h
e	__EPS__

__BEGIN__	__EPS__
b	b
i	i
s	sc
h	h
o	o
f	f
e	__EPS__
s	s

__BEGIN__	__EPS__
z	z
w	w
e	e
n	i

__BEGIN__	__EPS__
w	w
a	a
r	r
d	d

__BEGIN__	__EPS__
h	h
e	a
t	tt
e	e

__BEGIN__	__EPS__
b	b
e	e
h	h
a	a
l	l
t	t
e	e

__BEGIN__	__EPS__
v	u
n	n
d	d

__BEGIN__	__EPS__
n	n
y	i
e	e

__BEGIN__	__EPS__
f	f
y	e
a	i
n	n
t	d
s	s
c	c
h	h
a	a
f	f
f	__EPS__
t	t

__BEGIN__	__EPS__
a	a
n	n

__BEGIN__	__EPS__
d	d
e	e
m	m

__BEGIN__	__EPS__
m	m
e	e
i	i
n	n
e	e
r	r

__BEGIN__	__EPS__
d	d
e	e
r	r

__BEGIN__	__EPS__
d	d
r	r
o	o
t	h
t	t
e	e
n	n

__BEGIN__	__EPS__
d	di
e	e
s	s
e	e
r	r

__BEGIN__	__EPS__
e	e
r	r
z	z
o	o
g	g
e	e
n	n

__BEGIN__	__EPS__
m	me
i	i
n	n

__BEGIN__	__EPS__
m	m
i	i
c	c
h	h

__BEGIN__	__EPS__
d	d
a	a
r	r
v	a
f	u
f	f

__BEGIN__	__EPS__
q	f
u	r
i	e
j	i
t	__EPS__

__BEGIN__	__EPS__
z	z
o	u

__BEGIN__	__EPS__
n	n
i	i
e	e

__BEGIN__	__EPS__
f	f
r	r
a	a
u	u
w	__EPS__
e	__EPS__

__BEGIN__	__EPS__
g	g
e	e
g	g
a	a
n	n
g	g
e	e
n	n

__BEGIN__	__EPS__
i	i
s	st

__BEGIN__	__EPS__
w	w
a	a
r	r
d	d

__BEGIN__	__EPS__
w	w
i	e
j	i
s	s
z	s

__BEGIN__	__EPS__
d	d
a	a
t	s

__BEGIN__	__EPS__
b	b
e	e
d	t
r	r
o	ü
e	__EPS__
f	b
f	__EPS__
t	t

__BEGIN__	__EPS__
s	s
a	o
l	ll
t	t

__BEGIN__	__EPS__
h	h
e	e
f	f
t	t
e	e
n	n

__BEGIN__	__EPS__
v	u
n	n
d	d

__BEGIN__	__EPS__
v	w
n	e
g	h
e	k
b	l
e	a
r	g
e	en

__BEGIN__	__EPS__
v	u
n	n
d	d

__BEGIN__	__EPS__
a	o
i	h
n	ne

__BEGIN__	__EPS__
g	g
r	r
o	o
z	ss
e	e

__BEGIN__	__EPS__
v	u
n	n
d	d

__BEGIN__	__EPS__
m	m
i	i
c	c
h	h

__BEGIN__	__EPS__
e	e
l	l
l	li
v	u

__BEGIN__	__EPS__
y	ih
r	r

__BEGIN__	__EPS__
t	t
a	e
i	i
l	l
t	t
e	e
n	n

__BEGIN__	__EPS__
d	d
a	a

__BEGIN__	__EPS__
e	e
r	r
k	k
a	a
n	nn
t	t

__BEGIN__	__EPS__
m	m
a	a
g	g

__BEGIN__	__EPS__
d	d
e	e
r	r

__BEGIN__	__EPS__
a	a
u	u
f	f

__BEGIN__	__EPS__
i	i
s	s
t	t

__BEGIN__	__EPS__
h	h
e	ä
n	n
d	de

__BEGIN__	__EPS__
b	__EPS__
e	__EPS__
d	d
u	ü
e	__EPS__
n	n
c	__EPS__
k	k
t	t

__BEGIN__	__EPS__
s	s
a	a
g	g
e	e

__BEGIN__	__EPS__
a	a
u	u
f	f

__BEGIN__	__EPS__
v	u
m	m
b	__EPS__

__BEGIN__	__EPS__
m	m
a	an
n	n
i	i
g	g
u	f
a	a
l	l
t	t
i	i
g	g

__BEGIN__	__EPS__
m	m
i	i
c	c
h	h

__BEGIN__	__EPS__
v	f
ü	ü
r	r
s	s
p	p
r	r
a	a
c	c
h	h

__BEGIN__	__EPS__
v	u
n	n
d	d

__BEGIN__	__EPS__
a	a
r	r
m	m

__BEGIN__	__EPS__
e	e
r	r

__BEGIN__	__EPS__
a	a
n	n

__BEGIN__	__EPS__
h	h
o	ö
r	re
n	n

__BEGIN__	__EPS__
a	a
l	l
s	s

__BEGIN__	__EPS__
s	s
u	o
l	l
l	l
e	e
n	n

__BEGIN__	__EPS__
v	u
n	n
d	d

__BEGIN__	__EPS__
c	__EPS__
z	z
ü	u

__BEGIN__	__EPS__
s	s
c	c
h	h
r	r
i	i
r	__EPS__
e	e
n	n

__BEGIN__	__EPS__
s	s
o	o

__BEGIN__	__EPS__
b	b
i	i
s	s
t	t

__BEGIN__	__EPS__
a	a
u	u
f	f
f	__EPS__
s	s
t	t
e	ehe
n	n

__BEGIN__	__EPS__
d	d
e	e
r	r

__BEGIN__	__EPS__
b	b
a	a
t	t
t	__EPS__
e	e
n	n
d	__EPS__

__BEGIN__	__EPS__
b	b
l	l
v	u
o	__EPS__
t	t

__BEGIN__	__EPS__
c	__EPS__
z	z
e	ä
r	r
t	t
l	l
i	i
c	c
h	h
e	e
n	n

__BEGIN__	__EPS__
e	e
z	s
z	s
e	__EPS__
i	i
c	__EPS__
h	g

__BEGIN__	__EPS__
f	f
ü	ü
r	r
s	s
t	t
e	e
n	n

__BEGIN__	__EPS__
s	s
o	o

__BEGIN__	__EPS__
d	d
e	e
n	n

__BEGIN__	__EPS__
l	l
a	a
w	u
e	__EPS__
t	t
e	e
r	r

__BEGIN__	__EPS__
w	w
a	a
s	r

__BEGIN__	__EPS__
a	a
n	n
s	s
h	__EPS__
e	e
l	l
m	m

__BEGIN__	__EPS__
w	w
a	a
r	r
t	d

