__BEGIN__	__EPS__
d	d
a	a
r	__EPS__
n	n
a	a
c	c
h	h

__BEGIN__	__EPS__
n	n
i	ich
t	t

__BEGIN__	__EPS__
s	s
y	ieh

__BEGIN__	__EPS__
d	d
e	e
n	m

__BEGIN__	__EPS__
v	u
n	n
d	d
e	__EPS__

__BEGIN__	__EPS__
k	gesch
u	l
e	e
n	ch
e	t

__BEGIN__	__EPS__
d	d
v	u

__BEGIN__	__EPS__
v	v
o	o
n	n

__BEGIN__	__EPS__
m	m
i	i
c	c
h	h

__BEGIN__	__EPS__
g	g
i	i
b	b

__BEGIN__	__EPS__
m	me
i	i
n	n

__BEGIN__	__EPS__
s	s
u	ü
n	n
d	d
e	e
r	r

__BEGIN__	__EPS__
v	u
n	n
d	d

__BEGIN__	__EPS__
j	j
e	ä
m	mm
e	e
r	r
l	l
i	i
c	c
h	h
e	e
n	n

__BEGIN__	__EPS__
d	d
o	a

__BEGIN__	__EPS__
s	s
e	e
l	l
u	b
e	e
r	r

__BEGIN__	__EPS__
l	l
a	ä
e	ss
t	t

__BEGIN__	__EPS__
i	i
c	c
h	h

__BEGIN__	a
v	u
f	f

__BEGIN__	__EPS__
v	u
i	__EPS__
n	n
s	s

__BEGIN__	__EPS__
d	d
a	a
z	s

__BEGIN__	__EPS__
s	s
u	o
l	ll
t	t

__BEGIN__	__EPS__
s	s
v	i
i	e

__BEGIN__	__EPS__
s	s
t	t
e	e
r	r
b	be

__BEGIN__	__EPS__
v	v
u	o
r	r

__BEGIN__	__EPS__
w	w
o	oh
l	l

__BEGIN__	__EPS__
d	d
a	a
s	ss

__BEGIN__	__EPS__
m	m
a	a
g	g

__BEGIN__	__EPS__
g	g
e	e
s	s
c	c
h	h
i	i
c	e
h	h
t	t

__BEGIN__	__EPS__
a	a
n	n

__BEGIN__	__EPS__
e	u
n	n
d	d
e	__EPS__

__BEGIN__	__EPS__
d	d
o	a

__BEGIN__	__EPS__
i	ih
r	r

__BEGIN__	__EPS__
d	d
u	u

__BEGIN__	__EPS__
d	d
o	a

__BEGIN__	__EPS__
e	e
r	r

__BEGIN__	__EPS__
w	w
a	a
z	r

__BEGIN__	__EPS__
g	g
e	e
i	i
s	s
l	s
e	el
n	n

__BEGIN__	__EPS__
w	w
a	a
r	r
t	d

__BEGIN__	__EPS__
v	u
n	n
d	d

__BEGIN__	__EPS__
c	k
l	l
e	ä
i	__EPS__
g	g
e	__EPS__
l	l
i	i
c	c
h	h

__BEGIN__	__EPS__
v	u
n	n
d	d

__BEGIN__	__EPS__
n	n
ü	un

__BEGIN__	__EPS__
m	m
a	a
r	r
i	i
a	a

__BEGIN__	__EPS__
o	ü
b	b
i	e
r	r

__BEGIN__	__EPS__
w	w
a	a
r	r
d	d

__BEGIN__	__EPS__
h	h
e	e
r	r
a	a
u	u
z	s

__BEGIN__	__EPS__
n	n
o	o
c	c
h	h

__BEGIN__	__EPS__
b	b
a	a
n	n
d	d

__BEGIN__	__EPS__
v	ü
e	__EPS__
b	b
e	e
r	r

__BEGIN__	__EPS__
i	i
c	c
h	h

__BEGIN__	__EPS__
d	de
y	i
n	n

__BEGIN__	__EPS__
h	h
e	e
r	r
o	o
d	d
e	e
s	s

__BEGIN__	__EPS__
w	w
e	e
n	nn

__BEGIN__	__EPS__
g	g
e	e
w	w
a	a
l	l
t	t

__BEGIN__	__EPS__
v	u
n	n
d	d

__BEGIN__	__EPS__
s	s
c	c
h	h
r	r
a	e
i	ie

__BEGIN__	__EPS__
d	da
z	ss

__BEGIN__	__EPS__
w	w
o	oh
l	l

__BEGIN__	d
u	u

__BEGIN__	__EPS__
d	d
i	i
e	e

__BEGIN__	__EPS__
e	e
w	w
i	i
g	g
e	e
r	r

__BEGIN__	__EPS__
a	a
l	l
s	s
u	o
s	__EPS__

__BEGIN__	__EPS__
d	d
o	a

__BEGIN__	__EPS__
d	k
e	e
h	__EPS__
a	__EPS__
i	i
n	n

__BEGIN__	__EPS__
m	m
e	e
i	i
n	n
e	e
n	m

__BEGIN__	__EPS__
a	a
n	n

__BEGIN__	__EPS__
s	s
e	e
i	i
n	ne

__BEGIN__	__EPS__
d	d
u	u
r	r
c	c
h	h

__BEGIN__	__EPS__
h	h
a	a
t	t

__BEGIN__	__EPS__
d	d
a	as
z	s

__BEGIN__	__EPS__
h	h
a	e
i	i
l	l
i	i
g	ge
s	s

__BEGIN__	__EPS__
m	v
a	__EPS__
n	i
i	e
c	l
h	e

__BEGIN__	__EPS__
d	d
a	a
s	ss

__BEGIN__	__EPS__
g	g
e	e
s	s
a	a
c	__EPS__
h	g
t	t

__BEGIN__	__EPS__
l	l
a	a
n	n
t	d

__BEGIN__	__EPS__
v	u
n	n
d	d

__BEGIN__	__EPS__
w	w
a	a
r	r
d	d

__BEGIN__	__EPS__
z	z
w	u
s	s
a	a
m	mm
e	e
n	n

__BEGIN__	__EPS__
z	z
c	__EPS__
u	u

__BEGIN__	__EPS__
e	e
r	r

__BEGIN__	__EPS__
d	d
u	u

__BEGIN__	__EPS__
m	m
o	o
e	c
h	h
t	t
e	e

__BEGIN__	__EPS__
s	s
a	a
h	h

__BEGIN__	__EPS__
d	d
i	i
e	e

__BEGIN__	__EPS__
i	i
c	c
h	h

__BEGIN__	__EPS__
y	ih
n	n

__BEGIN__	__EPS__
m	m
y	i
r	r

__BEGIN__	__EPS__
a	a
n	n
s	se
h	l
-	m

__BEGIN__	__EPS__
e	e
r	r

__BEGIN__	__EPS__
d	d
i	ie

__BEGIN__	__EPS__
c	k
r	r
u	__EPS__
e	e
t	u
z	z
i	i
g	g
e	e
n	n

__BEGIN__	__EPS__
d	d
i	i
e	e

__BEGIN__	__EPS__
v	v
a	o
n	n

__BEGIN__	__EPS__
d	d
y	i
r	r

__BEGIN__	__EPS__
e	e
l	l
e	e
m	m
e	e
n	n
t	t

__BEGIN__	__EPS__
d	d
e	e
m	m

__BEGIN__	__EPS__
t	__EPS__
z	z
v	u

__BEGIN__	__EPS__
p	p
y	i
l	l
a	a
t	t
o	us

__BEGIN__	__EPS__
s	s
y	ie

__BEGIN__	__EPS__
m	m
y	ir

__BEGIN__	__EPS__
l	l
a	e
i	i
t	d

__BEGIN__	__EPS__
g	g
e	e
t	t
a	e
i	i
l	l
t	t

__BEGIN__	__EPS__
s	s
a	a
n	n
c	c
t	t
u	u
s	s

__BEGIN__	__EPS__
a	a
c	c
h	h
s	s
e	e
l	l
n	n

__BEGIN__	__EPS__
d	d
e	e
s	s

__BEGIN__	__EPS__
d	d
e	e
r	r

__BEGIN__	__EPS__
s	sch
l	l
o	age
n	n

__BEGIN__	__EPS__
l	l
o	ö
e	__EPS__
s	s
e	e
n	n

__BEGIN__	__EPS__
v	u
n	n
d	d

__BEGIN__	__EPS__
i	j
a	a
m	mm
e	e
r	r

__BEGIN__	__EPS__
m	me
y	i
n	n

__BEGIN__	__EPS__
v	u
n	n
d	d

__BEGIN__	__EPS__
a	a
n	n

__BEGIN__	__EPS__
k	k
a	e
i	i
n	n

__BEGIN__	__EPS__
v	a
e	u
r	s
i	g
e	e
c	s
h	a
e	g
n	t

__BEGIN__	__EPS__
a	a
l	l
s	s

__BEGIN__	__EPS__
s	s
t	t
o	ö
r	r
e	e
r	r

__BEGIN__	__EPS__
a	a
n	n
s	s
a	a
c	__EPS__
h	h

__BEGIN__	__EPS__
v	u
n	n
d	d

__BEGIN__	__EPS__
r	r
o	o
m	m
e	__EPS__

__BEGIN__	__EPS__
h	h
e	e
r	r
o	o
d	d
e	e
s	s

__BEGIN__	__EPS__
g	g
e	__EPS__
l	l
e	e
i	i
c	c
h	h

__BEGIN__	__EPS__
a	a
n	n
s	s
e	e
l	l
m	m
e	__EPS__

__BEGIN__	__EPS__
o	o
b	b

__BEGIN__	__EPS__
e	e
r	r
h	h
o	ö
r	r
t	te

__BEGIN__	__EPS__
q	k
u	__EPS__
a	a
m	m

__BEGIN__	__EPS__
d	d
e	e
r	r

__BEGIN__	__EPS__
d	d
a	a

__BEGIN__	__EPS__
m	me
e	e
r	r
e	__EPS__
p	b
i	i
n	n
c	__EPS__
z	s
e	e
n	n

__BEGIN__	__EPS__
g	g
e	e
r	r
e	e
c	c
h	h
t	t
e	e
n	n

__BEGIN__	__EPS__
a	a
n	n

__BEGIN__	__EPS__
h	h
e	e
r	r
t	ze
z	n
l	l
e	e
i	i
d	d

__BEGIN__	__EPS__
d	d
o	a
e	__EPS__

__BEGIN__	__EPS__
a	e
i	i
g	g
e	e
n	n

__BEGIN__	__EPS__
i	i
c	c
h	h

__BEGIN__	__EPS__
i	ih
m	m

__BEGIN__	__EPS__
s	s
c	__EPS__
h	o
o	l
l	l

__BEGIN__	__EPS__
b	b
a	a
n	n
d	d

__BEGIN__	__EPS__
m	m
i	i
c	c
h	h

__BEGIN__	__EPS__
s	s
p	p
r	r
a	a
c	c
h	h

__BEGIN__	__EPS__
v	v
i	i
e	e
r	r
d	t
e	e
n	n

__BEGIN__	__EPS__
y	i
s	s
r	r
h	a
-	e
l	l

__BEGIN__	__EPS__
d	d
i	i
e	e

__BEGIN__	__EPS__
m	m
i	i
c	c
h	h

__BEGIN__	__EPS__
d	d
r	r
e	e
i	i
e	e
r	r
l	l
a	e
i	i

__BEGIN__	__EPS__
h	h
a	a
n	n
t	d

__BEGIN__	__EPS__
i	i
c	c
h	h

__BEGIN__	__EPS__
d	d
e	e
r	r

__BEGIN__	__EPS__
v	u
n	n
d	d

__BEGIN__	__EPS__
d	d
a	a
s	ss

__BEGIN__	__EPS__
h	e
e	r

__BEGIN__	__EPS__
v	u
n	n
d	d

__BEGIN__	__EPS__
a	a
n	n
d	d
e	e
r	re

__BEGIN__	__EPS__
v	u
n	n
d	d

__BEGIN__	__EPS__
i	ih
m	m

__BEGIN__	__EPS__
d	d
u	u

__BEGIN__	__EPS__
e	u
n	n
d	d
e	__EPS__

__BEGIN__	__EPS__
v	f
r	r
o	a
w	u
e	__EPS__

__BEGIN__	__EPS__
p	b
u	a
n	n
d	d
e	e
n	n

__BEGIN__	__EPS__
d	d
e	e
r	r

__BEGIN__	__EPS__
a	a
n	n

__BEGIN__	__EPS__
n	n
u	u
o	__EPS__
r	r

__BEGIN__	__EPS__
a	a
l	l
s	s
o	o

__BEGIN__	__EPS__
a	a
l	l
s	s
e	__EPS__

__BEGIN__	n
e	ich
n	t

__BEGIN__	__EPS__
v	u
n	n
d	d

__BEGIN__	__EPS__
d	d
i	ie
t	s

__BEGIN__	__EPS__
s	s
o	o

__BEGIN__	__EPS__
w	w
a	a
s	s

__BEGIN__	__EPS__
i	i
c	c
h	h

__BEGIN__	__EPS__
a	a
l	l
l	l
e	e
i	i
n	n

__BEGIN__	__EPS__
l	l
o	oh
n	n

__BEGIN__	__EPS__
m	m
i	i
c	c
h	h

__BEGIN__	__EPS__
m	m
i	i
t	t

__BEGIN__	__EPS__
v	u
n	n
d	d

__BEGIN__	__EPS__
h	h
y	i
e	er

__BEGIN__	__EPS__
s	s
c	c
h	h
n	ne
i	i
d	d
e	e
n	n

__BEGIN__	__EPS__
s	s
o	oh
n	n

__BEGIN__	__EPS__
s	s
i	i
e	e

__BEGIN__	__EPS__
v	u
n	n
d	d

__BEGIN__	__EPS__
d	d
i	i
c	c
k	k

__BEGIN__	__EPS__
a	a
l	l
z	s

__BEGIN__	__EPS__
v	v
i	ie
l	l

__BEGIN__	__EPS__
w	w
a	a
s	r

__BEGIN__	__EPS__
d	d
a	a
t	ss

__BEGIN__	__EPS__
h	h
e	ä
t	tt
e	e
n	n

__BEGIN__	__EPS__
d	__EPS__
v	__EPS__
r	__EPS__
c	__EPS__
h	__EPS__
l	l
e	e
v	u
c	c
h	h
t	t
i	en
g	d

__BEGIN__	__EPS__
s	s
t	t
e	e
y	i
n	n

__BEGIN__	__EPS__
a	a
b	b
e	e
r	r

__BEGIN__	__EPS__
d	d
e	e
n	n

__BEGIN__	__EPS__
e	e
n	n
t	t
c	__EPS__
z	z
u	ie
h	h
e	e

__BEGIN__	__EPS__
i	i
n	n

__BEGIN__	__EPS__
i	ih
m	m

__BEGIN__	__EPS__
i	ih
n	n

__BEGIN__	__EPS__
i	i
c	c
h	h

__BEGIN__	__EPS__
v	a
f	u
f	f

__BEGIN__	__EPS__
d	d
a	a
s	ss

__BEGIN__	__EPS__
w	w
o	a
n	nn

__BEGIN__	__EPS__
s	s
c	c
h	h
o	ö
e	__EPS__
n	n
e	e

__BEGIN__	__EPS__
l	l
o	o
b	b
e	e
n	n

__BEGIN__	__EPS__
m	m
i	i
t	t

__BEGIN__	__EPS__
d	d
y	ie

__BEGIN__	__EPS__
f	f
r	r
a	a
u	u
w	__EPS__
e	__EPS__

__BEGIN__	__EPS__
m	m
i	i
c	c
h	h

__BEGIN__	__EPS__
m	me
i	i
n	n

__BEGIN__	__EPS__
k	k
o	ü
s	ss
t	t
e	e

__BEGIN__	__EPS__
g	g
e	e
l	l
y	i
d	tt
e	e
n	n

__BEGIN__	__EPS__
f	f
r	r
o	a
u	u

__BEGIN__	__EPS__
d	d
o	a

__BEGIN__	__EPS__
v	u
n	n
s	s
e	e
r	r

__BEGIN__	__EPS__
m	m
a	a
r	r
t	t
e	e
r	r

__BEGIN__	__EPS__
l	l
a	a
i	s
s	s
t	t

__BEGIN__	__EPS__
h	h
a	a
i	__EPS__
s	s
t	t

__BEGIN__	__EPS__
d	d
e	e
n	n

__BEGIN__	__EPS__
s	s
i	i
c	c
h	h

__BEGIN__	__EPS__
e	e
r	r

__BEGIN__	__EPS__
w	w
e	ah
r	r
l	l
i	i
c	c
h	h

__BEGIN__	__EPS__
t	t
o	o
d	d

__BEGIN__	__EPS__
e	nich
n	t

__BEGIN__	__EPS__
a	o
b	b

__BEGIN__	__EPS__
c	__EPS__
z	z
a	a
r	r
t	t

__BEGIN__	__EPS__
o	o
s	s
t	t
e	e
r	r
n	n

__BEGIN__	__EPS__
g	g
r	r
o	o
s	s
s	s
e	e
r	r

__BEGIN__	__EPS__
d	d
i	i
e	e

__BEGIN__	__EPS__
t	te
u	u
b	f
i	e
l	l

__BEGIN__	__EPS__
e	e
r	r

__BEGIN__	__EPS__
s	s
p	p
r	r
a	a
c	c
h	h

__BEGIN__	__EPS__
d	d
a	a
z	ss

__BEGIN__	__EPS__
u	v
u	o
l	ll
b	b
r	r
a	a
c	c
h	h
t	t

__BEGIN__	__EPS__
i	i
n	n

__BEGIN__	__EPS__
s	m
c	__EPS__
h	__EPS__
a	ö
c	r
h	d
e	e
r	r

__BEGIN__	__EPS__
s	s
e	e
i	i
n	n
e	e
r	r

__BEGIN__	__EPS__
d	d
a	a
z	s

__BEGIN__	__EPS__
a	a
b	b
e	e
r	r

__BEGIN__	__EPS__
v	v
i	ie
l	l

__BEGIN__	__EPS__
o	a
u	u
c	c
h	h

__BEGIN__	__EPS__
m	m
i	i
c	c
h	h

__BEGIN__	__EPS__
i	ih
n	n

__BEGIN__	__EPS__
g	g
e	e
t	t
a	a
n	n

__BEGIN__	__EPS__
h	h
a	a
s	s
t	t

__BEGIN__	__EPS__
m	m
a	a
n	n

__BEGIN__	__EPS__
d	d
a	a
s	ss

__BEGIN__	__EPS__
d	d
a	as
z	s

__BEGIN__	__EPS__
m	m
i	i
c	c
h	h

__BEGIN__	__EPS__
v	u
n	n
d	d

__BEGIN__	__EPS__
w	w
i	i
e	e

__BEGIN__	__EPS__
d	d
a	a
s	s

__BEGIN__	__EPS__
e	e
s	s

__BEGIN__	__EPS__
t	t
h	__EPS__
u	u
n	n

__BEGIN__	__EPS__
s	s
e	e
i	i
n	n

__BEGIN__	__EPS__
w	wä
r	r
e	e

__BEGIN__	__EPS__
t	t
o	o
e	__EPS__
t	t
e	e
n	n

__BEGIN__	__EPS__
d	d
e	e
r	r

__BEGIN__	__EPS__
s	s
i	i
c	c
h	h

__BEGIN__	__EPS__
s	s
u	oh
n	n

__BEGIN__	__EPS__
b	b
e	e
t	t
t	t

__BEGIN__	__EPS__
m	me
i	i
n	n

__BEGIN__	__EPS__
t	__EPS__
z	z
v	o
g	g
e	e
n	n

__BEGIN__	__EPS__
i	i
c	c
h	h

__BEGIN__	__EPS__
v	u
n	ns
t	t
o	e
v	r
t	b
l	l
i	i
c	c
h	he

__BEGIN__	__EPS__
e	u
e	n
n	d

__BEGIN__	__EPS__
g	g
e	e
w	w
a	an
n	n

__BEGIN__	__EPS__
m	m
e	e
i	i
n	n

__BEGIN__	__EPS__
g	g
r	r
o	o
s	s
s	s

__BEGIN__	__EPS__
d	d
r	r
u	ü
c	c
k	k
t	t
e	e
n	n

__BEGIN__	__EPS__
s	s
u	oh
n	n

__BEGIN__	__EPS__
z	z
u	u

__BEGIN__	__EPS__
g	g
r	r
o	o
z	s
z	s
e	e
n	n

__BEGIN__	__EPS__
d	d
u	u
r	r
c	c
h	h
s	s
c	c
h	h
l	l
a	a
g	g
e	e
n	n

__BEGIN__	__EPS__
s	s
e	eh
r	r

__BEGIN__	__EPS__
w	w
o	oh
l	l

__BEGIN__	__EPS__
d	d
e	e
r	r

__BEGIN__	__EPS__
i	i
c	c
h	h

__BEGIN__	__EPS__
w	w
a	ah
r	r
h	h
e	e
i	i
t	t

__BEGIN__	__EPS__
d	d
e	e
s	s

__BEGIN__	__EPS__
g	__EPS__
e	__EPS__
s	s
p	p
r	r
e	e
c	c
h	h
e	e
n	n

__BEGIN__	__EPS__
s	s
p	p
r	r
a	a
c	c
h	h

__BEGIN__	__EPS__
f	f
l	l
v	i
i	e
z	s
e	s
t	t

__BEGIN__	__EPS__
w	w
a	a
s	r

__BEGIN__	__EPS__
i	j
h	__EPS__
e	e
s	s
u	u
m	s

__BEGIN__	__EPS__
i	ih
n	n

__BEGIN__	__EPS__
m	m
e	e
y	i
n	n

__BEGIN__	__EPS__
u	u
n	n
d	d

__BEGIN__	__EPS__
a	a
l	l
l	l
e	e
n	n

__BEGIN__	__EPS__
g	g
e	e
w	w
a	a
n	n
t	d

__BEGIN__	__EPS__
s	s
y	ie

__BEGIN__	__EPS__
v	u
n	n
d	d

__BEGIN__	__EPS__
a	a
u	u
s	s
z	z
c	__EPS__
z	__EPS__
i	ie
h	h
e	e
n	n

__BEGIN__	__EPS__
b	b
o	o
t	t
e	e
n	n

__BEGIN__	__EPS__
w	w
i	i
l	l
l	l
e	e
n	n

__BEGIN__	__EPS__
m	m
i	i
c	c
h	h

__BEGIN__	__EPS__
h	h
a	a
y	be
n	n

__BEGIN__	__EPS__
v	u
n	n
d	d

__BEGIN__	__EPS__
g	g
a	a
l	l
l	l
e	e
n	n

__BEGIN__	__EPS__
d	d
o	a

__BEGIN__	__EPS__
k	k
i	i
n	n
t	d

__BEGIN__	__EPS__
w	d
a	e
n	n
t	n

__BEGIN__	__EPS__
e	e
y	i
n	n

__BEGIN__	__EPS__
m	m
e	e
i	i
n	n

__BEGIN__	__EPS__
m	m
a	a
n	n

__BEGIN__	__EPS__
s	s
v	i
i	e

__BEGIN__	__EPS__
d	d
v	o
r	r
n	n
e	e
n	n

__BEGIN__	__EPS__
v	u
n	n
s	s
a	e
l	l
i	i
g	g
e	e
r	r

__BEGIN__	__EPS__
m	m
i	i
l	l
i	__EPS__
c	c
h	h

__BEGIN__	__EPS__
d	d
a	a
s	s

__BEGIN__	__EPS__
v	u
n	n
d	d

__BEGIN__	__EPS__
b	b
i	i
n	n

__BEGIN__	__EPS__
d	d
i	i
e	e

__BEGIN__	__EPS__
m	m
i	i
t	t

__BEGIN__	__EPS__
v	f
o	u
i	h
r	r

__BEGIN__	__EPS__
g	g
e	e
w	w
o	oh
n	n
h	h
a	e
i	i
t	t

__BEGIN__	__EPS__
w	w
o	o
l	ll
t	t

__BEGIN__	__EPS__
i	i
c	c
h	h

__BEGIN__	__EPS__
t	t
o	o
d	d
e	__EPS__

__BEGIN__	__EPS__
v	l
e	__EPS__
r	i
h	__EPS__
e	e
n	s
g	s
e	__EPS__
t	__EPS__

__BEGIN__	__EPS__
d	d
o	a

__BEGIN__	__EPS__
h	h
e	a
t	t

__BEGIN__	__EPS__
d	d
r	r
e	e
y	i
n	__EPS__

__BEGIN__	__EPS__
k	k
i	i
n	n
t	d

__BEGIN__	__EPS__
v	v
o	o
n	n

__BEGIN__	__EPS__
d	d
u	u
r	rch

__BEGIN__	__EPS__
n	n
u	un

__BEGIN__	__EPS__
s	s
y	ie

__BEGIN__	__EPS__
h	i
e	h
m	m

__BEGIN__	__EPS__
g	g
e	e
w	w
o	öh
n	n
l	l
i	i
c	c
h	h

__BEGIN__	__EPS__
d	d
e	e
z	s

__BEGIN__	__EPS__
w	w
e	e
i	i
s	ss

__BEGIN__	__EPS__
i	i
s	s
t	t

__BEGIN__	__EPS__
d	d
a	a
r	__EPS__
n	n
a	a
i	__EPS__
c	c
h	h

__BEGIN__	__EPS__
d	d
r	r
i	i
t	t
t	t
e	e
n	n

__BEGIN__	__EPS__
d	d
o	a

__BEGIN__	__EPS__
g	g
e	e
m	m
e	e
i	i
n	n
l	s
i	__EPS__
c	a
h	m

__BEGIN__	__EPS__
m	m
o	o
c	c
h	h
t	te

__BEGIN__	__EPS__
m	m
i	i
c	c
h	h

__BEGIN__	__EPS__
e	u
n	nd

__BEGIN__	__EPS__
a	a
u	u
f	f

__BEGIN__	__EPS__
s	s
p	p
r	r
a	a
c	c
h	h
e	e
n	n

__BEGIN__	__EPS__
s	se
i	i
n	n

__BEGIN__	__EPS__
s	s
c	c
h	h
r	r
i	i
f	f
t	t

__BEGIN__	__EPS__
v	f
u	u
o	s
z	s

__BEGIN__	__EPS__
a	a
n	n
t	t
b	w
ü	o
r	r
t	t
e	e
n	n

__BEGIN__	__EPS__
n	n
a	a
c	c
h	h

__BEGIN__	__EPS__
g	g
e	e
b	b
ü	u
n	n
d	d
e	e
n	n

__BEGIN__	__EPS__
g	g
a	a
p	b

__BEGIN__	__EPS__
d	d
a	a
t	s

__BEGIN__	__EPS__
v	u
n	n
d	d

__BEGIN__	__EPS__
a	a
l	l
s	s
o	o

__BEGIN__	__EPS__
k	k
i	i
n	n
t	d
h	h
e	e
i	i
t	t

__BEGIN__	__EPS__
r	r
e	ec
h	h
t	t
e	__EPS__

__BEGIN__	__EPS__
v	v
e	e
r	rur
t	t
a	e
i	i
l	l
e	e
n	n

__BEGIN__	__EPS__
d	d
i	i
r	r

__BEGIN__	__EPS__
v	u
n	n
d	d

__BEGIN__	__EPS__
d	di
e	e
s	s
e	e

__BEGIN__	__EPS__
v	u
n	n
d	d

__BEGIN__	__EPS__
s	s
e	e
l	l
b	b
e	e
r	r

__BEGIN__	__EPS__
g	g
e	e
s	s
c	c
h	h
r	ri
e	e
u	b
e	e
n	n

__BEGIN__	__EPS__
c	k
r	r
e	e
u	u
c	__EPS__
z	z
i	i
g	g
e	e
n	n

__BEGIN__	__EPS__
e	e
y	i
n	n
e	e
n	n

__BEGIN__	__EPS__
v	v
o	e
r	r
s	s
p	p
o	o
t	t
t	t
e	e

__BEGIN__	__EPS__
a	a
l	l
l	l
e	e
r	r

__BEGIN__	__EPS__
s	s
a	a
g	g
e	__EPS__
t	t

__BEGIN__	__EPS__
e	e
r	r

__BEGIN__	__EPS__
d	d
y	ie

__BEGIN__	__EPS__
i	i
c	c
h	h

__BEGIN__	__EPS__
e	e
r	r
z	z
i	i
t	tt
e	e
r	r
o	__EPS__
t	t
e	e

__BEGIN__	__EPS__
d	d
a	a
z	s

__BEGIN__	__EPS__
g	k
h	e
e	i
n	n
e	e
n	n

__BEGIN__	__EPS__
k	k
u	ö
n	n
i	i
g	g

__BEGIN__	__EPS__
a	a
n	n

__BEGIN__	__EPS__
f	f
i	i
l	l
i	i
a	a

__BEGIN__	__EPS__
k	k
r	r
a	a
c	c
h	h
d	t
e	e
n	n

__BEGIN__	__EPS__
v	f
r	r
e	e
u	u
w	__EPS__
e	e
n	n

__BEGIN__	__EPS__
m	m
i	i
t	t

__BEGIN__	__EPS__
m	m
e	e
i	i
n	n
e	e
n	n

__BEGIN__	__EPS__
w	w
i	i
r	r

__BEGIN__	__EPS__
v	f
a	ah
r	r
e	e
n	n

__BEGIN__	__EPS__
s	s
e	e
i	i
n	n

__BEGIN__	p
s	s
a	a
l	l
t	t
e	e
r	r

__BEGIN__	__EPS__
f	f
ü	üh
r	r
t	t
e	e
n	n

__BEGIN__	__EPS__
v	ü
b	b
e	e
r	r

__BEGIN__	__EPS__
d	d
r	r
e	e
i	i
s	s
s	s
i	i
g	g

__BEGIN__	__EPS__
w	w
i	i
l	ll

__BEGIN__	__EPS__
e	ih
n	n

__BEGIN__	__EPS__
w	w
a	a
s	r

__BEGIN__	__EPS__
d	d
o	a

__BEGIN__	__EPS__
w	w
i	i
e	e

__BEGIN__	__EPS__
w	w
a	a
t	s

__BEGIN__	__EPS__
v	u
n	n
d	d

__BEGIN__	__EPS__
d	de
i	i
n	n
e	e

__BEGIN__	__EPS__
i	j
h	__EPS__
o	o
s	s
e	e
p	p
h	h

__BEGIN__	__EPS__
d	t
a	a
g	g
e	e
s	s

__BEGIN__	__EPS__
n	n
o	o
c	c
h	h

__BEGIN__	__EPS__
m	me
i	i
n	n

__BEGIN__	__EPS__
g	g
l	l
o	a
u	u
b	b
e	e

__BEGIN__	__EPS__
v	u
n	n
d	d

__BEGIN__	__EPS__
s	s
e	e
i	i
n	n

__BEGIN__	__EPS__
v	u
n	n
s	s

__BEGIN__	__EPS__
v	v
o	o
r	r

__BEGIN__	__EPS__
s	s
t	t
e	e
i	i
n	n
e	e

__BEGIN__	__EPS__
a	a
n	n
s	s
h	__EPS__
e	e
l	l
m	m
e	__EPS__

__BEGIN__	__EPS__
d	d
e	e
r	r

__BEGIN__	__EPS__
d	t
o	o
i	__EPS__
t	t

__BEGIN__	__EPS__
e	e
r	r

__BEGIN__	__EPS__
d	d
e	e
s	s

__BEGIN__	__EPS__
i	i
n	n

__BEGIN__	__EPS__
l	l
i	i
e	e
b	b
e	e
s	s

__BEGIN__	__EPS__
s	s
p	p
o	o
t	t
t	t
e	e
s	s
t	t

__BEGIN__	__EPS__
d	d
a	a
s	s

__BEGIN__	__EPS__
i	j
u	u
d	d
e	e
n	n

__BEGIN__	__EPS__
v	v
o	o
n	n

__BEGIN__	__EPS__
d	d
o	a
e	__EPS__

__BEGIN__	__EPS__
e	e
r	r

__BEGIN__	__EPS__
w	w
a	a
r	r
t	d

__BEGIN__	__EPS__
i	j
a	am
m	m
e	e
r	r

__BEGIN__	__EPS__
i	ih
r	r

__BEGIN__	__EPS__
c	__EPS__
z	z
u	u
o	__EPS__

__BEGIN__	__EPS__
s	s
c	c
h	h
l	__EPS__
u	u
o	__EPS__
c	__EPS__
h	h

__BEGIN__	__EPS__
m	m
e	e
i	i
n	n

__BEGIN__	__EPS__
a	a
l	l
l	l
e	e

__BEGIN__	__EPS__
w	w
o	o
l	ll
t	t

__BEGIN__	__EPS__
d	d
e	e
m	m

__BEGIN__	__EPS__
v	v
o	o
n	n

__BEGIN__	__EPS__
w	w
a	a
z	r

__BEGIN__	__EPS__
m	m
i	i
r	r

__BEGIN__	__EPS__
h	h
e	e
r	r
e	r

__BEGIN__	__EPS__
h	h
a	a
n	be

__BEGIN__	__EPS__
d	d
i	i
e	e

__BEGIN__	__EPS__
m	m
e	ehr

__BEGIN__	__EPS__
v	u
n	n
d	d

__BEGIN__	__EPS__
d	d
a	a
z	ss

__BEGIN__	__EPS__
m	m
e	e
i	i
n	n

__BEGIN__	__EPS__
h	h
e	e
r	r
c	__EPS__
z	z
e	e
n	n

__BEGIN__	__EPS__
s	s
c	c
h	h
w	w
e	e
r	r
t	t

__BEGIN__	__EPS__
a	a
l	l
s	s

__BEGIN__	__EPS__
n	n
u	__EPS__
i	i
c	cht
z	s

__BEGIN__	__EPS__
h	h
e	e
r	r
t	ze
z	n
l	l
e	e
i	i
d	d
e	e
s	s

__BEGIN__	__EPS__
t	t
a	e
i	i
l	l

__BEGIN__	__EPS__
u	a
f	u
f	f

__BEGIN__	__EPS__
f	f
v	ü
e	s
z	s
e	e

__BEGIN__	__EPS__
p	b
a	a
t	t
e	e
n	n

__BEGIN__	__EPS__
d	d
i	i
e	e

__BEGIN__	__EPS__
m	m
e	e
n	n
s	s
c	c
h	h
e	e
n	n

__BEGIN__	__EPS__
s	s
v	u
e	__EPS__
c	c
h	h
t	t

__BEGIN__	__EPS__
l	le
i	i
p	b

__BEGIN__	__EPS__
w	w
i	i
r	r

__BEGIN__	__EPS__
w	w
i	i
e	e

__BEGIN__	__EPS__
s	s
e	e
i	i
n	n
e	e
s	s

__BEGIN__	__EPS__
a	a
l	l
l	l
e	e

__BEGIN__	__EPS__
m	m
i	i
t	t

__BEGIN__	__EPS__
s	s
v	oh
n	n

__BEGIN__	__EPS__
n	n
o	o
t	t

__BEGIN__	__EPS__
v	f
r	r
a	a
u	u
w	__EPS__
e	__EPS__

__BEGIN__	__EPS__
d	d
i	i
c	c
h	h

__BEGIN__	__EPS__
d	d
o	a

__BEGIN__	__EPS__
s	s
o	o

__BEGIN__	__EPS__
k	k
i	i
n	n
t	d

__BEGIN__	__EPS__
e	e
r	r

__BEGIN__	__EPS__
d	d
w	u

__BEGIN__	__EPS__
t	t
a	a
g	g

__BEGIN__	__EPS__
s	s
e	e
i	i
n	n

__BEGIN__	__EPS__
p	b
a	a
l	l
d	d

__BEGIN__	__EPS__
w	w
a	a
n	n
g	ge

__BEGIN__	__EPS__
s	s
e	e
y	i

__BEGIN__	__EPS__
m	l
y	__EPS__
n	__EPS__
n	__EPS__
i	i
c	__EPS__
h	__EPS__
l	__EPS__
e	e
i	b
c	__EPS__
h	__EPS__
e	e
r	r

__BEGIN__	__EPS__
i	ih
m	m

__BEGIN__	__EPS__
l	l
o	o
s	s
z	__EPS__

__BEGIN__	__EPS__
k	k
i	i
n	n
t	d

__BEGIN__	__EPS__
w	w
e	e
y	i
s	ss

__BEGIN__	__EPS__
m	m
i	i
n	n
n	n
o	__EPS__
t	t

__BEGIN__	__EPS__
h	h
e	e
l	l
f	fe

__BEGIN__	__EPS__
p	p
y	i
l	l
a	a
t	t
u	u
s	s

__BEGIN__	__EPS__
w	w
a	a
s	r

__BEGIN__	__EPS__
w	w
i	il
l	l

__BEGIN__	__EPS__
b	b
e	e
g	g
r	r
a	a
u	b
e	__EPS__
t	t

__BEGIN__	__EPS__
e	e
i	i
n	n

__BEGIN__	__EPS__
d	d
a	as
z	s

__BEGIN__	__EPS__
d	d
o	a

__BEGIN__	__EPS__
s	s
p	p
r	r
a	a
c	c
h	h

__BEGIN__	__EPS__
m	m
e	e
i	i
n	n

__BEGIN__	__EPS__
n	n
a	ah
m	m

__BEGIN__	__EPS__
s	s
u	ü
e	__EPS__
n	n
d	de

__BEGIN__	__EPS__
s	s
v	ü
e	__EPS__
z	s
z	s

__BEGIN__	__EPS__
h	e
i	r

__BEGIN__	__EPS__
s	s
u	ü
n	n
d	d
e	e
r	r

__BEGIN__	__EPS__
l	l
a	e
i	i
d	d
e	__EPS__

__BEGIN__	__EPS__
s	s
t	t
v	a
n	n
d	d
e	e
n	n

__BEGIN__	a
v	u
p	f

__BEGIN__	__EPS__
s	s
e	e
l	l
b	b
e	e
z	s

__BEGIN__	__EPS__
i	j
o	o
s	s
e	e
p	p
h	h

__BEGIN__	__EPS__
w	w
i	i
l	ll

__BEGIN__	__EPS__
c	__EPS__
h	k
o	a
m	m

__BEGIN__	__EPS__
d	d
e	e
r	r

__BEGIN__	__EPS__
e	e
r	r

__BEGIN__	__EPS__
o	ih
n	n

__BEGIN__	__EPS__
n	n
i	ich
t	t

__BEGIN__	__EPS__
d	d
e	e
n	m

__BEGIN__	__EPS__
s	s
i	ie

__BEGIN__	__EPS__
p	p
i	i
l	l
a	a
t	t
u	u
s	s
z	__EPS__

__BEGIN__	__EPS__
v	v
o	o
n	n

__BEGIN__	__EPS__
i	u
n	n
d	d

__BEGIN__	__EPS__
o	u
r	r
t	t
e	e
i	i
l	l

__BEGIN__	__EPS__
v	f
i	ie
l	l

__BEGIN__	__EPS__
s	s
o	o

__BEGIN__	__EPS__
s	s
e	e
n	n
d	d
e	e
t	t
e	e

__BEGIN__	__EPS__
i	j
u	u
d	d
e	e
n	n

__BEGIN__	__EPS__
i	i
n	n

__BEGIN__	__EPS__
n	n
o	o
n	n
e	e

__BEGIN__	__EPS__
d	d
o	a

__BEGIN__	__EPS__
l	l
i	i
e	e
b	b
i	e

__BEGIN__	__EPS__
h	h
o	a
u	u
p	p
t	t

__BEGIN__	__EPS__
g	g
r	r
u	ü
n	n
e	e
n	n

__BEGIN__	__EPS__
v	a
f	u
f	f

__BEGIN__	__EPS__
c	k
a	a
y	i
p	p
h	h
a	a
s	s

__BEGIN__	__EPS__
d	d
a	as
z	s

__BEGIN__	__EPS__
i	i
c	c
h	h

__BEGIN__	__EPS__
i	ih
n	n

__BEGIN__	__EPS__
w	w
a	e
i	i
s	s
z	s

__BEGIN__	__EPS__
g	g
r	r
o	o
s	s
s	s
e	e

__BEGIN__	__EPS__
l	l
i	ie
s	s
t	t

__BEGIN__	__EPS__
e	e
y	i
m	n
e	em

__BEGIN__	__EPS__
c	k
r	r
ü	e
t	u
z	z

__BEGIN__	__EPS__
h	h
e	e
r	r
e	r

__BEGIN__	__EPS__
a	e
i	i
n	n
e	e
r	r

__BEGIN__	__EPS__
g	g
e	e
g	g
e	e
b	b
e	e
n	n

__BEGIN__	__EPS__
d	d
e	e
r	r

__BEGIN__	__EPS__
d	d
a	a
t	s

__BEGIN__	__EPS__
e	e
i	i
n	n

__BEGIN__	__EPS__
h	h
a	a
b	b
e	e
n	n

__BEGIN__	__EPS__
d	d
i	i
e	e

__BEGIN__	__EPS__
s	s
p	p
r	r
a	a
c	c
h	h

__BEGIN__	__EPS__
g	g
a	a
r	r

__BEGIN__	__EPS__
w	w
a	a
r	r
t	d

__BEGIN__	__EPS__
s	s
y	ie

__BEGIN__	__EPS__
d	d
u	u

__BEGIN__	__EPS__
d	d
e	e
m	m

__BEGIN__	__EPS__
d	d
a	a

__BEGIN__	__EPS__
d	d
i	ie
t	s

__BEGIN__	__EPS__
s	se
y	i
m	n
e	e

__BEGIN__	__EPS__
m	m
i	i
t	t

__BEGIN__	__EPS__
m	m
i	e
j	i
n	n
r	e
e	r

__BEGIN__	__EPS__
d	d
i	ie

__BEGIN__	__EPS__
m	m
i	i
t	t

__BEGIN__	__EPS__
s	s
c	c
h	h
r	r
e	e
i	i
b	b
e	e
r	r

__BEGIN__	__EPS__
e	e
r	r

__BEGIN__	__EPS__
g	g
i	in
e	g

__BEGIN__	__EPS__
f	f
r	r
a	a
g	g
t	t

__BEGIN__	__EPS__
d	d
e	e
r	r

__BEGIN__	__EPS__
g	g
o	o
t	tt
e	e
s	s

__BEGIN__	__EPS__
f	f
r	r
a	a
w	u
e	__EPS__

__BEGIN__	__EPS__
a	a
n	n

__BEGIN__	__EPS__
g	g
a	a
b	b

__BEGIN__	__EPS__
a	e
i	i
n	n

__BEGIN__	__EPS__
s	s
i	ie

__BEGIN__	__EPS__
d	d
a	a
z	s

__BEGIN__	__EPS__
d	d
i	i
c	c
h	h

__BEGIN__	__EPS__
g	g
e	e
s	s
c	c
h	h
l	l
e	e
c	c
h	h
t	t

__BEGIN__	__EPS__
f	f
i	i
l	li
a	a

__BEGIN__	__EPS__
k	k
y	i
n	n
t	d

__BEGIN__	__EPS__
v	b
n	i
c	__EPS__
z	s

__BEGIN__	__EPS__
d	d
a	a
s	ss

__BEGIN__	__EPS__
s	s
o	o

__BEGIN__	__EPS__
a	o
w	w
e	eh

__BEGIN__	__EPS__
e	e
y	i
n	n
e	e
n	n

__BEGIN__	__EPS__
g	__EPS__
e	__EPS__
c	__EPS__
h	k
l	l
a	a
g	g
e	e
n	n

__BEGIN__	__EPS__
n	n
i	ich
t	t

__BEGIN__	__EPS__
f	f
u	ü
e	__EPS__
z	s
z	s
e	e

__BEGIN__	__EPS__
i	ih
n	n

__BEGIN__	__EPS__
i	i
c	c
h	h

__BEGIN__	__EPS__
d	d
e	e
m	m

__BEGIN__	__EPS__
i	j
u	u
d	d
e	e
n	n

__BEGIN__	__EPS__
m	m
o	o
e	o
r	r
d	d
e	e
n	n
a	a
e	a
r	r
s	s

__BEGIN__	__EPS__
d	d
e	e
r	r

__BEGIN__	__EPS__
m	m
e	e
i	i
n	n
e	e
m	m

__BEGIN__	__EPS__
h	h
o	o
c	c
h	h
c	z
z	e
i	i
t	t
i	__EPS__
z	s

__BEGIN__	__EPS__
v	v
o	o
l	l
c	__EPS__
k	k

__BEGIN__	__EPS__
m	m
o	__EPS__
e	e
n	n
s	s
c	c
h	h
e	e
n	n

__BEGIN__	__EPS__
i	u
n	n
d	d

__BEGIN__	__EPS__
v	u
n	n
d	d

__BEGIN__	__EPS__
v	u
n	n
d	d

__BEGIN__	__EPS__
l	l
e	e
i	i
p	b

__BEGIN__	__EPS__
d	d
e	e
n	n

__BEGIN__	__EPS__
a	a
n	n
d	d
e	e
r	re

__BEGIN__	__EPS__
t	t
o	o
t	t

__BEGIN__	__EPS__
a	a
l	l
l	l
e	e

__BEGIN__	__EPS__
a	a
l	l
l	l
e	e
s	s

__BEGIN__	__EPS__
d	d
i	i
e	e

__BEGIN__	__EPS__
m	m
u	u
o	t
t	t
e	e
r	r

__BEGIN__	__EPS__
g	g
a	a
r	r

__BEGIN__	__EPS__
s	s
y	ie

__BEGIN__	__EPS__
a	a
n	n
s	s
e	e
l	l
m	m
i	i

__BEGIN__	__EPS__
s	s
c	c
h	h
o	ö
n	n

__BEGIN__	__EPS__
g	g
a	a
r	r

__BEGIN__	__EPS__
d	d
e	e
r	r

__BEGIN__	__EPS__
z	z
u	u

__BEGIN__	__EPS__
s	s
o	o
l	ll
t	t

__BEGIN__	__EPS__
w	w
e	e
y	i
n	n
t	t
e	e

__BEGIN__	__EPS__
v	v
o	o
n	n

__BEGIN__	__EPS__
d	d
y	ie

__BEGIN__	__EPS__
w	w
i	i
l	ll

__BEGIN__	__EPS__
e	e
i	i
n	n
n	__EPS__

__BEGIN__	__EPS__
h	h
e	e
u	u
t	te

__BEGIN__	__EPS__
v	u
n	n
d	d

__BEGIN__	__EPS__
e	e
y	i
n	n
e	e
n	n

__BEGIN__	__EPS__
s	s
p	p
r	r
a	a
c	c
h	h
e	e
n	n

__BEGIN__	__EPS__
z	z
o	o
r	r
n	n

__BEGIN__	__EPS__
g	g
e	e
w	w
e	e
i	i
n	n
e	__EPS__
t	t

__BEGIN__	__EPS__
m	m
a	a
l	l

__BEGIN__	__EPS__
v	u
n	n
d	d

__BEGIN__	__EPS__
i	i
n	n

__BEGIN__	__EPS__
a	a
l	l
l	l
e	e

__BEGIN__	__EPS__
s	s
p	p
r	r
a	a
c	c
h	h

__BEGIN__	__EPS__
m	m
a	a
n	n

__BEGIN__	__EPS__
e	e
r	r
l	l
o	ö
s	s
e	__EPS__
t	t

__BEGIN__	__EPS__
a	a
r	r
m	m
e	e
n	n

__BEGIN__	__EPS__
z	z
e	e
c	__EPS__
h	h
e	__EPS__
n	n

__BEGIN__	__EPS__
d	t
r	r
e	e
i	i
f	b
f	e

__BEGIN__	__EPS__
d	d
o	a

__BEGIN__	__EPS__
w	w
i	i
e	__EPS__
r	r

__BEGIN__	__EPS__
.	f
v	ün
.	f

__BEGIN__	__EPS__
e	e
s	s

__BEGIN__	__EPS__
d	d
y	ie

__BEGIN__	__EPS__
v	u
n	n
d	d

__BEGIN__	__EPS__
k	k
u	__EPS__
i	i
n	nd

__BEGIN__	__EPS__
s	s
a	a
g	g

__BEGIN__	__EPS__
d	t
e	ä
d	t
e	e

__BEGIN__	__EPS__
m	m
o	o
c	c
h	h
t	te

__BEGIN__	__EPS__
d	d
o	a

__BEGIN__	__EPS__
i	ih
m	m

__BEGIN__	__EPS__
p	p
f	f
e	e
n	n
n	n
i	i
n	__EPS__
g	g

__BEGIN__	__EPS__
a	a
l	l
t	t

__BEGIN__	__EPS__
l	l
e	e
i	i
c	c
h	h
n	n
a	a
m	m

__BEGIN__	__EPS__
h	h
a	a
t	t
t	t
e	e

__BEGIN__	__EPS__
d	d
o	a

__BEGIN__	__EPS__
a	a
b	b
e	__EPS__

__BEGIN__	__EPS__
d	d
e	e
r	r

__BEGIN__	__EPS__
v	v
o	o
n	n

__BEGIN__	__EPS__
s	s
e	e
i	i
n	n

__BEGIN__	__EPS__
t	t
a	a
t	t
e	e
n	n

__BEGIN__	__EPS__
m	m
e	e
i	i
n	n
e	e
n	n

__BEGIN__	__EPS__
v	u
n	n
s	s
e	e
r	r

__BEGIN__	__EPS__
s	s
e	e
l	l
u	b
e	e
r	r

__BEGIN__	__EPS__
m	m
u	u
t	tt
e	e
r	r

__BEGIN__	__EPS__
i	i
n	n

__BEGIN__	__EPS__
b	b
e	e
g	g
r	r
a	a
b	b
e	e
n	n

__BEGIN__	__EPS__
m	m
o	u
e	t
d	t
e	e
r	r

__BEGIN__	__EPS__
n	n
i	i
c	c
h	h
t	t

__BEGIN__	__EPS__
w	w
i	i
e	e

__BEGIN__	__EPS__
p	p
l	l
o	o
r	r
a	a
u	v
i	i
t	t

__BEGIN__	__EPS__
a	a
n	n

__BEGIN__	__EPS__
n	n
i	i
c	c
h	h
t	t

__BEGIN__	__EPS__
v	u
n	n
d	d

__BEGIN__	__EPS__
z	z
e	e
r	rr
t	t

__BEGIN__	__EPS__
a	a
l	l
l	l
e	e

__BEGIN__	__EPS__
a	e
i	i
n	n

__BEGIN__	__EPS__
d	d
a	a
s	s

__BEGIN__	__EPS__
s	s
i	i
c	c
h	h

__BEGIN__	__EPS__
l	l
i	i
e	e
f	b
f	__EPS__

__BEGIN__	__EPS__
i	i
c	c
h	h

__BEGIN__	__EPS__
d	d
a	a

__BEGIN__	__EPS__
t	t
a	a
g	g

__BEGIN__	__EPS__
a	a
n	n
t	t
w	w
u	o
r	r
t	t
e	e
n	n

__BEGIN__	__EPS__
g	g
e	e
w	w
i	i
n	n
n	n
e	e

__BEGIN__	__EPS__
m	m
i	i
t	t
t	__EPS__

__BEGIN__	__EPS__
d	d
i	i
e	e

__BEGIN__	__EPS__
k	k
u	ö
n	n
i	i
g	g

__BEGIN__	__EPS__
i	ih
n	n

__BEGIN__	__EPS__
l	l
i	i
e	e
u	b
e	e

__BEGIN__	__EPS__
a	a
l	l
l	l
e	e
r	r
l	l
i	i
e	e
b	b
s	s
t	t
e	e

__BEGIN__	__EPS__
d	d
e	e
r	r

__BEGIN__	__EPS__
h	__EPS__
e	e
r	r

__BEGIN__	__EPS__
s	s
p	p
r	r
a	a
c	c
h	h

__BEGIN__	__EPS__
v	u
n	n
d	d

__BEGIN__	__EPS__
s	s
p	p
r	r
a	a
c	c
h	h

__BEGIN__	__EPS__
h	e
e	r

__BEGIN__	__EPS__
d	d
e	e
m	m

__BEGIN__	__EPS__
n	n
i	im
m	m

__BEGIN__	__EPS__
a	a
n	n

__BEGIN__	__EPS__
d	d
e	e
m	m

__BEGIN__	__EPS__
s	s
a	a
c	__EPS__
h	h

__BEGIN__	__EPS__
h	h
i	i
e	e
s	s
z	s

__BEGIN__	__EPS__
n	n
o	o
c	c
h	h

__BEGIN__	__EPS__
i	j
u	u
d	d
e	e
n	n

__BEGIN__	__EPS__
m	m
i	i
t	t

__BEGIN__	__EPS__
d	d
i	i
e	e

__BEGIN__	__EPS__
g	g
a	a
b	b

__BEGIN__	__EPS__
i	i
n	n

__BEGIN__	__EPS__
s	s
e	eh
r	r
e	__EPS__

__BEGIN__	__EPS__
s	s
e	e
y	i
t	t
e	e
n	n

__BEGIN__	__EPS__
c	__EPS__
z	ze
u	r
s	s
c	c
h	h
l	l
a	a
h	g
e	e
n	n

__BEGIN__	__EPS__
e	u
n	nd

__BEGIN__	__EPS__
e	e
y	i
a	__EPS__

__BEGIN__	__EPS__
b	b
i	e
e	i

__BEGIN__	__EPS__
v	u
n	n
d	d

__BEGIN__	__EPS__
s	s
w	oh
n	n

__BEGIN__	__EPS__
e	i
m	h
e	m

__BEGIN__	__EPS__
s	s
i	e
j	i
n	n

__BEGIN__	__EPS__
d	d
o	a

__BEGIN__	__EPS__
s	s
o	o

__BEGIN__	__EPS__
i	j
o	o
s	s
e	e
p	p
h	h

__BEGIN__	__EPS__
e	e
r	r

__BEGIN__	__EPS__
f	f
u	üh
r	r
t	t
e	e
n	n

__BEGIN__	__EPS__
w	w
e	e
g	g
e	e
n	n

__BEGIN__	__EPS__
w	w
a	ah
r	r
h	h
e	e
i	i
t	t

__BEGIN__	__EPS__
w	w
i	i
l	l
l	l
e	e
n	n

__BEGIN__	__EPS__
m	m
i	i
t	t

__BEGIN__	__EPS__
h	h
e	ä
t	t
t	t
e	e
n	n

__BEGIN__	__EPS__
t	__EPS__
z	z
w	w
e	e
n	i
e	__EPS__

__BEGIN__	__EPS__
s	sch
w	w
a	a
r	r
z	z

__BEGIN__	__EPS__
a	a
u	u
c	c
h	h

__BEGIN__	__EPS__
l	l
i	ie
b	b
e	e
r	r

__BEGIN__	__EPS__
d	d
e	e
n	n
n	n
e	__EPS__

__BEGIN__	__EPS__
m	me
y	i
n	n

__BEGIN__	__EPS__
d	d
e	e
s	s

__BEGIN__	__EPS__
d	d
e	e
m	m

__BEGIN__	__EPS__
s	s
o	o

__BEGIN__	__EPS__
g	g
e	e
s	s
c	c
h	h
a	a
f	f
f	f
e	e
n	n

__BEGIN__	__EPS__
i	j
a	a
m	mm
e	e
r	r

__BEGIN__	__EPS__
d	d
i	i
r	r

__BEGIN__	__EPS__
n	n
i	i
c	c
h	h
t	t

__BEGIN__	__EPS__
w	w
a	a
s	r

__BEGIN__	__EPS__
i	i
c	c
h	h

__BEGIN__	__EPS__
s	s
t	t
a	ad
t	t

__BEGIN__	__EPS__
d	d
o	a

__BEGIN__	__EPS__
h	h
e	ä
n	n
d	d
e	e

__BEGIN__	__EPS__
e	e
s	s

__BEGIN__	__EPS__
k	k
o	o
m	m
m	m
e	e
n	n

__BEGIN__	__EPS__
s	__EPS__
u	__EPS__
m	m
l	__EPS__
e	a
i	n
c	c
h	he

__BEGIN__	__EPS__
m	m
i	i
c	c
h	h

__BEGIN__	__EPS__
w	w
i	i
e	__EPS__
r	r
d	__EPS__
e	__EPS__
s	s
t	t

__BEGIN__	__EPS__
h	h
a	a
n	n
t	d

__BEGIN__	__EPS__
m	m
i	i
r	r

__BEGIN__	__EPS__
s	s
a	a
c	__EPS__
h	h

__BEGIN__	__EPS__
e	eh
e	er

__BEGIN__	__EPS__
v	u
n	n
d	d

__BEGIN__	__EPS__
s	s
o	o

__BEGIN__	__EPS__
w	w
a	a
r	r
t	d

__BEGIN__	__EPS__
a	a
l	l
l	l
e	e

__BEGIN__	__EPS__
v	ü
b	b
e	e
r	r

__BEGIN__	__EPS__
d	d
e	e
r	r

__BEGIN__	__EPS__
d	d
e	e
r	r

__BEGIN__	__EPS__
m	m
o	ö
r	r
d	d
e	e
r	r

__BEGIN__	__EPS__
d	de
i	i
n	n
e	e
r	r

__BEGIN__	__EPS__
o	o
b	b

__BEGIN__	__EPS__
c	__EPS__
z	z
a	a
h	h
e	e
r	r

__BEGIN__	__EPS__
n	n
a	ac
h	h

__BEGIN__	__EPS__
s	s
i	i
j	e

__BEGIN__	__EPS__
m	m
a	ar
i	i
r	__EPS__
a	a

__BEGIN__	__EPS__
v	u
n	n
r	r
e	e
c	c
h	h
t	t

__BEGIN__	__EPS__
v	v
o	o
r	r

__BEGIN__	__EPS__
i	ih
n	n

__BEGIN__	__EPS__
a	a
n	n
d	de
r	r
e	e

__BEGIN__	__EPS__
d	d
i	i
e	e

__BEGIN__	__EPS__
s	s
y	ie

__BEGIN__	__EPS__
d	d
e	e
s	s

__BEGIN__	__EPS__
d	d
e	e
n	n
e	n

__BEGIN__	__EPS__
w	w
a	a
z	r

__BEGIN__	__EPS__
d	de
y	i
n	n
r	e
e	r

__BEGIN__	__EPS__
n	n
i	ich
t	t

__BEGIN__	__EPS__
s	s
e	e
l	l
b	ber

__BEGIN__	__EPS__
n	n
i	ic
h	h
t	t

__BEGIN__	__EPS__
i	ih
m	m

__BEGIN__	__EPS__
v	u
n	n
d	d
e	__EPS__

__BEGIN__	__EPS__
z	z
u	u

__BEGIN__	__EPS__
i	ih
m	m

__BEGIN__	__EPS__
s	s
e	e
l	l
b	b
e	e
r	r

__BEGIN__	__EPS__
l	l
o	ö
s	s
t	t
e	e
n	n

__BEGIN__	__EPS__
p	p
i	i
l	l
a	a
t	t
o	us

__BEGIN__	__EPS__
e	e
i	i
n	n

__BEGIN__	__EPS__
d	d
o	a

__BEGIN__	__EPS__
s	s
p	p
r	r
e	ä
c	c
h	h
e	e

__BEGIN__	__EPS__
m	m
i	i
c	c
h	h

__BEGIN__	__EPS__
m	m
e	e
i	i
n	n

__BEGIN__	__EPS__
i	i
c	c
h	h

__BEGIN__	__EPS__
d	d
a	a
t	s

__BEGIN__	__EPS__
v	u
n	n
d	d

__BEGIN__	__EPS__
w	de
o	n
n	n

__BEGIN__	__EPS__
i	j
v	u
d	d
e	e

__BEGIN__	__EPS__
b	b
y	i
s	s
z	__EPS__

__BEGIN__	__EPS__
e	e
r	r

__BEGIN__	__EPS__
s	s
e	e
i	i
n	n

__BEGIN__	__EPS__
d	d
i	i
e	e

__BEGIN__	__EPS__
v	b
o	e
r	s
v	c
n	__EPS__
r	h
e	m
i	u
n	t
e	z
t	t

__BEGIN__	__EPS__
m	m
i	i
t	t

__BEGIN__	__EPS__
k	k
y	i
n	n
t	d

__BEGIN__	__EPS__
k	k
i	i
n	n
d	d

__BEGIN__	__EPS__
v	v
a	a
t	t
e	e
r	r
s	s
z	__EPS__

__BEGIN__	__EPS__
n	n
i	i
c	c
h	h
t	t

__BEGIN__	__EPS__
s	s
e	e
i	i
n	n
e	e

__BEGIN__	__EPS__
m	m
o	o
c	c
h	h
t	te

__BEGIN__	__EPS__
k	k
i	i
n	n
t	d
h	__EPS__

__BEGIN__	__EPS__
w	w
a	o
n	h
n	__EPS__
e	e
n	r

__BEGIN__	__EPS__
r	r
e	e
x	x

__BEGIN__	__EPS__
g	g
a	a
n	n
t	__EPS__
z	z

__BEGIN__	__EPS__
v	u
n	n
d	d

__BEGIN__	__EPS__
h	h
e	e
r	r
z	z
e	e
n	n

__BEGIN__	__EPS__
g	g
e	e
t	t
a	a
n	n

__BEGIN__	__EPS__
a	a
n	n

__BEGIN__	__EPS__
g	g
e	e
s	s
c	c
h	h
e	eh
e	e
n	n

__BEGIN__	__EPS__
p	b
e	__EPS__
l	l
e	e
i	i
b	b
e	e
n	n

__BEGIN__	__EPS__
c	z
z	e
i	i
c	c
h	h
e	e
n	n

__BEGIN__	__EPS__
m	v
a	__EPS__
n	i
i	e
g	l
e	e
r	r
h	l
a	e
n	i
t	__EPS__

__BEGIN__	__EPS__
b	b
i	i
n	n

__BEGIN__	__EPS__
w	w
o	ol
l	l
t	t

__BEGIN__	__EPS__
d	d
e	e
r	r

__BEGIN__	__EPS__
s	s
i	ie

__BEGIN__	__EPS__
i	i
c	c
h	h

__BEGIN__	be
s	s
u	o
n	n
d	d
e	e
r	r
l	s
e	__EPS__
i	__EPS__
c	__EPS__
h	__EPS__
e	__EPS__
n	__EPS__

__BEGIN__	__EPS__
l	l
a	a
c	c
e	e
r	r
m	m
e	e

__BEGIN__	__EPS__
g	g
e	e
s	s
c	c
h	h
r	r
i	ie
b	b
e	e
n	n

__BEGIN__	__EPS__
a	a
n	n
t	t
b	w
u	o
r	r
t	t

__BEGIN__	__EPS__
a	a
l	l
z	s

__BEGIN__	__EPS__
s	s
e	a
c	__EPS__
h	g
t	t
e	e

__BEGIN__	__EPS__
v	ü
b	b
e	e
r	r

__BEGIN__	__EPS__
i	i
n	n

__BEGIN__	__EPS__
n	n
i	i
e	ch
t	t

__BEGIN__	__EPS__
t	t
r	r
e	ä
h	n
e	e
n	__EPS__

__BEGIN__	__EPS__
s	s
i	ie

__BEGIN__	__EPS__
e	e
y	i
n	n

__BEGIN__	__EPS__
m	m
o	o
c	c
h	h
t	te

__BEGIN__	__EPS__
d	d
e	e
n	n

__BEGIN__	__EPS__
t	t
o	o
t	t

__BEGIN__	__EPS__
i	j
e	ä
m	mm
e	e
r	r
l	l
i	i
c	c
h	he
z	s

__BEGIN__	__EPS__
p	p
a	a
r	r
a	a
d	d
i	ie
s	s
e	__EPS__

__BEGIN__	__EPS__
t	t
e	ä
t	te

__BEGIN__	__EPS__
s	s
a	a
c	__EPS__
h	h

__BEGIN__	__EPS__
s	s
o	o

__BEGIN__	__EPS__
m	v
a	i
n	__EPS__
i	e
g	l
e	e
n	n

__BEGIN__	__EPS__
s	s
o	o
l	ll

__BEGIN__	__EPS__
m	m
e	e
i	i
n	n

__BEGIN__	__EPS__
v	v
o	o
r	r

__BEGIN__	__EPS__
v	u
n	n
d	d

__BEGIN__	__EPS__
d	d
e	e
m	m

__BEGIN__	__EPS__
s	s
c	c
h	h
a	ä
c	c
h	h
e	e
r	r

__BEGIN__	__EPS__
v	u
n	n
d	d

__BEGIN__	__EPS__
i	ih
n	n

__BEGIN__	__EPS__
h	h
e	e
r	r
o	o
d	d
e	e
s	s

__BEGIN__	__EPS__
n	n
i	i
c	c
h	h
t	t

__BEGIN__	__EPS__
d	d
e	e
n	n

__BEGIN__	__EPS__
a	a
n	n
s	s
e	e
l	l
m	m
e	__EPS__

__BEGIN__	__EPS__
d	d
e	e
r	r

__BEGIN__	__EPS__
e	e
r	r

__BEGIN__	__EPS__
d	d
i	ie
s	s
e	e
r	r

__BEGIN__	__EPS__
m	m
u	u
n	n
d	d
e	__EPS__

__BEGIN__	__EPS__
i	i
c	c
h	h

__BEGIN__	__EPS__
s	s
y	ie

__BEGIN__	__EPS__
v	v
e	e
r	r
d	t
r	r
a	a
g	g
e	e
n	n

__BEGIN__	__EPS__
d	de
i	i
n	n

__BEGIN__	__EPS__
c	__EPS__
z	z
u	o
g	g
e	e
n	n

__BEGIN__	__EPS__
l	l
i	i
e	e
s	s
z	s

__BEGIN__	__EPS__
m	m
i	e
j	i
n	n

__BEGIN__	__EPS__
g	g
a	eh
i	e
n	n

__BEGIN__	__EPS__
t	t
a	a
g	g

__BEGIN__	__EPS__
a	a
l	l
s	s
o	o

__BEGIN__	__EPS__
v	u
n	n
d	d

__BEGIN__	__EPS__
s	s
o	o

__BEGIN__	__EPS__
w	w
a	a
n	n
d	n

__BEGIN__	__EPS__
e	e
i	i
n	n

__BEGIN__	__EPS__
g	g
e	e
l	l
a	a
s	s
s	s
e	e
n	n

__BEGIN__	__EPS__
y	ih
r	r

__BEGIN__	__EPS__
c	k
r	r
u	e
c	u
e	z

__BEGIN__	__EPS__
t	t
e	a
t	t
e	e
n	n

__BEGIN__	__EPS__
v	u
n	n
d	d

__BEGIN__	__EPS__
k	k
r	r
o	o
n	ne

__BEGIN__	a
u	u
s	s
z	__EPS__

__BEGIN__	__EPS__
s	s
e	e
y	i
n	n
e	e
r	r

__BEGIN__	__EPS__
h	h
e	e
r	r
e	r

__BEGIN__	__EPS__
v	f
r	r
e	a
g	g
e	__EPS__
t	t
e	e

__BEGIN__	__EPS__
a	a
l	l
l	l
e	e

__BEGIN__	__EPS__
a	a
l	l
l	l
e	e
n	n

__BEGIN__	__EPS__
k	k
i	i
n	n
t	d

__BEGIN__	__EPS__
s	sch
r	r
a	i
y	e

__BEGIN__	__EPS__
a	a
ü	u
c	c
h	h

__BEGIN__	__EPS__
m	m
i	i
r	r

__BEGIN__	__EPS__
e	e
r	r
l	l
e	e
d	d
i	i
g	g
e	__EPS__
t	t

__BEGIN__	__EPS__
v	u
n	n
d	d

__BEGIN__	__EPS__
d	d
i	i
e	e

__BEGIN__	__EPS__
w	w
i	i
l	l
l	l

__BEGIN__	__EPS__
v	u
n	n
d	d

__BEGIN__	__EPS__
e	e
i	i
n	n

__BEGIN__	__EPS__
w	w
a	o
n	h
n	__EPS__
e	e
n	r

__BEGIN__	__EPS__
h	h
u	u
n	n
d	d

__BEGIN__	__EPS__
d	d
e	e
r	r

__BEGIN__	__EPS__
h	h
a	ä
n	n
d	d
e	e
n	n

__BEGIN__	__EPS__
a	a
n	n
t	t
l	l
i	i
t	tz

__BEGIN__	__EPS__
d	d
i	i
e	e

__BEGIN__	__EPS__
s	s
e	e
i	ie
n	n
d	d

__BEGIN__	__EPS__
v	u
n	n
d	d

__BEGIN__	__EPS__
d	d
i	i
e	e

__BEGIN__	__EPS__
m	m
o	o
c	c
h	h
t	t
e	e

__BEGIN__	__EPS__
s	se
y	i
n	n

__BEGIN__	__EPS__
v	u
n	n
d	d

__BEGIN__	__EPS__
e	e
u	u
r	r
e	e

__BEGIN__	__EPS__
g	s
e	i
f	__EPS__
u	e
o	__EPS__
g	g
t	t
e	e
n	n
d	__EPS__

__BEGIN__	__EPS__
d	d
a	a
z	ss

__BEGIN__	__EPS__
n	n
o	o
n	n

__BEGIN__	__EPS__
v	v
o	o
r	r

__BEGIN__	__EPS__
h	h
e	a
t	tte

__BEGIN__	__EPS__
s	s
y	ie

__BEGIN__	__EPS__
d	d
e	e
n	n

__BEGIN__	__EPS__
f	f
v	ü
e	h
r	r
t	t
e	e
n	n

__BEGIN__	__EPS__
i	i
n	n

__BEGIN__	__EPS__
v	v
o	o
r	r

__BEGIN__	__EPS__
l	l
a	a
n	n
t	d

__BEGIN__	__EPS__
d	d
a	a
s	ss

__BEGIN__	__EPS__
e	e
r	r

__BEGIN__	__EPS__
l	l
e	e
c	t
z	z
t	t
e	e

__BEGIN__	__EPS__
t	t
a	a
g	g

__BEGIN__	__EPS__
a	a
l	l
l	l
e	e

__BEGIN__	__EPS__
v	u
n	n
d	d

__BEGIN__	__EPS__
n	n
i	i
c	c
h	h
t	t

__BEGIN__	__EPS__
d	d
o	o
c	c
h	h

__BEGIN__	__EPS__
m	m
e	e
i	i
n	n
e	e
n	m

__BEGIN__	__EPS__
h	h
e	e
r	r
o	o
d	d
e	e
s	s

__BEGIN__	__EPS__
h	h
e	e
r	r
c	__EPS__
z	z
e	e
n	n
l	l
i	i
e	e
b	b
e	e

__BEGIN__	__EPS__
d	d
i	i
e	e

__BEGIN__	__EPS__
i	i
c	c
h	h

__BEGIN__	__EPS__
a	a
n	n
g	g
e	e
h	h
e	o
b	be
t	n

__BEGIN__	__EPS__
k	k
u	o
m	m
b	me

__BEGIN__	__EPS__
s	s
t	t
e	e
r	r
b	b
i	e
n	n

__BEGIN__	__EPS__
a	a
c	c
h	h
s	s
e	e
l	l

__BEGIN__	__EPS__
s	s
p	p
r	r
a	a
c	c
h	h

__BEGIN__	__EPS__
m	m
e	e
i	i
n	n

__BEGIN__	__EPS__
s	s
i	i
e	e

__BEGIN__	__EPS__
r	r
i	i
n	n
c	__EPS__
k	g

__BEGIN__	__EPS__
d	d
a	a

__BEGIN__	a
v	u
f	f
g	g
e	e
r	r
i	i
c	c
h	h
t	tet

__BEGIN__	__EPS__
n	ni
e	e
d	d
e	e
r	r

__BEGIN__	__EPS__
a	a
n	n
t	t
l	l
u	i
t	t
z	z

__BEGIN__	__EPS__
y	ih
m	m

__BEGIN__	__EPS__
d	d
i	i
e	e

__BEGIN__	__EPS__
b	b
i	i
n	n

__BEGIN__	__EPS__
g	g
e	e
s	s
e	e
c	__EPS__
h	h
e	e
n	n

__BEGIN__	__EPS__
d	d
e	e
r	r

__BEGIN__	__EPS__
i	ih
m	m

__BEGIN__	__EPS__
l	l
a	e
i	i
t	d

__BEGIN__	__EPS__
d	d
e	e
n	n

__BEGIN__	__EPS__
i	i
c	c
h	h

__BEGIN__	__EPS__
c	__EPS__
z	z
u	u

__BEGIN__	__EPS__
i	i
c	c
h	h

__BEGIN__	__EPS__
v	v
i	ie
l	l

__BEGIN__	__EPS__
v	u
n	n
d	d

__BEGIN__	__EPS__
d	d
e	e
r	r

__BEGIN__	__EPS__
k	k
l	l
a	a
g	ge

__BEGIN__	__EPS__
v	u
n	n
d	d

__BEGIN__	__EPS__
i	i
c	c
h	h

__BEGIN__	__EPS__
v	v
a	o
n	n

__BEGIN__	__EPS__
d	d
e	e
i	i
n	n
e	e
m	m

__BEGIN__	__EPS__
m	m
y	e
n	n
s	s
c	c
h	h

__BEGIN__	__EPS__
o	o
w	w
e	eh

__BEGIN__	__EPS__
t	__EPS__
z	z
a	e
i	i
g	g
e	e
n	n

__BEGIN__	__EPS__
g	g
e	e
w	w
o	oh
n	n
h	h
e	e
i	i
t	t

__BEGIN__	__EPS__
v	u
n	n
d	d

__BEGIN__	__EPS__
d	d
e	e
n	n

__BEGIN__	__EPS__
n	n
i	i
c	c
h	h
t	t

__BEGIN__	__EPS__
a	a
l	l
l	l
e	e
n	n

__BEGIN__	__EPS__
e	e
r	r

__BEGIN__	__EPS__
s	s
a	a
g	g

__BEGIN__	__EPS__
n	n
i	i
c	c
h	h
t	t

__BEGIN__	__EPS__
g	g
o	u
i	__EPS__
t	t

__BEGIN__	__EPS__
p	p
y	i
l	l
a	a
t	t
o	us

__BEGIN__	__EPS__
s	s
y	ie

__BEGIN__	__EPS__
s	s
i	i
e	e

__BEGIN__	__EPS__
w	w
e	e
s	s
e	e
n	n

__BEGIN__	__EPS__
k	k
i	i
n	n
t	d

__BEGIN__	__EPS__
m	m
a	a
n	n

__BEGIN__	__EPS__
m	m
i	i
e	__EPS__
r	r

__BEGIN__	__EPS__
t	t
a	a
g	g

__BEGIN__	__EPS__
s	se
y	i
n	n

__BEGIN__	__EPS__
g	g
e	e
f	f
a	a
n	n
g	g
e	e
n	n

__BEGIN__	__EPS__
s	s
e	e
y	i
n	n

__BEGIN__	__EPS__
v	u
n	n
d	d

__BEGIN__	__EPS__
h	h
e	ä
n	n
d	de

__BEGIN__	__EPS__
w	w
i	i
r	r

__BEGIN__	__EPS__
m	me
i	i
n	n

__BEGIN__	__EPS__
d	d
o	a

__BEGIN__	__EPS__
s	s
i	ie

__BEGIN__	__EPS__
w	w
a	a
s	r

__BEGIN__	__EPS__
l	l
e	e
g	g
e	e
n	n

__BEGIN__	__EPS__
s	s
y	ie

__BEGIN__	__EPS__
e	e
w	w
i	i
c	g
h	k
e	e
i	i
t	t

__BEGIN__	__EPS__
s	s
t	t
i	i
l	l
l	l
e	e

__BEGIN__	__EPS__
a	a
l	l
l	l
e	e
n	n

__BEGIN__	__EPS__
e	e
n	n
d	d
e	e

__BEGIN__	__EPS__
e	e
i	i
n	n

__BEGIN__	__EPS__
w	w
a	a
r	r
e	e
n	n

__BEGIN__	__EPS__
k	k
i	i
n	n
t	d

__BEGIN__	__EPS__
g	g
h	__EPS__
e	e
s	s
c	ch
r	ri
e	e
b	b
e	e
n	n

__BEGIN__	__EPS__
d	t
o	o
c	c
h	h
t	t
e	e
r	r

__BEGIN__	__EPS__
d	d
e	e
m	m

__BEGIN__	__EPS__
d	d
i	i
n	n
c	__EPS__
k	g

__BEGIN__	__EPS__
d	d
o	a

__BEGIN__	__EPS__
g	g
i	i
e	__EPS__
n	n
g	g

__BEGIN__	__EPS__
w	wi
e	e
d	d
e	e
r	r
m	m
a	a
k	ch
e	e
n	n

__BEGIN__	__EPS__
d	d
o	a

__BEGIN__	__EPS__
s	s
o	o

__BEGIN__	__EPS__
c	__EPS__
z	z
u	u
o	__EPS__

__BEGIN__	__EPS__
c	k
h	__EPS__
i	i
n	n
d	d
e	__EPS__

__BEGIN__	__EPS__
v	ü
i	__EPS__
b	b
e	e
r	r

__BEGIN__	__EPS__
h	h
e	e
r	r
o	o
d	d
e	e
s	s

