__BEGIN__	__EPS__
w	w
i	i
l	l
l	l
e	e
n	n

__BEGIN__	__EPS__
m	m
o	o
e	o
r	r
d	d
e	e
n	n
a	a
e	a
r	r
s	s

__BEGIN__	__EPS__
v	u
n	n
n	d

__BEGIN__	__EPS__
d	d
e	e
m	m

__BEGIN__	__EPS__
d	d
e	e
r	r

__BEGIN__	__EPS__
l	l
i	e
e	i
d	d
e	e
t	t

__BEGIN__	__EPS__
s	s
p	p
i	i
e	__EPS__
n	n
n	n
e	e
n	n

__BEGIN__	__EPS__
e	e
i	i
n	n

__BEGIN__	__EPS__
f	f
i	i
s	s
c	c
h	h
e	e
r	r
s	s

__BEGIN__	__EPS__
i	ih
m	m

__BEGIN__	__EPS__
l	l
e	eh
r	r
e	e
r	r

__BEGIN__	__EPS__
v	v
o	o
n	n

__BEGIN__	__EPS__
d	d
a	a
v	v
o	o
n	n

__BEGIN__	a
o	u
c	c
h	h

__BEGIN__	__EPS__
a	a
l	l
s	s
o	o

__BEGIN__	__EPS__
e	e
i	i
n	n

__BEGIN__	__EPS__
o	ü
u	b
e	e
r	r

__BEGIN__	__EPS__
e	nich
n	t

__BEGIN__	__EPS__
d	d
a	a
z	ss

__BEGIN__	__EPS__
p	p
i	i
l	l
a	a
t	t
u	u
s	s

__BEGIN__	__EPS__
d	d
e	e
r	r

__BEGIN__	__EPS__
h	__EPS__
o	f
c	e
h	s
t	t
z	__EPS__
i	__EPS__
g	__EPS__
l	l
i	i
c	c
h	he

__BEGIN__	__EPS__
s	s
p	p
r	r
a	a
c	c
h	h
e	e
n	n

__BEGIN__	a
v	u
p	f

__BEGIN__	n
e	ich
n	t

__BEGIN__	__EPS__
v	u
n	n
d	d

__BEGIN__	__EPS__
i	i
n	n

__BEGIN__	__EPS__
c	__EPS__
z	s
u	o
h	gle
a	i
n	c
t	h

__BEGIN__	__EPS__
d	d
o	a

__BEGIN__	__EPS__
v	u
n	n
d	d

__BEGIN__	__EPS__
v	u
n	n
d	d

__BEGIN__	d
u	u

__BEGIN__	__EPS__
e	e
y	i
n	n

__BEGIN__	__EPS__
g	g
o	o
t	tt

__BEGIN__	__EPS__
e	e
r	r

__BEGIN__	__EPS__
w	w
o	o
r	r
t	t

__BEGIN__	__EPS__
e	e
w	w
e	__EPS__
n	i
k	g
l	l
i	i
c	c
h	h

__BEGIN__	__EPS__
h	h
e	e
r	r
o	o
d	d
e	e
s	s

__BEGIN__	__EPS__
d	d
a	a
z	s

__BEGIN__	__EPS__
s	s
e	e
i	i
n	n
e	e
r	r

__BEGIN__	__EPS__
i	ih
n	n

__BEGIN__	__EPS__
h	h
i	i
e	es
s	s

__BEGIN__	__EPS__
e	e
w	w
i	ig
k	k
e	e
i	i
t	t

__BEGIN__	__EPS__
s	s
y	i
e	e

__BEGIN__	__EPS__
w	w
e	e
r	rde
t	t

__BEGIN__	__EPS__
d	irg
e	en
h	d
e	e
i	i
n	n

__BEGIN__	__EPS__
n	n
u	u
o	__EPS__
r	r

__BEGIN__	__EPS__
a	a
n	n
d	d
e	e
r	re

__BEGIN__	__EPS__
c	c
r	r
u	u
c	c
i	i
f	f
i	i
g	g
e	e

__BEGIN__	__EPS__
e	e
r	r

__BEGIN__	__EPS__
c	k
r	r
e	e
ü	u
c	__EPS__
z	z

__BEGIN__	__EPS__
a	a
c	c
h	h
t	t
e	e

__BEGIN__	__EPS__
w	w
e	e
m	m

__BEGIN__	__EPS__
g	g
e	e
w	w
a	a
l	l
t	t

__BEGIN__	__EPS__
d	d
a	a
z	ss

__BEGIN__	__EPS__
i	i
n	n

__BEGIN__	__EPS__
w	w
a	a
i	h
r	r
h	h
e	e
i	i
t	t

__BEGIN__	__EPS__
e	e
s	s
s	s
e	__EPS__
i	i
c	__EPS__
h	g

__BEGIN__	__EPS__
t	t
a	ä
e	__EPS__
t	t
t	e

__BEGIN__	__EPS__
m	m
i	i
t	t

__BEGIN__	__EPS__
d	d
o	a

__BEGIN__	__EPS__
i	i
n	n

__BEGIN__	__EPS__
k	k
a	a
v	__EPS__
m	m
e	e
n	n

__BEGIN__	__EPS__
u	u
n	n
s	s
e	e
r	r

__BEGIN__	__EPS__
s	s
p	p
r	r
a	a
c	c
h	h

__BEGIN__	__EPS__
d	d
u	u

__BEGIN__	__EPS__
s	s
e	e
c	c
h	h
s	s
t	t
e	e
n	n

__BEGIN__	__EPS__
w	w
a	a
s	r

__BEGIN__	__EPS__
w	w
o	o
r	r
t	t

__BEGIN__	__EPS__
s	s
o	o
l	ll
t	t
e	e
s	s
t	t

__BEGIN__	__EPS__
h	h
e	a
t	tte

__BEGIN__	__EPS__
e	e
r	r

__BEGIN__	__EPS__
d	d
e	e
r	r

__BEGIN__	__EPS__
d	d
e	e
r	r

__BEGIN__	__EPS__
a	a
n	n

__BEGIN__	__EPS__
w	w
i	i
r	r

__BEGIN__	__EPS__
i	ih
n	n

__BEGIN__	__EPS__
m	m
o	o
c	c
h	h
t	te

__BEGIN__	__EPS__
a	a
n	n

__BEGIN__	__EPS__
a	a
l	l
s	s
u	o
s	__EPS__

__BEGIN__	__EPS__
k	k
i	i
n	n
t	d

__BEGIN__	__EPS__
f	f
e	äh
r	r
t	t

__BEGIN__	__EPS__
h	h
a	a
b	b
e	e
n	n

__BEGIN__	__EPS__
d	tät
e	e
s	s
t	t

__BEGIN__	__EPS__
d	d
a	a
s	ss

__BEGIN__	__EPS__
y	i
n	n

__BEGIN__	__EPS__
y	j
e	ä
m	mm
e	e
r	r
l	l
i	i
c	c
h	h
e	e
n	n

__BEGIN__	__EPS__
h	e
e	r

__BEGIN__	__EPS__
e	e
i	i
n	n

__BEGIN__	__EPS__
v	u
n	n
d	d

__BEGIN__	__EPS__
m	m
e	ehr

__BEGIN__	__EPS__
d	d
y	i
e	e
s	s
e	e

__BEGIN__	__EPS__
d	d
a	as
z	s

__BEGIN__	__EPS__
a	a
l	l
l	l
e	e

__BEGIN__	__EPS__
c	c
h	h
r	r
i	i
s	s
t	t
u	u
s	s

__BEGIN__	__EPS__
s	s
p	p
r	r
a	a
c	c
h	h

__BEGIN__	__EPS__
a	a
n	n
s	s
h	__EPS__
e	e
l	l
m	m
u	__EPS__
s	__EPS__

__BEGIN__	__EPS__
w	w
i	ie
d	d
e	e
r	r
m	m
a	a
c	c
h	h
e	e
n	n

__BEGIN__	__EPS__
v	v
o	o
r	r

__BEGIN__	__EPS__
w	w
a	a
r	r
t	d

__BEGIN__	__EPS__
a	a
l	l
s	s
o	o

__BEGIN__	__EPS__
h	h
e	ä
n	n
d	d
e	e
n	n

__BEGIN__	__EPS__
d	d
a	as
z	s

__BEGIN__	__EPS__
m	m
i	i
c	c
h	h

__BEGIN__	__EPS__
s	__EPS__
a	a
m	ls

__BEGIN__	__EPS__
i	j
a	a
m	mm
e	e
r	r

__BEGIN__	__EPS__
e	a
u	b
e	e
r	r

__BEGIN__	__EPS__
d	d
o	a

__BEGIN__	__EPS__
w	w
o	ol
l	l
t	t
e	e
n	n

__BEGIN__	__EPS__
g	g
r	r
u	a
e	u
s	s
a	a
m	m

__BEGIN__	__EPS__
e	e
r	r

__BEGIN__	__EPS__
b	b
e	e
t	z
w	w
ü	u
n	n
g	g
e	e
n	n

__BEGIN__	__EPS__
g	g
e	e
k	k
r	r
o	ö
n	n
e	__EPS__
t	t

__BEGIN__	__EPS__
d	d
u	u
r	r
c	c
h	h

__BEGIN__	__EPS__
n	n
a	a
c	c
h	h
t	t

__BEGIN__	__EPS__
v	u
n	n
n	d

__BEGIN__	__EPS__
e	e
r	r
n	n
s	s
t	t
l	l
i	i
c	c
h	h
e	e
n	n

__BEGIN__	__EPS__
w	w
a	ah
r	r
e	e
n	n

__BEGIN__	__EPS__
t	t
e	a
t	t

__BEGIN__	__EPS__
i	j
o	o
h	h
a	a
n	n
n	n
e	e
s	s

__BEGIN__	__EPS__
o	o
w	w
e	eh

__BEGIN__	__EPS__
m	me
i	i
n	n
e	e
n	n

__BEGIN__	__EPS__
g	g
a	a
l	l
y	i
l	l
e	e
a	a

__BEGIN__	d
u	u

__BEGIN__	__EPS__
h	h
e	e
r	r
o	o
d	d
e	es

__BEGIN__	__EPS__
s	s
y	ie

__BEGIN__	__EPS__
v	ü
b	b
e	e
r	r

__BEGIN__	__EPS__
v	u
n	n
d	d

__BEGIN__	__EPS__
n	n
i	i
e	ch
t	t

__BEGIN__	__EPS__
n	n
o	o
n	n

__BEGIN__	__EPS__
k	k
i	i
n	n
d	d

__BEGIN__	__EPS__
m	m
a	a
r	r
i	i
a	a

__BEGIN__	__EPS__
d	d
a	a
s	s

__BEGIN__	__EPS__
l	l
o	asse
n	n

__BEGIN__	__EPS__
l	l
o	ö
e	__EPS__
s	s
e	e
n	n

__BEGIN__	__EPS__
w	wü
e	r
d	d
i	i
r	g

__BEGIN__	__EPS__
i	ih
n	n

__BEGIN__	__EPS__
s	s
i	i
c	c
h	h

__BEGIN__	__EPS__
a	a
n	n

__BEGIN__	__EPS__
m	m
i	i
t	t

__BEGIN__	__EPS__
g	g
e	e
d	t
a	a
i	__EPS__
n	n

__BEGIN__	__EPS__
d	d
e	i
w	e

__BEGIN__	__EPS__
s	s
c	c
h	h
e	e
i	i
t	t
e	e
l	l

__BEGIN__	__EPS__
g	g
e	e
s	s
e	e
g	g
n	n
e	e
t	t

__BEGIN__	__EPS__
v	v
a	o
n	n

__BEGIN__	__EPS__
s	s
e	e
i	i
n	n

__BEGIN__	__EPS__
c	__EPS__
z	z
w	u

__BEGIN__	__EPS__
a	a
n	n
s	s
e	e
l	l
m	m
e	__EPS__

__BEGIN__	__EPS__
d	d
e	e
r	r

__BEGIN__	__EPS__
n	n
i	ie
d	d
e	e
n	r

__BEGIN__	__EPS__
d	d
a	a
z	s

__BEGIN__	__EPS__
a	a
l	l
l	l
e	e
r	r

__BEGIN__	__EPS__
d	d
o	a

__BEGIN__	__EPS__
a	a
l	l
s	s

__BEGIN__	__EPS__
d	d
y	ie

__BEGIN__	__EPS__
d	d
i	i
e	e

__BEGIN__	__EPS__
b	be
y	i

__BEGIN__	__EPS__
s	s
p	p
r	r
a	a
c	c
h	h
e	e
n	n

__BEGIN__	__EPS__
m	m
u	u
t	t
t	t
e	e
r	r

__BEGIN__	__EPS__
k	k
a	a
m	m

__BEGIN__	__EPS__
d	d
a	as
z	s

__BEGIN__	__EPS__
i	i
s	s
t	t

__BEGIN__	__EPS__
n	n
e	e
i	i
g	g
e	__EPS__
t	t

__BEGIN__	__EPS__
s	sankt

__BEGIN__	__EPS__
v	u
n	n
d	d

__BEGIN__	__EPS__
e	e
r	r
t	d
r	re
i	i
c	c
h	h

__BEGIN__	__EPS__
m	me
i	i
n	n

__BEGIN__	__EPS__
i	i
c	c
h	h

__BEGIN__	__EPS__
m	me
y	i
n	n

__BEGIN__	__EPS__
e	e
r	r
l	l
a	o
s	s
c	c
h	h

__BEGIN__	__EPS__
e	e
w	w
i	i
g	g
e	e
n	n

__BEGIN__	__EPS__
d	d
a	a
r	r
y	i
n	n

__BEGIN__	__EPS__
l	l
a	i
u	e
f	f
e	e
s	s
t	t

__BEGIN__	__EPS__
d	d
e	e
m	m

__BEGIN__	__EPS__
s	s
y	ie

__BEGIN__	__EPS__
f	f
r	r
a	a
w	u

__BEGIN__	__EPS__
m	me
y	i
n	n
e	e
n	n

__BEGIN__	__EPS__
g	g
h	__EPS__
i	i
n	n
c	g

__BEGIN__	__EPS__
v	a
i	u
s	s
z	z
t	__EPS__
z	__EPS__
o	o
i	__EPS__
g	g
e	e
n	n

__BEGIN__	__EPS__
g	g
r	r
e	ä
b	b
e	e
r	r

__BEGIN__	__EPS__
a	a
n	n
s	se
h	lm

__BEGIN__	__EPS__
g	g
i	i
n	n
g	g

__BEGIN__	__EPS__
d	d
e	e
r	r

__BEGIN__	__EPS__
d	de
y	i
n	n
e	e

__BEGIN__	__EPS__
s	s
c	c
h	h
r	r
i	i
r	e
n	n

__BEGIN__	__EPS__
p	p
y	i
l	l
a	a
t	t
u	u
s	s

__BEGIN__	__EPS__
w	we
i	i
s	s
s	e

__BEGIN__	__EPS__
v	u
n	n
d	d

__BEGIN__	__EPS__
w	w
a	a
s	s

__BEGIN__	__EPS__
v	u
n	n
d	d

__BEGIN__	__EPS__
v	v
o	o
n	n

__BEGIN__	__EPS__
v	u
n	n
d	d

__BEGIN__	__EPS__
s	s
i	i
c	c
h	h

__BEGIN__	__EPS__
a	a
n	n
t	t
l	l
u	i
c	t
z	z

__BEGIN__	__EPS__
d	d
e	e
i	i
n	n
e	e
n	m

__BEGIN__	__EPS__
w	w
a	a
s	r

__BEGIN__	__EPS__
w	w
e	e
r	r
f	f
f	__EPS__
e	e
n	n

__BEGIN__	__EPS__
n	n
ü	un

__BEGIN__	__EPS__
s	s
o	o
i	l
l	l
t	t

__BEGIN__	__EPS__
o	au
c	c
h	h

__BEGIN__	__EPS__
m	m
i	i
c	c
h	h

__BEGIN__	__EPS__
d	d
i	ie

__BEGIN__	__EPS__
n	n
i	ich
t	t

__BEGIN__	__EPS__
i	ih
n	n

__BEGIN__	__EPS__
h	h
a	a
b	b
e	e
n	n

__BEGIN__	__EPS__
d	d
a	as
s	s

__BEGIN__	__EPS__
m	m
i	i
r	r

__BEGIN__	__EPS__
h	h
i	i
m	mm
e	e
l	l

__BEGIN__	__EPS__
p	p
l	l
o	o
r	r
a	a
u	v
i	i

__BEGIN__	__EPS__
m	m
i	i
c	c
h	h

__BEGIN__	__EPS__
d	d
y	i
r	r

__BEGIN__	__EPS__
s	s
p	p
r	r
a	a
c	c
h	h

__BEGIN__	__EPS__
w	wa
z	s

__BEGIN__	__EPS__
w	w
a	u
r	r
d	d
e	e
n	n

__BEGIN__	__EPS__
a	a
u	u
f	f

__BEGIN__	__EPS__
z	z
u	u
o	__EPS__

__BEGIN__	__EPS__
ü	a
f	u
f	f

__BEGIN__	__EPS__
m	m
o	o
i	__EPS__
c	c
h	h
t	t
e	e

__BEGIN__	__EPS__
g	g
a	a
r	r

__BEGIN__	__EPS__
l	l
e	e
y	i
d	d
e	e

__BEGIN__	__EPS__
w	w
a	a
r	r
d	d

__BEGIN__	__EPS__
d	d
a	a
t	s

__BEGIN__	__EPS__
d	d
u	u

__BEGIN__	__EPS__
g	g
e	e
s	s
c	c
h	h
r	r
e	e
y	i

__BEGIN__	__EPS__
f	f
r	r
e	e
w	u
d	d
e	e
n	n

__BEGIN__	__EPS__
d	d
e	e
r	r

__BEGIN__	__EPS__
v	u
n	n
d	d

__BEGIN__	__EPS__
w	w
o	o
l	ll
d	t
e	e
n	n

__BEGIN__	__EPS__
d	d
a	a
s	s

__BEGIN__	__EPS__
z	z
u	u

__BEGIN__	__EPS__
d	d
e	e
r	r

__BEGIN__	__EPS__
d	d
e	e
r	r

__BEGIN__	__EPS__
s	s
e	e
y	i
n	n
e	e

__BEGIN__	__EPS__
v	u
n	n
d	d

__BEGIN__	__EPS__
d	d
o	a

__BEGIN__	__EPS__
d	d
a	a
s	ss

__BEGIN__	__EPS__
m	me
i	i
n	n
e	e
m	m

__BEGIN__	__EPS__
m	m
v	u
n	n
d	d
e	__EPS__

__BEGIN__	__EPS__
s	s
e	e
i	i
n	n
e	e
n	n

__BEGIN__	__EPS__
m	m
i	i
t	t

__BEGIN__	__EPS__
a	a
n	n
s	s
e	e
l	l
m	m
u	__EPS__
s	__EPS__

__BEGIN__	__EPS__
z	z
e	er
m	m
u	a
l	lm
t	t
e	e
n	n

__BEGIN__	__EPS__
l	l
a	ah
m	m
e	e
n	n

__BEGIN__	__EPS__
y	i
m	h
e	m

__BEGIN__	__EPS__
m	m
i	i
r	r

__BEGIN__	__EPS__
h	h
o	ö
r	r
t	te

__BEGIN__	__EPS__
v	u
n	n
d	d

__BEGIN__	__EPS__
v	b
n	i
c	__EPS__
z	s

__BEGIN__	__EPS__
w	w
u	u
n	n
d	d
e	e
n	n

__BEGIN__	__EPS__
g	g
e	e
b	b
r	r
e	e
c	c
h	h
l	l
i	i
c	c
h	h
e	e

__BEGIN__	__EPS__
l	l
i	i
e	e
b	b
e	e
s	s
z	__EPS__

__BEGIN__	__EPS__
s	s
a	o
l	ll
t	t

__BEGIN__	__EPS__
w	w
e	e
r	__EPS__
l	l
e	__EPS__
i	__EPS__
c	c
h	h

__BEGIN__	__EPS__
v	v
o	o
n	n

__BEGIN__	__EPS__
e	e
r	r
s	s
c	c
h	h
v	ü
t	tter
t	t

__BEGIN__	__EPS__
d	da
z	s

__BEGIN__	__EPS__
h	h
e	e
r	r
t	__EPS__
z	z
e	__EPS__

__BEGIN__	__EPS__
v	u
n	n
d	d

__BEGIN__	__EPS__
v	ü
b	b
e	e
r	r

__BEGIN__	__EPS__
d	d
i	i
c	c
h	h

__BEGIN__	__EPS__
a	a
l	l
z	s
o	o

__BEGIN__	__EPS__
t	t
a	a
g	g

__BEGIN__	__EPS__
g	g
r	r
o	o
z	ss
e	e

__BEGIN__	__EPS__
c	__EPS__
z	z
u	u

__BEGIN__	__EPS__
a	a
c	c
h	h

__BEGIN__	__EPS__
d	d
e	e
s	s

__BEGIN__	__EPS__
v	v
o	e
r	r
l	l
o	o
r	r

__BEGIN__	__EPS__
h	h
e	e
r	r
a	a
u	u
s	s

__BEGIN__	__EPS__
m	m
i	i
r	r

__BEGIN__	__EPS__
a	a
n	n

__BEGIN__	__EPS__
w	w
i	i
r	r

__BEGIN__	__EPS__
v	b
u	e
r	__EPS__
s	s
p	p
e	__EPS__
i	u
g	c
e	k
t	t

__BEGIN__	__EPS__
h	h
a	a
i	__EPS__
s	s
t	t

__BEGIN__	__EPS__
i	i
s	s
t	t

__BEGIN__	__EPS__
s	s
u	o
l	l
l	l
t	t

__BEGIN__	__EPS__
d	d
a	a
r	r
v	u
m	m
b	__EPS__

__BEGIN__	__EPS__
p	pf
l	l
e	e
g	g
e	e
r	r

__BEGIN__	__EPS__
s	s
v	oh
n	n

__BEGIN__	__EPS__
c	k
l	l
a	e
i	i
t	d

__BEGIN__	__EPS__
l	l
a	a
g	g

__BEGIN__	__EPS__
c	k
r	r
u	e
c	u
e	z

__BEGIN__	__EPS__
t	t
a	a
g	g

__BEGIN__	__EPS__
v	u
n	n
d	d

__BEGIN__	__EPS__
v	v
o	o
n	n

__BEGIN__	__EPS__
d	d
o	a

__BEGIN__	__EPS__
s	s
e	e
y	i

__BEGIN__	__EPS__
b	b
i	i
t	t
t	t
e	e
n	n

__BEGIN__	__EPS__
w	w
v	u
r	r
d	d
e	e

__BEGIN__	__EPS__
v	u
n	n
d	d

__BEGIN__	__EPS__
e	e
s	s

__BEGIN__	__EPS__
d	d
e	e
r	r

__BEGIN__	__EPS__
v	u
n	n
d	t
e	e
r	r

__BEGIN__	__EPS__
d	d
a	a
t	s

__BEGIN__	__EPS__
e	e
r	r
s	s
a	a
h	h
e	e
n	n

__BEGIN__	__EPS__
l	l
y	ie
p	be

__BEGIN__	__EPS__
a	o
b	b

__BEGIN__	__EPS__
h	h
i	ä
e	t
t	te

__BEGIN__	__EPS__
e	e
r	r
z	z
u	o
e	__EPS__
g	gs
e	t

__BEGIN__	__EPS__
i	i
n	n
n	n
i	i
g	g
k	__EPS__
l	l
i	i
c	c
h	h
e	e
m	m

__BEGIN__	__EPS__
h	h
i	i
e	er

__BEGIN__	__EPS__
v	u
n	n
d	d

__BEGIN__	__EPS__
f	f
r	r
a	a
g	g
t	t

__BEGIN__	__EPS__
m	m
i	i
t	t

__BEGIN__	__EPS__
s	s
e	e
i	i
n	n

__BEGIN__	__EPS__
d	d
i	i
e	e

__BEGIN__	__EPS__
l	l
e	e
i	i
c	c
h	h
n	n
a	a
m	m
b	__EPS__

__BEGIN__	__EPS__
g	g
e	e
t	t
a	a
n	n

__BEGIN__	__EPS__
v	f
r	r
a	a
g	g
h	__EPS__
e	__EPS__
d	t
e	e

__BEGIN__	__EPS__
e	e
r	r

__BEGIN__	__EPS__
i	ih
m	m

__BEGIN__	__EPS__
m	m
a	a
n	nn

__BEGIN__	__EPS__
a	a
i	__EPS__
n	n

__BEGIN__	__EPS__
w	w
a	e
i	i
z	s
z	s

__BEGIN__	__EPS__
m	m
e	e
i	i
n	n
e	e
n	m

__BEGIN__	__EPS__
w	w
y	i
r	r

__BEGIN__	__EPS__
m	m
e	e
i	i
n	n
e	e
r	r

__BEGIN__	__EPS__
p	p
e	e
t	t
e	r
r	us

__BEGIN__	__EPS__
s	s
t	t
u	u
n	n
d	d
e	e
n	n

__BEGIN__	__EPS__
d	d
i	i
e	e

__BEGIN__	__EPS__
n	n
a	a
c	c
h	h

__BEGIN__	__EPS__
i	ih
m	m

__BEGIN__	__EPS__
g	g
e	e
f	f
r	r
e	e
w	u
t	t

__BEGIN__	__EPS__
g	g
e	e
h	h
o	ö
r	r
i	__EPS__
t	t

__BEGIN__	__EPS__
n	n
u	un

__BEGIN__	__EPS__
o	o
b	b

__BEGIN__	__EPS__
w	w
a	a
r	r
e	e
n	n

__BEGIN__	__EPS__
h	h
a	a
i	__EPS__
t	t

__BEGIN__	__EPS__
s	s
c	c
h	h
i	e
j	i
n	n

__BEGIN__	__EPS__
m	m
i	i
r	r

__BEGIN__	__EPS__
c	k
h	__EPS__
i	i
n	n
d	d

__BEGIN__	__EPS__
v	v
o	o
n	n

__BEGIN__	__EPS__
d	d
i	i
e	e

__BEGIN__	__EPS__
i	i
c	c
h	h

__BEGIN__	__EPS__
s	s
o	o
l	ll
d	t
e	e

__BEGIN__	ge
s	r
m	u
a	c
k	h

__BEGIN__	__EPS__
d	d
o	a

__BEGIN__	__EPS__
h	h
e	e
r	r
t	__EPS__
z	z

__BEGIN__	__EPS__
h	h
e	a
t	t

__BEGIN__	__EPS__
s	s
o	o
l	l

__BEGIN__	__EPS__
w	w
i	il
l	l

__BEGIN__	__EPS__
w	w
o	o

__BEGIN__	__EPS__
g	w
e	__EPS__
w	a
e	h
r	rha
l	f
i	t
c	i
h	g

__BEGIN__	__EPS__
w	w
e	e
n	nn

__BEGIN__	__EPS__
m	m
a	a
l	l
e	__EPS__

__BEGIN__	__EPS__
w	w
a	a
r	r
d	d

__BEGIN__	__EPS__
a	e
i	i
n	n
e	e
r	r

__BEGIN__	__EPS__
p	b
i	i
t	tt
e	e
r	r
l	l
i	i
c	c
h	h
e	__EPS__
n	__EPS__

__BEGIN__	__EPS__
h	h
i	i
n	n
a	a
b	b
e	__EPS__

__BEGIN__	__EPS__
v	v
i	ie
l	l

__BEGIN__	__EPS__
d	d
i	i
e	e

__BEGIN__	__EPS__
w	w
e	e
i	i
p	b

__BEGIN__	__EPS__
v	u
m	m
h	h
a	a
n	n
g	g
k	__EPS__

__BEGIN__	__EPS__
v	u
n	n
n	d

__BEGIN__	__EPS__
m	m
e	e
n	n
s	s
c	c
h	h
l	l
i	i
c	c
h	h
e	e
r	r

__BEGIN__	__EPS__
p	p
y	i
l	l
a	a
t	t
u	u
s	s

__BEGIN__	__EPS__
p	p
i	i
l	l
a	a
t	t
u	u
s	s

__BEGIN__	__EPS__
d	d
e	e
r	r

__BEGIN__	__EPS__
k	k
i	i
n	n
d	d

__BEGIN__	__EPS__
e	e
r	r

__BEGIN__	__EPS__
n	n
u	un

__BEGIN__	__EPS__
s	s
p	p
r	r
a	a
c	c
h	h

__BEGIN__	__EPS__
a	a
l	l
z	s

__BEGIN__	__EPS__
v	u
n	n
d	d

__BEGIN__	__EPS__
s	s
t	t
a	a
n	n
d	d

__BEGIN__	__EPS__
e	t
r	ö
t	t
o	e
t	te

__BEGIN__	__EPS__
d	d
r	r
v	üc
k	k
e	__EPS__
t	t

__BEGIN__	__EPS__
v	u
n	n
d	d

__BEGIN__	__EPS__
d	d
e	e
r	r

__BEGIN__	__EPS__
l	le
a	i
t	t
e	e
r	r

__BEGIN__	__EPS__
d	d
o	a

__BEGIN__	__EPS__
d	d
o	a
e	__EPS__

__BEGIN__	__EPS__
c	__EPS__
z	z
u	u

__BEGIN__	__EPS__
o	oh

__BEGIN__	__EPS__
v	ü
b	b
e	e
r	r

__BEGIN__	__EPS__
f	f
ü	ü
r	r
s	s
t	t
e	e
n	n

__BEGIN__	__EPS__
v	f
o	ü
r	r
c	c
h	h
t	tete

__BEGIN__	__EPS__
k	k
u	ü
s	ss
t	t
e	e

__BEGIN__	__EPS__
a	a
l	l
z	s
o	o

__BEGIN__	__EPS__
s	s
y	ie

__BEGIN__	__EPS__
v	v
e	e
r	r
l	l
a	__EPS__
e	e
u	u
g	g
e	__EPS__
n	ne
t	t

__BEGIN__	__EPS__
s	s
u	o
l	l
d	lt
e	e

__BEGIN__	__EPS__
v	u
n	n
d	d

__BEGIN__	__EPS__
a	e
i	i
n	n

__BEGIN__	__EPS__
k	k
i	i
n	n
d	d

__BEGIN__	d
u	u

__BEGIN__	__EPS__
s	se
y	i
m	n
e	em

__BEGIN__	__EPS__
d	d
o	a

__BEGIN__	__EPS__
s	s
t	t
a	e
i	i
n	n

__BEGIN__	__EPS__
a	a
l	ll

__BEGIN__	__EPS__
d	d
a	as
z	s

__BEGIN__	__EPS__
d	d
a	a

__BEGIN__	__EPS__
e	e
r	r
s	s
c	c
h	h
r	r
a	e
c	c
h	k
t	t
e	e
n	n

__BEGIN__	__EPS__
d	d
i	i
e	e

__BEGIN__	__EPS__
s	s
y	ie

__BEGIN__	__EPS__
d	d
a	a
z	ss

__BEGIN__	__EPS__
t	t
r	r
u	u
g	g
s	s
t	t

__BEGIN__	__EPS__
g	g
r	r
a	a
m	m

__BEGIN__	__EPS__
y	ih
r	r

__BEGIN__	__EPS__
o	oh

__BEGIN__	__EPS__
h	h
a	a
t	t

__BEGIN__	__EPS__
v	u
n	n
d	d

__BEGIN__	__EPS__
i	i
s	s
t	t

__BEGIN__	__EPS__
b	b
r	r
o	a
c	c
h	h
t	te

__BEGIN__	__EPS__
t	z
e	ei
k	ch
e	e
n	n
e	__EPS__

__BEGIN__	__EPS__
s	s
o	o

__BEGIN__	__EPS__
d	d
o	o
r	r
r	__EPS__
e	__EPS__
n	n
e	e
n	n

__BEGIN__	__EPS__
v	v
o	o
n	n

__BEGIN__	__EPS__
d	d
e	e
r	r

__BEGIN__	__EPS__
k	k
y	i
n	n
t	d

__BEGIN__	__EPS__
s	s
p	p
r	r
a	a
c	c
h	h
e	e
n	n

__BEGIN__	__EPS__
w	w
a	a
r	r
t	d

__BEGIN__	__EPS__
s	s
o	o
u	l
l	l
t	t

__BEGIN__	__EPS__
f	f
u	ü
r	r
s	s
t	t
e	e
n	n

__BEGIN__	__EPS__
d	d
e	e
s	s

__BEGIN__	__EPS__
d	da
z	ss

__BEGIN__	__EPS__
d	d
a	a
r	r
v	u
m	m
b	__EPS__

__BEGIN__	__EPS__
a	a
u	u
c	c
h	h

__BEGIN__	__EPS__
a	a
l	l
s	s
o	o

__BEGIN__	__EPS__
r	r
e	e
c	c
h	h
t	t

__BEGIN__	__EPS__
k	__EPS__
i	__EPS__
n	__EPS__
t	__EPS__
s	s
a	__EPS__
e	e
l	l
i	i
g	g
s	s
t	te

__BEGIN__	__EPS__
e	e
r	r
p	b
i	__EPS__
d	__EPS__
e	e
m	b
t	te

__BEGIN__	__EPS__
g	g
a	a
r	r

__BEGIN__	__EPS__
w	w
a	a
r	r
e	e
n	n

__BEGIN__	__EPS__
h	h
a	a
u	u
b	p
t	t

__BEGIN__	__EPS__
s	s
c	c
h	h
r	r
i	i
j	e
f	b
f	s
t	t

__BEGIN__	__EPS__
s	s
o	oh
n	n

__BEGIN__	__EPS__
h	h
i	i
e	e
s	s
z	s

__BEGIN__	__EPS__
h	h
e	e
r	r

__BEGIN__	__EPS__
m	m
a	a
r	r
i	i
a	a

__BEGIN__	__EPS__
d	d
a	a
t	s

__BEGIN__	__EPS__
a	e
i	i
n	n
e	e
n	n

__BEGIN__	__EPS__
e	e
i	i
n	n

__BEGIN__	__EPS__
j	j
u	u
d	den

__BEGIN__	__EPS__
g	g
e	e
w	w
a	a
n	n
d	d
e	e
l	l
t	t

__BEGIN__	__EPS__
i	i
s	s
t	t

__BEGIN__	__EPS__
w	w
u	u
r	r
d	d
e	e
n	n

__BEGIN__	__EPS__
i	j
o	u
e	__EPS__
d	d
e	e
n	n

__BEGIN__	__EPS__
m	m
u	ü
t	t
t	t
e	e
r	r
l	l
i	i
c	c
h	h
e	e
s	s
z	__EPS__

__BEGIN__	__EPS__
d	d
e	e
n	n

__BEGIN__	__EPS__
g	__EPS__
e	__EPS__
s	s
c	c
h	h
r	r
i	i
f	f
t	t

__BEGIN__	__EPS__
k	k
i	i
n	n
d	d

__BEGIN__	__EPS__
m	m
e	e
i	i
n	n
e	e
r	r

__BEGIN__	__EPS__
q	k
u	__EPS__
o	a
m	m
e	e
n	n

__BEGIN__	__EPS__
d	d
e	e
r	r

__BEGIN__	__EPS__
v	f
i	i
e	e
l	l

__BEGIN__	__EPS__
g	g
o	ot
t	t
e	e
s	s

__BEGIN__	__EPS__
e	e
r	r

__BEGIN__	__EPS__
d	d
e	e
r	r

__BEGIN__	__EPS__
e	u
e	n
n	d

__BEGIN__	__EPS__
w	w
e	ah
r	r
l	l
i	i
c	c
h	h
e	__EPS__
n	__EPS__

__BEGIN__	__EPS__
m	m
i	i
t	t

__BEGIN__	__EPS__
k	g
v	e
i	s
n	ch
n	l
e	echt

__BEGIN__	__EPS__
i	i
c	c
h	h

__BEGIN__	__EPS__
v	u
n	n
d	d

__BEGIN__	__EPS__
v	v
i	ie
l	l

__BEGIN__	__EPS__
d	d
e	e
n	m

__BEGIN__	__EPS__
w	w
i	i
r	r

__BEGIN__	__EPS__
t	__EPS__
z	z
o	u

__BEGIN__	__EPS__
v	v
i	ie
l	l

__BEGIN__	__EPS__
v	u
n	n
d	d

__BEGIN__	__EPS__
v	u
n	n
d	d

__BEGIN__	__EPS__
e	e
r	r

__BEGIN__	__EPS__
t	t
o	o
t	t
e	e
n	n

__BEGIN__	__EPS__
v	u
n	n
d	d

__BEGIN__	__EPS__
e	e
n	m
p	p
f	f
a	a
c	n
h	g
e	e
n	n

__BEGIN__	__EPS__
d	d
i	i
e	e

__BEGIN__	__EPS__
g	k
e	e
y	i
n	n

__BEGIN__	__EPS__
d	d
i	i
e	e

__BEGIN__	__EPS__
v	u
n	n
d	d

__BEGIN__	__EPS__
r	r
e	e
c	c
h	h
t	t

__BEGIN__	__EPS__
e	e
r	r
f	f
u	ü
i	__EPS__
l	l
l	l
e	__EPS__
t	t

__BEGIN__	__EPS__
n	n
i	i
e	m
m	m
e	e
r	r

__BEGIN__	__EPS__
e	e
r	r

__BEGIN__	__EPS__
s	s
o	o
g	__EPS__
e	__EPS__
t	__EPS__
a	l
n	c
e	__EPS__
r	h

__BEGIN__	__EPS__
d	d
o	a

__BEGIN__	__EPS__
s	se
i	i
n	n

__BEGIN__	__EPS__
c	__EPS__
z	z
u	u

__BEGIN__	__EPS__
w	w
e	e
g	g

__BEGIN__	__EPS__
o	o
w	w
e	eh

__BEGIN__	__EPS__
v	u
n	n
d	d

__BEGIN__	__EPS__
v	u
n	n
d	d

__BEGIN__	__EPS__
c	k
l	l
a	a
g	g
e	e
n	n

__BEGIN__	__EPS__
d	d
e	e
r	r

__BEGIN__	__EPS__
w	w
a	e
i	i
n	n
t	t

__BEGIN__	__EPS__
n	n
i	i
t	ch
t	t

__BEGIN__	__EPS__
m	m
e	e
i	i
n	n

__BEGIN__	__EPS__
a	oh
n	ne

__BEGIN__	__EPS__
m	me
y	i
n	n
e	e
m	m

__BEGIN__	__EPS__
e	e
r	r
f	f
u	ü
l	l
l	l
t	t

__BEGIN__	__EPS__
s	sch
w	w
e	e
s	s
t	t
r	__EPS__
a	e
n	r

__BEGIN__	__EPS__
d	d
e	e
r	r

__BEGIN__	__EPS__
s	s
a	o
l	l
l	l

__BEGIN__	__EPS__
v	u
n	n
u	ve
r	r
s	s
e	eh
r	r
t	t
e	e
s	s

__BEGIN__	__EPS__
n	n
o	o
c	c
h	h

__BEGIN__	__EPS__
s	s
c	c
h	h
o	ö
e	__EPS__
p	p
f	f
e	e
r	r

__BEGIN__	__EPS__
e	e
s	s
s	s
e	e
n	n

__BEGIN__	__EPS__
m	m
o	ö
e	__EPS__
c	c
h	h
t	te

__BEGIN__	__EPS__
a	a
l	l
s	s
o	o

__BEGIN__	__EPS__
v	v
o	o
r	r

__BEGIN__	__EPS__
g	g
e	e
l	l
e	e
e	__EPS__
f	b
f	__EPS__
d	t
e	e

__BEGIN__	__EPS__
v	v
u	o
r	r

__BEGIN__	__EPS__
c	k
h	__EPS__
i	i
n	n
d	d

__BEGIN__	__EPS__
s	s
i	i
j	e

__BEGIN__	__EPS__
d	d
i	i
e	e

__BEGIN__	__EPS__
s	s
p	p
r	r
e	e
i	__EPS__
e	__EPS__
c	c
h	he

__BEGIN__	__EPS__
e	e
y	i
n	n

__BEGIN__	__EPS__
g	__EPS__
e	__EPS__
s	s
a	a
c	__EPS__
h	h

__BEGIN__	__EPS__
s	s
o	o

__BEGIN__	__EPS__
s	s
i	i
e	e

__BEGIN__	__EPS__
n	n
a	ah
m	m

__BEGIN__	__EPS__
v	v
o	o
n	n

__BEGIN__	__EPS__
d	d
i	i
e	e

__BEGIN__	__EPS__
e	e
i	i
n	n

__BEGIN__	__EPS__
g	g
i	i
e	__EPS__
n	n
g	g
e	e
n	n

__BEGIN__	__EPS__
m	m
o	u
e	s
t	s

__BEGIN__	__EPS__
v	u
n	n
d	d

__BEGIN__	__EPS__
d	d
e	e
m	m

__BEGIN__	__EPS__
l	l
i	i
e	e
b	b
e	e

__BEGIN__	__EPS__
k	k
i	i
n	n
d	d

__BEGIN__	__EPS__
w	w
e	ä
r	r
i	e

__BEGIN__	__EPS__
m	m
e	e
i	i
n	n

__BEGIN__	__EPS__
g	g
a	a
n	n
c	__EPS__
z	z
e	e
s	s

__BEGIN__	__EPS__
d	d
o	a

__BEGIN__	__EPS__
t	__EPS__
z	z
v	u

__BEGIN__	__EPS__
g	g
e	e
w	w
a	a
l	l
t	t

__BEGIN__	__EPS__
e	e
s	s

__BEGIN__	__EPS__
c	k
l	l
a	a
g	g
e	e

__BEGIN__	__EPS__
v	u
n	n
d	d

__BEGIN__	__EPS__
a	a
l	l
l	l
e	e
r	r
l	l
i	i
e	e
b	b
s	st
e	e

__BEGIN__	__EPS__
i	i
n	n

__BEGIN__	__EPS__
d	d
i	i
r	r

__BEGIN__	__EPS__
b	b
e	e
r	r
g	g
h	__EPS__
e	e
n	n

__BEGIN__	__EPS__
m	m
e	e
n	n
s	s
c	c
h	h
e	e
n	n

__BEGIN__	__EPS__
b	b
e	e
r	r
i	i
c	c
h	h
t	tet

__BEGIN__	__EPS__
g	g
e	e
t	t
a	a
n	n

__BEGIN__	__EPS__
e	e
n	m
p	p
f	f
a	a
n	n
g	g
e	e
n	n

__BEGIN__	__EPS__
w	w
e	e
y	i
n	n

__BEGIN__	__EPS__
h	h
e	e
r	rre
n	n

__BEGIN__	__EPS__
v	u
n	n
d	d

__BEGIN__	__EPS__
s	sankt

__BEGIN__	__EPS__
a	a
n	n

__BEGIN__	__EPS__
s	s
t	t
u	ü
i	__EPS__
r	r
b	be

__BEGIN__	__EPS__
s	s
t	t
a	ad
t	t

__BEGIN__	__EPS__
i	ih
r	r
e	e
n	n

__BEGIN__	__EPS__
v	ü
b	b
e	e
r	r

__BEGIN__	__EPS__
i	ih
r	r

__BEGIN__	__EPS__
g	g
r	r
o	o
e	__EPS__
z	s
z	s
i	e
u	__EPS__

__BEGIN__	__EPS__
m	m
i	i
t	t

__BEGIN__	__EPS__
g	g
a	eh
i	e
n	n

__BEGIN__	__EPS__
m	m
i	i
c	c
h	h

__BEGIN__	__EPS__
u	ü
b	b
e	e
r	r

__BEGIN__	__EPS__
m	m
i	i
e	__EPS__
r	r

__BEGIN__	__EPS__
d	d
e	e
s	s

__BEGIN__	__EPS__
v	u
n	n
d	d

__BEGIN__	__EPS__
e	e
z	s

__BEGIN__	__EPS__
l	l
i	i
e	e
b	b
e	e
s	s

__BEGIN__	__EPS__
s	se
y	i
n	n
e	e
r	r

__BEGIN__	__EPS__
a	a
n	n

__BEGIN__	__EPS__
a	a
m	n
p	b
l	l
i	i
c	c
h	__EPS__
k	k
s	s

__BEGIN__	__EPS__
c	k
r	r
v	__EPS__
i	e
t	u
z	z

__BEGIN__	__EPS__
g	g
e	e
s	s
c	c
h	h
a	a
c	__EPS__
h	h

__BEGIN__	__EPS__
p	p
y	i
l	l
a	a
t	t
o	us

__BEGIN__	__EPS__
m	m
a	a
n	n

__BEGIN__	__EPS__
s	s
o	o

__BEGIN__	__EPS__
m	m
i	i
c	c
h	h

__BEGIN__	__EPS__
s	sch
w	w
e	e
s	s
t	t
e	e
r	r

__BEGIN__	__EPS__
e	e
i	i
n	n

__BEGIN__	__EPS__
a	a
u	u
f	f
f	__EPS__

__BEGIN__	__EPS__
i	ih
m	m

__BEGIN__	__EPS__
d	d
i	i
e	e

__BEGIN__	__EPS__
s	s
e	e
l	l
b	b
e	e
n	n

__BEGIN__	__EPS__
h	h
e	a
t	t
t	t
e	e

__BEGIN__	__EPS__
i	j
u	ü
n	n
g	g
e	e
r	r

__BEGIN__	__EPS__
v	u
n	n
d	d

__BEGIN__	__EPS__
d	d
o	a

__BEGIN__	__EPS__
d	d
e	e
r	r
s	s
e	e
l	l
u	b
e	e
r	n

__BEGIN__	__EPS__
p	p
i	i
l	l
a	a
t	t
u	u
s	s

__BEGIN__	__EPS__
s	sch
w	w
u	o
r	r

__BEGIN__	__EPS__
v	u
n	n
r	r
e	e
c	c
h	h
t	t

__BEGIN__	__EPS__
v	u
n	n
d	d

__BEGIN__	__EPS__
n	n
i	i
c	c
h	h
t	t

__BEGIN__	__EPS__
w	w
a	a
s	r

__BEGIN__	__EPS__
d	d
e	e
r	r

__BEGIN__	__EPS__
a	a
l	l
l	l
e	e
m	m

__BEGIN__	__EPS__
a	a
n	n

__BEGIN__	__EPS__
s	s
a	a
g	g
e	e

__BEGIN__	__EPS__
o	o
d	d
e	e
r	r

__BEGIN__	__EPS__
v	u
n	n
d	d

__BEGIN__	__EPS__
m	m
i	i
r	r

__BEGIN__	__EPS__
d	d
a	a
s	ss

__BEGIN__	__EPS__
a	a
b	b

__BEGIN__	__EPS__
h	h
e	e
r	r
c	__EPS__
z	z

__BEGIN__	__EPS__
d	t
r	r
e	e
i	i
f	b
f	e

__BEGIN__	__EPS__
b	b
e	e
r	r
g	g
e	e
n	n

__BEGIN__	__EPS__
v	v
o	o
n	n

__BEGIN__	__EPS__
d	d
a	a
z	ss

__BEGIN__	__EPS__
m	me
i	i
n	n

__BEGIN__	__EPS__
y	ih
n	n

__BEGIN__	__EPS__
m	me
y	i
n	n

__BEGIN__	__EPS__
y	ih
r	r
e	e
n	n

__BEGIN__	__EPS__
g	g
e	e
s	s
t	t
o	o
c	c
h	h
e	e
n	n

__BEGIN__	__EPS__
s	s
o	oh
n	n

__BEGIN__	__EPS__
d	d
e	e
m	m

__BEGIN__	__EPS__
n	n
u	un

__BEGIN__	__EPS__
l	l
i	i
e	e
b	b
e	e
r	r

__BEGIN__	__EPS__
w	w
a	a
n	n
g	g
e	e
n	n

__BEGIN__	__EPS__
d	d
e	e
r	r

__BEGIN__	__EPS__
e	e
y	i
n	n

__BEGIN__	d
w	u

__BEGIN__	__EPS__
s	s
p	p
r	r
a	a
c	c
h	h

__BEGIN__	__EPS__
s	sch
w	w
u	o
r	r

__BEGIN__	__EPS__
y	ih
n	n

__BEGIN__	__EPS__
v	f
a	a
l	l
s	s
c	c
h	h
e	e
n	n

__BEGIN__	__EPS__
k	k
o	ö
n	n
i	i
g	g

__BEGIN__	__EPS__
f	f
u	ü
r	r

__BEGIN__	__EPS__
s	s
y	ie

__BEGIN__	__EPS__
s	s
p	p
r	r
a	a
c	c
h	h

__BEGIN__	__EPS__
m	m
i	i
c	c
h	h

__BEGIN__	__EPS__
d	d
r	re
i	ie
n	n

__BEGIN__	__EPS__
i	i
c	ch

__BEGIN__	__EPS__
l	l
i	i
n	n
c	__EPS__
k	k
e	e
n	n

__BEGIN__	__EPS__
d	d
v	u

__BEGIN__	__EPS__
m	m
a	a
g	g
d	d
a	a
l	l
e	e
n	n
a	a

__BEGIN__	__EPS__
a	a
l	l
s	s
o	o

__BEGIN__	__EPS__
k	k
a	a
m	m

__BEGIN__	__EPS__
i	i
c	c
h	h

__BEGIN__	__EPS__
s	sch
w	w
e	e
r	r
t	t

__BEGIN__	__EPS__
y	ih
m	m

__BEGIN__	__EPS__
o	au
c	c
h	h

__BEGIN__	__EPS__
w	w
o	o
u	l
l	l
d	t
e	e

__BEGIN__	__EPS__
e	e
r	r
l	le
i	i
d	d
e	e
n	n

__BEGIN__	__EPS__
f	f
v	ü
e	__EPS__
r	r

__BEGIN__	__EPS__
d	d
a	a

__BEGIN__	__EPS__
v	v
o	o
n	n

__BEGIN__	__EPS__
s	s
u	oh
n	n

__BEGIN__	__EPS__
k	k
u	ö
n	n
i	i
g	g

__BEGIN__	__EPS__
d	d
e	e
m	m

__BEGIN__	__EPS__
v	v
o	ol
l	l
b	b
r	r
a	a
c	c
h	h
t	t

__BEGIN__	__EPS__
a	e
i	i
n	n
e	e
m	m

__BEGIN__	__EPS__
s	s
u	o
s	__EPS__

__BEGIN__	__EPS__
e	e
y	i
n	n

__BEGIN__	__EPS__
i	u
n	n
d	d

__BEGIN__	__EPS__
i	i
c	c
h	h

__BEGIN__	__EPS__
s	s
c	c
h	h
r	r
u	__EPS__
i	i
w	__EPS__
e	e
n	n
d	__EPS__

__BEGIN__	__EPS__
w	w
a	a
s	__EPS__
z	r

__BEGIN__	__EPS__
g	g
r	r
e	ä
u	u
l	l
i	i
c	c
h	h
e	e
r	r

__BEGIN__	__EPS__
s	s
y	i
m	m
y	e
a	o
n	n
y	__EPS__
s	s

__BEGIN__	__EPS__
m	m
a	a
r	r
i	i
a	a

__BEGIN__	__EPS__
p	b
r	r
a	a
c	c
h	hte

__BEGIN__	__EPS__
d	d
a	a

__BEGIN__	__EPS__
b	b
a	a
t	t

__BEGIN__	__EPS__
s	s
c	c
h	h
w	w
o	__EPS__
e	e
s	s
t	t
e	e
r	r

__BEGIN__	__EPS__
k	k
i	i
n	n
t	d

__BEGIN__	__EPS__
y	i
m	h
e	m

__BEGIN__	__EPS__
i	i
s	st

__BEGIN__	__EPS__
w	w
i	i
r	r

__BEGIN__	__EPS__
v	v
e	e
r	r
d	d
e	e
r	r
u	b
e	e
n	n

__BEGIN__	__EPS__
s	s
p	p
r	r
a	a
c	c
h	h

__BEGIN__	__EPS__
d	d
a	a
s	ss

__BEGIN__	__EPS__
m	me
i	i
n	n

__BEGIN__	__EPS__
h	h
i	i
n	n

__BEGIN__	__EPS__
k	k
i	i
n	n
d	d

__BEGIN__	__EPS__
o	o
w	w
e	eh

__BEGIN__	__EPS__
e	e
r	r
h	h
e	ä
r	r
t	t
e	e
t	t

__BEGIN__	__EPS__
s	s
t	t
u	u
n	n
t	de

__BEGIN__	__EPS__
d	d
e	e
i	i
n	n

__BEGIN__	__EPS__
m	m
e	e
i	i
n	n

__BEGIN__	__EPS__
c	k
h	__EPS__
r	r
a	e
w	u
c	__EPS__
z	z
e	e

__BEGIN__	__EPS__
v	v
o	o
n	n

__BEGIN__	__EPS__
i	ih
n	n

__BEGIN__	__EPS__
v	u
n	n
d	d

__BEGIN__	__EPS__
d	d
e	e
r	r

__BEGIN__	__EPS__
v	u
n	n
d	d

__BEGIN__	__EPS__
d	d
a	a
r	__EPS__
n	n
a	a
c	c
h	h

__BEGIN__	__EPS__
v	u
n	n
d	d

__BEGIN__	__EPS__
d	d
a	a
r	__EPS__
n	n
a	a
c	c
h	h

__BEGIN__	__EPS__
s	s
i	ie

__BEGIN__	__EPS__
s	s
t	t
a	a
t	tt

__BEGIN__	__EPS__
s	s
e	e
i	i
n	n

__BEGIN__	__EPS__
m	m
e	e
i	i
n	n
e	e
s	s

__BEGIN__	__EPS__
i	ih
n	n

__BEGIN__	__EPS__
a	e
i	i
n	n

__BEGIN__	__EPS__
p	p
i	i
l	l
a	a
t	t
o	us

__BEGIN__	__EPS__
s	sch
w	w
e	e
r	r
t	t
e	er
n	n

__BEGIN__	__EPS__
s	s
e	e
l	l
b	b
e	e
n	n

__BEGIN__	__EPS__
s	se
y	i

__BEGIN__	__EPS__
d	d
a	a
z	ss

__BEGIN__	__EPS__
k	k
i	i
n	n
t	d

__BEGIN__	__EPS__
s	s
o	oh
n	n

__BEGIN__	__EPS__
i	i
s	s
t	t

__BEGIN__	__EPS__
i	ih
n	n

__BEGIN__	__EPS__
f	f
r	r
a	a
w	u
e	e
n	n

__BEGIN__	__EPS__
v	u
n	n
d	d

__BEGIN__	__EPS__
b	b
r	r
a	a
i	__EPS__
c	c
h	h
t	t
e	e

__BEGIN__	__EPS__
d	d
o	a

__BEGIN__	__EPS__
f	f
u	u
o	__EPS__
s	s
z	s

__BEGIN__	__EPS__
y	ih
m	m

__BEGIN__	__EPS__
m	me
y	i
n	n

__BEGIN__	__EPS__
g	g
l	le
i	i
c	c
h	h
e	e
r	r

__BEGIN__	__EPS__
d	d
a	a
z	s

__BEGIN__	__EPS__
y	j
e	ä
m	mm
e	e
r	r
l	l
i	i
c	c
h	h

__BEGIN__	__EPS__
d	d
o	a

__BEGIN__	__EPS__
s	s
e	e
r	h
e	r

__BEGIN__	__EPS__
h	h
i	i
n	n
a	a
u	u
s	s
z	__EPS__

__BEGIN__	__EPS__
e	e
r	r
d	d
e	e
n	n

__BEGIN__	__EPS__
m	m
i	i
t	t

__BEGIN__	__EPS__
r	r
o	u
i	__EPS__
f	f
f	__EPS__
e	e
n	n

__BEGIN__	__EPS__
d	d
o	a

__BEGIN__	__EPS__
m	m
o	o
c	c
h	h
t	te

__BEGIN__	__EPS__
d	d
a	a

__BEGIN__	__EPS__
d	d
a	a
t	ss

__BEGIN__	__EPS__
r	__EPS__
e	__EPS__
c	__EPS__
h	__EPS__
t	__EPS__
s	s
c	c
h	h
u	u
l	l
d	d
i	i
g	g
e	e
n	n

__BEGIN__	__EPS__
s	se
i	i
n	n

__BEGIN__	__EPS__
t	t
r	r
o	o
i	__EPS__
s	s
t	t

__BEGIN__	__EPS__
m	me
i	i
n	n

__BEGIN__	__EPS__
l	l
a	a
z	s
z	s
e	e
n	n

__BEGIN__	__EPS__
w	w
i	i
d	d
e	e
r	r

__BEGIN__	__EPS__
i	ih
n	n

__BEGIN__	__EPS__
c	k
h	__EPS__
a	a
m	m

__BEGIN__	__EPS__
d	d
o	a

__BEGIN__	__EPS__
m	m
i	i
t	t

__BEGIN__	__EPS__
l	l
i	i
e	e
b	b
e	e
s	s

__BEGIN__	__EPS__
e	u
n	nd

__BEGIN__	__EPS__
d	d
e	e
r	r

__BEGIN__	__EPS__
e	e
i	i
n	n
e	e
n	n

__BEGIN__	__EPS__
g	g
e	e
t	t
r	r
o	ö
s	s
t	tet

__BEGIN__	__EPS__
y	ih
m	m

__BEGIN__	__EPS__
g	g
a	a
n	n
t	__EPS__
z	z

__BEGIN__	__EPS__
n	ni
e	e
d	d
i	e
r	r
f	f
e	ä
l	l
l	l
i	__EPS__
s	s
t	t

__BEGIN__	__EPS__
w	w
a	an
n	n

__BEGIN__	__EPS__
v	vi
e	e
l	l
e	e

__BEGIN__	__EPS__
s	s
o	ol
l	l
t	t
e	e

__BEGIN__	__EPS__
g	__EPS__
e	__EPS__
t	t
r	r
a	a
g	g
e	e
n	n

__BEGIN__	__EPS__
d	d
e	e
r	r

__BEGIN__	__EPS__
n	n
a	ach

__BEGIN__	__EPS__
m	m
i	i
t	t

__BEGIN__	__EPS__
v	u
n	n
d	d

__BEGIN__	__EPS__
w	w
e	ä
r	re

__BEGIN__	__EPS__
p	p
a	e
r	ss
a	a
s	c
u	h
e	__EPS__

__BEGIN__	__EPS__
h	h
a	a
n	n
t	d

__BEGIN__	__EPS__
s	s
o	o

__BEGIN__	__EPS__
l	l
i	ie
b	b
e	e
w	__EPS__

__BEGIN__	__EPS__
g	g
e	e
d	t
a	a
i	__EPS__
n	n

__BEGIN__	__EPS__
h	h
a	a
i	be
n	n

__BEGIN__	__EPS__
t	t
h	__EPS__
ü	u

__BEGIN__	__EPS__
s	s
u	ü
e	__EPS__
s	s
z	s
e	e
r	r

__BEGIN__	__EPS__
o	o
d	d
e	e
r	r

__BEGIN__	__EPS__
l	l
a	a
n	n
g	g

__BEGIN__	__EPS__
a	a
n	n

__BEGIN__	__EPS__
i	ih
n	n

__BEGIN__	__EPS__
w	w
a	a
r	r
e	e
n	n

__BEGIN__	__EPS__
s	s
a	a
n	nk
t	t

__BEGIN__	__EPS__
d	d
o	a

__BEGIN__	__EPS__
g	g
o	o
t	tt

__BEGIN__	__EPS__
e	e
r	r

__BEGIN__	__EPS__
i	j
e	e
g	g
l	l
e	__EPS__
y	i
c	c
h	h
e	e
r	r

__BEGIN__	__EPS__
n	n
i	i
c	c
h	h
t	t

__BEGIN__	__EPS__
d	d
i	i
e	__EPS__
r	r

__BEGIN__	__EPS__
v	u
n	n
d	d

__BEGIN__	__EPS__
e	e
r	r

__BEGIN__	__EPS__
e	e
y	i
n	n

__BEGIN__	__EPS__
o	a
u	u
g	g
e	e
n	n

__BEGIN__	__EPS__
w	w
a	a
i	__EPS__
r	r
u	u
m	m
b	__EPS__

__BEGIN__	__EPS__
e	e
y	i
n	n

__BEGIN__	__EPS__
d	d
o	a

__BEGIN__	__EPS__
h	h
e	a
t	t
t	t
e	e
n	n

__BEGIN__	__EPS__
d	d
i	i
r	r

__BEGIN__	__EPS__
d	d
e	e
r	r

__BEGIN__	__EPS__
d	d
a	as
s	s

__BEGIN__	__EPS__
m	l
i	i
n	e
n	b
e	e
k	v
l	o
i	l
c	__EPS__
h	l
e	e
s	s

__BEGIN__	__EPS__
a	a
n	n
s	s
e	e
l	l
m	m
e	__EPS__

__BEGIN__	__EPS__
h	h
o	ö
r	re

__BEGIN__	__EPS__
d	d
e	e
r	r

__BEGIN__	__EPS__
s	s
a	a
h	h
e	e
n	n

__BEGIN__	__EPS__
v	v
o	o
r	r

__BEGIN__	__EPS__
m	m
e	e
i	i
n	n
e	e
r	r

__BEGIN__	__EPS__
f	f
i	i
e	e
l	l

__BEGIN__	__EPS__
d	d
i	ie
r	se
r	r

__BEGIN__	__EPS__
k	k
i	i
n	n
t	d

__BEGIN__	__EPS__
i	ih
n	n

__BEGIN__	__EPS__
s	s
y	ie

__BEGIN__	__EPS__
w	w
o	o
l	ll
t	t

__BEGIN__	__EPS__
d	d
o	a

__BEGIN__	__EPS__
w	w
e	eh

__BEGIN__	__EPS__
a	a
l	l
l	l
e	e
n	n

__BEGIN__	__EPS__
w	w
o	o
l	h
l	l

__BEGIN__	__EPS__
e	e
r	r

__BEGIN__	__EPS__
e	e
s	s

__BEGIN__	__EPS__
h	h
e	e
r	r
c	__EPS__
z	z
e	e
n	n

__BEGIN__	__EPS__
d	d
y	i
r	r

__BEGIN__	__EPS__
v	u
n	n
d	d

__BEGIN__	__EPS__
d	d
i	i
e	e

__BEGIN__	__EPS__
g	g
e	e
b	b
e	e
n	n

__BEGIN__	__EPS__
p	pf
e	e
n	nn
i	i
g	g

__BEGIN__	__EPS__
g	g
e	e
t	t
h	__EPS__
a	a
n	n

__BEGIN__	__EPS__
d	d
i	i
c	c
h	h

__BEGIN__	__EPS__
a	a
n	n

__BEGIN__	__EPS__
h	h
a	a
b	b
e	e

__BEGIN__	__EPS__
j	j
e	äm
m	m
e	e
r	r
l	l
i	i
c	c
h	h
e	e
n	n

__BEGIN__	__EPS__
v	v
o	o
n	n

__BEGIN__	__EPS__
v	v
i	ie
l	l

__BEGIN__	__EPS__
d	d
e	e
m	m

__BEGIN__	__EPS__
l	l
i	i
e	e
f	__EPS__
f	f

__BEGIN__	__EPS__
d	d
o	a

__BEGIN__	__EPS__
d	d
o	a

__BEGIN__	__EPS__
c	__EPS__
h	k
l	l
a	e
y	i
d	d

__BEGIN__	__EPS__
z	t
a	r
c	ä
h	n
e	e
r	__EPS__
n	n

__BEGIN__	__EPS__
i	e
r	r
g	g
e	ehe
n	n

__BEGIN__	__EPS__
s	s
t	t
i	ü
r	r
b	be

__BEGIN__	__EPS__
w	w
o	o
l	l
l	l
e	e
n	n
t	__EPS__

__BEGIN__	__EPS__
v	v
e	e
r	r
s	s
p	p
e	e
r	r
t	r
t	t
e	e
n	n

__BEGIN__	__EPS__
n	n
i	ich
t	t

__BEGIN__	__EPS__
v	f
u	ü
o	h
r	r
t	t
e	e

__BEGIN__	__EPS__
e	e
r	r
b	b
a	a
r	r
m	m
e	e
n	n

__BEGIN__	__EPS__
d	d
o	o
c	c
h	h

__BEGIN__	__EPS__
s	s
e	ec
h	h
s	s
t	t
e	e
n	n

__BEGIN__	__EPS__
i	ih
n	n

__BEGIN__	__EPS__
g	g
a	a
n	n
t	__EPS__
z	z
e	e
r	r

__BEGIN__	__EPS__
s	k
i	r
e	a
c	n
h	k
e	e
n	n

__BEGIN__	__EPS__
k	k
u	ü
s	ss
t	t

__BEGIN__	__EPS__
s	s
y	ie

__BEGIN__	__EPS__
d	d
v	i
i	e

__BEGIN__	__EPS__
h	h
i	i
e	e
s	ss

__BEGIN__	__EPS__
i	i
c	c
h	h

__BEGIN__	__EPS__
d	d
e	e
r	r

__BEGIN__	__EPS__
f	f
u	ü
o	h
r	r
t	t
e	e
n	n

__BEGIN__	__EPS__
d	d
o	a

__BEGIN__	__EPS__
n	n
y	ie
d	d
e	e
r	r

__BEGIN__	__EPS__
i	i
c	ch

__BEGIN__	__EPS__
e	e
r	r

__BEGIN__	__EPS__
a	a
b	b
e	e
r	r

__BEGIN__	__EPS__
a	a
u	u
c	c
h	h

__BEGIN__	__EPS__
l	l
ü	e
t	u
t	te

__BEGIN__	__EPS__
e	e
r	r

__BEGIN__	__EPS__
m	m
e	e
i	i
n	n
e	e
n	m

__BEGIN__	__EPS__
e	e
u	u
c	c
h	h

__BEGIN__	__EPS__
n	n
o	a
c	c
h	h

__BEGIN__	__EPS__
s	s
i	i
b	b
i	i

__BEGIN__	__EPS__
s	se
i	i
n	n

__BEGIN__	__EPS__
m	m
i	i
t	t

__BEGIN__	__EPS__
b	b
a	a
r	r
m	m
h	h
e	e
r	r
c	__EPS__
z	z
e	ig
k	k
e	e
i	i
t	t

__BEGIN__	__EPS__
m	me
i	i
n	n

__BEGIN__	__EPS__
s	s
e	e
i	i
n	n
e	e
m	m

__BEGIN__	__EPS__
g	__EPS__
e	__EPS__
k	k
l	l
a	a
g	g
e	e
n	n

__BEGIN__	__EPS__
v	u
n	n
d	d

__BEGIN__	__EPS__
d	d
v	i
i	e

__BEGIN__	__EPS__
s	se
y	i
n	n

__BEGIN__	__EPS__
e	e
r	r

__BEGIN__	__EPS__
w	w
a	a
s	r

__BEGIN__	__EPS__
h	h
u	__EPS__
o	o
b	b
e	e
n	n
d	__EPS__

__BEGIN__	__EPS__
i	ih
m	m

__BEGIN__	__EPS__
k	k
e	e
i	i
n	n

__BEGIN__	__EPS__
i	i
c	c
h	h

__BEGIN__	__EPS__
c	__EPS__
z	z
u	u
o	__EPS__
s	s
a	a
m	mm
e	e
n	n

__BEGIN__	__EPS__
f	f
ü	ü
r	r

__BEGIN__	__EPS__
s	s
p	p
e	ee
r	r

__BEGIN__	__EPS__
v	u
n	n
s	s
e	e
r	r

__BEGIN__	__EPS__
s	s
t	t
u	ü
r	r
b	be

__BEGIN__	__EPS__
v	u
n	n
d	d

__BEGIN__	__EPS__
w	w
a	a
t	s

__BEGIN__	__EPS__
n	n
i	i
c	c
h	h
t	t

__BEGIN__	__EPS__
v	u
n	n
d	d

__BEGIN__	__EPS__
m	m
a	a
n	n

__BEGIN__	__EPS__
s	s
y	ie

__BEGIN__	__EPS__
m	m
o	u
i	s
s	s
t	t

__BEGIN__	__EPS__
m	me
i	i
n	n

__BEGIN__	__EPS__
m	m
a	a
n	n

__BEGIN__	__EPS__
d	d
e	e
r	r

__BEGIN__	__EPS__
h	h
o	ö
i	__EPS__
r	r
t	t

__BEGIN__	__EPS__
h	h
e	e
r	ra
v	u
z	s

__BEGIN__	__EPS__
m	m
i	i
t	t

__BEGIN__	__EPS__
a	a
u	u
f	f

__BEGIN__	__EPS__
e	e
r	r

__BEGIN__	__EPS__
d	d
a	a
s	s
z	s

__BEGIN__	__EPS__
v	u
n	n
d	d

__BEGIN__	__EPS__
b	b
i	i
s	s

__BEGIN__	__EPS__
d	d
i	i
e	e

__BEGIN__	__EPS__
b	b
i	i
s	s
t	t

__BEGIN__	__EPS__
d	d
a	a
z	s

__BEGIN__	__EPS__
s	s
y	ie

__BEGIN__	__EPS__
m	m
e	e
i	i
n	n

__BEGIN__	__EPS__
w	w
a	a
r	r
d	d

__BEGIN__	a
v	u
s	s

__BEGIN__	__EPS__
h	i
e	h
m	m

__BEGIN__	__EPS__
s	s
c	c
h	h
e	e
y	i
d	d
e	e
n	n

__BEGIN__	__EPS__
v	ü
b	b
e	e
r	r

__BEGIN__	__EPS__
d	d
a	a
s	ss

__BEGIN__	__EPS__
d	d
i	i
e	e

__BEGIN__	__EPS__
g	g
e	e
w	w
a	a
n	n
t	d

__BEGIN__	__EPS__
a	a
n	n
l	l
e	e
g	g
e	e
n	n

__BEGIN__	__EPS__
g	g
u	ö
n	nn
e	e
n	n

__BEGIN__	__EPS__
d	d
i	i
e	e

__BEGIN__	__EPS__
i	ih
r	r
e	e
n	n

__BEGIN__	__EPS__
h	h
e	e
r	rr

__BEGIN__	__EPS__
o	o
w	w
e	eh

__BEGIN__	__EPS__
o	o
f	f
t	t

__BEGIN__	__EPS__
a	a
u	u
c	c
h	h

__BEGIN__	__EPS__
d	d
a	a

__BEGIN__	__EPS__
h	h
e	e
r	r
r	r
e	e
n	n

__BEGIN__	__EPS__
n	n
e	eh
m	m
e	e
n	n

__BEGIN__	__EPS__
h	h
i	ä
e	t
t	te

__BEGIN__	__EPS__
d	d
a	a
n	nn

__BEGIN__	__EPS__
d	d
r	r
e	e
i	i
s	m
t	__EPS__
v	a
n	__EPS__
d	l

__BEGIN__	__EPS__
w	w
a	a
s	r

__BEGIN__	__EPS__
s	s
c	c
h	h
r	re
y	i
e	e
n	n
d	d
e	e

__BEGIN__	__EPS__
d	d
i	i
e	e
b	b
e	e
n	n

__BEGIN__	__EPS__
g	g
a	a
r	r

__BEGIN__	__EPS__
d	d
o	o
c	c
h	h

__BEGIN__	__EPS__
s	sch
n	ne
i	i
d	d
e	e
n	n

__BEGIN__	__EPS__
d	d
a	a

__BEGIN__	__EPS__
n	n
i	ich
t	t

__BEGIN__	__EPS__
s	s
a	a
g	g
e	e

__BEGIN__	__EPS__
e	e
r	r
l	l
o	ö
s	s
e	__EPS__
t	t

__BEGIN__	__EPS__
s	s
ü	ü
n	n
d	de

__BEGIN__	__EPS__
d	d
i	e
j	i
n	n
r	e
e	r

__BEGIN__	__EPS__
e	e
r	r

__BEGIN__	__EPS__
s	s
e	e
i	i
n	n

__BEGIN__	__EPS__
d	d
e	e
r	r

__BEGIN__	__EPS__
i	ih
m	m

__BEGIN__	__EPS__
d	d
a	a
z	ss

__BEGIN__	__EPS__
k	k
u	ö
n	n
i	i
g	g

__BEGIN__	__EPS__
d	d
a	a

__BEGIN__	__EPS__
i	i
c	c
h	h

__BEGIN__	__EPS__
n	n
i	i
c	c
h	h
t	t

__BEGIN__	__EPS__
a	a
l	l
l	l
e	e
r	r
s	s
c	c
h	h
o	ö
n	n
i	__EPS__
s	s
t	te

__BEGIN__	__EPS__
h	h
e	e
r	r
o	o
d	d
e	e
s	s

__BEGIN__	__EPS__
s	s
y	ie

__BEGIN__	__EPS__
v	u
n	n
d	d

__BEGIN__	__EPS__
i	i
n	n

__BEGIN__	__EPS__
p	b
a	e
i	i
n	n

__BEGIN__	__EPS__
i	i
c	ch

__BEGIN__	__EPS__
l	l
e	eh
r	r
e	e

__BEGIN__	__EPS__
r	r
e	e
i	i
n	n
e	e

__BEGIN__	__EPS__
w	w
a	a
n	n
n	n

__BEGIN__	__EPS__
s	s
o	o

__BEGIN__	__EPS__
f	f
u	ü
i	__EPS__
r	r
s	s
p	p
r	r
e	e
c	c
h	her

__BEGIN__	__EPS__
i	i
n	n

__BEGIN__	__EPS__
e	e
r	r

__BEGIN__	__EPS__
k	k
u	ö
n	n
i	i
n	__EPS__
g	g

__BEGIN__	__EPS__
g	g
a	a
r	r

__BEGIN__	__EPS__
v	u
n	n
d	d
t	__EPS__

__BEGIN__	__EPS__
a	a
u	u
f	f

__BEGIN__	__EPS__
z	z
e	u

__BEGIN__	__EPS__
s	s
o	oh
n	n

__BEGIN__	__EPS__
c	__EPS__
z	s
e	__EPS__
r	p
c	a
l	l
u	te
b	t
e	e
n	n

__BEGIN__	__EPS__
m	m
e	e
i	i
n	n

__BEGIN__	__EPS__
d	d
o	a

__BEGIN__	__EPS__
w	w
u	u
e	__EPS__
r	r
d	de

__BEGIN__	__EPS__
f	f
r	r
a	a
g	ge

__BEGIN__	__EPS__
e	e
i	i
n	n

__BEGIN__	__EPS__
d	di
e	e
s	s
e	e

__BEGIN__	__EPS__
l	l
i	i
e	e
b	be

__BEGIN__	__EPS__
k	k
a	a
r	r
f	f
r	r
e	e
i	i
t	t
a	a
g	g

__BEGIN__	__EPS__
s	s
p	p
r	r
a	a
c	c
h	h

__BEGIN__	__EPS__
a	a
u	u
f	f
f	__EPS__

__BEGIN__	__EPS__
d	d
o	a

__BEGIN__	__EPS__
a	a
n	n

__BEGIN__	__EPS__
e	a
l	l
l	l
v	e
i	s

__BEGIN__	__EPS__
a	a
l	l
l	l
e	e
n	n

__BEGIN__	__EPS__
b	g
e	e
n	n
ü	ü
g	g
t	te

__BEGIN__	__EPS__
p	b
l	l
u	u
t	t

__BEGIN__	__EPS__
v	u
n	n
d	d

__BEGIN__	__EPS__
m	me
y	i
n	n

__BEGIN__	__EPS__
o	o
d	d
e	e
r	r

__BEGIN__	__EPS__
n	n
i	i
c	c
h	h
t	t

__BEGIN__	__EPS__
v	u
n	n
d	d

__BEGIN__	__EPS__
v	v
o	o
l	l
k	k

__BEGIN__	__EPS__
l	l
a	a
s	s
z	s

__BEGIN__	__EPS__
m	m
a	a
r	r
i	i
a	a

__BEGIN__	__EPS__
y	ih
m	m

__BEGIN__	__EPS__
d	d
i	i
e	e

__BEGIN__	__EPS__
d	d
u	u

__BEGIN__	__EPS__
n	n
i	i
c	c
h	h
t	t

__BEGIN__	__EPS__
d	d
o	a

__BEGIN__	__EPS__
d	d
o	a
i	__EPS__
r	__EPS__

__BEGIN__	__EPS__
a	a
n	n

__BEGIN__	__EPS__
d	d
o	a

__BEGIN__	e
i	i
n	n

__BEGIN__	__EPS__
g	g
e	e
f	f
a	a
n	n
g	g
i	e
n	n

__BEGIN__	__EPS__
d	de
y	i
n	n

__BEGIN__	__EPS__
d	d
o	a

__BEGIN__	__EPS__
s	s
o	oh
n	n

__BEGIN__	__EPS__
w	w
a	a
r	r
e	e
n	n
t	__EPS__

__BEGIN__	__EPS__
m	m
i	i
t	t

__BEGIN__	__EPS__
v	f
a	e
s	s
t	t

__BEGIN__	__EPS__
m	me
i	i
n	n

__BEGIN__	__EPS__
a	a
n	n

__BEGIN__	__EPS__
d	d
e	e
r	r

__BEGIN__	__EPS__
d	t
o	u
e	__EPS__
n	n

__BEGIN__	__EPS__
v	u
n	n
d	d

__BEGIN__	__EPS__
i	ih
n	n

__BEGIN__	__EPS__
l	l
e	e
y	i
b	b

__BEGIN__	__EPS__
d	d
a	a
s	ss

__BEGIN__	__EPS__
a	a
l	l
l	l
e	e
m	m

__BEGIN__	__EPS__
d	d
a	a

__BEGIN__	__EPS__
i	i
c	c
h	h

__BEGIN__	__EPS__
k	k
i	i
n	n
d	d

__BEGIN__	__EPS__
f	f
r	r
e	e
w	u
t	t
e	e
n	n

__BEGIN__	__EPS__
g	g
e	e
s	s
e	e
h	h
e	e
n	n

__BEGIN__	__EPS__
i	i
c	c
h	h

