__BEGIN__	__EPS__
y	ih
n	n

__BEGIN__	__EPS__
v	f
i	i
n	n
d	de

__BEGIN__	__EPS__
a	a
n	n

__BEGIN__	__EPS__
w	w
u	u
r	r
d	de

__BEGIN__	__EPS__
v	u
n	n
d	d

__BEGIN__	__EPS__
v	u
m	m
b	__EPS__

__BEGIN__	__EPS__
d	d
i	i
e	e

__BEGIN__	__EPS__
h	h
a	a
t	t

__BEGIN__	__EPS__
y	ih
m	m

__BEGIN__	__EPS__
w	w
i	i
e	e

__BEGIN__	d
u	u

__BEGIN__	__EPS__
g	g
e	e
w	w
o	oh
n	n
h	h
e	e
i	i
t	t

__BEGIN__	__EPS__
d	d
i	i
e	e

__BEGIN__	__EPS__
t	t
e	e
m	m
p	p
e	e
l	l

__BEGIN__	__EPS__
k	k
r	r
o	ö
n	n
e	__EPS__
t	t

__BEGIN__	__EPS__
v	u
m	m
b	__EPS__

__BEGIN__	__EPS__
g	g
o	o
t	tt

__BEGIN__	__EPS__
w	w
a	a
n	n
e	n

__BEGIN__	__EPS__
v	v
o	o
n	n

__BEGIN__	__EPS__
v	u
n	n
d	d

__BEGIN__	__EPS__
w	w
o	o
l	ll
t	te

__BEGIN__	__EPS__
s	s
e	e
i	i
n	n
e	e
n	m

__BEGIN__	__EPS__
s	s
i	i
j	e

__BEGIN__	__EPS__
a	a
b	b
e	e
r	r

__BEGIN__	__EPS__
b	b
e	e
r	r
e	e
i	i
t	t

__BEGIN__	__EPS__
s	s
a	e
t	t
z	z
t	t

__BEGIN__	__EPS__
s	s
i	i
c	c
h	h

__BEGIN__	__EPS__
i	ih
m	m

__BEGIN__	__EPS__
j	ih
n	n

__BEGIN__	__EPS__
b	b
e	e
g	g
r	re
i	i
f	f
e	e
n	n

__BEGIN__	__EPS__
f	f
r	r
a	e
ü	v
e	e
l	l

__BEGIN__	__EPS__
v	f
i	i
n	n
s	s
t	t
e	e
r	rnis

__BEGIN__	__EPS__
m	m
e	e
i	i
n	n

__BEGIN__	__EPS__
d	d
e	e
r	r

__BEGIN__	__EPS__
d	d
a	a
z	s

__BEGIN__	__EPS__
d	d
a	a
t	__EPS__
z	s

__BEGIN__	__EPS__
y	ih
m	m

__BEGIN__	__EPS__
b	b
e	e
f	f
a	a
h	h
e	__EPS__
l	l

__BEGIN__	__EPS__
e	e
w	w
i	i
g	g
e	e
n	n

__BEGIN__	__EPS__
v	f
l	le
i	i
s	s
c	c
h	h
l	l
i	i
c	c
h	h
i	e
n	n

__BEGIN__	__EPS__
d	d
e	e
s	s

__BEGIN__	__EPS__
g	g
e	e
s	s
o	ü
i	h
n	n
t	t

__BEGIN__	__EPS__
i	i
u	u
d	d
e	e
n	n

__BEGIN__	__EPS__
a	a
r	r
m	m

__BEGIN__	__EPS__
s	s
p	p
r	r
a	a
c	c
h	h

__BEGIN__	__EPS__
s	s
e	e
l	l
b	b
e	e
n	n

__BEGIN__	__EPS__
d	d
y	ie

__BEGIN__	__EPS__
v	u
n	n
d	d

__BEGIN__	__EPS__
d	d
i	i
e	e

__BEGIN__	__EPS__
v	v
o	o
n	n

__BEGIN__	__EPS__
i	j
a	ah
r	r

__BEGIN__	__EPS__
m	m
i	i
t	t

__BEGIN__	__EPS__
v	f
r	r
a	a
u	u
w	__EPS__
e	__EPS__

__BEGIN__	__EPS__
g	g
r	rä
u	u
l	l
i	i
c	c
h	h
i	e
n	n

__BEGIN__	__EPS__
i	ih
m	m

__BEGIN__	__EPS__
d	d
i	i
n	n
g	g

__BEGIN__	__EPS__
b	b
e	e
k	k
e	eh
r	r
t	t

__BEGIN__	__EPS__
s	s
i	ie

__BEGIN__	__EPS__
p	p
y	i
l	l
a	a
t	t
u	u
s	s

__BEGIN__	__EPS__
d	d
a	a

__BEGIN__	__EPS__
y	ih
n	n

__BEGIN__	__EPS__
h	h
a	abe
n	n

__BEGIN__	__EPS__
o	o
s	s
s	s
a	a

__BEGIN__	__EPS__
s	s
o	o

__BEGIN__	__EPS__
b	b
e	e
g	g
e	e
y	h
t	t

__BEGIN__	__EPS__
h	h
e	e
l	l
f	f
f	__EPS__
e	e
n	n

__BEGIN__	__EPS__
i	i
n	n

__BEGIN__	__EPS__
p	pf
e	e
n	n
n	n
y	i
c	__EPS__
k	g

__BEGIN__	__EPS__
w	w
a	a
s	r

__BEGIN__	__EPS__
w	w
a	a
i	__EPS__
r	r
u	u
m	m
b	__EPS__

__BEGIN__	__EPS__
e	e
r	r
s	sc
h	h
r	r
a	a
k	k

__BEGIN__	__EPS__
w	w
a	a
s	r

__BEGIN__	__EPS__
d	d
o	a

__BEGIN__	__EPS__
m	m
e	ä
r	r
e	__EPS__

__BEGIN__	__EPS__
y	ih
m	m

__BEGIN__	__EPS__
b	b
y	i
s	s
z	t

__BEGIN__	__EPS__
s	s
p	p
r	r
a	a
c	c
h	h

__BEGIN__	__EPS__
w	w
a	a
n	nn

__BEGIN__	__EPS__
n	n
i	ich
t	t

__BEGIN__	__EPS__
e	e
r	r

__BEGIN__	__EPS__
w	w
o	ol
l	l
t	t

__BEGIN__	__EPS__
g	g
e	e
n	n
o	o
m	mm
e	e
n	n

__BEGIN__	__EPS__
v	u
n	n
d	d

__BEGIN__	__EPS__
e	e
r	r

__BEGIN__	__EPS__
i	ih
n	n

__BEGIN__	__EPS__
h	h
o	ö
e	__EPS__
r	r
e	e

__BEGIN__	a
v	u
p	f

__BEGIN__	__EPS__
h	h
a	a
b	b
e	e

__BEGIN__	__EPS__
e	e
r	r

__BEGIN__	__EPS__
m	m
a	a
r	r
i	i
a	a

__BEGIN__	__EPS__
n	n
o	a
c	c
h	h

__BEGIN__	__EPS__
d	di
e	e
s	s
e	e

__BEGIN__	__EPS__
s	se
y	i
n	n

__BEGIN__	__EPS__
e	e
r	r

__BEGIN__	__EPS__
d	d
e	e
n	n

__BEGIN__	__EPS__
a	a
r	r
m	m
a	a
t	t
h	h
y	i
e	__EPS__
n	a

__BEGIN__	__EPS__
d	d
u	u

__BEGIN__	__EPS__
h	h
e	a
t	t

__BEGIN__	__EPS__
d	d
o	a

__BEGIN__	__EPS__
g	g
i	i
e	n
g	g
e	__EPS__
n	__EPS__

__BEGIN__	__EPS__
s	s
i	i
c	c
h	h

__BEGIN__	__EPS__
h	h
e	e
r	r
c	__EPS__
z	z
e	e
n	n

__BEGIN__	__EPS__
g	g
u	ö
n	nn
d	t
e	e

__BEGIN__	__EPS__
b	b
a	a
l	l
d	d
e	__EPS__

__BEGIN__	__EPS__
s	s
i	i
c	c
h	h

__BEGIN__	__EPS__
d	d
a	a
s	ss

__BEGIN__	__EPS__
g	g
e	e
b	b
e	e
i	i
n	n

__BEGIN__	__EPS__
d	d
i	i
e	e

__BEGIN__	__EPS__
d	t
o	o
i	__EPS__
t	d

__BEGIN__	__EPS__
k	k
i	i
n	n
t	d

__BEGIN__	__EPS__
d	d
o	a

__BEGIN__	__EPS__
v	v
i	i
l	e
l	l

__BEGIN__	__EPS__
g	z
e	e
z	__EPS__
u	u
i	__EPS__
g	g
e	en

__BEGIN__	__EPS__
i	i
n	n

__BEGIN__	__EPS__
l	l
e	e
i	i
b	b

__BEGIN__	__EPS__
g	g
e	e
s	s
t	t
e	e
g	c
k	k
t	t

__BEGIN__	__EPS__
d	d
e	e
r	r

__BEGIN__	__EPS__
m	m
e	e
n	n
s	s
c	c
h	h
l	l
e	__EPS__
i	i
c	c
h	h

__BEGIN__	__EPS__
n	n
i	i
e	ch
t	t

__BEGIN__	__EPS__
t	t
o	o
d	__EPS__
t	t

__BEGIN__	__EPS__
v	u
n	n
d	d

__BEGIN__	__EPS__
i	j
u	u
d	d
e	e
n	n

__BEGIN__	__EPS__
t	t
a	a
g	g

__BEGIN__	__EPS__
v	v
e	e
r	r
t	t
r	r
i	ie
b	b
e	e
n	n

__BEGIN__	__EPS__
m	m
e	e
i	i
n	n
e	e
n	n

__BEGIN__	__EPS__
m	m
o	oc
h	h
t	t

__BEGIN__	__EPS__
g	g
r	r
a	a
b	b

__BEGIN__	__EPS__
v	v
o	o
n	n

__BEGIN__	__EPS__
a	a
l	l
l	l
e	e
n	n

__BEGIN__	__EPS__
b	b
e	e
h	h
a	a
l	l
t	t
e	e
n	n

__BEGIN__	__EPS__
a	a
n	n
g	g
e	e
s	s
e	e
h	h
e	e
n	n

__BEGIN__	__EPS__
v	u
n	n
d	d

__BEGIN__	__EPS__
s	s
i	e
j	i
n	n
e	e

__BEGIN__	__EPS__
m	me
y	i
n	n

__BEGIN__	__EPS__
m	m
e	e
i	i
n	n
e	e
n	n

__BEGIN__	__EPS__
h	h
e	a
t	t
t	te

__BEGIN__	__EPS__
m	m
a	a
g	g
d	d
a	a
l	l
e	e
n	n
a	a

__BEGIN__	__EPS__
s	s
p	p
r	r
a	a
c	c
h	h
e	e
n	n
d	__EPS__

__BEGIN__	__EPS__
z	z
e	u

__BEGIN__	__EPS__
v	v
e	e
r	r
w	w
u	u
n	n
d	d
e	e
r	r
d	t
e	e
n	n

__BEGIN__	__EPS__
b	b
e	e
g	g
e	eh
r	r
t	t

__BEGIN__	__EPS__
d	d
a	a
s	ss

__BEGIN__	__EPS__
g	g
a	a
r	r

__BEGIN__	__EPS__
t	t
a	a
g	g

__BEGIN__	__EPS__
d	d
a	a
r	r

__BEGIN__	__EPS__
w	w
e	o
l	l
l	l
e	e
n	n

__BEGIN__	__EPS__
m	m
e	e
i	i
n	n

__BEGIN__	__EPS__
c	k
r	r
e	e
u	u
t	__EPS__
z	z

__BEGIN__	__EPS__
w	w
i	i
r	r

__BEGIN__	__EPS__
e	e
r	r

__BEGIN__	__EPS__
v	a
f	u
f	f

__BEGIN__	__EPS__
d	d
i	i
c	c
h	h

__BEGIN__	__EPS__
n	n
i	i
e	ch
t	t

__BEGIN__	__EPS__
t	t
o	o
d	d

__BEGIN__	__EPS__
i	j
u	ü
n	n
g	g
e	e
r	r
e	__EPS__
n	n

__BEGIN__	__EPS__
m	m
i	i
t	t

__BEGIN__	__EPS__
m	me
i	i
n	n

__BEGIN__	__EPS__
h	h
a	a
u	u
s	s

__BEGIN__	__EPS__
n	n
o	o
c	c
h	h

__BEGIN__	__EPS__
m	m
i	i
c	c
h	h

__BEGIN__	__EPS__
o	o
b	b

__BEGIN__	__EPS__
v	u
n	n
d	d

__BEGIN__	__EPS__
d	d
e	e
n	n

__BEGIN__	__EPS__
a	a
l	l
l	l
e	e
r	r
l	l
i	ie
b	be
s	s

__BEGIN__	__EPS__
v	u
n	n
d	d

__BEGIN__	__EPS__
s	s
p	p
r	r
a	a
c	c
h	h

__BEGIN__	__EPS__
i	i
c	c
h	h

__BEGIN__	__EPS__
v	f
r	r
o	e
i	u
d	d
e	e
n	__EPS__

__BEGIN__	__EPS__
p	b
e	e
y	i

__BEGIN__	__EPS__
e	e
r	r

__BEGIN__	__EPS__
d	d
o	a

__BEGIN__	__EPS__
d	d
a	a
n	n
n	n

__BEGIN__	__EPS__
d	d
o	a

__BEGIN__	__EPS__
v	u
n	n
g	g
l	l
e	e
i	i
c	c
h	h

__BEGIN__	__EPS__
c	k
o	au
f	f
t	t
e	e
n	n

__BEGIN__	__EPS__
w	w
a	e
i	i
s	ss
t	t

__BEGIN__	__EPS__
i	ih
n	n

__BEGIN__	__EPS__
d	d
a	a
z	s

__BEGIN__	__EPS__
s	s
o	oh
n	n

__BEGIN__	__EPS__
i	i
c	ch

__BEGIN__	__EPS__
o	o
f	b
f	__EPS__

__BEGIN__	__EPS__
v	v
i	ie
l	l

__BEGIN__	__EPS__
a	a
n	n

__BEGIN__	__EPS__
v	u
n	n
d	d

__BEGIN__	__EPS__
s	s
o	o

__BEGIN__	__EPS__
w	w
o	ah
r	r

__BEGIN__	__EPS__
g	g
e	e
v	f
r	r
a	a
e	__EPS__
g	g
e	__EPS__
t	t

__BEGIN__	__EPS__
w	w
a	a
n	nn

__BEGIN__	__EPS__
w	w
o	o
r	r
d	d
e	e
n	n

__BEGIN__	__EPS__
d	d
i	i
e	e

__BEGIN__	__EPS__
w	w
i	i
e	e

__BEGIN__	__EPS__
i	i
c	c
h	h

__BEGIN__	__EPS__
a	a
n	n

__BEGIN__	__EPS__
v	v
o	o
n	n

__BEGIN__	__EPS__
s	s
o	o

__BEGIN__	__EPS__
i	j
o	u
d	d
e	e
n	n

__BEGIN__	__EPS__
s	s
a	o
l	ll
t	t

__BEGIN__	__EPS__
w	w
a	a
s	r

__BEGIN__	__EPS__
i	j
v	ü
n	n
g	g
e	e
r	r
n	__EPS__

__BEGIN__	__EPS__
h	h
e	a
t	tt
e	e

__BEGIN__	__EPS__
k	k
o	o
m	mm
e	e
n	n

__BEGIN__	__EPS__
d	d
i	i
e	e

__BEGIN__	__EPS__
i	j
e	ä
m	mm
e	e
r	r
l	l
i	i
c	c
h	h
e	e
n	n

__BEGIN__	__EPS__
w	w
i	u
r	r
d	d
e	e
n	n
t	__EPS__

__BEGIN__	__EPS__
i	ih
n	n

__BEGIN__	__EPS__
v	v
o	o
n	n

__BEGIN__	__EPS__
t	t
o	ö
t	t
e	e

__BEGIN__	__EPS__
k	k
n	n
i	i
e	e
t	t
e	e
n	n

__BEGIN__	__EPS__
d	d
e	e
r	r

__BEGIN__	__EPS__
i	i
s	s
t	t

__BEGIN__	__EPS__
p	p
i	i
l	l
a	a
t	t
u	u
s	s

__BEGIN__	__EPS__
v	v
i	ie
l	l

__BEGIN__	__EPS__
m	m
u	u
e	t
t	t
e	e
r	r

__BEGIN__	__EPS__
g	g
e	e
s	s
e	e
h	h
e	e
n	n

__BEGIN__	__EPS__
m	me
y	i
n	n

__BEGIN__	__EPS__
z	z
u	u

__BEGIN__	__EPS__
w	w
e	e
r	r
c	k
h	__EPS__

__BEGIN__	__EPS__
d	d
a	a
s	s

__BEGIN__	__EPS__
a	a
n	n

__BEGIN__	__EPS__
w	w
o	o
l	ll
t	t
e	e
n	n

__BEGIN__	__EPS__
g	g
e	e
s	s
a	a
g	g
t	t

__BEGIN__	__EPS__
r	r
o	u
i	__EPS__
f	f
f	__EPS__
e	e
n	n

__BEGIN__	__EPS__
d	d
a	a
t	s

__BEGIN__	__EPS__
m	m
y	i
r	r

__BEGIN__	__EPS__
i	ih
m	m

__BEGIN__	__EPS__
w	w
a	a
r	r
t	d

__BEGIN__	__EPS__
i	i
s	s
t	t

__BEGIN__	__EPS__
s	s
i	ie

__BEGIN__	__EPS__
d	d
a	a
s	s

__BEGIN__	__EPS__
e	e
n	n
n	__EPS__
d	de

__BEGIN__	__EPS__
d	d
e	e
n	n

__BEGIN__	__EPS__
s	se
y	i
n	n
e	e

__BEGIN__	__EPS__
v	u
n	n
d	d

__BEGIN__	__EPS__
v	ü
e	__EPS__
b	b
e	e
r	r

__BEGIN__	__EPS__
t	__EPS__
z	z
v	u

__BEGIN__	__EPS__
d	d
a	a

__BEGIN__	__EPS__
n	n
ü	u
n	n

__BEGIN__	__EPS__
v	a
p	u
f	fers
t	t
e	eh
n	u
d	n
e	g

__BEGIN__	__EPS__
y	j
u	u
d	d
e	e
n	n

__BEGIN__	__EPS__
a	a
l	l
s	s

__BEGIN__	__EPS__
s	s
p	p
r	r
a	a
c	c
h	h

__BEGIN__	__EPS__
m	m
a	a
r	r
t	t
e	e
r	r

__BEGIN__	__EPS__
i	i
n	n

__BEGIN__	__EPS__
c	k
h	__EPS__
u	ö
n	n
i	i
g	g

__BEGIN__	__EPS__
e	e
r	r

__BEGIN__	__EPS__
a	a
u	u
f	f
f	__EPS__

__BEGIN__	__EPS__
v	u
n	n
d	d

__BEGIN__	__EPS__
a	a
n	n

__BEGIN__	__EPS__
h	h
e	e
i	i
s	s
z	s
t	t

__BEGIN__	__EPS__
d	d
h	e
u	uts
c	c
z	__EPS__
e	h

__BEGIN__	__EPS__
w	w
a	a
s	r

__BEGIN__	__EPS__
d	d
e	e
n	n

__BEGIN__	__EPS__
i	ih
n	n

__BEGIN__	__EPS__
v	u
n	n
d	d

__BEGIN__	__EPS__
d	d
e	e
r	r

__BEGIN__	__EPS__
p	b
e	__EPS__
l	l
e	e
i	i
b	b
e	e
n	n

__BEGIN__	__EPS__
e	ih
r	r
i	e
n	n

__BEGIN__	__EPS__
s	s
i	i
j	e

__BEGIN__	__EPS__
w	w
o	o
u	l
l	l
d	t
e	e

__BEGIN__	__EPS__
l	l
e	e
i	i
b	be
s	s

__BEGIN__	__EPS__
i	ih
m	m

__BEGIN__	__EPS__
s	s
a	a
n	nk
t	t

__BEGIN__	__EPS__
v	u
n	n
d	d

__BEGIN__	__EPS__
d	d
o	a

__BEGIN__	__EPS__
n	n
i	ich
t	t

__BEGIN__	__EPS__
w	w
a	ä
e	r
r	e

__BEGIN__	__EPS__
g	g
a	a
r	r

__BEGIN__	__EPS__
i	i
s	s
t	t

__BEGIN__	__EPS__
e	e
s	s

__BEGIN__	__EPS__
p	p
y	i
l	l
a	a
t	t
u	u
n	s

__BEGIN__	__EPS__
d	d
v	u

__BEGIN__	__EPS__
r	r
e	e
d	d
e	e
n	n

__BEGIN__	__EPS__
c	k
h	__EPS__
l	l
a	a
g	g
t	t
e	e
n	n

__BEGIN__	__EPS__
i	ih
m	m

__BEGIN__	__EPS__
p	p
y	i
l	l
a	a
t	t
u	u
m	s

__BEGIN__	__EPS__
d	d
a	a
t	ss

__BEGIN__	__EPS__
i	ih
n	n

__BEGIN__	__EPS__
v	u
n	n
d	d

__BEGIN__	__EPS__
d	d
y	i
r	r

__BEGIN__	__EPS__
s	s
a	a
h	h
e	e
n	n

__BEGIN__	__EPS__
w	w
u	u
n	n
d	d
e	e
n	n

__BEGIN__	__EPS__
e	e
r	r
t	t
o	ö
t	t
e	e
t	t

__BEGIN__	__EPS__
s	s
e	e
l	l
u	b
e	e

__BEGIN__	__EPS__
g	ge
b	w
a	a
l	l
t	t

__BEGIN__	__EPS__
e	e
r	r

__BEGIN__	__EPS__
p	p
i	i
l	l
a	a
t	t
o	us

__BEGIN__	__EPS__
i	i
n	n

__BEGIN__	__EPS__
d	d
a	a
z	s

__BEGIN__	__EPS__
d	d
a	a

__BEGIN__	__EPS__
g	g
a	a
l	l
g	g
e	e
n	n

__BEGIN__	__EPS__
d	d
ü	u

__BEGIN__	__EPS__
s	s
e	e
i	i
n	n

__BEGIN__	__EPS__
g	g
o	o
t	tt

__BEGIN__	__EPS__
v	u
n	n
d	d

__BEGIN__	__EPS__
i	i
c	c
h	h

__BEGIN__	__EPS__
d	d
o	a

__BEGIN__	__EPS__
m	m
a	a
l	l

__BEGIN__	__EPS__
d	d
o	a
e	__EPS__

__BEGIN__	__EPS__
h	e
i	r

__BEGIN__	__EPS__
y	ih
n	n

__BEGIN__	__EPS__
h	h
y	ier

__BEGIN__	__EPS__
m	me
i	i
n	n

__BEGIN__	__EPS__
d	d
a	a
s	ss

__BEGIN__	__EPS__
m	m
e	e
i	i
n	n
s	e
z	s

__BEGIN__	__EPS__
t	t
o	o
l	l
l	l
e	e

__BEGIN__	__EPS__
k	k
ü	ö
n	ni
g	g

__BEGIN__	__EPS__
a	a
l	l
s	s
o	o

__BEGIN__	__EPS__
i	i
c	c
h	h

__BEGIN__	__EPS__
s	s
e	e
u	u
f	f
c	__EPS__
z	zen

__BEGIN__	__EPS__
v	v
i	ie
l	l

__BEGIN__	__EPS__
s	s
t	t
u	__EPS__
o	a
n	n
d	d

__BEGIN__	__EPS__
c	c
e	e
n	n
t	t
u	u
r	r
i	i
o	o

__BEGIN__	__EPS__
d	d
e	e
r	r

__BEGIN__	__EPS__
v	v
o	o
r	r

__BEGIN__	__EPS__
i	j
v	u
d	d
e	e
n	n

__BEGIN__	__EPS__
n	n
i	ich
t	t

__BEGIN__	__EPS__
g	z
e	e
t	u
z	g
u	e
g	n

__BEGIN__	__EPS__
w	w
a	a
s	r

__BEGIN__	__EPS__
d	d
e	e
i	i
n	n

__BEGIN__	__EPS__
d	d
o	a

__BEGIN__	__EPS__
v	u
n	n
d	d

__BEGIN__	__EPS__
s	s
o	o
h	h
e	__EPS__
n	n

__BEGIN__	__EPS__
i	ih
n	n

__BEGIN__	__EPS__
s	s
i	i
j	e

__BEGIN__	__EPS__
r	r
e	e
c	c
h	h
t	t

__BEGIN__	__EPS__
c	k
r	re
u	u
c	z
e	i
g	g
e	e
n	n

__BEGIN__	__EPS__
d	d
o	a

__BEGIN__	__EPS__
d	d
o	o
c	c
h	h

__BEGIN__	__EPS__
d	t
r	r
i	i
j	e
u	b
e	e
n	n

__BEGIN__	__EPS__
s	sch
w	w
e	e
s	s
t	t
e	e
r	r

__BEGIN__	__EPS__
d	d
y	ie

__BEGIN__	__EPS__
d	d
i	i
c	c
h	h

__BEGIN__	__EPS__
a	a
l	l
l	l
e	e
s	s

__BEGIN__	__EPS__
a	a
n	n
s	s
h	__EPS__
e	e
l	l
m	m
e	__EPS__

__BEGIN__	__EPS__
v	ü
b	b
e	e
r	r

__BEGIN__	__EPS__
k	k
o	o
m	mm
e	e
n	n

__BEGIN__	__EPS__
g	g
e	e
g	g
e	e
u	b
e	e
n	n

__BEGIN__	__EPS__
m	m
o	ö
e	__EPS__
g	g
e	e

__BEGIN__	__EPS__
m	m
a	a
r	r
i	i
a	a

__BEGIN__	__EPS__
s	s
a	a
n	nk
t	t

__BEGIN__	__EPS__
d	d
o	a

__BEGIN__	__EPS__
d	d
o	a

__BEGIN__	__EPS__
f	f
ü	ü
r	r

__BEGIN__	__EPS__
v	u
n	n
s	s

__BEGIN__	__EPS__
s	s
c	c
h	h
u	u
l	l
d	d
e	e
n	n

__BEGIN__	__EPS__
d	d
a	a
e	__EPS__

__BEGIN__	__EPS__
t	t
o	au
b	b
e	e
n	n

__BEGIN__	__EPS__
v	u
n	n
d	d

__BEGIN__	__EPS__
m	m
i	i
r	r

__BEGIN__	__EPS__
d	d
u	u
r	r
c	c
h	h

__BEGIN__	__EPS__
m	m
i	i
t	t

__BEGIN__	__EPS__
n	n
o	ö
e	__EPS__
t	t
e	e
n	n

__BEGIN__	__EPS__
e	e
r	r

__BEGIN__	__EPS__
m	m
i	i
c	c
h	h

__BEGIN__	__EPS__
i	ih
r	re
n	n

__BEGIN__	__EPS__
e	e
i	i
n	n
e	e
m	m

__BEGIN__	__EPS__
g	g
i	ib
t	t

__BEGIN__	__EPS__
o	au
c	c
h	h

__BEGIN__	__EPS__
i	j
e	e
h	s
-	u
m	s

__BEGIN__	__EPS__
s	s
u	o
n	n
e	__EPS__
n	ne

__BEGIN__	__EPS__
v	v
o	o
n	n

__BEGIN__	__EPS__
l	l
e	e
n	n
d	d
e	e
n	n

__BEGIN__	__EPS__
b	b
i	i
t	tt
e	e
r	r
e	e
n	n

__BEGIN__	__EPS__
e	e
i	i
n	n

__BEGIN__	__EPS__
d	d
i	ie
t	s

__BEGIN__	__EPS__
d	d
a	a
z	s

__BEGIN__	__EPS__
k	k
i	i
n	n
d	d
e	e
r	r

__BEGIN__	__EPS__
h	h
a	a
t	tt
e	e

__BEGIN__	__EPS__
g	g
e	e
d	d
e	e
n	n
k	ke

__BEGIN__	__EPS__
n	n
a	a
c	c
h	h

__BEGIN__	__EPS__
s	sch
w	w
e	e
s	s
t	t
e	e
r	r

__BEGIN__	__EPS__
c	k
h	__EPS__
i	i
n	n
t	d

__BEGIN__	__EPS__
d	d
a	a
z	s

__BEGIN__	__EPS__
h	h
a	e
r	r

__BEGIN__	__EPS__
s	s
o	o
e	h
n	ne
s	s

__BEGIN__	__EPS__
i	ih
m	m

__BEGIN__	__EPS__
v	u
n	n
d	d

__BEGIN__	__EPS__
b	b
e	e
g	g
r	r
a	a
b	b
e	e
n	n

__BEGIN__	__EPS__
g	g
o	ö
t	tt
l	l
i	i
c	c
h	h
e	e
n	n

__BEGIN__	__EPS__
m	m
e	e
i	i
n	n
e	e
m	m

__BEGIN__	__EPS__
v	ü
b	b
i	e
r	r

__BEGIN__	__EPS__
k	k
i	i
n	n
t	d
h	__EPS__

__BEGIN__	__EPS__
v	u
n	n
d	d

__BEGIN__	__EPS__
h	e
e	r

__BEGIN__	__EPS__
h	h
e	e
r	r
c	__EPS__
z	z

__BEGIN__	__EPS__
a	a
n	n

__BEGIN__	__EPS__
y	i
n	n

__BEGIN__	__EPS__
c	g
z	e
u	__EPS__
s	d
p	e
a	h
n	n
t	t
e	__EPS__
n	__EPS__

__BEGIN__	__EPS__
h	h
a	a
t	t

__BEGIN__	__EPS__
s	s
t	t
a	ad
t	t

__BEGIN__	__EPS__
s	s
y	ie

__BEGIN__	__EPS__
w	w
a	a
z	r

__BEGIN__	__EPS__
d	d
i	i
e	e

__BEGIN__	__EPS__
v	u
n	n
d	d

__BEGIN__	__EPS__
v	f
i	i
e	e
l	l

__BEGIN__	__EPS__
a	e
i	i
n	n

__BEGIN__	__EPS__
g	g
e	e
l	l
e	i
d	tt
i	e
n	n

__BEGIN__	__EPS__
m	m
a	o
e	__EPS__
n	n
d	t
a	a
c	g
h	__EPS__

__BEGIN__	a
v	u
f	f

__BEGIN__	__EPS__
s	s
o	o

__BEGIN__	__EPS__
v	f
i	i
n	n
d	de

__BEGIN__	__EPS__
h	h
e	e
r	r
t	__EPS__
z	z
e	__EPS__

__BEGIN__	__EPS__
v	u
m	m
e	__EPS__
g	g
e	__EPS__
g	__EPS__
r	r
e	e
i	i
f	f
f	__EPS__
e	e
n	n

__BEGIN__	__EPS__
d	d
e	e
m	m

__BEGIN__	__EPS__
f	f
e	e
r	r
r	n
e	__EPS__

__BEGIN__	__EPS__
s	sä
ü	u
l	le

__BEGIN__	__EPS__
g	g
r	r
o	o
s	s
s	s
e	e
n	n

__BEGIN__	__EPS__
d	d
e	e
r	r

__BEGIN__	__EPS__
l	l
e	e
i	i
d	d
e	__EPS__

__BEGIN__	__EPS__
w	w
o	o
r	r
d	d
e	e
n	n

__BEGIN__	__EPS__
i	i
c	c
h	h

__BEGIN__	__EPS__
n	n
ü	un

__BEGIN__	__EPS__
v	u
n	n
d	d

__BEGIN__	__EPS__
g	g
r	r
o	o
i	__EPS__
s	s
z	s
e	e
n	n

__BEGIN__	__EPS__
v	u
n	n
d	d

__BEGIN__	__EPS__
b	b
i	i
t	t
t	t
e	e
r	r
h	k
e	e
i	i
t	t

__BEGIN__	__EPS__
c	__EPS__
z	z
o	o
g	g
e	e
n	n

__BEGIN__	__EPS__
v	u
n	n
d	d

__BEGIN__	__EPS__
v	u
n	n
d	d

__BEGIN__	__EPS__
i	i
n	n

__BEGIN__	__EPS__
s	s
e	e
l	l
b	b
e	e
n	n

__BEGIN__	__EPS__
e	a
l	l
l	l
v	e
i	r

__BEGIN__	__EPS__
d	d
a	a
t	s

__BEGIN__	__EPS__
m	m
e	e
i	i
n	n
e	e

__BEGIN__	__EPS__
d	da
z	s

__BEGIN__	__EPS__
a	a
l	l
s	s

__BEGIN__	__EPS__
v	u
n	n
d	d

__BEGIN__	__EPS__
a	a
n	n

__BEGIN__	__EPS__
d	d
e	e
r	r

__BEGIN__	__EPS__
v	u
n	n
d	d

__BEGIN__	__EPS__
m	me
i	i
n	n

__BEGIN__	__EPS__
g	g
e	e
n	n
i	i
e	e
z	ss
e	e
n	n

__BEGIN__	__EPS__
i	e
z	s

__BEGIN__	__EPS__
g	g
e	e
s	s
p	p
r	r
o	o
c	c
h	h
e	e
n	n

__BEGIN__	__EPS__
s	a
u	n
u	st
e	ä
r	n
l	d
i	i
c	g
h	__EPS__

__BEGIN__	__EPS__
n	n
a	a
c	c
h	h

__BEGIN__	__EPS__
g	g
e	e
s	s
p	p
r	r
o	o
c	c
h	h
e	e
n	n

__BEGIN__	__EPS__
d	d
a	a
e	__EPS__

__BEGIN__	__EPS__
h	h
e	e
i	i
l	l
i	i
g	g
e	e
n	n

__BEGIN__	__EPS__
v	v
o	o
n	n

__BEGIN__	__EPS__
a	a
n	n

__BEGIN__	__EPS__
i	i
c	c
h	h

__BEGIN__	__EPS__
v	u
n	n
v	v
e	e
r	r
s	s
e	eh
r	r
t	t
e	e
s	s

__BEGIN__	__EPS__
i	ih
m	m

__BEGIN__	__EPS__
d	d
a	a

__BEGIN__	__EPS__
d	d
i	i
e	e

__BEGIN__	__EPS__
m	m
i	i
c	c
h	h

__BEGIN__	__EPS__
q	k
u	o
o	m
m	m
e	e
n	n

__BEGIN__	__EPS__
t	t
r	r
i	i
n	n
c	__EPS__
k	k
e	e
n	n

__BEGIN__	__EPS__
s	s
e	e
i	i
n	n
e	e

__BEGIN__	__EPS__
a	a
n	n
s	s
h	__EPS__
e	e
l	l
m	m
u	__EPS__
s	__EPS__

__BEGIN__	__EPS__
d	de
i	i
n	n

__BEGIN__	__EPS__
f	f
l	l
o	o
c	__EPS__
h	h

__BEGIN__	__EPS__
c	k
r	r
a	a
f	f
f	__EPS__
t	t

__BEGIN__	__EPS__
v	u
n	n
d	d

__BEGIN__	__EPS__
q	k
w	__EPS__
a	a
m	m
e	e
n	n

__BEGIN__	__EPS__
w	w
u	u
n	n
d	d
e	e
n	n

__BEGIN__	__EPS__
d	d
o	a

__BEGIN__	__EPS__
a	a
n	n
s	s
h	__EPS__
e	e
l	l
m	m

__BEGIN__	__EPS__
d	d
e	e
n	n

__BEGIN__	__EPS__
c	__EPS__
z	z
e	u

__BEGIN__	__EPS__
d	d
e	e
s	s

__BEGIN__	__EPS__
d	d
a	a
s	ss

__BEGIN__	__EPS__
w	w
e	e
n	n
n	n

__BEGIN__	a
u	u
f	f

__BEGIN__	__EPS__
s	s
u	ü
e	__EPS__
s	s
s	s

__BEGIN__	__EPS__
v	f
i	e
g	__EPS__
i	i
n	n
d	de

__BEGIN__	__EPS__
d	d
e	e
m	m

__BEGIN__	__EPS__
s	s
t	t
a	ad
t	t

__BEGIN__	__EPS__
a	a
l	l
l	l
e	e
m	m

__BEGIN__	__EPS__
v	u
n	n
s	s
c	c
h	h
u	u
l	l
d	d
i	i
g	g
e	e
s	s

__BEGIN__	__EPS__
y	ih
m	m

__BEGIN__	__EPS__
w	w
i	i
l	ll

__BEGIN__	__EPS__
s	s
t	t
a	ä
b	be

__BEGIN__	__EPS__
v	f
a	a
l	l
l	l
e	__EPS__
t	t

__BEGIN__	__EPS__
e	e
n	nt
z	z
w	w
e	e
i	i

__BEGIN__	__EPS__
w	w
a	a
s	r

__BEGIN__	__EPS__
v	v
o	o
l	l
k	k

__BEGIN__	__EPS__
d	d
e	e
m	m

__BEGIN__	__EPS__
s	s
p	p
r	r
a	a
c	c
h	h
e	e
n	n

__BEGIN__	__EPS__
d	d
i	i
e	e

__BEGIN__	__EPS__
d	d
i	i
r	e
r	s
e	er

__BEGIN__	__EPS__
r	r
e	e
d	d
e	e

__BEGIN__	__EPS__
v	u
n	n
d	d

__BEGIN__	__EPS__
s	s
y	ie

__BEGIN__	__EPS__
s	se
i	i
n	n

__BEGIN__	__EPS__
i	i
c	c
h	h

__BEGIN__	__EPS__
d	d
i	i
e	e

__BEGIN__	__EPS__
w	w
a	a
s	r

__BEGIN__	__EPS__
d	d
e	e
r	r

__BEGIN__	__EPS__
p	p
y	i
l	l
a	a
t	t
u	u
s	s

__BEGIN__	__EPS__
v	v
o	o
n	n

__BEGIN__	__EPS__
s	s
t	t
o	a
n	n
t	d

__BEGIN__	__EPS__
e	e
i	i
n	n

__BEGIN__	__EPS__
d	d
o	a
e	__EPS__

__BEGIN__	__EPS__
r	r
e	i
c	c
h	h
t	t
h	h
o	a
u	u
s	s

__BEGIN__	__EPS__
s	s
y	ie

__BEGIN__	__EPS__
m	m
a	a
r	r
t	t
e	e
r	r

__BEGIN__	__EPS__
r	r
e	e
g	g
e	e
n	n

__BEGIN__	__EPS__
m	m
o	o
c	c
h	h
t	te

__BEGIN__	__EPS__
d	d
e	e
n	m

__BEGIN__	__EPS__
e	e
y	i
n	n
e	e
r	r

__BEGIN__	__EPS__
d	d
i	i
e	e

__BEGIN__	__EPS__
s	s
p	p
r	r
a	a
c	c
h	h

__BEGIN__	__EPS__
a	a
ü	u
c	c
h	h

__BEGIN__	__EPS__
r	r
e	e
u	u

__BEGIN__	__EPS__
d	d
o	a

__BEGIN__	__EPS__
s	s
p	p
r	r
a	a
c	c
h	h

__BEGIN__	__EPS__
d	d
i	i
e	e

__BEGIN__	__EPS__
y	je
d	d
o	o
c	c
h	h

__BEGIN__	__EPS__
o	u
m	m

__BEGIN__	__EPS__
f	f
v	üh
r	r
t	t
e	e

__BEGIN__	__EPS__
w	w
a	a
r	r
e	e
n	n

__BEGIN__	__EPS__
c	__EPS__
z	z
w	u

__BEGIN__	__EPS__
d	d
u	u

__BEGIN__	__EPS__
m	m
i	i
t	t

__BEGIN__	__EPS__
y	j
o	o
h	h
a	a
n	n
n	n
e	e
s	s

__BEGIN__	__EPS__
l	l
e	e
i	i
b	b
e	e
s	s

__BEGIN__	__EPS__
s	s
y	ie

__BEGIN__	__EPS__
d	d
i	i
e	e

__BEGIN__	__EPS__
d	d
a	a

__BEGIN__	__EPS__
e	e
r	r

__BEGIN__	__EPS__
g	g
e	e
c	k
r	re
ü	u
t	__EPS__
z	z
i	i
g	g
e	__EPS__
t	t

__BEGIN__	__EPS__
v	u
n	n
d	d

__BEGIN__	__EPS__
e	e
y	i
n	n

__BEGIN__	__EPS__
v	u
n	n
d	d
e	__EPS__

__BEGIN__	__EPS__
s	s
t	t
u	__EPS__
o	a
n	n
d	d

__BEGIN__	__EPS__
w	w
e	e
r	r

__BEGIN__	__EPS__
l	l
e	e
u	u
t	t
e	e

__BEGIN__	__EPS__
g	g
e	e
w	w
a	a
n	n
t	d

__BEGIN__	__EPS__
t	t
o	o
d	d

__BEGIN__	__EPS__
m	m
e	e
i	i
n	n

__BEGIN__	__EPS__
e	e
r	r

__BEGIN__	__EPS__
t	t
o	o
t	t

__BEGIN__	__EPS__
n	n
i	i
e	ch
t	t

__BEGIN__	__EPS__
u	u
n	n
d	d

__BEGIN__	__EPS__
d	d
u	u
e	__EPS__

__BEGIN__	__EPS__
d	d
o	a

__BEGIN__	__EPS__
a	a
n	n
s	s
h	__EPS__
e	e
l	l
m	m

__BEGIN__	__EPS__
h	h
e	a
t	t
t	__EPS__

__BEGIN__	__EPS__
d	d
o	a

__BEGIN__	__EPS__
s	s
e	eh
r	r

__BEGIN__	__EPS__
m	m
i	i
r	r

__BEGIN__	__EPS__
s	s
e	e
i	i
n	n

__BEGIN__	__EPS__
d	d
i	i
e	e

__BEGIN__	a
v	u
f	f
r	r
i	i
e	__EPS__
c	c
h	h
t	t
e	e
n	n

__BEGIN__	__EPS__
e	i
m	h
e	m

__BEGIN__	__EPS__
d	d
e	e
m	m

__BEGIN__	__EPS__
n	n
y	i
m	mm

__BEGIN__	__EPS__
g	g
i	i
e	__EPS__
n	n
g	g

__BEGIN__	__EPS__
d	d
i	i
e	e

__BEGIN__	__EPS__
c	k
r	r
e	e
u	u
c	__EPS__
z	z

__BEGIN__	__EPS__
z	z
u	u
o	__EPS__

__BEGIN__	__EPS__
w	w
a	a
s	r
z	__EPS__

__BEGIN__	__EPS__
s	s
y	i
m	m
o	o
n	n

__BEGIN__	__EPS__
v	v
e	e
r	r
n	n
o	o
m	mm
e	e
n	n

__BEGIN__	__EPS__
a	a
l	l
t	t
e	e
r	r

__BEGIN__	__EPS__
w	w
a	ah
r	r

__BEGIN__	__EPS__
h	h
u	i
l	l
f	f
f	__EPS__
e	e

__BEGIN__	__EPS__
i	i
c	c
h	h

__BEGIN__	__EPS__
k	k
y	i
n	n
d	d
e	e
s	s

__BEGIN__	__EPS__
h	g
e	este
i	r
n	n
t	__EPS__

__BEGIN__	__EPS__
i	i
c	c
h	h

__BEGIN__	__EPS__
w	w
e	e
g	g
e	e
n	n

__BEGIN__	__EPS__
v	v
o	o
n	n

__BEGIN__	__EPS__
s	s
i	i
c	e
h	h

__BEGIN__	__EPS__
h	__EPS__
e	e
r	r

__BEGIN__	__EPS__
d	d
a	as
s	s

__BEGIN__	__EPS__
d	d
a	a

__BEGIN__	__EPS__
e	e
r	r
s	s
c	c
h	h
e	e
i	i
n	ne

__BEGIN__	__EPS__
v	u
n	n
d	d

__BEGIN__	__EPS__
e	e
d	d
e	__EPS__
l	le
n	n

__BEGIN__	__EPS__
i	i
c	c
h	h

__BEGIN__	__EPS__
s	s
e	e
i	i
n	n

__BEGIN__	__EPS__
s	s
c	c
h	h
a	ä
n	n
d	det

__BEGIN__	__EPS__
v	v
o	o
n	n

__BEGIN__	__EPS__
i	i
c	c
h	h

__BEGIN__	__EPS__
z	z
e	e
r	r
b	b
r	r
e	e
c	c
h	h
e	e
n	n

__BEGIN__	__EPS__
a	a
l	l
s	s
o	o

__BEGIN__	__EPS__
v	u
n	n
d	d

__BEGIN__	a
v	ufe
r	r
s	s
t	t
e	ehu
n	n
d	g

__BEGIN__	__EPS__
k	k
y	eh
r	r
e	e
n	n

__BEGIN__	__EPS__
n	g
a	e
e	s
c	t
h	e
t	r
t	n

__BEGIN__	__EPS__
k	k
i	i
n	n
t	d

__BEGIN__	__EPS__
v	u
n	n
d	d

__BEGIN__	__EPS__
a	a
n	n

__BEGIN__	__EPS__
m	m
i	i
t	t

__BEGIN__	__EPS__
s	s
e	e
i	i
n	n

__BEGIN__	__EPS__
e	e
x	x

__BEGIN__	__EPS__
i	i
n	n

__BEGIN__	__EPS__
l	l
a	ass

__BEGIN__	__EPS__
l	l
e	e
g	g
e	__EPS__
t	t
e	e
n	n

__BEGIN__	__EPS__
d	da
z	ss

__BEGIN__	__EPS__
h	h
a	ä
n	n
g	g
e	e
n	n

__BEGIN__	__EPS__
s	s
v	i
i	e

__BEGIN__	__EPS__
e	e
r	r

__BEGIN__	__EPS__
s	s
p	p
r	r
a	a
c	c
h	h

__BEGIN__	__EPS__
l	l
i	i
e	e
b	b
e	e

__BEGIN__	__EPS__
f	f
u	ü
r	r

__BEGIN__	__EPS__
h	h
e	e
r	r
c	__EPS__
z	z
e	__EPS__

__BEGIN__	__EPS__
m	m
a	a
x	x
i	i
l	l
l	l
i	i
s	s

__BEGIN__	__EPS__
n	n
u	ah
m	m
e	e
n	n

__BEGIN__	__EPS__
s	s
p	p
r	r
a	a
c	c
h	h

__BEGIN__	__EPS__
e	nich
n	t

__BEGIN__	__EPS__
d	d
a	a
v	v
o	o
n	n

__BEGIN__	__EPS__
e	e
s	s

__BEGIN__	__EPS__
s	s
i	ie

__BEGIN__	__EPS__
e	e
i	i
n	n

__BEGIN__	__EPS__
n	n
i	i
m	m
p	m
t	t

__BEGIN__	__EPS__
e	e
r	r

__BEGIN__	__EPS__
d	d
a	a
s	ss

__BEGIN__	__EPS__
z	z
a	a
r	r
t	t
e	e
s	s

__BEGIN__	__EPS__
n	n
o	o
c	c
h	h

__BEGIN__	__EPS__
m	m
i	i
r	r

__BEGIN__	__EPS__
u	u
n	n
d	d

__BEGIN__	__EPS__
v	v
a	a
t	t
e	e
r	r

__BEGIN__	__EPS__
a	a
l	l
s	s

__BEGIN__	__EPS__
g	g
e	e
i	i
s	s
t	t

__BEGIN__	__EPS__
v	v
o	o
n	n

__BEGIN__	__EPS__
y	i
m	h
e	m

__BEGIN__	__EPS__
m	m
i	i
t	t

__BEGIN__	__EPS__
i	ih
n	n

__BEGIN__	__EPS__
d	d
e	e
r	r

__BEGIN__	__EPS__
i	ih
m	m

__BEGIN__	__EPS__
d	d
e	e
m	m

__BEGIN__	__EPS__
v	v
o	o
n	n

__BEGIN__	__EPS__
p	b
o	o
t	t
e	e
n	n

__BEGIN__	__EPS__
w	w
a	a
n	n
g	g
e	e
n	n

__BEGIN__	__EPS__
h	h
e	e
r	rr

__BEGIN__	__EPS__
s	s
p	p
r	r
a	a
c	c
h	h
e	e
n	n

__BEGIN__	__EPS__
e	e
r	r
l	l
o	o
s	s
c	c
h	h
e	e
n	n

__BEGIN__	__EPS__
v	v
o	o
n	n

__BEGIN__	__EPS__
w	w
i	i
s	s
s	s
e	e
n	n

__BEGIN__	__EPS__
y	ih
m	m

__BEGIN__	__EPS__
e	e
r	r

__BEGIN__	__EPS__
a	a
l	l
s	s
o	o

__BEGIN__	__EPS__
d	d
y	i
e	e

__BEGIN__	__EPS__
t	t
o	o
d	d
e	e

__BEGIN__	__EPS__
a	a
n	n

__BEGIN__	__EPS__
s	s
y	ie

__BEGIN__	__EPS__
h	h
a	abe
n	n

__BEGIN__	__EPS__
i	i
c	c
h	h

__BEGIN__	__EPS__
a	a
n	n

__BEGIN__	__EPS__
d	d
o	a

__BEGIN__	__EPS__
s	s
a	o
l	ll
t	t

__BEGIN__	__EPS__
s	s
p	p
r	r
a	a
c	c
h	h

__BEGIN__	__EPS__
s	s
e	eh
r	r

__BEGIN__	__EPS__
s	s
y	ie

__BEGIN__	__EPS__
h	h
e	e
r	r
n	ni
e	e
d	d
e	e
r	r

__BEGIN__	__EPS__
i	ih
m	m

__BEGIN__	__EPS__
a	a
n	n
d	d
e	e
r	re
n	n

__BEGIN__	__EPS__
v	u
n	n
d	d

__BEGIN__	__EPS__
g	__EPS__
e	__EPS__
t	t
r	r
o	ö
s	s
t	t
e	e
n	n

__BEGIN__	__EPS__
s	s
e	e
y	i
n	n
e	e
r	r

__BEGIN__	__EPS__
n	n
i	i
c	c
h	h
t	t

__BEGIN__	__EPS__
v	f
o	o
r	r
t	t

__BEGIN__	__EPS__
c	__EPS__
z	z
e	e
i	i
c	c
h	h
e	e
n	n

__BEGIN__	__EPS__
s	s
i	i
c	c
h	h

__BEGIN__	__EPS__
s	se
i	i
n	n
e	e
n	n

__BEGIN__	__EPS__
k	k
o	a
m	m

__BEGIN__	__EPS__
i	i
n	n

__BEGIN__	__EPS__
c	k
h	__EPS__
o	a
m	m

__BEGIN__	__EPS__
d	d
a	a
z	s

__BEGIN__	__EPS__
n	n
y	i
e	e

__BEGIN__	__EPS__
q	k
u	__EPS__
a	a
m	m
e	e
n	n

__BEGIN__	__EPS__
d	d
y	i
e	e

__BEGIN__	__EPS__
s	s
i	i
c	c
h	h

__BEGIN__	__EPS__
s	s
a	a
n	nd
t	t
e	e

__BEGIN__	__EPS__
c	k
r	r
o	o
n	ne

__BEGIN__	__EPS__
s	s
i	ie

__BEGIN__	__EPS__
d	d
e	e
r	r

__BEGIN__	__EPS__
v	v
i	i
l	e
l	l

__BEGIN__	__EPS__
d	d
a	a
z	s

__BEGIN__	__EPS__
m	m
a	a
n	n

__BEGIN__	__EPS__
g	g
o	o
t	t
t	t
e	e
s	s

__BEGIN__	__EPS__
m	m
u	u
n	n
d	d

__BEGIN__	__EPS__
g	g
r	r
o	o
s	s
z	s

__BEGIN__	__EPS__
d	de
i	i
n	n

__BEGIN__	__EPS__
g	g
e	e
h	h
a	a
n	n
g	g
e	e
n	n

__BEGIN__	__EPS__
t	t
r	r
o	o
i	__EPS__
s	s
t	t

__BEGIN__	__EPS__
d	d
o	a

__BEGIN__	__EPS__
h	h
a	a
r	r
d	t
e	e
n	n

__BEGIN__	__EPS__
v	u
n	n
g	g
e	__EPS__
l	l
e	e
i	i
c	c
h	h

__BEGIN__	__EPS__
i	i
c	c
h	h

__BEGIN__	__EPS__
g	g
e	e
h	h
o	ö
i	__EPS__
r	r
t	t

__BEGIN__	__EPS__
b	b
e	e
r	r
u	u
o	__EPS__
f	f
t	t

__BEGIN__	__EPS__
k	k
a	a
m	m

__BEGIN__	__EPS__
d	verr
o	ü
l	c
l	kt

__BEGIN__	__EPS__
s	s
e	e
l	l
b	b
s	st

__BEGIN__	a
v	u
f	f

__BEGIN__	__EPS__
t	__EPS__
z	z
o	o
g	g
e	e
n	n

__BEGIN__	__EPS__
s	s
i	i
c	e
h	h

__BEGIN__	__EPS__
d	d
a	a

__BEGIN__	__EPS__
n	n
u	u
n	n

__BEGIN__	__EPS__
i	ih
m	m

__BEGIN__	__EPS__
v	u
n	n
g	g
e	e
m	m
a	a
c	c
h	h

__BEGIN__	__EPS__
g	g
e	e
p	b
e	e
t	t

__BEGIN__	__EPS__
v	u
n	n
d	d

__BEGIN__	__EPS__
l	l
e	e
g	g
t	t

__BEGIN__	__EPS__
d	d
a	a
s	ss

__BEGIN__	__EPS__
o	o
w	w
e	eh

__BEGIN__	__EPS__
t	__EPS__
z	z
o	u

__BEGIN__	__EPS__
s	s
i	i
e	e

__BEGIN__	__EPS__
z	z
u	u
o	__EPS__

__BEGIN__	__EPS__
h	h
e	e
l	l
i	i

__BEGIN__	__EPS__
m	m
a	a
r	r
i	i
a	a

__BEGIN__	__EPS__
d	d
r	r
e	e
y	i
e	e
n	n

__BEGIN__	__EPS__
a	a
l	l
l	l

__BEGIN__	__EPS__
y	ih
m	m

__BEGIN__	__EPS__
d	d
y	ie

__BEGIN__	__EPS__
w	w
y	i
r	r

__BEGIN__	__EPS__
v	v
e	e
r	r
l	l
a	__EPS__
e	e
u	u
g	g
e	__EPS__
n	ne
t	t

__BEGIN__	__EPS__
v	u
n	n
d	d

__BEGIN__	__EPS__
i	ih
n	n

__BEGIN__	__EPS__
a	a
l	l
l	l

__BEGIN__	__EPS__
a	a
n	n

__BEGIN__	__EPS__
s	sch
m	m
o	a
h	__EPS__
e	__EPS__
i	c
t	h

__BEGIN__	__EPS__
e	e
i	i
n	n

__BEGIN__	__EPS__
m	me
i	i
n	n
e	e

__BEGIN__	__EPS__
g	g
e	e
s	s
e	e
l	l
l	l
e	e

__BEGIN__	__EPS__
s	s
p	p
r	r
a	a
c	c
h	h

__BEGIN__	__EPS__
o	a
u	u
c	c
h	h

__BEGIN__	__EPS__
n	n
u	un

__BEGIN__	__EPS__
z	z
u	u

__BEGIN__	__EPS__
s	s
u	ü
n	n
d	de

__BEGIN__	__EPS__
z	z
ü	u

__BEGIN__	__EPS__
t	z
h	__EPS__
e	i
n	n
s	s

__BEGIN__	__EPS__
k	k
u	om
m	m
e	e
n	n

__BEGIN__	__EPS__
a	a
l	l
s	s
o	o

__BEGIN__	__EPS__
s	s
e	e
r	h
e	r

__BEGIN__	__EPS__
d	d
e	e
r	r

__BEGIN__	__EPS__
s	s
y	ie

__BEGIN__	__EPS__
t	t
e	a
t	t
e	e
n	n

__BEGIN__	__EPS__
d	d
e	e
m	m

__BEGIN__	__EPS__
y	ih
r	r

__BEGIN__	__EPS__
l	l
a	a
n	n
d	d
e	__EPS__

__BEGIN__	__EPS__
v	u
n	n
d	d

__BEGIN__	__EPS__
i	ih
m	m

__BEGIN__	__EPS__
f	f
u	üh
r	r
t	t
e	e
n	n

__BEGIN__	__EPS__
m	m
i	i
t	t

__BEGIN__	__EPS__
i	i
c	c
h	h

__BEGIN__	__EPS__
m	m
i	i
c	c
h	h

__BEGIN__	__EPS__
w	w
i	i
e	e

__BEGIN__	__EPS__
s	s
c	c
h	h
a	ä
c	c
h	h
e	e
r	r
n	n

__BEGIN__	__EPS__
v	u
n	n
d	d

__BEGIN__	__EPS__
s	s
t	t
u	u
n	n
t	de

__BEGIN__	__EPS__
s	s
t	t
o	o
z	s
z	s
e	e
n	n

__BEGIN__	__EPS__
g	g
r	r
a	a
b	b
e	__EPS__

__BEGIN__	__EPS__
w	w
a	a
s	r

__BEGIN__	__EPS__
p	b
i	i
n	n

__BEGIN__	__EPS__
d	d
c	as

__BEGIN__	__EPS__
d	t
o	u
n	n

__BEGIN__	__EPS__
d	d
i	i
e	e

__BEGIN__	__EPS__
y	ih
n	n

__BEGIN__	__EPS__
v	u
n	n
s	s

__BEGIN__	__EPS__
s	s
y	ie

__BEGIN__	__EPS__
f	__EPS__
r	e
a	n
i	t
s	set
s	z
l	l
i	i
c	c
h	h

__BEGIN__	__EPS__
m	m
e	e
i	i
n	n

__BEGIN__	__EPS__
w	w
a	a
s	r

__BEGIN__	__EPS__
c	c
a	a
l	l
u	v
a	a
r	r
i	i
e	e

__BEGIN__	__EPS__
s	s
y	ie

__BEGIN__	__EPS__
k	k
i	i
n	n
t	d

__BEGIN__	__EPS__
d	da
z	ss

__BEGIN__	__EPS__
c	__EPS__
z	z
a	e
i	i
c	c
h	h
e	e
n	n

__BEGIN__	__EPS__
k	k
i	i
n	n
t	d

__BEGIN__	__EPS__
h	h
o	ö
e	r
r	e

__BEGIN__	__EPS__
v	u
n	n
d	d

__BEGIN__	__EPS__
d	d
a	a
s	s

__BEGIN__	__EPS__
i	i
n	n

__BEGIN__	__EPS__
s	s
e	e
i	i
n	n
e	e
r	r

__BEGIN__	__EPS__
i	i
s	s
t	t

__BEGIN__	__EPS__
l	la
u	u
t	t
e	e
r	r

__BEGIN__	__EPS__
v	u
m	m

__BEGIN__	n
e	ich
n	t

__BEGIN__	__EPS__
h	e
e	r

__BEGIN__	__EPS__
h	e
e	r

__BEGIN__	__EPS__
d	d
e	e
r	r

__BEGIN__	__EPS__
s	s
e	e
i	i
n	n

__BEGIN__	__EPS__
d	d
a	a

__BEGIN__	__EPS__
m	m
o	oc
h	h
t	te

__BEGIN__	__EPS__
g	g
e	e
g	g
e	e
n	n

__BEGIN__	__EPS__
h	h
a	a
t	t

__BEGIN__	__EPS__
s	s
c	c
h	h
a	a
m	m

__BEGIN__	__EPS__
e	e
r	r

__BEGIN__	__EPS__
s	s
c	c
h	h
r	r
i	i
r	e
n	n

__BEGIN__	__EPS__
m	m
i	i
t	t

__BEGIN__	__EPS__
v	u
n	n
d	d

__BEGIN__	__EPS__
a	a
l	l
s	s

__BEGIN__	__EPS__
s	s
e	e
i	i
n	n

__BEGIN__	__EPS__
v	u
n	n
d	d

__BEGIN__	__EPS__
i	ih
n	n

__BEGIN__	__EPS__
c	c
a	a
l	l
u	v
a	a
r	r
i	i
e	e

__BEGIN__	__EPS__
k	k
i	i
n	n
t	d

__BEGIN__	__EPS__
b	b
r	r
u	u
s	s
t	t

__BEGIN__	__EPS__
b	b
o	o
u	v
e	e
n	n

__BEGIN__	__EPS__
e	e
r	r
l	l
o	a
v	u
b	b
e	__EPS__
s	s
t	t

__BEGIN__	__EPS__
s	s
i	ie

__BEGIN__	__EPS__
v	u
n	n
s	se
r	r
i	e

__BEGIN__	__EPS__
s	s
o	o

__BEGIN__	__EPS__
d	d
i	i
n	n
g	g
k	__EPS__

__BEGIN__	__EPS__
d	d
a	as
z	s

__BEGIN__	__EPS__
d	t
o	o
i	__EPS__
t	t

__BEGIN__	__EPS__
d	d
e	e
r	r

__BEGIN__	__EPS__
d	d
r	r
i	i
t	t
t	t
e	e
n	n

__BEGIN__	__EPS__
b	g
e	e
n	n
u	u
g	g
e	__EPS__
n	__EPS__

__BEGIN__	__EPS__
a	a
u	u
g	g
u	u
s	st

__BEGIN__	__EPS__
d	d
o	a

__BEGIN__	__EPS__
i	ih
n	n

__BEGIN__	__EPS__
i	i
n	n

__BEGIN__	__EPS__
k	k
e	e
y	i
n	n
e	e

__BEGIN__	__EPS__
s	s
o	o

__BEGIN__	__EPS__
v	u
n	n
t	t
e	e
r	r

__BEGIN__	__EPS__
h	h
a	a
b	b
e	e
n	n

__BEGIN__	__EPS__
s	s
t	t
u	a
n	n
d	d
e	e
n	n

__BEGIN__	__EPS__
v	v
e	e
r	r
b	w
u	u
n	n
d	de
t	t

__BEGIN__	__EPS__
s	s
a	a
n	nk
t	t

__BEGIN__	__EPS__
s	s
c	c
h	h
n	n
e	e
y	i
t	d
t	e

__BEGIN__	__EPS__
g	g
e	e
b	b
e	e
n	n

__BEGIN__	__EPS__
s	s
p	p
r	r
a	a
c	c
h	h

__BEGIN__	__EPS__
v	u
n	n
d	d

__BEGIN__	__EPS__
h	h
e	e
r	r

__BEGIN__	__EPS__
v	u
n	n
d	d

__BEGIN__	__EPS__
v	u
n	n
d	d

__BEGIN__	__EPS__
e	e
r	r
h	h
a	a
b	b
e	en

__BEGIN__	__EPS__
e	nich
n	t

__BEGIN__	__EPS__
i	e
r	r
s	s
t	t
a	a
r	r
p	b

__BEGIN__	__EPS__
m	m
o	__EPS__
e	e
n	n
s	s
c	c
h	h

__BEGIN__	__EPS__
a	a
b	b
e	e
r	r

__BEGIN__	__EPS__
s	s
i	i
e	e

__BEGIN__	__EPS__
s	s
a	a
n	nk
t	t

__BEGIN__	__EPS__
i	i
c	c
h	h

__BEGIN__	__EPS__
v	u
n	n
d	d

__BEGIN__	__EPS__
g	v
e	er
t	t
r	r
u	a
w	u
i	__EPS__
t	t

__BEGIN__	__EPS__
s	s
t	t
u	ö
s	s
s	s
e	e
s	s
t	t

__BEGIN__	__EPS__
c	k
h	__EPS__
r	r
e	e
v	u
t	__EPS__
z	z
e	e
n	n

__BEGIN__	__EPS__
q	k
u	__EPS__
a	a
m	m

__BEGIN__	__EPS__
m	m
i	i
r	r

__BEGIN__	__EPS__
a	a
u	u
c	c
h	h

__BEGIN__	__EPS__
h	h
a	a
u	u
s	s
e	__EPS__

__BEGIN__	__EPS__
d	d
i	i
e	e

__BEGIN__	__EPS__
c	k
h	__EPS__
i	i
n	n
d	d
e	e
s	s

__BEGIN__	__EPS__
p	b
l	l
i	i
n	n
t	d
t	__EPS__
e	e
n	n

__BEGIN__	__EPS__
d	d
i	i
e	e

__BEGIN__	__EPS__
p	p
e	e
t	t
e	r
r	us

__BEGIN__	__EPS__
d	d
a	a
t	s

__BEGIN__	__EPS__
i	j
o	u
e	__EPS__
d	d
e	e
n	n

__BEGIN__	__EPS__
z	z
e	e
r	r
z	ze
a	r
r	r
t	t
e	e

__BEGIN__	__EPS__
w	w
a	a
s	r

__BEGIN__	__EPS__
s	s
c	c
h	h
u	u
l	l
d	d

__BEGIN__	__EPS__
t	t
o	o
c	c
h	h
t	t
e	e
r	r

__BEGIN__	__EPS__
c	__EPS__
z	z
u	u

__BEGIN__	__EPS__
s	s
e	e
i	i
n	n

__BEGIN__	__EPS__
a	a
n	n

__BEGIN__	__EPS__
t	z
o	u
t	__EPS__

__BEGIN__	__EPS__
m	m
e	e
i	i
n	n

__BEGIN__	a
v	u
p	f

__BEGIN__	__EPS__
f	f
r	r
o	e
e	u
d	de

__BEGIN__	__EPS__
d	d
o	a

__BEGIN__	__EPS__
w	w
i	i
l	lls
t	t

__BEGIN__	a
v	u
p	f

__BEGIN__	__EPS__
i	i
s	s
t	t

__BEGIN__	__EPS__
i	j
u	ü
n	n
g	g
e	e
r	r
e	__EPS__
n	n

__BEGIN__	__EPS__
v	ü
b	b
e	__EPS__
l	l
n	e

__BEGIN__	__EPS__
w	w
a	a
s	r

__BEGIN__	__EPS__
b	b
e	e
g	g
r	r
o	u
i	__EPS__
f	b
f	__EPS__

__BEGIN__	__EPS__
s	s
e	e
c	__EPS__
h	h
e	e
n	n
d	__EPS__

__BEGIN__	__EPS__
g	g
e	e
b	b
o	o
r	r
r	e
n	n

__BEGIN__	__EPS__
e	e
r	r
f	f
ü	ü
l	ll
t	t

__BEGIN__	__EPS__
m	m
a	oc
h	h
t	te

__BEGIN__	__EPS__
i	j
o	o
s	s
e	e
p	p
h	h

__BEGIN__	__EPS__
m	m
e	e
i	i
n	n

__BEGIN__	__EPS__
s	s
y	ie

__BEGIN__	__EPS__
d	d
e	e
r	r

__BEGIN__	__EPS__
t	t
v	u
t	t

__BEGIN__	__EPS__
s	s
o	o

__BEGIN__	__EPS__
a	a
n	n
s	s
h	__EPS__
e	e
l	l
m	m

__BEGIN__	__EPS__
b	b
e	e
d	d
o	ü
r	r
f	f
f	__EPS__
e	e
n	n

__BEGIN__	__EPS__
d	d
i	i
r	r

__BEGIN__	__EPS__
i	i
c	c
h	h

__BEGIN__	__EPS__
w	w
i	i
l	l
l	l

__BEGIN__	__EPS__
m	m
i	i
t	t

__BEGIN__	__EPS__
v	b
n	i
z	s

__BEGIN__	__EPS__
d	d
a	a
s	s

__BEGIN__	__EPS__
s	s
e	eh
r	r
e	__EPS__

__BEGIN__	__EPS__
m	me
y	i
n	n
e	e

__BEGIN__	__EPS__
p	p
y	i
l	l
a	a
t	t
o	us

__BEGIN__	__EPS__
i	ih
n	n

__BEGIN__	__EPS__
e	e
r	r
s	s
c	c
h	h
r	r
a	a
c	k
h	__EPS__
e	e
n	n

__BEGIN__	__EPS__
g	g
e	e
b	b
i	i
l	l
d	d
o	e
t	t

__BEGIN__	__EPS__
m	v
a	i
n	__EPS__
i	e
g	l
e	e
r	r
l	l
a	e
y	i

__BEGIN__	__EPS__
d	d
i	i
e	e

__BEGIN__	__EPS__
s	sc
h	h
a	ä
c	c
h	h
e	e
r	r

__BEGIN__	__EPS__
q	k
u	__EPS__
a	a
m	m

__BEGIN__	__EPS__
e	e
r	r

__BEGIN__	__EPS__
d	d
i	i
e	e

__BEGIN__	__EPS__
h	h
a	a
t	t
t	te

__BEGIN__	__EPS__
a	a
l	l
s	s
o	o

__BEGIN__	__EPS__
w	w
a	a
z	r

__BEGIN__	__EPS__
m	m
i	i
t	t

__BEGIN__	__EPS__
w	w
i	ie
d	d
e	e
r	r

__BEGIN__	__EPS__
a	a
n	n

__BEGIN__	__EPS__
s	s
c	c
h	h
r	r
e	e
i	i
b	b
e	e
r	r

__BEGIN__	__EPS__
i	i
c	c
h	h

__BEGIN__	__EPS__
m	m
e	e
i	i
n	n
e	e
m	m

__BEGIN__	__EPS__
g	g
r	r
o	o
s	s
s	s
e	e
m	m

__BEGIN__	__EPS__
v	v
o	o
l	l
k	k

__BEGIN__	__EPS__
a	e
i	i
n	n
e	e
r	r

__BEGIN__	__EPS__
v	u
n	n
d	d
e	__EPS__

__BEGIN__	__EPS__
d	d
i	i
e	e

__BEGIN__	e
b	m
e	p
v	f
i	i
n	n
d	d
e	e
s	s
t	t

__BEGIN__	d
u	u

__BEGIN__	__EPS__
p	p
a	e
r	ss
a	a
s	__EPS__
c	c
e	__EPS__
u	__EPS__
e	__EPS__
n	h

__BEGIN__	__EPS__
v	a
y	u
s	__EPS__
s	s

__BEGIN__	__EPS__
s	s
y	ie

__BEGIN__	__EPS__
d	d
o	o
r	r
n	n

__BEGIN__	__EPS__
v	u
n	n
d	d

__BEGIN__	__EPS__
v	u
n	n
d	d

__BEGIN__	__EPS__
g	g
e	e
k	k
a	a
u	u
f	f
f	__EPS__
e	__EPS__
t	t

__BEGIN__	__EPS__
i	j
o	o
h	h
a	a
n	n
n	n
e	e
n	s

__BEGIN__	__EPS__
i	i
c	c
h	h

__BEGIN__	__EPS__
w	w
a	a
r	r
e	e
n	n

__BEGIN__	__EPS__
s	s
i	i
n	n
d	d

__BEGIN__	__EPS__
d	de
i	i
n	n
e	e
n	n

__BEGIN__	__EPS__
s	se
i	i
n	n

__BEGIN__	__EPS__
a	a
l	l
s	s
o	o

__BEGIN__	__EPS__
d	d
a	e
n	n
n	n
o	o
c	c
h	h

__BEGIN__	__EPS__
m	m
a	a
g	g
d	d
a	a
l	l
e	e
n	n
a	a

__BEGIN__	__EPS__
k	k
a	a
m	m

__BEGIN__	__EPS__
z	z
u	u
o	__EPS__

__BEGIN__	__EPS__
c	k
r	r
u	e
t	u
z	z

__BEGIN__	__EPS__
g	g
a	eh
e	e
n	n

__BEGIN__	__EPS__
i	i
n	n

__BEGIN__	__EPS__
c	__EPS__
z	z
i	e
e	i
t	t
h	__EPS__

__BEGIN__	__EPS__
w	w
e	e
n	nn

__BEGIN__	__EPS__
m	m
i	i
t	t

__BEGIN__	__EPS__
a	a
n	n

__BEGIN__	__EPS__
v	u
n	n
d	d

__BEGIN__	__EPS__
a	a
n	n

__BEGIN__	__EPS__
d	d
a	a
s	s

__BEGIN__	__EPS__
a	e
i	i
n	n
e	e
n	m

__BEGIN__	__EPS__
y	j
a	a
c	c
k	__EPS__
o	o
b	b
u	u
s	s

__BEGIN__	__EPS__
i	j
o	o
h	h
a	a
n	nn
e	e
m	s

__BEGIN__	__EPS__
v	v
o	o
n	n

__BEGIN__	__EPS__
w	we
i	i
s	s
e	e
r	r

__BEGIN__	__EPS__
g	g
e	e
n	n
i	i
e	e
z	s
z	s
e	e
n	n

__BEGIN__	__EPS__
i	ih
r	r

__BEGIN__	__EPS__
d	d
i	i
e	e

__BEGIN__	__EPS__
s	s
i	e
e	i
n	n
e	e
m	m

__BEGIN__	__EPS__
s	s
p	p
r	r
a	a
c	c
h	h

__BEGIN__	__EPS__
w	we
y	i
p	__EPS__
p	b

__BEGIN__	__EPS__
m	m
e	e
n	n
s	s
c	c
h	h

__BEGIN__	__EPS__
d	d
a	a

__BEGIN__	__EPS__
n	n
i	i
t	ch
t	t

__BEGIN__	__EPS__
a	a
n	n
t	t
w	w
u	o
r	r
t	tete

__BEGIN__	__EPS__
a	a
l	l
l	l
e	e
s	s

__BEGIN__	__EPS__
n	n
o	o
c	c
h	h

__BEGIN__	__EPS__
s	s
t	t
o	ö
s	s
s	s
e	e
n	n

__BEGIN__	__EPS__
v	l
a	a
s	u
t	t
e	__EPS__

__BEGIN__	__EPS__
g	g
e	e
s	s
t	t
e	e
r	rn

__BEGIN__	__EPS__
b	b
o	ö
e	__EPS__
s	s
e	e

__BEGIN__	__EPS__
s	s
y	ie

__BEGIN__	__EPS__
d	das

__BEGIN__	__EPS__
i	ih
m	m

__BEGIN__	__EPS__
e	e
r	r

__BEGIN__	__EPS__
k	k
a	a
n	nn

__BEGIN__	__EPS__
m	m
y	i
t	t

__BEGIN__	__EPS__
s	s
p	p
r	r
a	a
c	c
h	h

__BEGIN__	__EPS__
i	i
c	c
h	h

__BEGIN__	__EPS__
a	a
n	n
s	s
h	__EPS__
e	e
l	l
m	m

__BEGIN__	__EPS__
m	m
a	a
g	g

__BEGIN__	__EPS__
h	h
i	i
e	e
s	ss

__BEGIN__	__EPS__
m	m
e	e
i	i
n	n

__BEGIN__	__EPS__
k	k
i	i
n	n
d	d

__BEGIN__	__EPS__
u	u
n	n
d	d

__BEGIN__	__EPS__
v	u
n	n
d	d

__BEGIN__	__EPS__
m	me
i	i
n	n

__BEGIN__	__EPS__
m	m
a	oc
h	h
t	t
e	e

__BEGIN__	__EPS__
s	s
e	a
n	n
f	f
t	t
e	__EPS__
k	__EPS__
l	__EPS__
i	__EPS__
c	__EPS__
h	__EPS__

__BEGIN__	__EPS__
i	ih
n	n

__BEGIN__	__EPS__
e	e
r	r

__BEGIN__	__EPS__
m	m
i	i
t	t

__BEGIN__	__EPS__
b	b
l	l
v	u
o	__EPS__
t	t
e	__EPS__

__BEGIN__	__EPS__
r	r
u	u
f	f
t	t

__BEGIN__	__EPS__
z	z
u	o
g	g
e	e
n	n

__BEGIN__	__EPS__
d	d
i	i
e	e

__BEGIN__	__EPS__
d	__EPS__
w	w
u	usc
g	h

__BEGIN__	__EPS__
n	n
i	ic
e	h
t	t

__BEGIN__	__EPS__
s	s
a	a
n	nk
t	t

__BEGIN__	__EPS__
w	w
a	a
s	r

__BEGIN__	__EPS__
s	s
i	e
j	i
n	n

__BEGIN__	__EPS__
b	b
e	eg
n	n
u	ü
g	g
t	ten

__BEGIN__	__EPS__
v	u
n	n
u	ve
r	r
s	s
e	eh
r	r
t	t

__BEGIN__	__EPS__
g	g
e	e
r	r
i	i
c	c
h	h
t	t
e	e
s	s

__BEGIN__	__EPS__
n	n
u	un

__BEGIN__	__EPS__
m	m
e	e
i	i
n	n

__BEGIN__	__EPS__
m	me
i	i
n	n

__BEGIN__	__EPS__
m	m
e	e
i	i
n	n

__BEGIN__	__EPS__
d	d
v	i
i	e

__BEGIN__	__EPS__
d	d
y	ie

__BEGIN__	__EPS__
s	s
p	p
r	r
e	e
c	c
h	h
e	e
n	n

