__BEGIN__	__EPS__
s	s
p	p
r	r
a	a
c	c
h	h

__BEGIN__	__EPS__
n	n
i	i
c	c
h	h
t	t

__BEGIN__	__EPS__
s	s
e	e
r	h
e	r

__BEGIN__	__EPS__
g	g
e	e
s	s
t	t
o	o
c	c
h	h
e	e
n	n

__BEGIN__	__EPS__
k	k
i	i
n	n
d	d

__BEGIN__	__EPS__
i	i
n	n

__BEGIN__	__EPS__
s	s
a	a
c	__EPS__
h	h

__BEGIN__	__EPS__
s	s
c	c
h	h
r	re
i	i
b	b
e	e
n	n

__BEGIN__	__EPS__
s	m
p	u
ü	t
n	t
e	e
n	rbrust

__BEGIN__	__EPS__
s	s
i	ie

__BEGIN__	__EPS__
s	s
e	e
y	i

__BEGIN__	__EPS__
n	n
u	un

__BEGIN__	__EPS__
b	b
a	a
r	r
m	m
h	h
e	e
r	r
c	__EPS__
z	z
i	ig
k	k
e	e
i	i
t	t

__BEGIN__	__EPS__
r	r
a	e
i	i
n	n
e	e

__BEGIN__	__EPS__
s	s
e	e
i	i
n	n
e	e
n	n

__BEGIN__	__EPS__
l	l
a	a
i	s
s	s
t	t

__BEGIN__	__EPS__
a	a
n	n

__BEGIN__	__EPS__
c	__EPS__
h	k
r	r
a	e
w	u
c	__EPS__
z	z
e	__EPS__

__BEGIN__	__EPS__
y	ih
m	m

__BEGIN__	__EPS__
v	u
n	n
d	d

__BEGIN__	__EPS__
s	s
a	a
n	n
d	kt

__BEGIN__	__EPS__
d	d
o	a

__BEGIN__	__EPS__
s	s
o	o

__BEGIN__	__EPS__
s	s
o	o

__BEGIN__	__EPS__
d	d
a	a
z	ss

__BEGIN__	__EPS__
w	w
a	a
r	re
n	n

__BEGIN__	__EPS__
v	v
o	o
l	l
l	l
e	__EPS__
n	__EPS__
b	b
r	r
a	a
c	c
h	h
t	t
e	__EPS__

__BEGIN__	__EPS__
a	a
n	n
s	s
h	__EPS__
e	e
l	l
m	m
u	__EPS__
s	__EPS__

__BEGIN__	__EPS__
a	e
i	i
n	n
e	e
n	n

__BEGIN__	__EPS__
c	k
h	o
u	n
n	n
t	te

__BEGIN__	__EPS__
v	v
o	o
n	n

__BEGIN__	__EPS__
m	m
a	a
g	g
d	d
a	a
l	l
e	e
n	n
a	a

__BEGIN__	__EPS__
v	v
o	o
n	n

__BEGIN__	__EPS__
i	ih
n	n

__BEGIN__	__EPS__
v	u
n	n
d	d

__BEGIN__	__EPS__
e	e
r	r

__BEGIN__	__EPS__
r	r
e	e
c	c
h	h
t	t
e	e
r	r

__BEGIN__	__EPS__
w	w
e	e
l	l
t	t

__BEGIN__	__EPS__
s	s
i	ie

__BEGIN__	__EPS__
v	v
e	e
r	r
g	g
a	a
s	s
z	s

__BEGIN__	__EPS__
v	u
n	n
d	d

__BEGIN__	__EPS__
d	d
i	i
e	e

__BEGIN__	__EPS__
h	h
e	e
i	i
s	s
z	s
e	__EPS__
t	t

__BEGIN__	__EPS__
g	g
e	e
s	s
c	c
h	h
i	i
e	eh
t	t

__BEGIN__	__EPS__
v	u
n	n
d	d
e	__EPS__

__BEGIN__	__EPS__
d	d
o	a

__BEGIN__	__EPS__
i	ih
n	n

__BEGIN__	__EPS__
t	d
r	r
o	o
i	h
t	t
e	e
n	n

__BEGIN__	__EPS__
a	a
r	r
b	b
a	e
y	i
t	t

__BEGIN__	__EPS__
v	v
o	o
n	n

__BEGIN__	__EPS__
a	a
n	n

__BEGIN__	__EPS__
l	l
i	i
e	e
f	f
e	e
n	n

__BEGIN__	__EPS__
c	__EPS__
z	z
u	u

__BEGIN__	__EPS__
d	d
i	i
e	e

__BEGIN__	__EPS__
s	s
o	o

__BEGIN__	__EPS__
v	v
o	o
r	r

__BEGIN__	__EPS__
s	se
i	i
n	n
e	e
n	n

__BEGIN__	__EPS__
a	a
b	b
e	e
r	r

__BEGIN__	__EPS__
i	j
u	u
d	d
e	e
n	n

__BEGIN__	__EPS__
s	se
v	u
f	f
t	z
e	er

__BEGIN__	__EPS__
c	k
h	__EPS__
r	r
e	e
u	u
c	z
z	e

__BEGIN__	__EPS__
d	d
o	a

__BEGIN__	__EPS__
d	d
a	a
r	r
e	e
i	i
n	n

__BEGIN__	__EPS__
s	s
i	i
j	e

__BEGIN__	__EPS__
m	m
i	i
c	c
h	h

__BEGIN__	__EPS__
a	a
r	r
m	m

__BEGIN__	__EPS__
d	d
a	a

__BEGIN__	__EPS__
w	d
a	e
n	nn

__BEGIN__	__EPS__
v	u
n	n
d	d

__BEGIN__	__EPS__
d	d
o	a
m	m
i	i
t	t

__BEGIN__	__EPS__
i	i
c	c
h	h

__BEGIN__	__EPS__
y	i
n	n

__BEGIN__	__EPS__
v	u
n	n
d	d

__BEGIN__	__EPS__
i	u
n	n
d	d

__BEGIN__	__EPS__
a	a
l	l
s	s

__BEGIN__	__EPS__
a	a
l	l
l	l
e	e
n	n

__BEGIN__	__EPS__
p	p
y	i
l	l
a	a
t	t
u	u
s	s

__BEGIN__	__EPS__
v	u
n	n
n	__EPS__
d	d

__BEGIN__	__EPS__
d	d
i	i
e	e

__BEGIN__	__EPS__
e	e
r	r

__BEGIN__	__EPS__
v	u
n	n
d	d

__BEGIN__	__EPS__
e	e
r	r

__BEGIN__	__EPS__
r	r
u	u
e	__EPS__
f	f
f	__EPS__
t	t

__BEGIN__	__EPS__
d	d
y	i
r	r

__BEGIN__	__EPS__
g	g
e	e
n	n
a	a
n	nn
t	t

__BEGIN__	__EPS__
v	u
n	n
d	d

__BEGIN__	__EPS__
d	d
i	i
c	e
z	s

__BEGIN__	__EPS__
s	s
i	i
c	c
h	h

__BEGIN__	__EPS__
n	n
i	i
c	c
h	h
t	t

__BEGIN__	__EPS__
e	e
r	r
s	s
c	c
h	h
r	r
a	e
c	c
h	k
t	t
e	e
n	n

__BEGIN__	__EPS__
i	i
c	c
h	h

__BEGIN__	__EPS__
s	s
e	ä
u	u
g	g
e	e
n	n
t	d

__BEGIN__	__EPS__
s	s
i	i
c	c
h	h

__BEGIN__	__EPS__
e	e
r	r
s	s
t	t
e	e
m	m

__BEGIN__	__EPS__
g	g
e	e
s	s
e	e
c	t
z	z
c	__EPS__
z	__EPS__
e	e

__BEGIN__	__EPS__
e	e
n	n
d	de

__BEGIN__	__EPS__
s	s
t	t
e	e
r	r
u	b
e	__EPS__
t	t

__BEGIN__	__EPS__
k	k
i	i
n	n
d	d

__BEGIN__	__EPS__
i	e
r	r
s	s
t	t
e	e
r	r
b	b
e	e
n	n

__BEGIN__	__EPS__
v	u
n	n
d	d

__BEGIN__	__EPS__
i	ih
n	n

__BEGIN__	__EPS__
p	p
i	i
l	l
a	a
t	t
u	u
s	s

__BEGIN__	__EPS__
v	v
o	o
r	r

__BEGIN__	__EPS__
e	e
d	d
e	__EPS__
l	le

__BEGIN__	__EPS__
z	z
e	u

__BEGIN__	__EPS__
i	ih
m	m

__BEGIN__	__EPS__
v	v
o	o
n	n

__BEGIN__	__EPS__
m	m
i	i
c	c
h	h

__BEGIN__	__EPS__
g	g
e	e
t	t
r	re
u	u
w	__EPS__
e	e
n	n

__BEGIN__	d
u	u

__BEGIN__	__EPS__
f	f
i	i
l	l
i	i
o	a

__BEGIN__	__EPS__
d	d
o	a

__BEGIN__	__EPS__
w	w
e	e
z	s
i	e
n	n

__BEGIN__	__EPS__
n	n
a	ah
m	m
e	e
n	n

__BEGIN__	__EPS__
v	v
i	i
l	e
l	l

__BEGIN__	__EPS__
k	k
i	i
n	n
t	d

__BEGIN__	__EPS__
s	s
c	c
h	h
r	r
i	i
j	e
f	b
f	__EPS__

__BEGIN__	__EPS__
s	s
e	e
l	l
b	b
e	er

__BEGIN__	__EPS__
d	d
a	a
s	s

__BEGIN__	__EPS__
d	d
e	e
n	n

__BEGIN__	__EPS__
m	m
y	i
r	r

__BEGIN__	__EPS__
s	s
e	e
i	i
n	n
e	e
r	r

__BEGIN__	__EPS__
w	w
a	a
t	s

__BEGIN__	__EPS__
i	i
s	s
t	t

__BEGIN__	__EPS__
t	t
e	e
m	m
p	p
e	e
l	l

__BEGIN__	__EPS__
a	a
l	l
s	s
o	o

__BEGIN__	__EPS__
q	k
u	__EPS__
a	a
m	m

__BEGIN__	__EPS__
m	m
a	a
n	n

__BEGIN__	__EPS__
d	d
a	a
t	s

__BEGIN__	__EPS__
z	z
e	u

__BEGIN__	__EPS__
d	d
i	i
c	c
h	h

__BEGIN__	__EPS__
v	v
o	o
l	ll
p	b
r	r
o	a
c	c
h	h
t	t

__BEGIN__	__EPS__
r	r
e	e
d	d
e	e
n	n

__BEGIN__	__EPS__
i	i
c	c
h	h

__BEGIN__	__EPS__
g	g
e	e
b	b
e	e
n	n
e	e
d	d
e	e
y	i
t	t
e	e

__BEGIN__	__EPS__
r	r
i	i
c	c
h	h
t	t
e	e
r	r

__BEGIN__	__EPS__
b	b
e	e
w	w
e	e
g	g
e	__EPS__
t	t

__BEGIN__	__EPS__
n	n
y	ie
m	m
a	a
n	n
t	d

__BEGIN__	__EPS__
m	m
e	e
i	i
n	n
e	e
n	m

__BEGIN__	__EPS__
w	w
o	o
u	l
l	l
d	t
e	e
n	n

__BEGIN__	__EPS__
g	g
a	eh
i	e
n	n

__BEGIN__	__EPS__
f	f
r	r
a	a
g	ge

__BEGIN__	__EPS__
h	h
e	e
r	r
r	r
e	__EPS__

__BEGIN__	__EPS__
k	k
e	a
y	i
s	s
e	e
r	r

__BEGIN__	__EPS__
w	w
a	e
i	i
n	n
t	t

__BEGIN__	__EPS__
v	u
n	n
p	b
a	a
r	r
m	m
h	h
e	e
r	r
c	__EPS__
z	z
i	i
k	g
l	__EPS__
i	__EPS__
c	__EPS__
h	__EPS__
e	__EPS__
n	__EPS__

__BEGIN__	__EPS__
m	m
e	e
i	i
n	n
e	e
r	r

__BEGIN__	__EPS__
m	m
e	e
y	i
n	n
e	e
s	s

__BEGIN__	__EPS__
d	d
a	a
r	r
i	i
n	n

__BEGIN__	__EPS__
w	w
a	a
t	s

__BEGIN__	__EPS__
f	f
o	ü
r	r
c	c
h	h
t	t
e	e

__BEGIN__	e
v	u
c	c
h	h

__BEGIN__	__EPS__
d	d
y	ie

__BEGIN__	__EPS__
w	w
y	ie

__BEGIN__	__EPS__
d	d
o	a

__BEGIN__	__EPS__
m	m
e	e
y	i
n	n
e	e
n	m

__BEGIN__	__EPS__
d	d
e	e
s	s

__BEGIN__	__EPS__
z	z
a	a
r	r
t	t
e	e
s	s

__BEGIN__	__EPS__
d	d
e	e
r	r

__BEGIN__	__EPS__
s	sc
h	h
w	w
i	it
z	z
t	t
e	e

__BEGIN__	__EPS__
s	s
e	e
i	i
n	n

__BEGIN__	__EPS__
d	d
e	e
r	r

__BEGIN__	__EPS__
s	s
c	c
h	h
a	a
c	t
z	z

__BEGIN__	__EPS__
v	u
n	n
d	d

__BEGIN__	__EPS__
d	d
e	e
r	r

__BEGIN__	__EPS__
s	s
e	e
y	i
n	n
e	e
n	n

__BEGIN__	__EPS__
a	a
l	l
s	s
o	o

__BEGIN__	__EPS__
n	n
a	a
c	c
h	h

__BEGIN__	__EPS__
m	m
ü	ü
s	ss
t	t

__BEGIN__	__EPS__
z	z
u	u
o	__EPS__

__BEGIN__	__EPS__
k	k
a	a
n	nn

__BEGIN__	__EPS__
c	k
l	l
a	a
r	r

__BEGIN__	__EPS__
h	h
a	a
t	t

__BEGIN__	__EPS__
d	d
i	i
e	e

__BEGIN__	__EPS__
z	z
ü	u

__BEGIN__	__EPS__
s	s
u	o
l	l
l	l
e	__EPS__
t	t

__BEGIN__	__EPS__
m	m
e	e
i	i
n	n
e	e
s	s

__BEGIN__	__EPS__
i	i
c	c
h	h

__BEGIN__	__EPS__
v	u
n	n
d	d

__BEGIN__	__EPS__
c	k
h	__EPS__
l	l
a	a
g	ge

__BEGIN__	__EPS__
d	d
i	i
e	e

__BEGIN__	__EPS__
d	d
i	i
r	r

__BEGIN__	__EPS__
d	d
a	a
s	s

__BEGIN__	__EPS__
e	e
r	r

__BEGIN__	__EPS__
d	d
e	e
n	n

__BEGIN__	__EPS__
a	a
l	l
s	s
o	o

__BEGIN__	__EPS__
v	v
o	o
n	n

__BEGIN__	__EPS__
s	s
a	a
n	nk
t	t

__BEGIN__	__EPS__
w	w
u	u
r	r
d	d
e	e

__BEGIN__	__EPS__
n	n
a	a
c	c
h	h

__BEGIN__	__EPS__
g	g
e	e
s	s
t	t
a	a
l	l
t	tet

__BEGIN__	__EPS__
a	a
n	n

__BEGIN__	__EPS__
w	w
a	a
t	s

__BEGIN__	__EPS__
v	u
n	n
d	d

__BEGIN__	__EPS__
e	e
r	r

__BEGIN__	__EPS__
i	i
c	c
h	h

__BEGIN__	__EPS__
d	d
o	a

__BEGIN__	__EPS__
h	h
e	a
t	tt
e	e
n	n

__BEGIN__	d
u	u

__BEGIN__	__EPS__
n	n
i	i
c	c
h	h
t	t

__BEGIN__	__EPS__
v	v
e	e
r	r
l	l
a	e
u	u
g	g
e	__EPS__
n	ne
t	t

__BEGIN__	__EPS__
i	j
e	äm
m	m
e	e
r	r
l	l
i	i
c	c
h	h

__BEGIN__	__EPS__
s	s
e	e
r	h
e	r

__BEGIN__	__EPS__
m	m
o	ö
e	__EPS__
r	r
d	d
e	e
r	r
n	n

__BEGIN__	__EPS__
m	m
e	ehr

__BEGIN__	__EPS__
s	sch
w	w
e	e
r	r
t	t

__BEGIN__	__EPS__
t	t
o	o
d	d

__BEGIN__	__EPS__
d	d
o	a

__BEGIN__	__EPS__
w	w
a	a
n	n
n	n

__BEGIN__	__EPS__
h	h
i	i
n	n
g	g

__BEGIN__	__EPS__
m	m
i	e
j	i
n	n

__BEGIN__	__EPS__
n	n
o	o
c	c
h	h

__BEGIN__	__EPS__
n	n
i	i
c	c
h	h
t	t

__BEGIN__	__EPS__
i	i
c	c
h	h

__BEGIN__	__EPS__
w	w
i	i
r	r

__BEGIN__	__EPS__
p	p
y	i
l	l
a	a
t	t
u	u
s	s

__BEGIN__	__EPS__
s	s
p	p
r	r
a	a
c	c
h	h
e	e
n	n

__BEGIN__	__EPS__
n	n
e	e
i	i
g	g
e	__EPS__
t	t
e	e

__BEGIN__	__EPS__
d	d
a	a

__BEGIN__	__EPS__
h	h
e	a
t	tte

__BEGIN__	__EPS__
v	u
n	n
d	d

__BEGIN__	__EPS__
s	sch
w	w
e	ü
r	r
i	e
n	n

__BEGIN__	d
u	u

__BEGIN__	__EPS__
v	u
n	n
d	d

__BEGIN__	__EPS__
w	w
i	i
r	r

__BEGIN__	__EPS__
s	s
p	p
r	r
a	a
c	c
h	h

__BEGIN__	__EPS__
d	d
e	e
r	r

__BEGIN__	__EPS__
a	a
l	l
l	l

__BEGIN__	__EPS__
s	s
u	o
l	l
d	lt
e	e

__BEGIN__	__EPS__
m	m
y	i
r	r

__BEGIN__	__EPS__
w	w
i	i
r	r
t	d

__BEGIN__	__EPS__
w	w
i	a
r	r

__BEGIN__	__EPS__
m	m
o	o
c	c
h	h
t	t
t	e

__BEGIN__	__EPS__
h	h
e	e
r	r
t	__EPS__
z	z
e	e
n	__EPS__
l	l
a	e
i	i
d	d
e	e
s	s

__BEGIN__	__EPS__
v	u
n	n
t	t
t	__EPS__
e	e
r	r

__BEGIN__	__EPS__
n	n
i	i
c	c
h	ht

__BEGIN__	__EPS__
s	s
a	ä
u	u
l	le

__BEGIN__	__EPS__
w	w
o	o
l	ll
t	t

__BEGIN__	__EPS__
m	m
e	e
n	n
s	s
c	ch
h	h
a	e
i	i
t	t

__BEGIN__	__EPS__
v	u
n	n
d	d
e	__EPS__

__BEGIN__	__EPS__
m	me
y	i
n	n
e	e
n	n

__BEGIN__	__EPS__
d	d
a	a

__BEGIN__	__EPS__
h	e
i	__EPS__
e	r

__BEGIN__	__EPS__
d	da
z	ss

__BEGIN__	__EPS__
g	g
i	i
e	__EPS__
n	n
g	g

__BEGIN__	a
v	u
p	f
g	g
e	e
t	__EPS__
z	z
o	o
g	g
e	e
n	n

__BEGIN__	__EPS__
v	v
o	o
n	n

__BEGIN__	__EPS__
d	d
o	a

__BEGIN__	__EPS__
d	d
a	a
r	r

__BEGIN__	__EPS__
d	d
e	e
n	n

__BEGIN__	__EPS__
f	f
u	ü
o	h
r	r
t	t

__BEGIN__	__EPS__
a	a
l	l
l	l
e	e
y	i
n	n
e	__EPS__

__BEGIN__	__EPS__
h	h
u	o
e	__EPS__
b	b

__BEGIN__	__EPS__
d	d
a	a
s	s

__BEGIN__	__EPS__
m	m
a	a
n	n

__BEGIN__	__EPS__
z	z
o	o
c	__EPS__
h	g
e	__EPS__

__BEGIN__	__EPS__
v	v
o	o
r	r

__BEGIN__	n
e	ich
n	t

__BEGIN__	__EPS__
e	e
i	i
n	n

__BEGIN__	__EPS__
d	d
i	i
e	e

__BEGIN__	__EPS__
l	le
i	i
b	b

__BEGIN__	__EPS__
t	t
r	r
a	a
n	n
c	__EPS__
k	k
e	__EPS__

__BEGIN__	__EPS__
c	__EPS__
z	z
w	w
e	e
n	__EPS__
e	i

__BEGIN__	__EPS__
v	u
n	n
d	d

__BEGIN__	__EPS__
d	d
a	a
z	ss

__BEGIN__	__EPS__
v	u
n	n
d	d

__BEGIN__	__EPS__
a	a
n	n

__BEGIN__	__EPS__
i	j
o	o
s	s
e	e
p	f

__BEGIN__	__EPS__
h	h
e	e
ü	u
t	te

__BEGIN__	__EPS__
v	v
i	ie
l	l

__BEGIN__	__EPS__
a	a
l	l
l	l
e	e
m	m

__BEGIN__	__EPS__
i	j
e	ä
m	m
m	m
e	e
r	r
l	l
i	i
c	c
h	h

__BEGIN__	__EPS__
g	g
e	e
m	m
u	ü
t	t
e	__EPS__

__BEGIN__	__EPS__
s	s
c	c
h	h
a	a
r	r

__BEGIN__	__EPS__
a	a
l	l
s	s

__BEGIN__	__EPS__
e	e
r	r

__BEGIN__	__EPS__
t	__EPS__
z	z
o	u

__BEGIN__	__EPS__
w	w
e	a
r	r

__BEGIN__	__EPS__
e	__EPS__
r	__EPS__
s	s
a	a
c	__EPS__
h	h

__BEGIN__	__EPS__
d	d
e	e
r	r

__BEGIN__	__EPS__
s	s
e	e
i	i
n	n

__BEGIN__	__EPS__
d	d
e	e
r	r

__BEGIN__	__EPS__
d	d
a	a
z	s

__BEGIN__	__EPS__
s	s
o	o

__BEGIN__	__EPS__
v	v
o	o
n	n

__BEGIN__	__EPS__
e	e
r	r
l	l
o	ö
e	__EPS__
s	s
e	__EPS__
t	t

__BEGIN__	__EPS__
k	k
a	e
i	i
n	n

__BEGIN__	__EPS__
t	t
r	r
o	o
p	p
h	f
e	en

__BEGIN__	__EPS__
m	m
i	i
r	r

__BEGIN__	__EPS__
i	j
e	e
s	s
u	u
s	s

__BEGIN__	__EPS__
d	d
u	u

__BEGIN__	__EPS__
s	s
o	oh
n	n

__BEGIN__	__EPS__
n	n
e	e
m	h
e	__EPS__
n	m
t	t

__BEGIN__	__EPS__
n	n
i	i
c	c
h	h
c	t
z	s

__BEGIN__	__EPS__
v	u
n	n
d	d

__BEGIN__	__EPS__
s	s
e	e
i	i
n	n

__BEGIN__	__EPS__
d	d
i	i
n	n
c	g
h	__EPS__

__BEGIN__	__EPS__
v	u
n	n
d	d

__BEGIN__	__EPS__
s	s
e	e
i	i
n	n
e	e
n	n

__BEGIN__	v
e	e
r	r
s	s
t	t
o	u
r	m
b	m
e	__EPS__
n	t

__BEGIN__	__EPS__
l	l
i	ie
b	b
e	e

__BEGIN__	__EPS__
v	u
n	n
d	d

__BEGIN__	__EPS__
e	e
r	r

__BEGIN__	__EPS__
v	u
n	n
d	d

__BEGIN__	__EPS__
v	f
r	r
a	a
g	g
h	__EPS__
e	__EPS__
d	t
e	e

__BEGIN__	__EPS__
i	j
u	u
d	d
e	e
n	n

__BEGIN__	__EPS__
e	e
n	n
g	g
e	e
l	l

__BEGIN__	__EPS__
h	h
i	i
e	e
z	s
z	s

__BEGIN__	__EPS__
d	d
e	e
r	r

__BEGIN__	__EPS__
d	d
a	a
s	s

__BEGIN__	__EPS__
i	ih
r	r

__BEGIN__	__EPS__
d	d
i	i
e	e

__BEGIN__	__EPS__
v	u
n	n
d	d

__BEGIN__	__EPS__
s	s
e	a
y	g
t	t
e	e
n	n

__BEGIN__	__EPS__
g	g
e	e
s	sch
m	m
i	ie
d	d
o	e
t	t

__BEGIN__	__EPS__
s	s
e	e
i	i
n	n
e	e
r	r

__BEGIN__	__EPS__
y	ih
n	n

__BEGIN__	__EPS__
s	s
i	i
e	e
c	__EPS__
h	h
d	__EPS__
i	__EPS__

__BEGIN__	__EPS__
e	e
l	l
e	e
m	m
e	e
n	n
t	t
e	e
n	n

__BEGIN__	__EPS__
p	p
i	i
l	l
a	a
t	t
u	u
s	s

__BEGIN__	__EPS__
e	e
r	r

__BEGIN__	__EPS__
s	s
o	o
e	l
l	l
t	t
e	e

__BEGIN__	__EPS__
v	u
n	n
d	d

__BEGIN__	n
e	ich
n	t

__BEGIN__	__EPS__
a	a
b	b
e	e
r	r

__BEGIN__	__EPS__
i	u
n	n
d	d

__BEGIN__	__EPS__
d	d
a	a

__BEGIN__	__EPS__
t	t
r	r
o	o
i	__EPS__
s	s
t	t

__BEGIN__	__EPS__
g	g
e	e
s	s
u	u
n	n
d	d

__BEGIN__	__EPS__
n	n
o	o
i	__EPS__
t	t

__BEGIN__	__EPS__
v	u
n	n
d	d

__BEGIN__	__EPS__
b	b
i	i
s	s
t	t

__BEGIN__	__EPS__
t	t
o	oc
h	h
t	t
e	e
r	r

__BEGIN__	__EPS__
g	g
e	e
b	b
i	e
n	n

__BEGIN__	__EPS__
v	v
o	o
n	n

__BEGIN__	__EPS__
m	m
i	i
t	t

__BEGIN__	__EPS__
s	s
i	i
e	e

__BEGIN__	__EPS__
d	d
a	a
s	ss

__BEGIN__	__EPS__
d	d
o	a

__BEGIN__	__EPS__
s	s
y	ie

__BEGIN__	__EPS__
m	m
a	a
l	l

__BEGIN__	__EPS__
d	d
i	i
e	e

__BEGIN__	__EPS__
d	d
a	a

__BEGIN__	__EPS__
m	m
i	i
r	r

__BEGIN__	__EPS__
d	d
e	e
r	r

__BEGIN__	__EPS__
d	d
a	a
s	ss

__BEGIN__	__EPS__
h	h
o	o
f	f
f	f
t	t

__BEGIN__	__EPS__
y	ih
m	m

__BEGIN__	__EPS__
m	m
i	i
c	c
h	h

__BEGIN__	__EPS__
l	le
i	i
b	b

__BEGIN__	__EPS__
s	s
o	o

__BEGIN__	__EPS__
v	v
o	o
n	n

__BEGIN__	__EPS__
m	m
o	o
r	r
g	g
e	e
n	n

__BEGIN__	__EPS__
s	s
u	oh
n	n

__BEGIN__	__EPS__
y	ih
m	m

__BEGIN__	__EPS__
i	i
c	c
h	h

__BEGIN__	__EPS__
d	d
e	e
n	m

__BEGIN__	__EPS__
i	ih
r	r

__BEGIN__	__EPS__
i	j
o	o
h	h
a	a
n	nn
e	es

__BEGIN__	__EPS__
d	d
e	e
s	s

__BEGIN__	__EPS__
k	k
i	i
n	n
t	d

__BEGIN__	__EPS__
d	d
e	e
n	n

__BEGIN__	__EPS__
d	d
o	a

__BEGIN__	__EPS__
m	m
i	i
c	c
h	h

__BEGIN__	__EPS__
d	d
a	a
z	s

__BEGIN__	__EPS__
s	s
i	i
c	c
h	h

__BEGIN__	__EPS__
d	d
u	u

__BEGIN__	__EPS__
v	u
n	n
d	d

__BEGIN__	__EPS__
a	a
l	l
t	l
z	z
o	u

__BEGIN__	__EPS__
d	de
i	i
n	n

__BEGIN__	__EPS__
d	d
u	ü
n	n
k	k
e	__EPS__
t	t

__BEGIN__	__EPS__
s	s
p	p
r	r
a	a
c	c
h	h
e	__EPS__

__BEGIN__	__EPS__
s	s
c	c
h	h
r	r
e	e
y	i
b	b
t	t

__BEGIN__	__EPS__
d	d
o	a

__BEGIN__	__EPS__
a	a
b	b
g	g
r	r
u	ü
e	__EPS__
n	n
d	de

__BEGIN__	__EPS__
i	j
o	o
s	s
e	e
p	p
h	h

__BEGIN__	__EPS__
a	a
l	l
l	l
i	e

__BEGIN__	__EPS__
q	k
u	__EPS__
a	a
m	m

__BEGIN__	__EPS__
a	a
z	s
z	s

__BEGIN__	__EPS__
r	r
e	i
c	c
h	h
t	t
h	h
o	a
u	u
s	s

__BEGIN__	__EPS__
p	p
i	i
l	l
a	a
t	t
u	u
s	s

__BEGIN__	__EPS__
a	o
w	w
e	eh

__BEGIN__	__EPS__
d	d
i	i
c	c
h	h

__BEGIN__	__EPS__
m	m
i	i
c	c
h	h

__BEGIN__	__EPS__
h	e
i	__EPS__
e	r

__BEGIN__	__EPS__
d	d
e	e
m	m

__BEGIN__	__EPS__
d	d
a	a
z	s

__BEGIN__	__EPS__
h	h
e	i
l	l
f	f
f	__EPS__

__BEGIN__	__EPS__
d	d
e	e
r	r

__BEGIN__	__EPS__
m	m
i	i
t	t

__BEGIN__	__EPS__
d	d
e	e
r	r

__BEGIN__	__EPS__
a	a
l	l
l	l
e	e
r	r
h	h
a	a
n	n
d	d

__BEGIN__	__EPS__
g	g
a	e
i	i
s	s
t	t

__BEGIN__	__EPS__
i	j
h	e
m	s
-	us

__BEGIN__	__EPS__
a	a
n	n
d	d
e	e
r	re

__BEGIN__	__EPS__
v	u
n	n
d	d

__BEGIN__	__EPS__
m	m
i	i
t	t

__BEGIN__	__EPS__
h	h
i	i
l	l
f	f
f	__EPS__

__BEGIN__	__EPS__
d	d
o	a

__BEGIN__	__EPS__
g	g
a	a
r	r

__BEGIN__	__EPS__
l	l
e	e
y	i
d	d
e	e
n	n

__BEGIN__	__EPS__
d	d
y	ie
t	s

__BEGIN__	__EPS__
e	e
y	ine
m	m
t	__EPS__

__BEGIN__	__EPS__
d	d
o	o
c	c
h	h

__BEGIN__	__EPS__
a	a
n	n

__BEGIN__	__EPS__
m	m
a	an
n	n
i	i
g	g
u	f
a	a
l	l
t	t
i	i
g	g

__BEGIN__	__EPS__
a	a
n	n
d	t
e	ä
d	t
e	e

__BEGIN__	__EPS__
o	o
c	__EPS__
h	h

__BEGIN__	__EPS__
v	v
e	e
r	r
d	d
e	i
r	r
b	b
e	__EPS__
t	t

__BEGIN__	__EPS__
s	s
t	t
a	ä
t	t
t	te

__BEGIN__	__EPS__
h	h
o	o
f	f
f	f
e	e
n	n

__BEGIN__	__EPS__
w	w
o	o
u	l
l	l
d	t
e	e

__BEGIN__	__EPS__
e	e
r	r
l	l
o	o
s	s
c	c
h	h
e	e
n	n

__BEGIN__	__EPS__
g	g
e	e
g	g
r	r
u	ü
e	__EPS__
z	s
z	s
e	__EPS__
t	t

__BEGIN__	__EPS__
g	g
a	ehe
n	n

__BEGIN__	__EPS__
s	s
i	e
j	i
n	n

__BEGIN__	__EPS__
d	d
a	a
t	ss

__BEGIN__	__EPS__
d	d
a	a
s	ss

__BEGIN__	__EPS__
g	g
e	e
l	l
e	i
d	tt
e	e
n	n

__BEGIN__	__EPS__
n	n
i	ic
h	h
t	t

__BEGIN__	__EPS__
p	b
e	__EPS__
l	l
a	e
i	i
b	b

__BEGIN__	__EPS__
f	f
u	ü
r	r
w	w
a	ah
r	r

__BEGIN__	__EPS__
d	d
a	a

__BEGIN__	__EPS__
c	k
r	re
u	u
c	__EPS__
z	z
e	e

__BEGIN__	__EPS__
m	m
a	a
r	r
i	i
a	a

__BEGIN__	__EPS__
d	d
i	__EPS__
e	e
r	r
g	g
h	__EPS__
e	__EPS__
l	l
i	e
j	i
c	ch

__BEGIN__	__EPS__
m	m
e	e
y	y
n	n
e	e
r	r

__BEGIN__	__EPS__
g	t
e	a
t	t
e	e
s	s
t	t

__BEGIN__	__EPS__
w	w
i	ie
d	d
e	e
r	r

__BEGIN__	__EPS__
i	ih
n	n

__BEGIN__	__EPS__
g	g
e	e
i	i
s	s
t	t

__BEGIN__	__EPS__
l	l
e	e
n	n
d	de

__BEGIN__	__EPS__
g	g
a	a
r	r

__BEGIN__	__EPS__
a	e
i	i
n	n

__BEGIN__	__EPS__
n	n
y	i
e	e

__BEGIN__	__EPS__
h	h
o	a
-	r
i	i
m	m

__BEGIN__	__EPS__
s	s
o	oh
n	n

__BEGIN__	__EPS__
g	ge
a	a
n	n
t	t
w	w
i	o
r	r
t	t
e	e
t	t

__BEGIN__	__EPS__
d	d
o	a

__BEGIN__	__EPS__
d	d
o	o
g	g
h	h
e	e
n	n

__BEGIN__	__EPS__
h	h
a	a
d	t
d	t
e	e
n	n

__BEGIN__	__EPS__
d	d
e	e
n	n

__BEGIN__	__EPS__
d	d
a	a
s	ss

__BEGIN__	__EPS__
v	u
n	n
d	d

__BEGIN__	__EPS__
s	s
e	ä
u	u
g	g
e	e
n	n
t	d

__BEGIN__	__EPS__
a	a
v	u
c	c
h	h

__BEGIN__	__EPS__
h	h
e	e
i	i
l	l
i	i
g	g
e	e
r	__EPS__

__BEGIN__	__EPS__
b	b
r	r
a	a
c	c
h	h
t	te

__BEGIN__	__EPS__
w	w
e	ä
r	r
e	e

__BEGIN__	__EPS__
e	e
r	r

__BEGIN__	__EPS__
d	d
i	i
e	e

__BEGIN__	__EPS__
w	w
i	i
l	l
l	l
e	e
n	n

__BEGIN__	__EPS__
o	o
b	b

__BEGIN__	__EPS__
r	r
a	e
i	i
n	n
e	e
u	__EPS__

__BEGIN__	__EPS__
s	s
c	c
h	h
r	r
i	i
e	e
r	__EPS__
e	__EPS__
n	n

__BEGIN__	__EPS__
v	v
o	o
n	n

__BEGIN__	__EPS__
a	a
l	ll

__BEGIN__	__EPS__
n	n
u	un

__BEGIN__	__EPS__
k	k
u	__EPS__
i	__EPS__
n	n
i	i
e	e
t	t
e	e
n	n

__BEGIN__	__EPS__
m	m
e	e
i	i
n	n

__BEGIN__	d
u	u

__BEGIN__	__EPS__
i	i
c	c
h	h

__BEGIN__	__EPS__
v	u
n	n
p	b
a	a
r	r
m	m
h	h
e	e
r	r
c	__EPS__
z	z
i	i
k	g
l	__EPS__
i	__EPS__
c	__EPS__
h	__EPS__
e	__EPS__
n	__EPS__

__BEGIN__	__EPS__
s	s
t	t
i	i
m	m
m	m
e	e

__BEGIN__	__EPS__
v	vi
e	e
l	l
e	e

__BEGIN__	__EPS__
d	t
e	ä
d	t
e	e

__BEGIN__	__EPS__
w	w
u	a
r	r
f	f
f	__EPS__
e	e
n	n

__BEGIN__	__EPS__
d	d
i	i
e	e

__BEGIN__	d
u	u

__BEGIN__	__EPS__
g	g
e	e
d	d
a	ac
h	h
t	t
e	e
n	n

__BEGIN__	__EPS__
c	k
a	a
l	l
v	v
a	a
r	r
i	i
e	e

__BEGIN__	__EPS__
d	d
i	i
e	e

__BEGIN__	__EPS__
l	l
o	o
b	b
e	t
t	e

__BEGIN__	__EPS__
d	d
a	a
z	s

__BEGIN__	__EPS__
n	n
a	ah
m	m

__BEGIN__	__EPS__
m	m
a	a
n	n

__BEGIN__	__EPS__
n	n
i	i
e	ch
t	t

__BEGIN__	__EPS__
v	u
n	n
d	d

__BEGIN__	__EPS__
v	v
o	o
n	n

__BEGIN__	__EPS__
d	d
a	a
z	ss

__BEGIN__	e
t	s

__BEGIN__	__EPS__
d	d
a	a
s	s

__BEGIN__	__EPS__
i	ih
m	m

__BEGIN__	__EPS__
m	m
o	ö
e	__EPS__
c	c
h	h
t	t
e	e
n	n

__BEGIN__	__EPS__
d	d
e	e
m	m

__BEGIN__	d
u	u

__BEGIN__	__EPS__
c	k
r	r
u	e
c	u
e	z

__BEGIN__	__EPS__
s	sc
w	h
u	w
o	o
r	r

__BEGIN__	__EPS__
i	i
c	c
h	h

__BEGIN__	__EPS__
l	l
a	a
z	s
z	s

__BEGIN__	__EPS__
e	i
m	h
e	m

__BEGIN__	__EPS__
z	z
c	__EPS__
u	u

__BEGIN__	__EPS__
z	z
o	u

__BEGIN__	__EPS__
s	sch
w	w
e	e
i	i
c	g
h	e

__BEGIN__	__EPS__
v	v
a	a
d	t
e	e
r	r

__BEGIN__	__EPS__
g	g
e	e
s	s
t	t
a	a
l	l
t	tet

__BEGIN__	__EPS__
d	d
a	a
r	r
v	u
m	m
b	__EPS__

__BEGIN__	__EPS__
d	d
i	i
e	e

__BEGIN__	__EPS__
f	f
u	ü
r	r

__BEGIN__	__EPS__
d	d
i	i
e	e

__BEGIN__	__EPS__
d	d
i	i
e	e

__BEGIN__	__EPS__
l	l
e	e
n	n
d	d
e	e
n	n

__BEGIN__	__EPS__
d	d
a	a
r	r

__BEGIN__	__EPS__
d	d
a	a
z	s

__BEGIN__	__EPS__
u	u
n	n
d	d

__BEGIN__	__EPS__
d	d
a	a
r	__EPS__
n	n
a	a
c	c
h	h

__BEGIN__	__EPS__
w	w
a	a
s	r

__BEGIN__	__EPS__
a	a
n	n
c	s
e	e
l	l
m	m
e	__EPS__

__BEGIN__	__EPS__
v	u
n	n
d	d

__BEGIN__	__EPS__
o	o
w	w
e	eh

__BEGIN__	__EPS__
h	h
e	ä
n	n
d	d
e	e

__BEGIN__	__EPS__
d	d
a	a
z	ss

__BEGIN__	__EPS__
k	k
i	i
n	n
d	d
e	e
r	r
e	__EPS__
n	n

__BEGIN__	__EPS__
v	u
n	n
d	d

__BEGIN__	__EPS__
w	w
o	oh
l	l

__BEGIN__	__EPS__
g	g
r	r
o	o
s	s
z	s
e	e
m	m

__BEGIN__	__EPS__
s	s
c	c
h	h
u	u
c	__EPS__
h	h

__BEGIN__	__EPS__
e	e
r	r

__BEGIN__	__EPS__
d	d
o	a

__BEGIN__	__EPS__
f	f
l	l
o	o
s	s
z	s

__BEGIN__	__EPS__
v	v
o	o
n	n

__BEGIN__	__EPS__
d	d
a	a
s	ss

__BEGIN__	__EPS__
h	h
i	ä
e	t
t	te

__BEGIN__	__EPS__
d	d
o	a

__BEGIN__	__EPS__
i	j
a	a
m	mm
e	e
r	r

__BEGIN__	__EPS__
d	d
u	u

__BEGIN__	__EPS__
s	s
c	c
h	h
a	ä
c	c
h	h
e	e
r	r
n	n

__BEGIN__	__EPS__
i	j
h	__EPS__
e	e
s	s
u	u
i	__EPS__
s	s

__BEGIN__	__EPS__
v	u
n	n
d	d

__BEGIN__	__EPS__
m	m
a	a
l	l

__BEGIN__	__EPS__
a	a
l	l
s	s

__BEGIN__	__EPS__
i	i
c	c
h	h

__BEGIN__	__EPS__
a	a
l	l
s	s
o	o

__BEGIN__	__EPS__
m	m
i	i
t	t

__BEGIN__	__EPS__
d	d
y	ie

__BEGIN__	__EPS__
d	d
o	a

__BEGIN__	__EPS__
i	j
h	__EPS__
e	e
s	s
u	u
m	s

__BEGIN__	__EPS__
v	u
n	n
d	d

__BEGIN__	__EPS__
d	d
e	e
s	s

__BEGIN__	__EPS__
g	g
r	r
o	o
e	__EPS__
z	s
z	s
e	e

__BEGIN__	e
v	u
c	c
h	h

__BEGIN__	__EPS__
f	f
e	äh
r	r
t	t

__BEGIN__	__EPS__
v	u
n	n
d	d

__BEGIN__	__EPS__
s	s
a	e
c	t
z	z
t	t
e	e
n	n

__BEGIN__	__EPS__
g	g
e	e
s	s
p	p
a	a
n	n
e	n
t	t

__BEGIN__	__EPS__
n	n
i	ich
t	t

__BEGIN__	__EPS__
i	j
u	u
d	d
e	e
n	n

__BEGIN__	__EPS__
s	g
v	ü
o	__EPS__
z	t
e	__EPS__
k	__EPS__
l	__EPS__
i	i
c	g
h	__EPS__

__BEGIN__	__EPS__
g	g
e	e
t	t
o	ö
t	t
e	e
t	t

__BEGIN__	__EPS__
n	n
o	ö
t	t
e	e
n	n

__BEGIN__	__EPS__
a	a
n	n

__BEGIN__	__EPS__
w	w
a	a
s	r

__BEGIN__	__EPS__
v	u
n	n
d	d

__BEGIN__	__EPS__
s	s
p	p
r	r
a	a
c	c
h	h

__BEGIN__	__EPS__
h	h
e	a
i	__EPS__
s	s
t	t

__BEGIN__	__EPS__
s	s
p	p
r	r
o	a
c	c
h	h
i	e
n	n

__BEGIN__	__EPS__
d	d
o	a

__BEGIN__	__EPS__
s	s
c	c
h	h
w	w
e	e
r	r
t	t

__BEGIN__	__EPS__
z	z
u	o
g	g
e	e
n	n
d	__EPS__

__BEGIN__	__EPS__
w	w
o	oh
l	l

__BEGIN__	__EPS__
s	s
p	p
r	r
a	a
c	c
h	h

__BEGIN__	__EPS__
l	l
o	o
b	b
o	e
n	n

__BEGIN__	__EPS__
g	g
e	ege
n	n

__BEGIN__	__EPS__
q	b
u	ö
a	s
e	e
t	s

__BEGIN__	__EPS__
v	u
n	n
d	d
e	__EPS__

__BEGIN__	__EPS__
o	a
u	u
c	c
h	h

__BEGIN__	be
s	s
u	o
n	n
d	d
e	e
r	r
l	__EPS__
i	__EPS__
c	__EPS__
h	__EPS__
e	e
n	n

__BEGIN__	__EPS__
e	e
m	m
p	p
h	f
a	an
h	g
e	e
n	n

__BEGIN__	__EPS__
m	m
u	u
n	n
d	d

__BEGIN__	__EPS__
v	u
n	n
d	d

__BEGIN__	__EPS__
h	h
e	e
r	r
c	__EPS__
z	z
l	l
i	i
c	c
h	h

__BEGIN__	__EPS__
d	d
y	ie

__BEGIN__	__EPS__
d	d
u	u
r	r
c	c
h	h

__BEGIN__	__EPS__
k	k
a	e
i	i
n	n

__BEGIN__	__EPS__
v	u
n	n
d	d

__BEGIN__	__EPS__
h	h
a	e
i	i
l	l
i	i
g	g
e	e
n	n

__BEGIN__	__EPS__
v	v
e	e
r	r
s	s
v	ö
i	__EPS__
e	h
n	ne
n	n
e	__EPS__

__BEGIN__	__EPS__
h	e
e	r

__BEGIN__	__EPS__
l	l
u	i
c	n
h	k
t	__EPS__
e	e
r	n

__BEGIN__	__EPS__
v	u
n	n
d	d

__BEGIN__	__EPS__
d	d
o	a

__BEGIN__	__EPS__
g	g
e	e
s	sch
l	l
a	a
g	g
e	e
n	n

__BEGIN__	__EPS__
d	d
o	a

__BEGIN__	__EPS__
n	n
a	a
l	g
e	el

__BEGIN__	__EPS__
w	w
y	i
r	r

__BEGIN__	__EPS__
h	h
a	a
b	b
i	e
n	n

__BEGIN__	__EPS__
n	n
o	o
t	t

__BEGIN__	__EPS__
s	sc
h	h
i	i
e	e
t	d

__BEGIN__	__EPS__
w	de
o	n
n	n

__BEGIN__	__EPS__
h	h
a	ä
n	n
g	g
e	e
n	n

__BEGIN__	__EPS__
n	n
a	ah
m	m
e	e
n	n

__BEGIN__	__EPS__
i	i
c	c
h	h

__BEGIN__	__EPS__
m	m
i	i
t	t

__BEGIN__	__EPS__
m	m
i	i
e	__EPS__
r	r

__BEGIN__	__EPS__
e	e
r	r
l	l
e	ö
d	__EPS__
e	__EPS__
g	__EPS__
o	s
t	t

__BEGIN__	__EPS__
o	a
f	b

__BEGIN__	__EPS__
d	d
v	i
i	e

__BEGIN__	__EPS__
s	s
t	t
u	u
n	n
t	de

__BEGIN__	__EPS__
g	g
r	r
o	o
s	s
z	s
e	e
n	n

__BEGIN__	__EPS__
s	sch
w	w
e	e
s	s
t	t
e	e
r	r

__BEGIN__	__EPS__
w	w
a	a
s	r

__BEGIN__	__EPS__
s	s
p	p
r	r
a	a
c	c
h	h

__BEGIN__	__EPS__
h	h
o	o
l	l
c	__EPS__
z	z
e	__EPS__

__BEGIN__	n
e	i
n	cht

__BEGIN__	__EPS__
v	u
n	n
d	d

__BEGIN__	__EPS__
e	e
r	r

__BEGIN__	__EPS__
n	n
o	o
c	c
h	h

__BEGIN__	__EPS__
n	n
a	ah
m	m

__BEGIN__	__EPS__
s	s
y	ie

__BEGIN__	__EPS__
s	sch
w	w
e	e
r	r
t	t

__BEGIN__	__EPS__
s	s
e	e
l	l
b	b
e	e
r	r

__BEGIN__	__EPS__
g	g
e	e
g	g
e	e
u	b
e	e
n	n

__BEGIN__	__EPS__
g	g
e	e
w	w
a	a
l	l
t	t
l	__EPS__
e	__EPS__
y	i
c	__EPS__
h	g
e	__EPS__
n	__EPS__

__BEGIN__	__EPS__
d	d
o	a

__BEGIN__	__EPS__
c	k
r	r
v	e
c	u
e	z

__BEGIN__	__EPS__
w	we
i	i
e	__EPS__
s	s
s	s
a	a
g	g
u	u
n	n
g	g

__BEGIN__	__EPS__
d	d
o	a

__BEGIN__	__EPS__
d	d
a	a
u	v
i	i
d	d

__BEGIN__	__EPS__
d	d
o	o
c	c
h	h

__BEGIN__	__EPS__
v	u
n	n
d	d

__BEGIN__	__EPS__
w	w
a	a
s	r

__BEGIN__	__EPS__
i	i
n	n

__BEGIN__	__EPS__
k	k
i	i
n	n
d	d

__BEGIN__	__EPS__
w	w
u	u
n	n
d	d
e	e
n	n

__BEGIN__	__EPS__
g	g
r	r
u	ü
e	s
s	s
t	t

__BEGIN__	__EPS__
r	r
e	e
i	i
n	n
e	e
n	n

__BEGIN__	__EPS__
v	u
n	n
d	d

__BEGIN__	__EPS__
o	o
d	d
e	e
r	r

__BEGIN__	__EPS__
a	a
b	b
e	e
r	r

__BEGIN__	__EPS__
g	g
a	a
r	r

__BEGIN__	__EPS__
l	l
i	i
e	e
b	b
s	s
t	t
e	e
w	__EPS__

__BEGIN__	__EPS__
p	p
y	i
l	l
a	a
t	t
u	u
s	s

__BEGIN__	__EPS__
v	u
m	m
b	__EPS__

__BEGIN__	__EPS__
z	d
e	e
r	h
s	__EPS__
p	__EPS__
i	__EPS__
e	__EPS__
n	n
t	t
t	__EPS__
e	e
n	n

__BEGIN__	__EPS__
l	l
i	i
e	e
b	b
e	e
z	s

__BEGIN__	__EPS__
v	u
n	n
d	d

__BEGIN__	__EPS__
v	u
n	n
d	d

__BEGIN__	__EPS__
d	d
e	e
r	r

__BEGIN__	__EPS__
w	w
i	i
d	d
e	e
r	r

__BEGIN__	__EPS__
r	r
a	a
n	nn

__BEGIN__	__EPS__
w	w
a	a
s	r

__BEGIN__	__EPS__
w	w
a	a
s	r
z	__EPS__

__BEGIN__	__EPS__
d	d
o	a

__BEGIN__	__EPS__
m	m
i	i
c	c
h	h

__BEGIN__	__EPS__
m	m
e	e
i	i
n	n
e	e
s	s

__BEGIN__	__EPS__
v	u
n	n
d	d

__BEGIN__	__EPS__
w	w
i	i
l	ll

__BEGIN__	__EPS__
d	d
e	e
s	s

__BEGIN__	__EPS__
m	m
e	e
i	i
n	n

__BEGIN__	__EPS__
g	g
r	r
o	o
s	s
z	s

__BEGIN__	__EPS__
s	s
e	e
e	h
r	r

__BEGIN__	__EPS__
s	s
o	o

__BEGIN__	__EPS__
d	d
a	a
n	nn
e	e
n	n

__BEGIN__	__EPS__
a	a
n	n
t	t
t	__EPS__
l	l
u	i
c	t
z	z

__BEGIN__	__EPS__
f	f
u	ül
l	l
t	t

__BEGIN__	__EPS__
w	w
o	o
r	r
d	d
e	e
n	n

__BEGIN__	__EPS__
d	d
i	i
e	e

__BEGIN__	__EPS__
i	i
c	c
h	h

__BEGIN__	__EPS__
l	l
a	a
c	g

__BEGIN__	__EPS__
a	a
l	l
l	l
e	e
r	r

__BEGIN__	__EPS__
d	d
e	e
m	m

__BEGIN__	__EPS__
m	m
i	i
c	c
h	h

__BEGIN__	__EPS__
a	a
n	n

__BEGIN__	__EPS__
i	ih
r	r

__BEGIN__	__EPS__
d	d
a	a
s	ss

__BEGIN__	__EPS__
z	z
u	u

__BEGIN__	__EPS__
z	z
e	e
r	r
s	s
t	t
o	ö
e	__EPS__
r	r
e	e
r	r

__BEGIN__	__EPS__
s	s
t	t
e	e
y	i
g	ge

__BEGIN__	__EPS__
s	s
i	ie

__BEGIN__	__EPS__
d	d
u	u

__BEGIN__	__EPS__
e	e
r	r

__BEGIN__	__EPS__
d	d
y	i
e	e

__BEGIN__	__EPS__
a	a
l	l
s	s
o	o

__BEGIN__	__EPS__
v	v
e	e
r	r
l	l
e	e
n	ih
e	e

__BEGIN__	__EPS__
i	u
n	n
d	d

__BEGIN__	__EPS__
s	s
i	e
j	i
s	st

__BEGIN__	__EPS__
i	i
n	n
n	__EPS__

__BEGIN__	__EPS__
e	e
r	r

__BEGIN__	__EPS__
t	t
r	r
e	ä
h	n
e	e
r	n

__BEGIN__	__EPS__
m	m
i	i
t	t

__BEGIN__	__EPS__
h	e
e	r

__BEGIN__	__EPS__
n	n
i	ie
d	d
e	e
r	r

__BEGIN__	__EPS__
i	i
c	c
h	h

__BEGIN__	__EPS__
s	s
o	o
l	ll
d	t
e	e

__BEGIN__	__EPS__
e	e
r	r
s	s
t	t
u	a
n	n
d	d
e	e
n	n

__BEGIN__	__EPS__
z	z
u	u

__BEGIN__	__EPS__
i	i
c	c
h	h

__BEGIN__	__EPS__
g	g
e	e
n	n
o	o
m	mm
e	e
n	n

__BEGIN__	__EPS__
v	u
n	n
d	d

__BEGIN__	__EPS__
s	s
o	o

__BEGIN__	__EPS__
a	a
n	n

__BEGIN__	__EPS__
d	d
a	a

__BEGIN__	__EPS__
g	g
e	e
n	n
y	i
e	e
s	s
s	s
e	e
n	n

__BEGIN__	__EPS__
w	w
e	e
i	i
l	l
e	__EPS__

__BEGIN__	__EPS__
e	e
l	l
k	k
e	e

__BEGIN__	__EPS__
p	b
i	i
t	t
t	t
e	e
r	r

__BEGIN__	__EPS__
h	e
e	r

__BEGIN__	__EPS__
h	h
a	a
t	t
t	t
e	e

__BEGIN__	__EPS__
m	m
a	a
r	r
i	i
a	a

__BEGIN__	__EPS__
s	s
i	e
j	i
n	n

__BEGIN__	__EPS__
d	d
o	a
e	__EPS__

__BEGIN__	__EPS__
r	r
e	ä
c	c
h	h
e	e
n	n

__BEGIN__	__EPS__
d	d
a	as
s	s

__BEGIN__	__EPS__
h	h
a	a
n	n
t	d

__BEGIN__	__EPS__
s	s
i	i
c	c
h	h

__BEGIN__	__EPS__
s	s
p	p
r	r
a	a
c	c
h	h

__BEGIN__	__EPS__
a	e
i	i
n	n
e	e
n	n

__BEGIN__	e
t	s

__BEGIN__	__EPS__
y	i
n	h
e	n

__BEGIN__	__EPS__
g	g
a	a
f	b

__BEGIN__	__EPS__
m	m
a	a
l	l
e	__EPS__

__BEGIN__	__EPS__
e	e
r	r
l	l
a	a
v	u
b	b
e	__EPS__
s	s
t	t

__BEGIN__	__EPS__
g	g
r	r
o	o
z	s
z	s
e	e
m	m

__BEGIN__	__EPS__
g	g
e	e
b	b
o	o
d	t
e	e

__BEGIN__	__EPS__
t	__EPS__
z	z
e	u

__BEGIN__	__EPS__
d	d
r	r
u	ü
c	c
k	k
e	__EPS__
t	t
e	e

__BEGIN__	__EPS__
d	d
a	a

__BEGIN__	__EPS__
w	w
a	a
r	r
e	e
n	n

__BEGIN__	__EPS__
k	k
i	i
n	n
d	d

__BEGIN__	__EPS__
a	a
l	l
l	l
e	e
n	n

__BEGIN__	__EPS__
d	d
i	i
e	e

__BEGIN__	__EPS__
i	j
u	ü
n	n
g	g
e	e
r	r

__BEGIN__	__EPS__
s	s
e	e
i	i
n	n

__BEGIN__	__EPS__
h	h
e	e
r	rr
l	l
i	i
c	c
h	h

__BEGIN__	__EPS__
n	n
y	i
m	mm

__BEGIN__	__EPS__
i	ih
m	m

__BEGIN__	__EPS__
d	d
o	a

__BEGIN__	__EPS__
e	e
r	r

__BEGIN__	__EPS__
d	d
o	a

__BEGIN__	__EPS__
d	d
a	a
z	ss

__BEGIN__	__EPS__
h	h
e	e
l	l
f	f
f	__EPS__
e	e
n	n

__BEGIN__	__EPS__
f	f
r	r
a	a
w	u
e	__EPS__

__BEGIN__	__EPS__
s	s
y	ie

__BEGIN__	__EPS__
h	h
e	er
r	r

__BEGIN__	__EPS__
w	w
e	e
r	r

__BEGIN__	__EPS__
d	d
e	e
s	s
t	t
e	__EPS__
r	o

__BEGIN__	__EPS__
w	w
a	a
s	r

__BEGIN__	__EPS__
s	se
y	i
n	n

__BEGIN__	__EPS__
i	i
n	n

__BEGIN__	__EPS__
f	f
u	üh
r	r
t	t
e	e
n	n

__BEGIN__	d
u	u

__BEGIN__	__EPS__
e	e
r	r

__BEGIN__	__EPS__
b	b
e	e
g	g
r	r
u	ü
e	__EPS__
b	be

__BEGIN__	__EPS__
s	s
c	c
h	h
w	w
e	e
s	s
t	t
e	e
r	r

__BEGIN__	__EPS__
t	t
r	r
e	ä
h	n
e	e
n	n

__BEGIN__	__EPS__
n	n
a	ah
m	m

__BEGIN__	__EPS__
d	d
a	a
s	ss

__BEGIN__	__EPS__
v	v
e	e
s	s
t	t
i	i
m	m
e	e
n	n
t	t
a	a

__BEGIN__	__EPS__
v	u
n	n
s	s
e	e
r	ren

__BEGIN__	__EPS__
d	d
e	e
r	r

__BEGIN__	__EPS__
s	s
i	e
g	i

__BEGIN__	__EPS__
g	g
l	l
a	a
u	u
b	b

__BEGIN__	__EPS__
s	s
p	p
r	r
a	a
c	c
h	h
e	__EPS__

__BEGIN__	__EPS__
d	d
a	a
z	ss

__BEGIN__	__EPS__
g	g
e	e
g	g
e	e
b	b
i	e
n	n

__BEGIN__	__EPS__
s	s
e	e
l	l
b	b
e	e
r	r

__BEGIN__	__EPS__
s	s
p	p
r	r
a	a
i	__EPS__
c	c
h	h
e	e
n	n

__BEGIN__	__EPS__
l	l
i	ie
f	f

__BEGIN__	__EPS__
d	d
i	i
e	e

__BEGIN__	__EPS__
m	m
e	e
n	n
t	__EPS__
s	s
c	c
h	h
e	e
n	n

__BEGIN__	__EPS__
s	s
e	e
i	i
n	n

__BEGIN__	__EPS__
v	v
o	o
r	r

__BEGIN__	__EPS__
g	g
u	ü
t	t
l	l
i	i
c	c
h	h
e	e
n	n

__BEGIN__	__EPS__
o	ü
u	b
e	e
r	r

__BEGIN__	__EPS__
p	p
y	i
l	l
a	a
t	t
u	u
s	s

__BEGIN__	__EPS__
s	s
o	o

__BEGIN__	__EPS__
y	ih
m	m

__BEGIN__	__EPS__
s	s
p	p
i	i
e	e
s	ss

__BEGIN__	__EPS__
i	i
c	c
h	h

__BEGIN__	__EPS__
d	d
e	e
r	r

__BEGIN__	__EPS__
w	w
i	e
l	l
c	c
h	h

__BEGIN__	__EPS__
w	w
a	a
n	n
n	n

__BEGIN__	__EPS__
y	ih
m	m

__BEGIN__	__EPS__
s	s
t	t
e	e
i	i
n	n

__BEGIN__	__EPS__
w	w
e	e
l	l
c	c
h	h
i	e
r	r

__BEGIN__	__EPS__
e	e
r	r

__BEGIN__	__EPS__
s	s
y	ie

__BEGIN__	__EPS__
h	e
e	r

__BEGIN__	__EPS__
o	a
u	u
c	c
h	h

__BEGIN__	__EPS__
g	g
e	e
h	h
a	a
b	b
t	t

__BEGIN__	__EPS__
v	v
o	o
n	n

__BEGIN__	__EPS__
m	m
e	e
n	n
s	s
h	c
e	h

__BEGIN__	__EPS__
k	g
r	r
i	i
e	e
c	c
h	h
i	i
s	s
c	c
h	h
e	e
n	n

__BEGIN__	__EPS__
v	v
o	o
l	l
c	__EPS__
k	k

__BEGIN__	__EPS__
k	k
u	o
n	nn
d	t
e	e

__BEGIN__	__EPS__
s	s
p	p
r	r
a	a
c	c
h	h

__BEGIN__	__EPS__
i	i
s	s
t	t

__BEGIN__	__EPS__
p	b
u	u
e	__EPS__
s	s
z	se

__BEGIN__	__EPS__
v	v
i	ie
l	l

__BEGIN__	__EPS__
d	d
a	a
z	ss

__BEGIN__	__EPS__
s	se
i	i
n	n
e	e
r	r

__BEGIN__	__EPS__
a	a
u	u
z	s
g	g
e	e
n	n
o	o
m	m
e	__EPS__
n	m
l	__EPS__
e	e
i	__EPS__
c	__EPS__
h	__EPS__
e	__EPS__
n	n

__BEGIN__	__EPS__
i	j
u	u
d	d
e	e
n	n

__BEGIN__	__EPS__
s	s
i	i
e	e

__BEGIN__	__EPS__
i	j
v	u
d	d
e	e
n	n

__BEGIN__	__EPS__
a	a
l	l
l	l
e	e
r	r

__BEGIN__	__EPS__
h	h
a	a
u	u
p	p
t	t

__BEGIN__	__EPS__
m	m
i	i
t	t

__BEGIN__	__EPS__
e	e
r	r

__BEGIN__	__EPS__
h	h
a	a
u	u
b	p
t	t

__BEGIN__	__EPS__
v	v
a	o
n	n

__BEGIN__	__EPS__
g	__EPS__
e	__EPS__
s	s
i	a
g	g
t	t
e	e
n	n
d	__EPS__

__BEGIN__	__EPS__
v	u
n	n
d	d

__BEGIN__	__EPS__
w	w
i	i
l	l
l	l
e	e
n	n

__BEGIN__	__EPS__
w	w
i	i
e	e

__BEGIN__	__EPS__
d	d
e	e
m	m

__BEGIN__	__EPS__
i	u
n	n
d	d

__BEGIN__	__EPS__
e	e
n	n
d	d
e	e

__BEGIN__	__EPS__
d	d
a	a

__BEGIN__	__EPS__
w	wi
e	e
d	d
e	e
r	r

__BEGIN__	__EPS__
s	s
i	e
g	__EPS__
e	i
s	s
t	t

__BEGIN__	__EPS__
s	s
p	p
r	r
a	a
c	c
h	h

__BEGIN__	__EPS__
m	me
y	i
n	n

__BEGIN__	__EPS__
z	z
e	e
r	r
s	s
t	t
o	ö
r	r
t	t
e	e
n	n

__BEGIN__	__EPS__
s	s
p	p
r	r
e	ä
c	c
h	h
e	e

__BEGIN__	__EPS__
e	e
w	v
a	a
n	n
g	g
e	e
l	l
i	i
s	s
t	t

__BEGIN__	__EPS__
k	k
y	i
n	n
d	d
e	__EPS__

__BEGIN__	__EPS__
h	h
i	i
e	e
s	ss

__BEGIN__	__EPS__
i	i
s	s
t	t

__BEGIN__	__EPS__
g	g
e	e
m	m
e	e
y	i
n	n
e	e

__BEGIN__	__EPS__
s	s
i	e
j	i
n	n

__BEGIN__	__EPS__
w	w
e	o
l	l
l	l
i	__EPS__
t	t

__BEGIN__	__EPS__
s	se
i	i
n	n

__BEGIN__	__EPS__
v	u
n	n
d	d

__BEGIN__	__EPS__
m	m
i	i
t	t

__BEGIN__	__EPS__
w	w
e	e
n	nn

__BEGIN__	__EPS__
n	n
e	__EPS__
ü	u
r	r

__BEGIN__	__EPS__
d	d
a	a
r	r
v	a
s	u
z	s

__BEGIN__	__EPS__
a	a
l	l
l	l
e	e

__BEGIN__	__EPS__
m	m
y	i
r	r

__BEGIN__	__EPS__
d	d
o	a

__BEGIN__	__EPS__
v	u
n	n
d	d

__BEGIN__	__EPS__
c	k
h	__EPS__
i	i
n	n
d	d

__BEGIN__	__EPS__
r	r
e	e
i	i
n	n
v	__EPS__
i	e

__BEGIN__	__EPS__
v	v
e	e
r	r
l	l
o	o
r	r
e	e
n	nen

__BEGIN__	__EPS__
g	g
e	e
s	s
a	e
h	h
e	e
n	n

__BEGIN__	__EPS__
v	v
o	e
r	r
o	u
r	r
t	t
e	e
i	i
l	l
e	e
n	n

__BEGIN__	__EPS__
b	b
e	e
n	n
o	o
m	mm
e	e
n	n

__BEGIN__	__EPS__
w	w
a	a
s	r

__BEGIN__	__EPS__
d	d
a	a
s	s

__BEGIN__	__EPS__
v	u
n	n
d	d

__BEGIN__	__EPS__
1	1
r	__EPS__
u	__EPS__
m	4
c	__EPS__
o	9
n	__EPS__
r	__EPS__
u	__EPS__
m	4

__BEGIN__	__EPS__
g	g
e	e
s	s
e	e
h	h
e	e
n	n

__BEGIN__	__EPS__
a	e
i	i
n	n
e	e
n	n

__BEGIN__	__EPS__
z	z
u	u

__BEGIN__	__EPS__
w	w
a	a
r	r
e	e
n	n

__BEGIN__	__EPS__
d	d
i	i
e	e

__BEGIN__	__EPS__
s	s
p	p
r	r
a	a
c	c
h	h

__BEGIN__	__EPS__
s	s
c	c
h	h
e	ä
g	ch
e	e
r	r
e	__EPS__
n	n

__BEGIN__	__EPS__
g	g
r	r
o	o
i	__EPS__
s	s
z	s
e	e
r	r

__BEGIN__	__EPS__
d	d
o	a

__BEGIN__	__EPS__
a	a
l	l
s	s
z	__EPS__

__BEGIN__	__EPS__
w	w
i	i
e	e

__BEGIN__	__EPS__
d	d
e	e
r	r

__BEGIN__	__EPS__
s	s
a	a
n	nd
t	te

__BEGIN__	__EPS__
i	i
n	n

__BEGIN__	__EPS__
n	n
i	ich
t	t

__BEGIN__	__EPS__
w	w
e	ä
r	r
e	e

__BEGIN__	__EPS__
v	f
o	__EPS__
r	r
w	a
e	u

__BEGIN__	__EPS__
v	u
n	n
g	g
e	e
r	r
n	n
e	e

__BEGIN__	__EPS__
i	i
c	c
h	h

__BEGIN__	__EPS__
w	w
e	__EPS__
i	i
t	t
w	w
e	e
n	n

__BEGIN__	__EPS__
d	d
e	e
r	r

__BEGIN__	__EPS__
d	d
a	a
t	s

__BEGIN__	__EPS__
a	a
l	l
s	s

__BEGIN__	__EPS__
d	d
e	e
r	r

__BEGIN__	__EPS__
k	k
e	a
m	m

__BEGIN__	__EPS__
s	s
p	p
r	r
a	a
c	c
h	h

__BEGIN__	__EPS__
d	t
o	__EPS__
o	o
t	d

__BEGIN__	__EPS__
p	p
i	i
l	l
a	a
t	t
u	u
s	s

__BEGIN__	__EPS__
d	d
e	e
n	n

__BEGIN__	__EPS__
w	w
y	ie

__BEGIN__	__EPS__
d	d
o	a

__BEGIN__	__EPS__
m	m
o	ö
e	__EPS__
c	c
h	h
t	te

__BEGIN__	__EPS__
h	h
y	i
m	m
e	__EPS__
l	m
l	l
i	i
s	s
c	c
h	h
e	e
n	n

__BEGIN__	__EPS__
k	k
a	a
i	i
s	s
e	e
r	r

__BEGIN__	__EPS__
e	e
s	s

__BEGIN__	__EPS__
d	d
e	e
r	r

__BEGIN__	ge
w	w
o	o
r	r
d	d
e	e
n	n

__BEGIN__	__EPS__
a	e
i	i
n	n
e	e
r	r

__BEGIN__	__EPS__
d	d
i	i
e	e

__BEGIN__	__EPS__
m	m
i	i
t	t

__BEGIN__	__EPS__
a	a
n	n
s	s
e	e
l	l
m	m
e	__EPS__

__BEGIN__	__EPS__
i	i
n	n

__BEGIN__	__EPS__
d	d
a	a
z	ss

__BEGIN__	__EPS__
e	e
r	r

__BEGIN__	__EPS__
l	l
a	a
g	g

__BEGIN__	__EPS__
p	p
e	e
t	t
r	r
u	u
s	s

__BEGIN__	__EPS__
a	a
l	l
s	s

__BEGIN__	__EPS__
e	e
i	i
n	n

__BEGIN__	__EPS__
i	e
r	r
s	s
c	c
h	h
r	r
a	e
c	c
k	k
e	e
n	n

__BEGIN__	__EPS__
s	s
i	i
m	m
e	e
o	o
n	n

__BEGIN__	__EPS__
d	d
a	a
r	r

__BEGIN__	__EPS__
g	g
e	e
r	r
i	i
c	c
h	h
t	t
e	e

__BEGIN__	__EPS__
v	u
n	n
d	d

__BEGIN__	__EPS__
s	s
e	e
l	l
b	b
e	e
r	r

__BEGIN__	__EPS__
m	m
:	aria

__BEGIN__	__EPS__
s	s
p	p
r	r
a	a
c	c
h	h

__BEGIN__	__EPS__
v	u
n	n
d	d

__BEGIN__	__EPS__
l	le
v	u
t	t
e	e
n	n

__BEGIN__	__EPS__
d	d
u	u

__BEGIN__	__EPS__
d	d
a	a
s	s

__BEGIN__	__EPS__
m	m
a	a
r	r
i	i
a	a

__BEGIN__	__EPS__
h	__EPS__
e	e
r	r

__BEGIN__	__EPS__
h	h
e	e
r	r
o	o
d	d
e	e
s	s

__BEGIN__	__EPS__
v	u
n	n
d	d

__BEGIN__	__EPS__
v	u
n	n
d	d

__BEGIN__	__EPS__
w	w
e	e
r	r
d	d
e	e
t	t

__BEGIN__	__EPS__
p	p
y	i
l	l
a	a
t	t
u	u
s	s

__BEGIN__	__EPS__
n	n
u	u

__BEGIN__	__EPS__
g	g
e	e
w	w
a	a
r	r
t	t
e	e
t	t

__BEGIN__	__EPS__
v	u
n	n
d	d

__BEGIN__	__EPS__
g	g
r	r
o	o
s	ss
e	e
m	m

__BEGIN__	__EPS__
d	d
o	a
e	__EPS__

__BEGIN__	__EPS__
d	d
e	e
m	m

__BEGIN__	__EPS__
w	w
a	a
s	r

__BEGIN__	__EPS__
d	d
a	a
z	ss

__BEGIN__	__EPS__
d	d
e	e
r	r

__BEGIN__	__EPS__
s	s
u	oh
n	n

__BEGIN__	__EPS__
g	g
e	e
s	s
p	p
o	o
t	tt
e	e
t	t

__BEGIN__	__EPS__
d	d
e	e
r	r

__BEGIN__	__EPS__
e	e
d	d
e	__EPS__
l	l
e	e
r	r

__BEGIN__	__EPS__
p	p
l	l
a	a
r	r
a	a
v	v
i	i
t	t

__BEGIN__	__EPS__
v	a
f	u
f	f

__BEGIN__	__EPS__
m	me
y	i
n	n
e	e
m	m

__BEGIN__	__EPS__
a	a
n	n

__BEGIN__	__EPS__
i	ih
n	n

__BEGIN__	__EPS__
y	ih
m	m

__BEGIN__	__EPS__
w	w
o	a
r	r
p	f

__BEGIN__	__EPS__
t	t
a	a
g	g

__BEGIN__	__EPS__
t	t
r	r
u	u
e	g
g	s
e	t

__BEGIN__	__EPS__
a	a
w	u
s	s
g	g
i	i
e	__EPS__
n	n
g	g

__BEGIN__	__EPS__
d	d
i	i
e	e

__BEGIN__	__EPS__
d	d
o	a

__BEGIN__	__EPS__
g	g
e	e
r	r
i	i
c	c
h	h
t	t
e	s
h	h
ü	a
s	u
z	s
e	__EPS__

__BEGIN__	__EPS__
v	u
n	n
g	g
e	e
m	m
a	a
c	c
h	h

__BEGIN__	__EPS__
s	s
i	e
e	i

__BEGIN__	__EPS__
m	m
e	e
i	i
n	n

__BEGIN__	__EPS__
g	g
r	r
o	o
s	s
z	s
e	e
n	n

__BEGIN__	__EPS__
d	d
a	a
n	n
n	n
e	e
n	n

__BEGIN__	__EPS__
u	v
o	o
l	ll

__BEGIN__	__EPS__
d	t
a	ä
e	__EPS__
d	t
e	e
n	n

__BEGIN__	__EPS__
d	d
i	i
e	e

__BEGIN__	__EPS__
i	i
n	n

__BEGIN__	__EPS__
t	t
o	o
t	t
e	e
n	n

__BEGIN__	__EPS__
k	k
a	a
m	m

__BEGIN__	__EPS__
g	g
i	i
n	n
g	g

__BEGIN__	__EPS__
w	w
o	ol
l	l
t	te

__BEGIN__	__EPS__
d	d
a	a
s	s

__BEGIN__	__EPS__
i	ih
n	n

__BEGIN__	__EPS__
h	h
a	ab
n	e

__BEGIN__	__EPS__
v	v
i	i
d	d
e	e

__BEGIN__	__EPS__
g	g
a	a
r	r

__BEGIN__	__EPS__
f	f
r	re
y	i
t	t
a	a
g	g

__BEGIN__	__EPS__
d	d
e	e
r	r

__BEGIN__	__EPS__
h	h
a	a
u	u
s	s
z	__EPS__

__BEGIN__	__EPS__
w	w
e	e
l	l
c	c
h	h
e	e
n	n

__BEGIN__	__EPS__
n	n
a	a
c	c
h	h
t	t

__BEGIN__	__EPS__
d	d
i	i
c	e
z	s
e	e
s	s

__BEGIN__	__EPS__
s	s
c	c
h	h
o	ö
n	n

__BEGIN__	__EPS__
c	k
r	r
u	e
i	u
c	__EPS__
z	z

__BEGIN__	__EPS__
s	m
a	i
n	t

__BEGIN__	__EPS__
v	u
n	n
d	d

__BEGIN__	__EPS__
k	k
u	o
m	mm

__BEGIN__	__EPS__
v	u
n	n
d	d

__BEGIN__	__EPS__
w	d
a	e
n	n
t	n

__BEGIN__	__EPS__
s	s
e	e
i	i
n	n
e	e
m	m

__BEGIN__	__EPS__
m	m
a	a
n	n

__BEGIN__	__EPS__
s	s
u	o
n	n
n	n
e	e
n	n

__BEGIN__	__EPS__
d	d
e	e
m	m

__BEGIN__	__EPS__
i	j
o	o
h	h
a	a
n	n
n	n
e	e
s	s

__BEGIN__	__EPS__
b	b
i	i
s	s
s	s
e	e
n	n

__BEGIN__	__EPS__
h	h
e	e
r	r
c	__EPS__
z	z
e	e
n	n

__BEGIN__	__EPS__
v	v
o	o
n	n

__BEGIN__	__EPS__
r	r
e	ec
h	h
t	t
e	__EPS__

__BEGIN__	__EPS__
s	s
e	e
c	__EPS__
h	h
t	t

__BEGIN__	__EPS__
d	d
i	i
e	e

__BEGIN__	__EPS__
b	b
r	r
v	u
d	d
e	e
r	r

__BEGIN__	__EPS__
l	l
i	i
e	e
f	f
f	__EPS__

__BEGIN__	__EPS__
i	i
c	c
h	h

__BEGIN__	__EPS__
ü	a
f	u
f	f

__BEGIN__	__EPS__
f	f
ü	ü
n	n
f	f
f	__EPS__
t	t
a	a
u	u
s	s
e	e
n	n
t	d

__BEGIN__	__EPS__
b	__EPS__
e	__EPS__
s	s
e	e
h	h
e	e
n	n

__BEGIN__	__EPS__
v	u
n	n
d	d

__BEGIN__	__EPS__
a	a
b	b
e	e
r	r

__BEGIN__	__EPS__
a	a
l	l
s	s
o	o

__BEGIN__	__EPS__
z	s
i	i
e	e
k	ch
e	e
n	n

__BEGIN__	__EPS__
a	a
l	l
s	s
o	o

__BEGIN__	__EPS__
e	e
i	i
n	n
g	g
e	e
b	b
o	o
r	re
n	n
e	e
n	n

__BEGIN__	__EPS__
a	a
l	l
s	s

__BEGIN__	__EPS__
d	d
ü	u

__BEGIN__	__EPS__
s	s
c	c
h	h
r	r
a	e
y	ie

__BEGIN__	__EPS__
s	sankt

__BEGIN__	__EPS__
v	u
n	n
d	d

__BEGIN__	__EPS__
v	v
o	o
l	l
c	__EPS__
h	k

__BEGIN__	__EPS__
a	a
u	u
c	c
h	h

__BEGIN__	__EPS__
l	l
a	a
u	u
t	t
t	__EPS__
e	e
r	r

__BEGIN__	__EPS__
e	e
i	i
n	n

__BEGIN__	__EPS__
w	w
o	oh
l	l

__BEGIN__	__EPS__
f	f
r	r
a	e
w	u
d	d
e	e

