__BEGIN__	__EPS__
m	m
i	i
t	t

__BEGIN__	__EPS__
a	a
l	l
l	l
e	e

__BEGIN__	__EPS__
a	a
m	m

__BEGIN__	__EPS__
a	a
l	l
l	l
e	e

__BEGIN__	__EPS__
p	p
e	e
t	t
r	r
u	u
s	s

__BEGIN__	__EPS__
g	g
e	e
s	s
c	c
h	h
r	ri
e	e
u	b
e	e
n	n

__BEGIN__	__EPS__
e	e
i	i
n	n

__BEGIN__	__EPS__
w	w
u	a
r	r
f	__EPS__
f	f
e	e
n	n
t	__EPS__

__BEGIN__	__EPS__
a	a
n	n

__BEGIN__	__EPS__
d	d
a	a
s	ss

__BEGIN__	__EPS__
s	s
i	ie

__BEGIN__	__EPS__
d	d
a	as
z	s

__BEGIN__	__EPS__
a	a
l	l
l	l
e	e
r	r
l	l
i	ie
b	b
s	s
t	t
e	e

__BEGIN__	__EPS__
h	h
e	e
i	i
s	s
z	s
e	__EPS__
t	t

__BEGIN__	__EPS__
v	u
n	n
d	d

__BEGIN__	__EPS__
s	s
i	i
e	e

__BEGIN__	__EPS__
f	f
r	r
a	a
w	u
e	__EPS__

__BEGIN__	__EPS__
w	w
a	a
n	nn

__BEGIN__	__EPS__
w	w
e	ei
s	ss
t	t

__BEGIN__	__EPS__
v	v
o	o
n	n

__BEGIN__	__EPS__
t	t
e	a
t	t
e	e
n	n

__BEGIN__	__EPS__
d	d
i	i
e	e

__BEGIN__	__EPS__
d	d
e	e
m	m

__BEGIN__	__EPS__
h	h
e	a
t	t

__BEGIN__	__EPS__
i	i
c	c
h	h

__BEGIN__	a
u	u
f	f

__BEGIN__	__EPS__
d	d
e	e
s	s

__BEGIN__	__EPS__
g	g
e	e
s	s
t	t
e	ec
k	k
e	__EPS__
t	t

__BEGIN__	__EPS__
p	b
i	i
s	s
t	t

__BEGIN__	__EPS__
l	l
a	a
i	s
s	s
t	t

__BEGIN__	__EPS__
w	we
i	i
s	se

__BEGIN__	__EPS__
l	l
i	i
e	e
s	s
z	s

__BEGIN__	__EPS__
p	b
a	a
l	l
d	d

__BEGIN__	__EPS__
d	d
c	ass

__BEGIN__	__EPS__
v	v
o	o
r	r

__BEGIN__	__EPS__
e	e
r	r

__BEGIN__	__EPS__
a	a
n	n
d	d
e	e
r	re

__BEGIN__	__EPS__
l	l
i	i
e	e
b	b
e	e
n	n

__BEGIN__	__EPS__
s	s
c	c
h	h
o	ö
e	__EPS__
n	n
s	s
t	te

__BEGIN__	__EPS__
s	s
y	ie

__BEGIN__	__EPS__
h	e
e	r

__BEGIN__	__EPS__
v	u
n	n
d	d

__BEGIN__	__EPS__
v	u
n	n
d	d

__BEGIN__	__EPS__
d	d
a	a

__BEGIN__	__EPS__
n	n
a	a
c	c
h	h
v	f
o	o
l	l
g	g
e	e
n	n

__BEGIN__	__EPS__
s	s
p	p
o	o
t	t
t	t
e	e
t	t

__BEGIN__	__EPS__
s	s
w	ch
a	w
e	e
r	r
e	e

__BEGIN__	__EPS__
n	n
i	ich
t	t

__BEGIN__	__EPS__
d	t
e	__EPS__
y	u
t	t

__BEGIN__	__EPS__
e	e
m	m
p	p
f	f
i	i
e	__EPS__
n	n
g	g

__BEGIN__	__EPS__
v	v
o	o
r	r

__BEGIN__	__EPS__
s	s
u	oh
n	n

__BEGIN__	__EPS__
s	s
t	t
a	ä
t	tte

__BEGIN__	__EPS__
c	k
h	__EPS__
o	o
n	nn
d	t
e	e
n	n

__BEGIN__	__EPS__
h	h
e	a
s	s
t	t

__BEGIN__	__EPS__
k	k
i	i
n	n
d	d

__BEGIN__	__EPS__
v	u
n	n
d	d

__BEGIN__	__EPS__
v	u
n	n
d	d

__BEGIN__	__EPS__
e	e
r	r
l	l
o	ö
e	__EPS__
s	s
e	__EPS__
t	t

__BEGIN__	__EPS__
v	u
n	n
d	d

__BEGIN__	__EPS__
v	a
z	u
z	s
g	g
e	e
f	f
u	ü
e	h
r	r
t	t

__BEGIN__	__EPS__
d	d
e	e
n	n

__BEGIN__	__EPS__
d	d
a	a

__BEGIN__	__EPS__
v	v
o	o
n	n

__BEGIN__	__EPS__
n	n
a	ah
m	m
e	e
n	n

__BEGIN__	__EPS__
d	d
o	a

__BEGIN__	__EPS__
w	w
a	e
i	i
n	n
e	e
n	n

__BEGIN__	__EPS__
e	e
r	r

__BEGIN__	__EPS__
s	s
o	o
l	ll

__BEGIN__	__EPS__
y	j
e	e

__BEGIN__	__EPS__
m	me
i	i
n	n
e	e
r	r

__BEGIN__	__EPS__
e	e
r	r

__BEGIN__	__EPS__
n	n
a	ä
g	g
e	e
l	l

__BEGIN__	__EPS__
t	t
r	r
o	o
i	__EPS__
s	s
t	t

__BEGIN__	__EPS__
s	s
t	t
a	a
r	r
k	k

__BEGIN__	__EPS__
l	l
a	a
n	n
d	d
e	__EPS__

__BEGIN__	__EPS__
d	d
a	a
m	m
i	i
t	t

__BEGIN__	__EPS__
i	j
o	o
s	s
e	e
p	p
p	h

__BEGIN__	__EPS__
d	d
i	i
e	e

__BEGIN__	__EPS__
c	k
h	__EPS__
i	i
n	n
t	d

__BEGIN__	__EPS__
d	d
e	e
r	r

__BEGIN__	__EPS__
e	e
r	r

__BEGIN__	__EPS__
n	n
a	a
c	c
h	h
t	t

__BEGIN__	__EPS__
i	ih
n	n
e	e
n	n

__BEGIN__	__EPS__
s	s
p	p
r	r
i	i
c	c
h	h
t	t

__BEGIN__	__EPS__
g	g
r	r
o	o
s	s
z	s
e	e

__BEGIN__	__EPS__
z	z
u	u

__BEGIN__	__EPS__
t	t
r	r
o	o
s	s
t	t

__BEGIN__	__EPS__
d	d
i	i
e	e

__BEGIN__	__EPS__
e	e
r	r

__BEGIN__	__EPS__
i	j
o	o
h	h
-	ann
e	e
m	s

__BEGIN__	__EPS__
c	k
h	__EPS__
r	r
o	o
n	n
e	e

__BEGIN__	__EPS__
b	b
i	i
n	n

__BEGIN__	__EPS__
g	g
o	ot
t	t

__BEGIN__	__EPS__
g	g
e	e
d	d
a	a
c	c
h	h
t	t

__BEGIN__	__EPS__
w	w
a	a
n	nn

__BEGIN__	__EPS__
v	v
o	o
n	n

__BEGIN__	__EPS__
e	e
r	r

__BEGIN__	__EPS__
r	r
i	i
t	t
t	t
e	e
r	r

__BEGIN__	__EPS__
g	g
r	r
o	o
i	__EPS__
s	s
z	s
e	e

__BEGIN__	__EPS__
a	a
l	l
s	s
o	o

__BEGIN__	__EPS__
t	t
o	o
d	t
e	e
n	n

__BEGIN__	__EPS__
a	a
r	r
o	i
m	m
a	a
t	t
h	h
i	ae
a	a

__BEGIN__	__EPS__
w	w
i	i
s	s
s	s
e	e
n	n
t	__EPS__

__BEGIN__	__EPS__
z	z
e	usa
m	mm
e	e
n	n

__BEGIN__	__EPS__
v	u
n	n
g	g
e	e
r	rn

__BEGIN__	__EPS__
i	j
h	__EPS__
e	e
s	s
u	u
s	s

__BEGIN__	__EPS__
v	b
n	i
t	__EPS__
z	s

__BEGIN__	__EPS__
e	e
t	t

__BEGIN__	__EPS__
m	me
y	i
n	n

__BEGIN__	__EPS__
e	e
r	r
s	s
a	a
c	__EPS__
h	h

__BEGIN__	__EPS__
h	e
e	r

__BEGIN__	__EPS__
a	a
l	l
s	s

__BEGIN__	__EPS__
a	a
l	l
s	s

__BEGIN__	__EPS__
e	e
r	r

__BEGIN__	__EPS__
p	b
a	__EPS__
e	ä
c	c
h	h
e	e
n	n

__BEGIN__	__EPS__
z	z
e	u

__BEGIN__	__EPS__
d	d
e	i
w	e

__BEGIN__	__EPS__
w	w
o	o
l	ll
t	t
e	e
n	n

__BEGIN__	__EPS__
l	l
u	__EPS__
i	i
f	e
f	f

__BEGIN__	n
e	ich
n	t

__BEGIN__	__EPS__
w	w
i	ü
r	r
d	d
i	i
g	g

__BEGIN__	__EPS__
s	s
v	oh
n	n

__BEGIN__	__EPS__
e	e
r	r

__BEGIN__	__EPS__
w	w
i	i
e	e

__BEGIN__	__EPS__
m	m
a	o
n	__EPS__
s	r
l	__EPS__
a	__EPS__
e	__EPS__
c	__EPS__
h	__EPS__
t	d

__BEGIN__	__EPS__
t	__EPS__
z	z
v	u

__BEGIN__	__EPS__
e	e
n	n
d	de

__BEGIN__	__EPS__
s	s
e	e
l	l
i	i
c	g
h	__EPS__

__BEGIN__	__EPS__
s	s
c	o
h	l
o	__EPS__
l	l

__BEGIN__	__EPS__
e	e
i	i
n	n
e	e
n	n

__BEGIN__	__EPS__
u	a
f	u
f	f

__BEGIN__	__EPS__
e	e
r	r

__BEGIN__	__EPS__
i	ih
n	n

__BEGIN__	__EPS__
d	d
o	a
r	__EPS__
n	n
o	a
c	c
h	h

__BEGIN__	__EPS__
b	be
y	i

__BEGIN__	__EPS__
d	d
o	a

__BEGIN__	__EPS__
i	j
e	ä
m	mm
e	e
r	r
l	l
i	i
c	c
h	h
e	e
n	n

__BEGIN__	__EPS__
v	u
n	n
d	d

__BEGIN__	__EPS__
i	i
c	c
h	h

__BEGIN__	__EPS__
d	d
w	u

__BEGIN__	__EPS__
d	d
a	a
s	s

__BEGIN__	__EPS__
c	__EPS__
z	z
u	u

__BEGIN__	__EPS__
i	i
s	s
t	t

__BEGIN__	__EPS__
m	m
i	i
c	c
h	h

__BEGIN__	__EPS__
w	w
u	u
o	__EPS__
r	r
d	d
e	e

__BEGIN__	__EPS__
a	oh
n	n
e	e

__BEGIN__	__EPS__
d	d
i	i
n	n
g	g
e	e
n	n

__BEGIN__	__EPS__
s	s
p	p
r	r
a	a
c	c
h	h

__BEGIN__	__EPS__
s	s
t	t
u	__EPS__
o	a
n	n
d	d

__BEGIN__	__EPS__
d	d
a	a
t	ss

__BEGIN__	__EPS__
s	s
u	oh
n	n

__BEGIN__	__EPS__
v	u
n	n
d	d

__BEGIN__	__EPS__
k	k
r	r
e	e
u	u
c	__EPS__
z	z

__BEGIN__	__EPS__
d	d
i	ie

__BEGIN__	__EPS__
d	d
o	a

__BEGIN__	__EPS__
d	d
o	a

__BEGIN__	__EPS__
m	m
a	a
n	n

__BEGIN__	__EPS__
i	i
n	n

__BEGIN__	__EPS__
f	f
u	üh
r	r
t	te

__BEGIN__	__EPS__
e	e
r	r

__BEGIN__	__EPS__
m	m
a	a
r	r
i	i
a	a

__BEGIN__	__EPS__
d	d
a	a
n	nn

__BEGIN__	__EPS__
s	s
t	t
a	ä
t	tte

__BEGIN__	__EPS__
z	z
o	o
r	r
e	__EPS__
n	n

__BEGIN__	__EPS__
s	s
y	i
n	n
t	d

__BEGIN__	__EPS__
s	sch
w	w
u	o
e	__EPS__
r	r

__BEGIN__	__EPS__
g	g
o	o
t	tte
s	s

__BEGIN__	__EPS__
s	s
e	a
i	g
t	t
e	e

__BEGIN__	__EPS__
e	e
s	s

__BEGIN__	__EPS__
d	d
e	e
m	m

__BEGIN__	__EPS__
g	g
e	e
u	f
o	ü
i	g
t	t

__BEGIN__	__EPS__
d	d
i	i
e	e

__BEGIN__	__EPS__
d	d
e	e
r	r

__BEGIN__	__EPS__
g	g
e	e
g	g
e	e
n	n

__BEGIN__	__EPS__
i	ih
m	m

__BEGIN__	__EPS__
s	se
y	i
m	n
e	em

__BEGIN__	__EPS__
h	h
e	a
t	tt
e	e
n	n

__BEGIN__	__EPS__
d	d
o	a

__BEGIN__	__EPS__
v	v
a	a
t	t
e	e
r	r

__BEGIN__	__EPS__
v	v
o	o
r	r

__BEGIN__	__EPS__
v	u
n	n
d	d

__BEGIN__	__EPS__
w	w
e	eh

__BEGIN__	__EPS__
m	m
e	e
i	i
n	n

__BEGIN__	__EPS__
d	d
e	e
m	m

__BEGIN__	__EPS__
h	h
e	e
r	r
r	r
r	__EPS__
n	n

__BEGIN__	__EPS__
t	t
r	r
a	a
t	t
t	__EPS__

__BEGIN__	__EPS__
h	h
i	i
n	n

__BEGIN__	__EPS__
s	s
i	i
c	c
h	h

__BEGIN__	__EPS__
v	v
o	o
n	n

__BEGIN__	__EPS__
i	j
e	e
s	s
u	u
s	s

__BEGIN__	__EPS__
d	d
a	a
s	s

__BEGIN__	__EPS__
t	t
r	r
i	i
n	n
c	k
k	e

__BEGIN__	__EPS__
i	j
a	a

__BEGIN__	__EPS__
p	b
r	r
u	u
d	d
e	e
r	r

__BEGIN__	__EPS__
s	s
o	o

__BEGIN__	__EPS__
a	e
i	i
n	n

__BEGIN__	__EPS__
l	l
a	a
e	__EPS__
s	s
s	s
i	__EPS__
t	t

__BEGIN__	__EPS__
m	m
a	a
r	r
t	t
e	e
r	r
s	s
t	t
a	ä
t	tte

__BEGIN__	__EPS__
s	s
ü	ü
n	n
d	d
e	e
n	n

__BEGIN__	__EPS__
s	s
i	i
c	e
h	h

__BEGIN__	__EPS__
i	j
a	a
m	mm
e	e
r	r

__BEGIN__	__EPS__
d	t
a	ä
e	__EPS__
d	t
e	e
n	n

__BEGIN__	__EPS__
s	se
y	i
n	n

__BEGIN__	__EPS__
c	k
r	r
e	e
w	u
c	__EPS__
z	z

__BEGIN__	__EPS__
v	u
n	n
d	d

__BEGIN__	__EPS__
h	h
a	a
t	t

__BEGIN__	__EPS__
i	ih
m	m

__BEGIN__	__EPS__
c	k
r	re
u	u
c	z
e	e

__BEGIN__	__EPS__
i	ih
n	n

__BEGIN__	__EPS__
a	a
n	n

__BEGIN__	__EPS__
e	e
r	r

__BEGIN__	__EPS__
g	g
i	i
e	__EPS__
n	n
c	g
h	__EPS__

__BEGIN__	__EPS__
v	u
n	n
d	d

__BEGIN__	__EPS__
a	a
l	l
l	l
e	e
n	n

__BEGIN__	__EPS__
v	v
a	o
n	n

__BEGIN__	__EPS__
a	a
n	n

__BEGIN__	__EPS__
g	g
e	e
n	n
o	u
i	__EPS__
c	__EPS__
h	g

__BEGIN__	__EPS__
i	ih
n	n

__BEGIN__	__EPS__
v	au
p	f

__BEGIN__	__EPS__
o	ö
f	f
f	f
n	n
i	e
t	t
e	e
n	n

__BEGIN__	__EPS__
k	k
i	i
n	n
t	d

__BEGIN__	__EPS__
a	a
i	__EPS__
n	m

__BEGIN__	__EPS__
s	s
e	eh
r	r
e	__EPS__

__BEGIN__	__EPS__
a	a
l	l
t	t
e	e
n	n

__BEGIN__	__EPS__
d	d
i	i
e	e
p	b

__BEGIN__	__EPS__
s	s
e	e
i	i
n	n

__BEGIN__	__EPS__
w	w
a	a
i	__EPS__
r	r
u	u
m	m
b	__EPS__

__BEGIN__	__EPS__
m	m
i	i
c	c
h	h

__BEGIN__	__EPS__
s	s
y	ie

__BEGIN__	__EPS__
i	i
c	c
h	h

__BEGIN__	__EPS__
g	g
e	e
s	s
t	t
e	e
r	rn

__BEGIN__	__EPS__
s	s
y	ie

__BEGIN__	__EPS__
h	h
a	a
n	be

__BEGIN__	__EPS__
d	d
a	a
s	s

__BEGIN__	__EPS__
k	k
o	o
n	nn
d	t
e	e

__BEGIN__	__EPS__
n	n
u	u
n	n

__BEGIN__	__EPS__
d	t
r	r
e	e
i	i
f	b
f	e

__BEGIN__	__EPS__
m	m
i	i
c	c
h	h

__BEGIN__	__EPS__
m	m
i	i
c	c
h	h

__BEGIN__	__EPS__
s	s
y	ie

__BEGIN__	__EPS__
s	sch
w	w
e	e
r	r
t	t

__BEGIN__	__EPS__
e	e
r	r

__BEGIN__	__EPS__
t	d
e	a
r	n
n	i
e	e
d	d
e	e
r	r

__BEGIN__	all
e	e
i	i
n	n
e	__EPS__

__BEGIN__	__EPS__
g	g
r	r
o	o
s	s
s	s
e	e
n	n

__BEGIN__	__EPS__
v	v
e	e
r	r
s	sch
m	m
a	ä
e	__EPS__
h	h
e	__EPS__
t	te

__BEGIN__	__EPS__
m	m
i	i
t	t

__BEGIN__	__EPS__
v	u
n	n
d	d

__BEGIN__	__EPS__
a	a
n	n
b	b
l	l
i	ic
k	k
e	__EPS__
s	s

__BEGIN__	__EPS__
m	m
e	e
i	i
n	n

__BEGIN__	__EPS__
g	__EPS__
e	__EPS__
s	s
a	a
c	__EPS__
h	h

__BEGIN__	__EPS__
e	i
m	h
e	m

__BEGIN__	__EPS__
e	e
i	i
n	n
e	e
r	r

__BEGIN__	__EPS__
i	i
n	n

__BEGIN__	__EPS__
g	g
e	e
m	m
a	a
r	r
t	t
e	e
r	r
t	t

__BEGIN__	__EPS__
g	g
e	e
h	h
e	ei
l	l
t	t

__BEGIN__	__EPS__
v	v
o	o
n	n

__BEGIN__	__EPS__
a	a
l	l
l	l
e	e
m	m

__BEGIN__	__EPS__
v	ü
b	b
e	e
r	r

__BEGIN__	__EPS__
d	t
r	re
y	i
u	b
e	__EPS__
t	t

__BEGIN__	__EPS__
y	ih
n	n

__BEGIN__	__EPS__
w	w
i	i
l	ll

__BEGIN__	__EPS__
c	__EPS__
z	z
o	o
r	r
n	n

__BEGIN__	__EPS__
d	d
e	e
r	r

__BEGIN__	__EPS__
i	i
n	n

__BEGIN__	__EPS__
s	s
e	e
l	l
i	i
g	g

__BEGIN__	__EPS__
m	m
i	i
c	c
h	h

__BEGIN__	__EPS__
l	l
i	i
f	e
f	f

__BEGIN__	__EPS__
w	w
a	a
r	r
t	d

__BEGIN__	__EPS__
v	u
n	n
d	d

__BEGIN__	__EPS__
g	g
r	r
o	o
s	s
z	s
e	e

__BEGIN__	__EPS__
m	m
e	e
i	i
n	n

__BEGIN__	__EPS__
v	u
n	n
g	g
e	e
m	m
a	a
c	c
h	h

__BEGIN__	__EPS__
s	s
i	i
t	t
z	z
e	e
n	n

__BEGIN__	__EPS__
v	v
o	o
n	n

__BEGIN__	__EPS__
d	d
o	a

__BEGIN__	__EPS__
s	s
t	t
y	i
m	mme

__BEGIN__	__EPS__
s	s
p	p
r	r
a	a
c	c
h	h

__BEGIN__	__EPS__
d	d
i	i
e	e

__BEGIN__	__EPS__
d	d
a	a
r	r

__BEGIN__	__EPS__
s	si
e	e

__BEGIN__	__EPS__
m	m
i	i
t	t

__BEGIN__	__EPS__
s	s
a	e
t	t
z	zt
e	e
n	n
d	__EPS__

__BEGIN__	__EPS__
m	m
i	i
r	r

__BEGIN__	__EPS__
f	v
u	o
r	r

__BEGIN__	__EPS__
m	me
i	i
n	n
e	e
n	n

__BEGIN__	__EPS__
d	d
a	a
r	__EPS__
n	n
a	a
c	c
h	h

__BEGIN__	__EPS__
m	m
y	i
r	r

__BEGIN__	__EPS__
d	d
i	i
r	r

__BEGIN__	__EPS__
k	k
u	__EPS__
i	i
n	nd

__BEGIN__	__EPS__
v	f
l	l
o	o
i	__EPS__
c	__EPS__
h	h

__BEGIN__	__EPS__
d	d
i	i
c	c
h	h

__BEGIN__	__EPS__
d	d
o	a

__BEGIN__	__EPS__
v	u
n	n
d	d

__BEGIN__	__EPS__
e	e
y	i
n	n
e	e
n	n

__BEGIN__	__EPS__
p	p
i	i
l	l
a	a
t	t
u	u
s	s

__BEGIN__	__EPS__
i	i
c	c
h	h

__BEGIN__	__EPS__
y	j
u	u
d	d
e	e
n	n

__BEGIN__	__EPS__
m	m
i	i
t	t

__BEGIN__	__EPS__
a	a
n	n

__BEGIN__	__EPS__
s	s
i	i
c	c
h	h

__BEGIN__	__EPS__
i	i
n	n

__BEGIN__	__EPS__
w	w
u	o
n	nn
i	i
k	g
l	l
e	__EPS__
i	i
c	c
h	h
e	e
n	n

__BEGIN__	__EPS__
d	de
y	i
n	n

__BEGIN__	__EPS__
d	d
o	a

__BEGIN__	__EPS__
p	p
i	i
l	l
a	a
t	t
u	u
s	s

__BEGIN__	__EPS__
e	e
u	u
w	__EPS__
e	e
r	r

__BEGIN__	__EPS__
t	d
v	ü
n	n
c	k
h	__EPS__
t	t

__BEGIN__	__EPS__
n	n
i	i
c	c
h	h
t	t

__BEGIN__	__EPS__
i	u
n	n
d	d

__BEGIN__	__EPS__
r	r
e	e
w	ue

__BEGIN__	__EPS__
t	t
e	ä
t	t
e	e
n	n

__BEGIN__	__EPS__
m	m
o	u
i	__EPS__
t	t

__BEGIN__	__EPS__
a	a
n	n

__BEGIN__	__EPS__
a	a
n	n

__BEGIN__	__EPS__
v	v
o	o
n	n

__BEGIN__	__EPS__
w	w
e	o
l	l
l	l
e	e
n	n

__BEGIN__	__EPS__
e	e
s	s

__BEGIN__	__EPS__
i	i
c	c
h	h

__BEGIN__	__EPS__
v	u
r	r
t	t
a	e
i	i
l	l

__BEGIN__	__EPS__
s	s
a	a
c	__EPS__
h	h

__BEGIN__	__EPS__
h	e
e	r

__BEGIN__	__EPS__
k	k
e	e
i	i
n	n

__BEGIN__	__EPS__
s	s
p	p
r	r
i	i
c	c
h	h
e	__EPS__
t	t

__BEGIN__	__EPS__
f	f
r	r
a	a
g	g
t	t

__BEGIN__	__EPS__
k	k
i	i
n	n
d	d

__BEGIN__	__EPS__
i	ih
m	m

__BEGIN__	__EPS__
s	s
y	i
m	m
o	o
n	n

__BEGIN__	a
v	u
f	f

__BEGIN__	__EPS__
d	d
a	a
z	s

__BEGIN__	__EPS__
v	u
n	n
d	d

__BEGIN__	e
i	i
n	n

__BEGIN__	__EPS__
m	m
i	i
c	c
h	h

__BEGIN__	__EPS__
d	d
i	i
e	e

__BEGIN__	__EPS__
g	g
o	o
t	t
t	t

__BEGIN__	__EPS__
s	se
y	i
n	n

__BEGIN__	__EPS__
s	s
o	o

__BEGIN__	__EPS__
e	e
r	r

__BEGIN__	__EPS__
s	s
a	a
n	nk
t	t

__BEGIN__	__EPS__
m	m
o	o
c	c
h	h
t	te

__BEGIN__	__EPS__
d	d
i	i
e	e

__BEGIN__	__EPS__
a	a
l	l
s	s

__BEGIN__	__EPS__
i	i
c	c
h	h

__BEGIN__	__EPS__
i	ih
n	n

__BEGIN__	__EPS__
d	d
o	a

__BEGIN__	__EPS__
g	g
a	a
r	r

__BEGIN__	__EPS__
d	d
i	i
r	r

__BEGIN__	__EPS__
t	t
r	r
u	e
o	u
e	e
n	__EPS__

__BEGIN__	__EPS__
a	a
u	u
d	d
i	i

__BEGIN__	__EPS__
h	h
a	a
b	b
e	e

__BEGIN__	__EPS__
s	s
u	oh
n	n

__BEGIN__	__EPS__
p	b
r	r
a	a
c	c
h	h
t	t
e	e
n	n

__BEGIN__	__EPS__
s	s
a	a
g	ge

__BEGIN__	__EPS__
e	ehe

__BEGIN__	__EPS__
m	m
i	i
r	r

__BEGIN__	__EPS__
d	d
a	a
s	ss

__BEGIN__	__EPS__
d	d
u	u

__BEGIN__	__EPS__
n	n
a	a
t	t
v	u
r	r
e	__EPS__

__BEGIN__	__EPS__
v	u
n	n
d	d

__BEGIN__	__EPS__
a	a
l	l
l	l
e	e
r	r

__BEGIN__	__EPS__
q	k
w	__EPS__
a	a
m	m
e	e
n	n

__BEGIN__	__EPS__
l	l
a	a
g	g

__BEGIN__	__EPS__
d	d
a	a
r	__EPS__
n	n
a	a
c	c
h	h

__BEGIN__	__EPS__
s	s
i	i
e	e

__BEGIN__	__EPS__
g	g
e	e
u	b
e	e
n	n

__BEGIN__	__EPS__
g	g
e	e
d	d
a	ac
h	h
t	t

__BEGIN__	__EPS__
d	d
v	a

__BEGIN__	__EPS__
g	g
e	e
h	h
o	ö
e	__EPS__
r	r
t	t

__BEGIN__	__EPS__
m	m
i	i
t	t

__BEGIN__	__EPS__
a	a
l	l
s	s

__BEGIN__	__EPS__
b	b
l	l
i	i
e	e
b	b
e	e
n	n

__BEGIN__	__EPS__
a	a
l	l
l	l

__BEGIN__	__EPS__
z	z
v	u
e	__EPS__

__BEGIN__	__EPS__
s	s
i	i
c	c
h	h

__BEGIN__	__EPS__
m	m
a	a
g	g

__BEGIN__	__EPS__
m	m
i	i
c	c
h	h

__BEGIN__	__EPS__
d	d
i	i
e	e

__BEGIN__	__EPS__
a	a
l	l
l	l
e	e
n	n

__BEGIN__	__EPS__
v	u
n	n
d	d

__BEGIN__	__EPS__
a	a
b	b
e	e
r	r

__BEGIN__	__EPS__
d	d
e	e
m	m

__BEGIN__	__EPS__
i	ih
m	m

__BEGIN__	__EPS__
s	s
a	a
g	ge

__BEGIN__	__EPS__
d	d
i	i
e	e

__BEGIN__	__EPS__
d	d
i	i
e	e

__BEGIN__	__EPS__
v	b
n	i
c	__EPS__
z	s

__BEGIN__	__EPS__
g	g
a	a
f	b
f	__EPS__

__BEGIN__	__EPS__
w	w
e	a
s	s

__BEGIN__	__EPS__
a	a
n	n
d	d
e	e
r	r
s	s

__BEGIN__	__EPS__
z	z
o	o
r	r
e	__EPS__
n	n

__BEGIN__	__EPS__
n	n
i	ic
h	h
t	t

__BEGIN__	__EPS__
f	f
r	r
a	a
w	u

__BEGIN__	__EPS__
v	u
n	n
d	d

__BEGIN__	__EPS__
a	a
l	l
l	l

__BEGIN__	__EPS__
s	sch
l	l
u	u
g	g
e	e
n	n

__BEGIN__	__EPS__
d	d
i	i
n	n
g	g
e	e
n	n

__BEGIN__	__EPS__
v	u
n	n
d	d

__BEGIN__	__EPS__
m	m
e	e
n	n
s	s
c	c
h	h
l	l
i	i
c	c
h	h

__BEGIN__	__EPS__
v	v
o	o
n	n

__BEGIN__	__EPS__
d	d
i	i
e	e

__BEGIN__	__EPS__
w	w
i	i
l	l
l	l
e	e
n	n

__BEGIN__	__EPS__
a	a
n	n

__BEGIN__	__EPS__
i	i
c	c
h	h

__BEGIN__	__EPS__
m	m
a	a
r	r
i	i
a	a

__BEGIN__	__EPS__
n	n
a	a
c	c
h	h
t	t

__BEGIN__	__EPS__
h	h
e	a
t	t

__BEGIN__	__EPS__
v	v
o	o
n	n

__BEGIN__	__EPS__
a	a
l	l
s	s

__BEGIN__	__EPS__
w	w
a	a
r	r
d	d

__BEGIN__	__EPS__
m	m
i	i
c	c
h	h

__BEGIN__	__EPS__
d	d
e	e
n	n

__BEGIN__	__EPS__
d	d
i	i
e	e

__BEGIN__	__EPS__
a	a
l	l
s	s

__BEGIN__	__EPS__
v	u
n	n
d	d

__BEGIN__	__EPS__
v	f
o	o
l	l
g	g
e	e
n	n

__BEGIN__	__EPS__
v	u
n	n
d	d

__BEGIN__	__EPS__
s	s
a	o
l	ll

__BEGIN__	__EPS__
v	v
e	e
r	r
s	s
t	t
a	eh
i	e
n	n

__BEGIN__	__EPS__
w	w
i	i
e	e

__BEGIN__	__EPS__
i	ih
m	m

__BEGIN__	__EPS__
e	e
r	r

__BEGIN__	__EPS__
w	w
i	i
r	r

__BEGIN__	__EPS__
e	e
i	i
n	n

__BEGIN__	__EPS__
a	a
n	n
d	d
e	e
r	re
n	n

__BEGIN__	__EPS__
d	d
i	i
c	c
h	h

__BEGIN__	__EPS__
d	d
i	ie

__BEGIN__	__EPS__
d	d
a	a

__BEGIN__	__EPS__
i	i
c	c
h	h

__BEGIN__	__EPS__
g	g
a	a
n	n
c	__EPS__
z	z

__BEGIN__	__EPS__
y	ih
n	n

__BEGIN__	__EPS__
v	v
o	ol
l	l
b	b
r	r
a	a
c	c
h	h
t	t

__BEGIN__	__EPS__
d	d
a	a
t	s

__BEGIN__	__EPS__
k	k
i	i
n	n
t	d

__BEGIN__	__EPS__
m	m
i	i
r	r

__BEGIN__	__EPS__
n	n
e	äh
t	te

__BEGIN__	__EPS__
p	p
y	i
l	l
a	a
t	t
u	u
s	s

__BEGIN__	__EPS__
d	d
i	i
c	c
k	k

__BEGIN__	__EPS__
d	d
o	a

__BEGIN__	__EPS__
h	h
e	ä
n	n
d	d
e	e

__BEGIN__	__EPS__
v	u
n	n
d	d

__BEGIN__	__EPS__
n	n
y	i
e	e

__BEGIN__	__EPS__
d	d
e	e
r	r

__BEGIN__	__EPS__
h	h
e	a
t	t

__BEGIN__	__EPS__
w	w
i	i
e	e

__BEGIN__	__EPS__
k	k
o	o
m	mm
e	e
n	n

__BEGIN__	__EPS__
v	u
n	n
g	g
e	l
l	e
i	i
c	c
h	h

__BEGIN__	__EPS__
f	f
r	r
v	uc
h	h
t	t

__BEGIN__	__EPS__
w	w
e	u
s	ss
t	t
i	e
n	n

__BEGIN__	__EPS__
h	h
e	e
r	r
o	o
d	d
e	e
s	s

__BEGIN__	__EPS__
h	h
e	e
y	i
l	l
i	i
g	g
e	e
n	n

__BEGIN__	__EPS__
z	z
o	e
e	i
g	g
e	e
n	n

__BEGIN__	__EPS__
d	d
e	e
i	i
n	n
e	e
s	s

__BEGIN__	__EPS__
m	m
i	i
t	t

__BEGIN__	__EPS__
v	u
n	n
d	d

__BEGIN__	n
e	ich
n	t

__BEGIN__	__EPS__
d	d
o	a

__BEGIN__	__EPS__
i	i
c	c
h	h

__BEGIN__	__EPS__
m	m
i	i
c	c
h	h

__BEGIN__	__EPS__
p	b
e	e
i	i
c	c
h	h
t	te

__BEGIN__	__EPS__
s	s
e	e
i	i
n	n

__BEGIN__	__EPS__
t	t
o	o
d	d
e	e
s	s

__BEGIN__	__EPS__
d	d
e	e
m	m

__BEGIN__	__EPS__
k	k
i	i
n	n
d	d

__BEGIN__	__EPS__
d	d
y	ie

__BEGIN__	__EPS__
m	m
i	i
r	r

__BEGIN__	__EPS__
m	m
i	i
t	t

__BEGIN__	__EPS__
l	l
i	i
e	e
b	b
e	e

__BEGIN__	__EPS__
m	m
a	a
r	r
i	i
a	a

__BEGIN__	__EPS__
m	m
o	ö
r	r
d	d
e	e
r	r

__BEGIN__	__EPS__
t	t
a	a
t	t
e	e
n	n

__BEGIN__	__EPS__
g	__EPS__
e	__EPS__
s	s
e	e
c	__EPS__
h	h
e	e
n	n

__BEGIN__	__EPS__
d	d
a	a

__BEGIN__	__EPS__
d	d
a	a
r	__EPS__
n	n
a	a
c	c
h	h

__BEGIN__	__EPS__
s	s
i	i
e	e

__BEGIN__	__EPS__
s	s
u	oh
n	n

__BEGIN__	__EPS__
a	a
n	n

__BEGIN__	__EPS__
d	d
i	i
n	n
g	g
e	e
n	n

__BEGIN__	__EPS__
s	s
p	p
i	i
l	e
l	l
e	e
n	n

__BEGIN__	__EPS__
c	k
h	__EPS__
r	r
a	e
w	u
c	__EPS__
z	z

__BEGIN__	__EPS__
i	i
c	c
h	h

__BEGIN__	__EPS__
i	i
n	n

__BEGIN__	__EPS__
b	b
e	e
h	h
a	a
l	l
t	t
e	e
n	n

__BEGIN__	__EPS__
s	s
a	o
l	ll
t	t

__BEGIN__	__EPS__
l	l
a	a
u	u
t	t
e	e
r	r

__BEGIN__	__EPS__
y	ih
m	m

__BEGIN__	__EPS__
v	u
n	n
d	d
a	a
n	n
k	k
c	__EPS__
h	__EPS__
p	b
a	a
r	r
l	__EPS__
e	__EPS__
i	__EPS__
c	__EPS__
h	__EPS__

__BEGIN__	__EPS__
g	g
e	e
r	r
n	n

__BEGIN__	__EPS__
s	s
t	t
i	im
m	me

__BEGIN__	__EPS__
k	k
o	o
m	mm
e	e
n	n

__BEGIN__	__EPS__
s	s
i	i
e	e

__BEGIN__	__EPS__
v	u
n	n
d	d

__BEGIN__	__EPS__
i	ih
n	n

__BEGIN__	__EPS__
f	f
u	ü
r	r
s	s
t	t
e	e
n	n

__BEGIN__	__EPS__
d	d
a	a
n	n
n	n
e	e
n	n

__BEGIN__	__EPS__
m	me
i	i
n	n
e	e
n	n

__BEGIN__	__EPS__
a	a
b	b
g	g
r	r
u	ü
e	__EPS__
n	n
d	de

__BEGIN__	__EPS__
i	i
s	s
t	t

__BEGIN__	__EPS__
a	a
l	l
l	l
e	e
s	s

__BEGIN__	__EPS__
e	e
n	m
p	p
f	f
a	a
n	n
g	g
e	e
n	n

__BEGIN__	__EPS__
h	__EPS__
e	e
r	r

__BEGIN__	__EPS__
d	d
y	ie

__BEGIN__	__EPS__
m	m
i	i
c	c
h	h

__BEGIN__	__EPS__
z	z
e	e
h	h
e	__EPS__
n	n

__BEGIN__	__EPS__
d	d
o	a

__BEGIN__	__EPS__
z	z
e	u

__BEGIN__	__EPS__
e	e
r	r
s	s
c	c
h	h
u	ütte
o	r
t	te

__BEGIN__	__EPS__
m	m
a	a
r	r
i	i
a	a

__BEGIN__	__EPS__
b	b
u	a
n	n
d	d
e	e
n	__EPS__
n	n

__BEGIN__	__EPS__
k	k
a	o
s	s
t	t

__BEGIN__	__EPS__
l	l
e	e
i	i
d	d

__BEGIN__	__EPS__
h	h
a	a
b	be

__BEGIN__	__EPS__
d	d
e	e
n	n

__BEGIN__	__EPS__
w	w
u	o
n	n
e	n
n	i
k	g
l	l
i	i
c	c
h	h
e	e
n	n

__BEGIN__	__EPS__
d	d
i	i
e	e

__BEGIN__	__EPS__
d	d
e	e
r	r

__BEGIN__	__EPS__
s	se
y	i
n	n

__BEGIN__	__EPS__
d	d
e	e
m	m

__BEGIN__	__EPS__
p	p
h	__EPS__
f	f
e	e
n	n
n	n
i	i
n	__EPS__
g	g

__BEGIN__	__EPS__
v	v
o	o
n	n

__BEGIN__	__EPS__
a	a
l	l
l	l
e	e

__BEGIN__	__EPS__
l	l
o	o
s	s
z	__EPS__

__BEGIN__	__EPS__
h	h
e	e
l	l
f	f
f	__EPS__
e	e
n	n

__BEGIN__	__EPS__
s	s
p	p
r	r
a	a
c	c
h	h

__BEGIN__	__EPS__
h	h
e	e
l	l
y	i
a	a
m	s

__BEGIN__	__EPS__
z	z
u	u

__BEGIN__	__EPS__
w	w
i	i
r	r

__BEGIN__	__EPS__
s	s
e	e
i	i
n	n

__BEGIN__	__EPS__
k	k
y	i
n	n
d	d
e	__EPS__

__BEGIN__	__EPS__
d	d
e	e
r	r

__BEGIN__	__EPS__
v	u
n	n
s	s
r	e
i	r
v	e

__BEGIN__	__EPS__
r	r
e	e
i	__EPS__
c	c
h	h
t	t

__BEGIN__	__EPS__
j	j
e	ä
m	mm
e	e
r	r
l	l
i	i
c	c
h	h
e	e
r	r

__BEGIN__	__EPS__
a	a
n	n
e	__EPS__
b	b
l	l
i	i
c	c
k	k
e	__EPS__
s	s

__BEGIN__	__EPS__
i	ih
r	r
e	e
n	n

__BEGIN__	__EPS__
f	f
u	ü
e	__EPS__
r	r

__BEGIN__	__EPS__
d	d
v	u

__BEGIN__	__EPS__
d	d
e	e
r	r

__BEGIN__	__EPS__
e	e
r	r

__BEGIN__	__EPS__
d	d
o	a

__BEGIN__	__EPS__
h	h
e	e
r	r

__BEGIN__	__EPS__
s	s
p	p
r	r
a	a
c	c
h	h

__BEGIN__	__EPS__
m	m
o	o
c	c
h	h
t	t
e	e

__BEGIN__	__EPS__
n	n
i	i
c	c
h	h
t	t

__BEGIN__	__EPS__
d	d
e	e
n	n

__BEGIN__	__EPS__
n	n
o	o
t	t

__BEGIN__	__EPS__
m	m
e	e
i	i
n	n

__BEGIN__	__EPS__
w	w
i	i
e	e

__BEGIN__	__EPS__
g	g
e	e
s	s
c	c
h	h
r	r
e	e
i	i
s	s

__BEGIN__	__EPS__
d	d
e	e
s	s

__BEGIN__	__EPS__
s	se
y	i
n	n
e	e
s	s

__BEGIN__	__EPS__
v	a
f	u
f	f

__BEGIN__	__EPS__
a	a
n	n
d	d
e	e
r	r
s	s

__BEGIN__	__EPS__
o	o
w	w
e	eh

__BEGIN__	__EPS__
d	d
e	e
r	r

__BEGIN__	__EPS__
l	l
e	e
y	i
d	d
e	e
n	n

__BEGIN__	__EPS__
o	a
u	u
g	g
e	e
n	n

__BEGIN__	__EPS__
s	s
e	i
n	n
d	d

__BEGIN__	__EPS__
d	d
a	a
t	ss

__BEGIN__	__EPS__
g	g
e	e
h	h
a	a
b	b
t	t

__BEGIN__	__EPS__
v	u
n	n
d	d

__BEGIN__	__EPS__
s	se
y	i
n	n

__BEGIN__	__EPS__
d	d
e	e
n	n

__BEGIN__	__EPS__
h	h
a	a
n	n
t	d
h	__EPS__

__BEGIN__	__EPS__
a	a
l	l
s	s
o	o

__BEGIN__	__EPS__
t	__EPS__
z	z
o	u
s	s
a	a
m	mm
e	e
n	n

__BEGIN__	__EPS__
d	d
i	i
r	r

__BEGIN__	__EPS__
w	w
i	ie
d	d
e	e
r	r

__BEGIN__	__EPS__
s	s
a	a
n	nk
t	t

__BEGIN__	__EPS__
w	w
e	e
i	i
s	ss
t	t

__BEGIN__	__EPS__
a	a
l	l
l	l
e	e

__BEGIN__	__EPS__
c	k
l	l
a	a
g	ge

__BEGIN__	__EPS__
p	b
e	e
y	i

__BEGIN__	__EPS__
d	d
a	a

__BEGIN__	__EPS__
i	i
c	c
h	h

__BEGIN__	__EPS__
d	d
e	e
n	n

__BEGIN__	__EPS__
s	s
p	p
r	r
a	a
c	c
h	h

__BEGIN__	__EPS__
d	d
u	u

__BEGIN__	__EPS__
a	a
m	m
o	o
r	r
i	i
s	s

__BEGIN__	__EPS__
k	k
i	i
n	n
t	d

__BEGIN__	__EPS__
b	b
i	e
e	i

__BEGIN__	__EPS__
i	ih
m	m

__BEGIN__	__EPS__
c	k
h	__EPS__
l	l
a	a
g	g
t	t
e	e
n	n

__BEGIN__	__EPS__
p	b
a	e
i	i
n	n

__BEGIN__	__EPS__
e	e
r	r

__BEGIN__	__EPS__
a	a
l	l
l	l
e	e

__BEGIN__	__EPS__
h	h
e	e
r	rr

__BEGIN__	__EPS__
a	a
l	l
l	l
e	e

__BEGIN__	__EPS__
w	w
a	a
s	r

__BEGIN__	__EPS__
m	m
e	e
i	i
n	n

__BEGIN__	__EPS__
j	j
o	u
e	__EPS__
d	d
e	e
n	n

__BEGIN__	__EPS__
g	g
r	r
o	o
s	s
s	s
e	e
s	s

__BEGIN__	__EPS__
k	k
i	i
n	n
d	d

__BEGIN__	__EPS__
v	u
n	n
d	d

__BEGIN__	__EPS__
d	d
i	i
e	e

__BEGIN__	__EPS__
d	d
a	a
s	s
z	__EPS__

__BEGIN__	__EPS__
k	k
a	an
n	n

__BEGIN__	__EPS__
d	d
a	a
s	ss

__BEGIN__	__EPS__
v	u
n	n
d	d

__BEGIN__	__EPS__
w	w
a	a
i	h
r	r
h	h
e	e
i	i
t	t

__BEGIN__	__EPS__
l	l
i	ie
b	b
e	e
n	n

__BEGIN__	__EPS__
d	d
u	u
r	r
c	c
h	h
s	s
t	t
o	o
e	__EPS__
z	s
z	s
e	e
n	n

__BEGIN__	__EPS__
e	e
r	r

__BEGIN__	__EPS__
z	z
u	u

__BEGIN__	__EPS__
p	b
l	l
u	u
e	__EPS__
t	t

__BEGIN__	__EPS__
m	m
u	u
n	n
d	d
e	__EPS__

__BEGIN__	__EPS__
n	n
i	ic
t	h
z	t

__BEGIN__	__EPS__
s	s
o	o

__BEGIN__	__EPS__
d	d
o	a

__BEGIN__	__EPS__
d	d
a	a
z	ss

__BEGIN__	__EPS__
m	m
e	e
i	i
n	n

__BEGIN__	__EPS__
g	g
r	r
o	o
s	s
s	s
e	e
n	n

__BEGIN__	__EPS__
e	e
r	r
d	d
e	e
n	n

__BEGIN__	__EPS__
s	s
a	a
h	h
e	e
n	n

__BEGIN__	__EPS__
i	ih
m	m

__BEGIN__	__EPS__
i	i
n	n

__BEGIN__	__EPS__
s	s
o	o

__BEGIN__	__EPS__
d	d
v	u

__BEGIN__	__EPS__
f	f
u	ü
r	r
c	c
h	h
t	t
e	e
s	s
t	t

__BEGIN__	__EPS__
l	l
e	eh
r	re

__BEGIN__	__EPS__
v	v
o	o
n	n

__BEGIN__	__EPS__
v	v
o	o
n	n

__BEGIN__	__EPS__
w	__EPS__
r	r
e	ä
c	c
h	h
e	e
n	n

__BEGIN__	__EPS__
e	e
r	r
l	l
i	i
t	tt
e	e
n	n

__BEGIN__	__EPS__
t	z
z	e
o	r
b	b
r	r
e	e
c	c
h	h
e	e
n	n

__BEGIN__	__EPS__
e	i
m	h
e	m

__BEGIN__	__EPS__
s	se
y	i
n	n

__BEGIN__	__EPS__
v	u
n	n
s	s

__BEGIN__	__EPS__
d	d
o	a

__BEGIN__	__EPS__
ü	a
f	u
f	f

__BEGIN__	__EPS__
l	l
e	e
y	i
b	b
e	__EPS__

__BEGIN__	__EPS__
d	d
i	i
e	e

__BEGIN__	__EPS__
g	g
e	e
n	n
i	i
e	e
s	s
s	s
e	e
n	n

__BEGIN__	__EPS__
h	h
a	a
t	t
t	t
e	e
n	n
t	__EPS__

__BEGIN__	__EPS__
w	w
c	ar

__BEGIN__	__EPS__
y	j
e	ä
m	mm
e	e
r	r
l	l
i	i
c	c
h	h
e	e
r	r

__BEGIN__	__EPS__
d	d
a	a
t	ss

__BEGIN__	__EPS__
e	e
r	r
s	sch
l	l
u	ü
e	__EPS__
g	g
e	e
n	n

__BEGIN__	__EPS__
d	d
o	a

__BEGIN__	__EPS__
m	m
e	e
n	n
s	s
c	c
h	h
l	l
e	__EPS__
i	i
c	c
h	h

__BEGIN__	__EPS__
g	g
r	r
a	a
b	b

__BEGIN__	__EPS__
i	u
n	n
d	d

__BEGIN__	d
u	u

__BEGIN__	__EPS__
v	u
n	n
d	d

__BEGIN__	__EPS__
g	g
e	ehe
n	n

__BEGIN__	__EPS__
i	j
o	o
s	s
e	e
p	f

__BEGIN__	__EPS__
a	a
n	n
n	n
a	a
s	s

__BEGIN__	__EPS__
v	u
n	n
s	s
e	e
m	r
e	em

__BEGIN__	__EPS__
m	m
e	i
d	t
e	__EPS__

__BEGIN__	__EPS__
h	ha
v	u
z	s
e	__EPS__

__BEGIN__	__EPS__
m	m
a	a
g	g
d	d
a	a
l	l
e	e
n	n
a	a

__BEGIN__	__EPS__
g	g
r	r
o	o
z	s
z	s
e	e

__BEGIN__	__EPS__
i	ih
m	m

__BEGIN__	__EPS__
n	n
a	ah
m	m

__BEGIN__	__EPS__
m	m
i	i
t	t

__BEGIN__	__EPS__
a	a
l	l
s	s

__BEGIN__	__EPS__
a	a
n	n
t	t
w	w
ü	o
r	r
t	t
e	e
n	n

__BEGIN__	__EPS__
a	a
l	l
s	s

__BEGIN__	__EPS__
z	z
u	u

__BEGIN__	__EPS__
i	i
c	ch

__BEGIN__	__EPS__
b	b
e	e
y	i

__BEGIN__	__EPS__
u	f
e	e
r	r
s	s
e	e
n	n

__BEGIN__	__EPS__
l	l
a	a
i	__EPS__
s	s
s	s
e	e
n	n

__BEGIN__	__EPS__
v	u
n	n
d	d

__BEGIN__	__EPS__
s	s
e	e
i	i
n	n
e	e
r	r

__BEGIN__	__EPS__
e	e
r	r
l	l
e	e
d	d
g	i
e	g
t	t

__BEGIN__	__EPS__
a	a
l	l
s	s
e	__EPS__

__BEGIN__	__EPS__
i	ih
n	n

__BEGIN__	__EPS__
d	d
y	ie

__BEGIN__	__EPS__
s	s
o	o

__BEGIN__	__EPS__
g	g
l	l
a	a
d	d
i	i
u	u
s	s

__BEGIN__	__EPS__
d	d
i	i
e	e

__BEGIN__	__EPS__
s	s
ü	ü
n	n
d	d
e	e
n	n

__BEGIN__	__EPS__
t	t
e	e
m	m
p	p
l	e
-	l

__BEGIN__	__EPS__
k	k
y	i
n	n
t	d

__BEGIN__	__EPS__
m	m
e	e
i	i
n	n
e	e
n	n

__BEGIN__	__EPS__
i	j
e	e
s	s
u	u
m	s

__BEGIN__	__EPS__
d	d
i	i
n	n
g	g
s	s

__BEGIN__	__EPS__
e	e
r	r

__BEGIN__	__EPS__
l	l
e	ä
n	n
g	ge

__BEGIN__	__EPS__
d	d
o	a

__BEGIN__	__EPS__
g	g
o	ö
e	t
t	t
l	l
i	i
c	c
h	h
e	e
n	n

__BEGIN__	__EPS__
n	n
u	un

__BEGIN__	__EPS__
v	u
n	n
d	d

__BEGIN__	__EPS__
k	k
i	i
n	n
t	d

__BEGIN__	__EPS__
d	d
e	e
r	r

__BEGIN__	__EPS__
d	d
o	a

__BEGIN__	__EPS__
h	h
a	a
d	t

__BEGIN__	__EPS__
e	e
w	w
i	ig
k	k
e	e
i	i
t	t

__BEGIN__	__EPS__
s	s
o	o

__BEGIN__	__EPS__
s	s
o	o

__BEGIN__	__EPS__
k	k
i	i
n	n
d	d

__BEGIN__	__EPS__
n	n
i	ich
t	t

__BEGIN__	__EPS__
z	z
w	we
o	i

__BEGIN__	__EPS__
s	s
p	p
r	r
a	a
c	c
h	h
e	e
n	n

__BEGIN__	__EPS__
w	w
a	a
r	r
d	d

__BEGIN__	__EPS__
s	s
i	i
e	e

__BEGIN__	__EPS__
c	k
r	r
u	e
t	u
z	z

__BEGIN__	__EPS__
k	k
r	r
a	a
n	n
c	__EPS__
k	k

__BEGIN__	__EPS__
c	k
h	__EPS__
a	a
w	u
f	f

__BEGIN__	__EPS__
v	u
n	n
d	d

__BEGIN__	__EPS__
i	i
c	c
h	h

__BEGIN__	__EPS__
e	n
n	icht

__BEGIN__	__EPS__
h	h
e	e
i	i
l	l
i	i
g	g
e	e
r	r

__BEGIN__	__EPS__
h	h
e	e
r	r
c	__EPS__
z	z

__BEGIN__	__EPS__
m	m
o	o
c	c
h	h
t	te

__BEGIN__	__EPS__
v	u
n	n
d	d

__BEGIN__	__EPS__
s	s
t	t
a	ad
t	t

__BEGIN__	__EPS__
t	t
u	u
e	e
n	n
t	d

__BEGIN__	__EPS__
d	d
a	a
s	s
s	s
e	e
l	l
b	b
e	e

__BEGIN__	__EPS__
v	u
n	n
d	d

__BEGIN__	__EPS__
m	m
a	a
r	r
t	t
e	e
r	r

__BEGIN__	__EPS__
s	s
o	o
e	h
n	n

__BEGIN__	__EPS__
h	h
a	a
r	r
d	t
e	e
n	n

__BEGIN__	__EPS__
l	l
e	e
i	g
t	t
e	e
n	n

__BEGIN__	__EPS__
w	w
a	e
i	i
n	n
t	t

__BEGIN__	__EPS__
e	e
y	i
n	n
e	e
n	n

__BEGIN__	__EPS__
k	k
ü	a
m	u
e	m

__BEGIN__	__EPS__
d	d
a	a
z	ss

__BEGIN__	__EPS__
z	z
u	u

__BEGIN__	__EPS__
i	ih
m	m

__BEGIN__	__EPS__
l	le
i	i
b	b

__BEGIN__	__EPS__
d	d
o	a

__BEGIN__	__EPS__
a	a
u	u
f	f

__BEGIN__	__EPS__
g	__EPS__
e	__EPS__
h	h
a	a
b	b
e	e
n	n

__BEGIN__	__EPS__
e	e
y	i
n	n
e	e
n	m

__BEGIN__	__EPS__
s	s
p	p
r	r
a	a
c	c
h	h

__BEGIN__	__EPS__
m	m
e	e
i	i
n	n

__BEGIN__	__EPS__
s	s
p	p
r	r
a	a
c	c
h	h

__BEGIN__	__EPS__
d	d
o	a

__BEGIN__	__EPS__
d	d
a	a
s	ss

__BEGIN__	__EPS__
s	s
i	i
e	e

__BEGIN__	__EPS__
k	k
i	i
n	n
t	d

__BEGIN__	__EPS__
b	b
e	e
g	g
r	r
v	ü
e	__EPS__
b	be

__BEGIN__	__EPS__
a	a
n	n
s	s
e	e
l	l
m	m
e	__EPS__

__BEGIN__	__EPS__
s	s
p	p
r	r
a	a
c	c
h	h

__BEGIN__	__EPS__
w	w
e	e
r	r
d	d
e	e
n	n

__BEGIN__	__EPS__
r	r
i	i
t	t
t	t
e	e
r	r

__BEGIN__	__EPS__
a	a
u	u
c	c
h	h

__BEGIN__	__EPS__
i	i
c	c
h	h

__BEGIN__	__EPS__
e	e
r	r
h	h
o	ö
r	r
t	t
e	e

__BEGIN__	__EPS__
u	u
n	n
d	d

__BEGIN__	__EPS__
v	f
o	o
l	l
g	g
h	__EPS__
e	e
n	n

__BEGIN__	__EPS__
p	b
e	__EPS__
l	l
e	__EPS__
i	ie
b	b

__BEGIN__	__EPS__
d	d
o	a

__BEGIN__	__EPS__
t	t
o	ö
e	__EPS__
t	t
i	e
t	t

__BEGIN__	__EPS__
s	s
p	p
r	r
a	a
c	c
h	h

__BEGIN__	__EPS__
m	m
a	a
t	t
e	e
r	r

__BEGIN__	__EPS__
m	m
i	i
c	c
h	h

__BEGIN__	__EPS__
p	b
i	it
t	t
e	e
r	re
n	n

__BEGIN__	__EPS__
g	g
e	e
l	l
e	i
d	tt
e	e
n	n

__BEGIN__	__EPS__
i	i
n	n

__BEGIN__	__EPS__
c	c
e	e
n	n
t	t
u	u
r	r
i	i
o	o
n	__EPS__
e	__EPS__

__BEGIN__	__EPS__
i	ih
m	m

__BEGIN__	__EPS__
o	o
f	b
f	__EPS__

__BEGIN__	__EPS__
v	v
a	a
t	t
e	e
r	r

__BEGIN__	__EPS__
d	d
i	ie
t	s

__BEGIN__	__EPS__
s	s
a	a
g	g
e	e

__BEGIN__	__EPS__
s	s
c	c
h	h
r	r
i	i
r	e
n	n

__BEGIN__	__EPS__
d	d
e	e
m	m

__BEGIN__	__EPS__
d	d
e	e
s	s
z	__EPS__

__BEGIN__	__EPS__
w	w
i	i
l	l
l	l
e	e
n	n

__BEGIN__	__EPS__
h	h
a	a
t	t
t	te

__BEGIN__	__EPS__
v	u
n	n
d	d
e	__EPS__

__BEGIN__	__EPS__
a	e
i	i
n	n
e	e
n	n

__BEGIN__	__EPS__
s	s
p	p
r	r
a	a
c	c
h	h

__BEGIN__	__EPS__
z	z
u	u

__BEGIN__	__EPS__
m	m
i	i
t	t

__BEGIN__	__EPS__
s	s
y	ie

__BEGIN__	__EPS__
s	s
e	ee
l	l
e	e

__BEGIN__	__EPS__
d	d
e	e
s	s

__BEGIN__	__EPS__
e	e
r	r
l	l
i	i
t	tt
e	e
n	n

__BEGIN__	__EPS__
s	s
i	i
c	c
h	h

__BEGIN__	__EPS__
h	e
e	r

__BEGIN__	__EPS__
d	d
r	r
o	oh
t	t
e	e
n	n

__BEGIN__	__EPS__
w	w
a	a
s	r

__BEGIN__	__EPS__
m	m
e	e
n	n
s	s
c	c
h	h
l	l
e	__EPS__
i	i
c	c
h	h

__BEGIN__	__EPS__
d	d
a	a
s	s

__BEGIN__	__EPS__
d	d
e	e
r	r

__BEGIN__	__EPS__
s	s
a	a
c	__EPS__
h	h

__BEGIN__	__EPS__
d	d
a	a

__BEGIN__	__EPS__
g	g
r	r
o	o
s	s
z	s
e	e

__BEGIN__	__EPS__
a	a
l	l
s	s
o	o

__BEGIN__	__EPS__
s	s
p	p
r	r
a	a
c	c
h	h

__BEGIN__	__EPS__
v	v
o	o
n	n

__BEGIN__	__EPS__
s	s
p	p
r	r
a	a
c	c
h	h

__BEGIN__	__EPS__
s	s
v	ü
n	n
d	d
e	e
r	r

__BEGIN__	__EPS__
m	m
a	a
a	__EPS__
r	r
t	t
t	__EPS__
e	e
r	r

__BEGIN__	__EPS__
a	a
n	n
d	de
r	r
e	e
n	n

__BEGIN__	__EPS__
i	i
n	n

__BEGIN__	__EPS__
v	u
n	n
d	d

__BEGIN__	__EPS__
a	a
l	l
l	l
e	e
s	s

__BEGIN__	__EPS__
g	g
e	e
k	k
r	r
o	ö
n	n
e	__EPS__
t	t

__BEGIN__	__EPS__
z	z
e	e
r	r
s	s
p	p
i	__EPS__
e	a
l	l
t	t
e	e
n	te
d	n

__BEGIN__	__EPS__
o	o
b	b

__BEGIN__	__EPS__
l	l
a	a
z	s
z	s
e	e
n	n

__BEGIN__	__EPS__
n	n
e	eh
m	m
e	e
n	n

__BEGIN__	__EPS__
v	u
n	n
d	d

__BEGIN__	__EPS__
i	j
u	u
d	d
e	e
n	n

__BEGIN__	__EPS__
d	d
o	a

__BEGIN__	__EPS__
s	s
t	t
u	__EPS__
o	a
n	n
d	d

__BEGIN__	__EPS__
v	u
n	n
d	d

__BEGIN__	__EPS__
v	u
n	n
d	d

__BEGIN__	__EPS__
g	g
r	r
o	o
i	__EPS__
s	s
z	s

__BEGIN__	__EPS__
a	e
i	i
n	n
e	e
n	n

__BEGIN__	__EPS__
w	w
a	a
r	r
t	d

__BEGIN__	__EPS__
v	u
m	m
b	__EPS__

__BEGIN__	__EPS__
g	g
a	a
n	n
t	__EPS__
z	z
e	e
s	s

__BEGIN__	__EPS__
f	f
r	r
a	a
w	u
e	__EPS__

__BEGIN__	__EPS__
d	d
y	i
e	e

__BEGIN__	__EPS__
b	b
i	i
s	s

__BEGIN__	__EPS__
d	d
e	e
n	n

__BEGIN__	__EPS__
i	i
n	n

__BEGIN__	__EPS__
y	ih
n	n

__BEGIN__	__EPS__
v	v
o	o
n	n

__BEGIN__	__EPS__
h	h
a	a
t	t

__BEGIN__	__EPS__
f	f
ü	ü
n	n
f	f
f	__EPS__
t	t
a	a
u	u
s	s
e	e
n	n
t	d

__BEGIN__	__EPS__
w	w
a	e
i	i
n	n
t	t

__BEGIN__	__EPS__
s	s
t	t
a	e
i	i
n	n

__BEGIN__	__EPS__
s	s
a	o
l	ll

__BEGIN__	__EPS__
s	s
a	ä
u	u
l	le

__BEGIN__	__EPS__
t	__EPS__
z	z
o	u

__BEGIN__	__EPS__
a	a
n	n

__BEGIN__	__EPS__
d	d
a	a

__BEGIN__	__EPS__
d	d
e	e
r	r

__BEGIN__	__EPS__
w	w
a	a
r	r
e	e
n	n

__BEGIN__	__EPS__
i	ih
n	n

__BEGIN__	__EPS__
b	b
e	e
d	t
r	ri
e	e
u	b
e	e
n	n

__BEGIN__	__EPS__
v	u
n	n
d	d

__BEGIN__	__EPS__
r	r
e	e
i	i
n	n
e	e

__BEGIN__	__EPS__
v	v
o	o
n	n

__BEGIN__	__EPS__
p	p
y	i
l	l
a	a
t	t
u	u
s	s

__BEGIN__	__EPS__
w	w
e	e
r	r
d	d
e	e
n	n
t	__EPS__

__BEGIN__	__EPS__
d	d
u	u

__BEGIN__	__EPS__
d	d
o	a

__BEGIN__	__EPS__
h	h
e	e
y	i
l	l
i	i
g	g
e	e

__BEGIN__	__EPS__
d	d
o	a

__BEGIN__	__EPS__
e	e
r	r

__BEGIN__	__EPS__
m	m
a	a
e	__EPS__
l	l

__BEGIN__	__EPS__
r	r
i	i
e	e
f	f
f	__EPS__

__BEGIN__	__EPS__
v	u
n	n
d	d

__BEGIN__	__EPS__
c	z
z	e
i	i
t	t

__BEGIN__	__EPS__
d	d
e	e
m	m

__BEGIN__	__EPS__
c	k
h	__EPS__
o	o
e	m
m	m
e	e
n	n

__BEGIN__	__EPS__
v	u
n	n
n	d

__BEGIN__	__EPS__
v	f
r	r
o	a
g	g
e	e
n	n

__BEGIN__	__EPS__
i	ih
n	n

__BEGIN__	__EPS__
m	m
i	i
r	r

__BEGIN__	__EPS__
t	t
o	o
d	t
e	e
r	r

__BEGIN__	__EPS__
d	__EPS__
i	o
c	f
k	t

__BEGIN__	__EPS__
g	g
i	i
n	n
g	g

__BEGIN__	__EPS__
t	t
a	ä
e	__EPS__
t	te

__BEGIN__	__EPS__
p	p
i	i
l	l
a	a
t	t
u	u
s	s

__BEGIN__	__EPS__
v	v
o	o
r	r

__BEGIN__	__EPS__
a	a
n	n

__BEGIN__	__EPS__
n	n
i	ic
h	h
t	t

__BEGIN__	__EPS__
t	t
o	o
l	l
l	l
i	i
t	t
e	e

__BEGIN__	__EPS__
h	h
e	a
t	t

__BEGIN__	__EPS__
v	v
e	e
r	r
s	s
p	p
o	o
t	ttet

__BEGIN__	__EPS__
y	ih
n	n

__BEGIN__	__EPS__
v	u
n	n
d	d

__BEGIN__	__EPS__
m	m
i	i
r	r

__BEGIN__	__EPS__
s	s
a	a
n	n
d	kt

__BEGIN__	__EPS__
g	g
r	r
a	a
b	b

__BEGIN__	__EPS__
d	d
r	r
e	e
y	i
e	e
r	r
l	l
a	e
y	i

__BEGIN__	__EPS__
h	h
ü	a
s	u
e	s

__BEGIN__	__EPS__
v	u
n	n
d	d

__BEGIN__	__EPS__
i	i
n	n

__BEGIN__	__EPS__
n	n
i	i
c	c
h	h
t	t

__BEGIN__	__EPS__
b	b
l	l
v	u
t	t
e	__EPS__

__BEGIN__	__EPS__
s	s
c	c
h	h
u	u
l	l
d	d
e	e
n	n

__BEGIN__	__EPS__
g	g
e	__EPS__
l	l
a	a
u	u
b	b
t	t
e	e
n	n

__BEGIN__	__EPS__
i	j
o	o
h	h
a	a
n	nn
e	e
s	s

__BEGIN__	__EPS__
g	g
r	r
o	o
s	s
s	s
e	e
m	m

__BEGIN__	__EPS__
w	w
i	i
e	e

__BEGIN__	__EPS__
d	d
e	e
s	s

__BEGIN__	__EPS__
s	s
o	o

__BEGIN__	__EPS__
t	t
v	u
n	n
t	__EPS__

__BEGIN__	__EPS__
h	h
a	e
i	i
m	m
l	l
i	i
c	c
h	h

__BEGIN__	__EPS__
i	i
u	u
d	d
a	a
s	s

__BEGIN__	__EPS__
c	k
l	l
a	a
g	g
t	t

__BEGIN__	__EPS__
v	v
e	e
r	r
s	sch
m	m
e	ä
h	h
e	__EPS__
t	t

__BEGIN__	__EPS__
m	m
e	e
i	i
n	n

__BEGIN__	__EPS__
i	u
n	n
d	d

__BEGIN__	__EPS__
d	d
i	i
e	e

__BEGIN__	__EPS__
m	m
i	i
t	t

__BEGIN__	__EPS__
m	m
a	a
r	r
i	i
a	a

__BEGIN__	__EPS__
h	h
a	a
u	u
b	p
t	t

__BEGIN__	__EPS__
e	e
r	r
l	l
i	i
t	t
t	t
e	e
n	n

__BEGIN__	__EPS__
t	__EPS__
z	z
i	e
j	i
t	t

__BEGIN__	e
v	u
r	r
m	e
e	m

__BEGIN__	__EPS__
v	u
n	n
d	d

__BEGIN__	__EPS__
i	i
c	c
h	h

__BEGIN__	__EPS__
h	h
a	a
t	t
h	__EPS__

__BEGIN__	__EPS__
d	d
e	e
n	n
n	__EPS__
e	e
n	n

__BEGIN__	__EPS__
d	d
a	a
r	__EPS__
n	n
a	a
c	c
h	h

__BEGIN__	__EPS__
a	a
l	l
s	s
o	o

__BEGIN__	__EPS__
g	g
e	e
b	b
e	e
n	n

__BEGIN__	__EPS__
d	d
e	e
n	n

__BEGIN__	__EPS__
i	u
n	n
d	d

__BEGIN__	__EPS__
v	v
a	a
t	t
t	__EPS__
e	e
r	r

__BEGIN__	__EPS__
d	d
a	a
u	v
i	i
t	d

__BEGIN__	__EPS__
s	s
t	t
a	e
i	i
n	n

__BEGIN__	__EPS__
c	k
h	__EPS__
r	r
a	e
w	u
z	z
e	__EPS__

__BEGIN__	__EPS__
e	e
s	s
s	s
i	i
c	__EPS__
h	g

__BEGIN__	__EPS__
s	s
o	o

__BEGIN__	__EPS__
v	v
o	o
n	n

__BEGIN__	__EPS__
s	s
o	o
l	__EPS__
l	l
i	__EPS__
c	c
h	h
e	e
r	r

__BEGIN__	__EPS__
v	u
n	n
d	d

__BEGIN__	__EPS__
k	k
i	i
n	n
t	d

__BEGIN__	__EPS__
i	i
s	s
t	t

__BEGIN__	__EPS__
b	be
y	i

__BEGIN__	__EPS__
h	h
e	e
r	r
a	a
v	u
z	s

__BEGIN__	__EPS__
s	s
a	a
n	nd
t	t
e	e

__BEGIN__	__EPS__
m	m
o	o
c	c
h	h
t	te

__BEGIN__	__EPS__
s	s
a	a
n	n
d	kt

__BEGIN__	__EPS__
g	g
e	e
t	t
r	r
o	ö
s	s
t	tet

__BEGIN__	__EPS__
s	s
c	c
h	h
l	l
e	ä
g	ge

__BEGIN__	__EPS__
e	e
r	r
f	f
u	ü
l	l
l	l
e	__EPS__
t	te

__BEGIN__	__EPS__
d	d
a	a
z	ss

__BEGIN__	__EPS__
m	m
e	e
i	i
n	n

__BEGIN__	__EPS__
d	d
e	e
n	n

__BEGIN__	__EPS__
p	p
y	i
l	l
a	a
t	t
u	u
s	s

__BEGIN__	__EPS__
d	d
i	i
s	e
s	s
e	e
n	n

__BEGIN__	__EPS__
o	a
u	u
g	g
e	e
n	n

__BEGIN__	__EPS__
d	d
e	e
r	r

__BEGIN__	__EPS__
k	k
e	e
i	i
n	n

__BEGIN__	__EPS__
d	d
i	i
e	e

__BEGIN__	__EPS__
w	w
o	o
r	r
d	den

__BEGIN__	__EPS__
w	w
i	i
l	ll

__BEGIN__	__EPS__
w	w
i	i
e	e

__BEGIN__	__EPS__
v	a
f	u
f	f

__BEGIN__	__EPS__
h	h
a	a
d	t
d	t
e	e

__BEGIN__	__EPS__
m	m
i	i
r	r

__BEGIN__	__EPS__
g	__EPS__
e	__EPS__
t	t
r	r
a	a
g	g
e	e
n	n

__BEGIN__	__EPS__
d	d
a	a
s	ss

__BEGIN__	__EPS__
h	h
e	a
t	tt
e	e
n	n

__BEGIN__	__EPS__
m	me
i	i
n	n

__BEGIN__	__EPS__
a	a
l	l
s	s

__BEGIN__	__EPS__
s	o
t	__EPS__
a	r
t	t

__BEGIN__	__EPS__
g	g
h	__EPS__
e	e
u	b
e	e
n	n

__BEGIN__	__EPS__
d	da
z	ss

__BEGIN__	__EPS__
m	m
a	a
l	l

__BEGIN__	__EPS__
a	a
l	l
l	l
e	e

__BEGIN__	__EPS__
n	n
i	i
e	ch
t	t

__BEGIN__	__EPS__
c	k
h	__EPS__
i	i
n	n
d	d

__BEGIN__	__EPS__
c	k
h	__EPS__
i	i
n	n
t	d

__BEGIN__	__EPS__
d	d
a	a
z	ss

__BEGIN__	__EPS__
d	d
i	i
e	e

__BEGIN__	__EPS__
y	ih
m	m

__BEGIN__	__EPS__
m	m
a	a
g	g

__BEGIN__	__EPS__
h	h
o	ö
r	r
e	e

__BEGIN__	__EPS__
e	e
r	r

__BEGIN__	__EPS__
z	z
o	u

__BEGIN__	__EPS__
b	b
i	i
d	t
d	t
e	e
n	n

__BEGIN__	__EPS__
g	g
a	a
n	n
t	__EPS__
z	z
e	e
s	s

__BEGIN__	__EPS__
g	g
r	r
o	o
s	s
s	s
e	e
n	n

__BEGIN__	__EPS__
g	g
e	e
g	g
e	e
b	b
e	e
n	n

__BEGIN__	__EPS__
e	e
r	r
s	s
t	t
u	a
n	n
d	d

__BEGIN__	__EPS__
v	u
n	n
d	d

__BEGIN__	__EPS__
d	d
a	a
t	s

__BEGIN__	__EPS__
c	c
e	e
n	n
t	t
u	u
r	r
i	i
o	o

__BEGIN__	__EPS__
m	m
a	a
c	c
h	he

__BEGIN__	__EPS__
i	ih
m	m

__BEGIN__	__EPS__
v	u
n	n
d	d

__BEGIN__	__EPS__
a	a
n	n

__BEGIN__	__EPS__
n	n
i	ich
t	t

__BEGIN__	__EPS__
e	e
r	r

__BEGIN__	__EPS__
d	d
a	a
u	v
o	o
n	n

__BEGIN__	__EPS__
d	d
a	a
r	__EPS__
n	n
a	a
c	c
h	h

__BEGIN__	__EPS__
z	z
w	u

__BEGIN__	__EPS__
e	e
r	r

__BEGIN__	__EPS__
v	u
n	n
d	d

__BEGIN__	__EPS__
h	h
a	a
i	__EPS__
s	s
t	t

__BEGIN__	__EPS__
v	v
o	o
n	n

__BEGIN__	__EPS__
g	g
e	e
w	w
a	a
n	n
t	d

__BEGIN__	__EPS__
b	b
e	e
d	t
r	r
o	ü
e	__EPS__
f	b
f	__EPS__
d	t
e	e
n	n

__BEGIN__	__EPS__
m	me
i	i
n	n

__BEGIN__	__EPS__
c	__EPS__
z	z
u	u

__BEGIN__	__EPS__
d	t
o	u
e	__EPS__
t	t

__BEGIN__	__EPS__
d	d
i	i
r	r

__BEGIN__	__EPS__
i	j
u	u
d	d
e	e
n	n

__BEGIN__	__EPS__
m	m
i	i
t	t

__BEGIN__	__EPS__
n	n
i	i
e	ch
t	t

__BEGIN__	__EPS__
h	h
o	a
u	u
p	p
t	t

__BEGIN__	__EPS__
s	s
p	p
r	r
a	a
c	c
h	h
e	e
n	n

__BEGIN__	__EPS__
m	m
u	u
s	s
z	s

__BEGIN__	__EPS__
m	m
i	i
t	t

__BEGIN__	__EPS__
g	g
e	e
r	r
n	n
e	e

__BEGIN__	__EPS__
u	b
n	i
c	__EPS__
z	s

__BEGIN__	__EPS__
b	b
i	i
d	t
d	t
e	e

__BEGIN__	__EPS__
k	k
y	i
n	n
d	d
e	e
s	s

__BEGIN__	__EPS__
g	g
e	e
b	b
u	u
n	n
d	d
e	e
n	n

__BEGIN__	__EPS__
s	s
y	ie

__BEGIN__	__EPS__
s	s
e	e
i	i
n	n
e	e

__BEGIN__	__EPS__
d	d
a	a

__BEGIN__	__EPS__
w	w
i	i
e	__EPS__
r	r

__BEGIN__	__EPS__
d	d
e	e
s	s

__BEGIN__	__EPS__
w	w
i	i
l	l
l	l
e	e
n	n

__BEGIN__	__EPS__
m	me
i	i
n	n
e	e
s	s

