__BEGIN__	__EPS__
n	n
y	i
m	mm
e	e
r	r

__BEGIN__	__EPS__
m	m
a	a
n	n

__BEGIN__	__EPS__
e	e
r	r
h	h
o	ö
r	r
t	t

__BEGIN__	__EPS__
m	m
a	a
r	r
i	i
a	a

__BEGIN__	__EPS__
p	p
a	a
r	r
a	a
d	d
i	ie
s	s
z	__EPS__

__BEGIN__	__EPS__
p	p
f	f
e	e
n	n
n	n
i	i
n	__EPS__
g	g
e	e

__BEGIN__	__EPS__
v	u
n	n
d	d

__BEGIN__	__EPS__
g	g
a	a
b	b
e	e
n	n

__BEGIN__	__EPS__
d	d
a	a
s	s

__BEGIN__	__EPS__
a	a
u	u
f	f
s	s
t	t
e	ehe
n	n

__BEGIN__	__EPS__
s	s
i	ie

__BEGIN__	__EPS__
c	k
h	__EPS__
i	i
n	n
t	d

__BEGIN__	__EPS__
v	u
n	n
d	d

__BEGIN__	__EPS__
d	d
e	e
s	s

__BEGIN__	__EPS__
y	i
n	n

__BEGIN__	__EPS__
h	h
e	e
r	r
e	r

__BEGIN__	__EPS__
d	de
y	i
n	n

__BEGIN__	__EPS__
s	s
y	ie

__BEGIN__	__EPS__
c	k
o	ö
n	n
i	i
n	__EPS__
c	g

__BEGIN__	__EPS__
v	u
m	m
b	__EPS__

__BEGIN__	__EPS__
f	f
u	ü
l	ll
t	t

__BEGIN__	__EPS__
v	u
n	n
s	s

__BEGIN__	__EPS__
h	h
i	i
n	n

__BEGIN__	__EPS__
m	m
i	i
c	c
h	h

__BEGIN__	__EPS__
s	s
t	t
e	e
i	i
n	n

__BEGIN__	__EPS__
d	d
i	i
e	e

__BEGIN__	__EPS__
a	a
l	l
s	s
z	__EPS__

__BEGIN__	__EPS__
d	d
i	ie
s	s
e	e
r	r

__BEGIN__	__EPS__
v	u
n	n
d	d

__BEGIN__	__EPS__
e	e
n	n
t	t
o	e
e	h
r	r
t	t

__BEGIN__	__EPS__
w	w
o	ol
l	l
t	te

__BEGIN__	__EPS__
v	u
n	n
d	d

__BEGIN__	__EPS__
a	a
u	u
f	f
t	t
u	u
t	t

__BEGIN__	__EPS__
k	k
e	a
y	i
s	s
e	e
r	r

__BEGIN__	__EPS__
a	a
l	l
l	l
e	e
s	s

__BEGIN__	__EPS__
l	l
i	ie
z	s
z	s
e	e
n	n

__BEGIN__	__EPS__
d	d
o	a

__BEGIN__	__EPS__
d	d
a	a
s	s

__BEGIN__	__EPS__
s	s
o	o

__BEGIN__	__EPS__
e	e
r	r

__BEGIN__	__EPS__
s	s
y	i
m	m
e	e
o	o
n	n
s	s

__BEGIN__	__EPS__
v	a
f	u
f	f

__BEGIN__	__EPS__
m	m
a	a
n	n

__BEGIN__	__EPS__
d	d
e	e
s	s
t	t
e	o

__BEGIN__	__EPS__
s	s
p	p
r	r
i	i
c	c
h	h
t	t

__BEGIN__	__EPS__
z	ze
i	i
t	t

__BEGIN__	__EPS__
s	s
p	p
r	r
a	a
c	c
h	h

__BEGIN__	__EPS__
l	l
i	i
e	e
b	b
i	e

__BEGIN__	t
z	r
e	ä
h	n
e	e
r	__EPS__
n	n

__BEGIN__	__EPS__
l	l
i	i
e	e
f	b
f	__EPS__

__BEGIN__	__EPS__
t	t
r	re
w	u
e	e

__BEGIN__	__EPS__
i	i
c	c
h	h

__BEGIN__	__EPS__
s	s
o	o

__BEGIN__	__EPS__
i	i
n	n
n	n
e	e

__BEGIN__	__EPS__
d	d
a	a
m	m
i	i
t	t

__BEGIN__	__EPS__
g	g
r	r
o	o
s	s
z	s

__BEGIN__	__EPS__
w	w
a	a
r	r
t	d

__BEGIN__	__EPS__
g	g
e	e
s	s
c	c
h	h
e	eh
y	e
n	n

__BEGIN__	__EPS__
l	l
a	a
g	g

__BEGIN__	__EPS__
m	m
e	e
n	n
s	s
c	c
h	h
l	l
i	i
c	c
h	h

__BEGIN__	__EPS__
d	da
z	s

__BEGIN__	__EPS__
h	h
a	a
d	t

__BEGIN__	__EPS__
h	h
a	a
d	t
d	t
e	e
n	n

__BEGIN__	__EPS__
s	s
p	p
r	r
a	a
c	c
h	h

__BEGIN__	ge
w	w
u	o
r	r
f	f
f	__EPS__
e	e
n	n

__BEGIN__	__EPS__
h	h
a	a
n	n
t	d

__BEGIN__	__EPS__
w	w
a	a
s	s
s	s
e	e
r	r

__BEGIN__	__EPS__
v	v
o	o
n	n

__BEGIN__	__EPS__
s	se
i	i
m	n
e	em

__BEGIN__	__EPS__
m	m
a	a
i	__EPS__
l	l
l	__EPS__

__BEGIN__	__EPS__
m	m
i	i
t	t

__BEGIN__	__EPS__
k	k
u	o
n	nn
d	t
e	e

__BEGIN__	__EPS__
d	d
i	ie

__BEGIN__	__EPS__
h	__EPS__
e	e
r	r

__BEGIN__	__EPS__
z	z
a	e
i	i
c	c
h	h
e	e
n	n

__BEGIN__	__EPS__
i	j
u	u
d	d
e	e
n	n

__BEGIN__	__EPS__
w	w
a	a
r	r
d	d

__BEGIN__	__EPS__
a	a
n	n

__BEGIN__	__EPS__
c	__EPS__
z	z
e	u

__BEGIN__	g
l	l
y	ie
t	d

__BEGIN__	__EPS__
s	s
p	p
r	r
a	a
c	c
h	h

__BEGIN__	__EPS__
s	s
a	o
l	ll

__BEGIN__	__EPS__
v	f
o	ü
e	s
t	s
e	e
n	n

__BEGIN__	__EPS__
h	h
i	i
n	n
g	g
e	e
n	n

__BEGIN__	__EPS__
d	d
o	a

__BEGIN__	__EPS__
v	u
n	n
d	d

__BEGIN__	__EPS__
h	h
a	a
n	n
t	d
h	__EPS__

__BEGIN__	__EPS__
m	m
i	i
r	r

__BEGIN__	__EPS__
k	k
i	i
n	n
d	d

__BEGIN__	__EPS__
i	ih
n	n

__BEGIN__	__EPS__
b	b
ü	a
n	n
d	d
e	e
n	n

__BEGIN__	__EPS__
w	w
e	e
m	m

__BEGIN__	__EPS__
d	d
o	a

__BEGIN__	__EPS__
d	d
e	e
r	r

__BEGIN__	__EPS__
m	m
i	i
r	r

__BEGIN__	__EPS__
i	i
s	s
t	t

__BEGIN__	__EPS__
l	l
i	i
e	e
u	b
e	e

__BEGIN__	__EPS__
v	u
n	n
d	d

__BEGIN__	__EPS__
f	f
r	r
a	a
u	u
w	__EPS__
e	__EPS__

__BEGIN__	__EPS__
t	t
r	r
u	u
o	__EPS__
g	g
e	e
n	n
d	__EPS__

__BEGIN__	__EPS__
g	g
o	ot
t	t

__BEGIN__	__EPS__
p	b
e	e
r	r
g	g

__BEGIN__	__EPS__
d	d
i	i
c	c
k	k

__BEGIN__	__EPS__
k	k
e	a
y	i
s	s
e	e
r	r

__BEGIN__	__EPS__
v	u
n	n
d	d

__BEGIN__	__EPS__
t	t
v	u
t	t

__BEGIN__	__EPS__
c	__EPS__
z	z
u	u

__BEGIN__	__EPS__
n	n
u	un

__BEGIN__	__EPS__
s	s
e	e
l	l
b	b
e	e
n	n

__BEGIN__	__EPS__
m	m
e	e
i	i
n	n

__BEGIN__	__EPS__
e	e
r	r

__BEGIN__	__EPS__
t	t
o	o
d	t

__BEGIN__	__EPS__
z	z
e	u

__BEGIN__	__EPS__
s	s
c	c
h	h
a	a
f	f
t	t

__BEGIN__	__EPS__
g	g
r	r
o	o
i	__EPS__
s	s
z	s
e	e
n	n

__BEGIN__	__EPS__
v	u
n	n
n	d

__BEGIN__	__EPS__
s	s
t	t
a	a
t	tt

__BEGIN__	__EPS__
b	b
o	o
t	t

__BEGIN__	__EPS__
m	m
i	y
r	r
r	rh
e	e
n	n

__BEGIN__	__EPS__
h	h
u	ä
t	u
t	t
e	e

__BEGIN__	__EPS__
m	m
e	e
i	i
n	n
e	e
m	m

__BEGIN__	__EPS__
a	a
n	n
g	g
e	e
s	s
e	e
h	h
e	e
n	n

__BEGIN__	__EPS__
s	s
o	o

__BEGIN__	__EPS__
g	__EPS__
e	__EPS__
s	s
c	c
h	h
r	r
i	i
f	f
f	__EPS__
t	t

__BEGIN__	__EPS__
k	k
e	e
y	i
n	n
e	e
n	n

__BEGIN__	__EPS__
a	a
n	n

__BEGIN__	__EPS__
b	b
l	l
o	u
i	__EPS__
d	t
e	e
s	s

__BEGIN__	__EPS__
v	u
n	n
d	d

__BEGIN__	__EPS__
d	d
i	i
e	e

__BEGIN__	__EPS__
b	b
a	a
t	t
t	__EPS__
e	__EPS__

__BEGIN__	__EPS__
f	f
u	ü
n	n
f	f

__BEGIN__	__EPS__
w	w
o	o
r	r
d	d
e	e
n	n

__BEGIN__	__EPS__
m	m
i	i
t	t

__BEGIN__	__EPS__
f	f
r	r
a	a
w	u

__BEGIN__	__EPS__
s	s
c	c
h	h
w	w
e	e
r	r
t	t

__BEGIN__	__EPS__
s	s
p	p
r	r
a	a
c	c
h	h

__BEGIN__	__EPS__
i	i
n	n

__BEGIN__	__EPS__
g	g
i	i
e	__EPS__
n	n
g	g
e	e
n	n
t	__EPS__

__BEGIN__	__EPS__
e	e
r	r
d	d
i	e
n	n

__BEGIN__	__EPS__
t	t
o	o
t	d

__BEGIN__	__EPS__
n	n
o	o
c	c
h	h

__BEGIN__	__EPS__
f	f
r	r
o	a
u	u
w	__EPS__

__BEGIN__	__EPS__
m	me
i	i
n	n

__BEGIN__	__EPS__
i	i
n	n
n	n
e	e
n	n

__BEGIN__	__EPS__
d	d
i	i
e	e

__BEGIN__	__EPS__
d	d
a	ah
r	in

__BEGIN__	__EPS__
l	l
a	a
g	g

__BEGIN__	__EPS__
o	a
u	u
g	g
e	e
n	n

__BEGIN__	__EPS__
s	s
i	ie

__BEGIN__	__EPS__
s	s
i	i
e	e

__BEGIN__	__EPS__
a	a
l	l
s	s
o	o

__BEGIN__	__EPS__
d	d
a	a

__BEGIN__	__EPS__
i	ih
m	m

__BEGIN__	__EPS__
v	u
n	n
d	d

__BEGIN__	__EPS__
a	a
l	l
l	l
e	e
m	m

__BEGIN__	__EPS__
v	u
n	n
d	d

__BEGIN__	__EPS__
g	g
r	r
o	o
z	s
z	s
e	e
m	m

__BEGIN__	__EPS__
o	a
u	u
c	c
h	h

__BEGIN__	__EPS__
a	a
u	u
f	f
f	__EPS__

__BEGIN__	__EPS__
l	l
e	e
i	i
t	d

__BEGIN__	__EPS__
d	d
a	an
n	n

__BEGIN__	__EPS__
n	n
i	i
t	ch
t	t

__BEGIN__	__EPS__
i	ih
n	n

__BEGIN__	__EPS__
v	u
n	n
d	d

__BEGIN__	__EPS__
t	z
r	o
e	__EPS__
c	__EPS__
k	g
t	__EPS__

__BEGIN__	__EPS__
h	h
i	i
e	e
s	s
s	s
e	e
n	n

__BEGIN__	__EPS__
s	s
o	o

__BEGIN__	__EPS__
d	d
o	a

__BEGIN__	__EPS__
v	v
o	o
r	r

__BEGIN__	__EPS__
s	s
e	e
i	i
n	n

__BEGIN__	__EPS__
w	w
a	a
s	s
s	s
e	e
r	r

__BEGIN__	__EPS__
z	z
u	u
o	__EPS__

__BEGIN__	__EPS__
e	e
r	r
l	l
i	i
t	tt
e	e
n	n

__BEGIN__	__EPS__
s	s
t	t
y	i
m	mme

__BEGIN__	__EPS__
d	d
a	as
z	s

__BEGIN__	__EPS__
s	s
i	i
c	c
h	h

__BEGIN__	__EPS__
d	d
a	a

__BEGIN__	__EPS__
d	d
y	ie
s	s
e	e

__BEGIN__	__EPS__
a	a
b	b
e	e
r	r

__BEGIN__	__EPS__
z	z
ü	u

__BEGIN__	__EPS__
y	ih
r	r

__BEGIN__	__EPS__
t	t
e	e
m	m
p	p
e	e
l	l

__BEGIN__	__EPS__
a	a
n	n

__BEGIN__	__EPS__
a	a
b	b

__BEGIN__	__EPS__
m	m
a	a
n	n

__BEGIN__	__EPS__
e	e
r	r

__BEGIN__	__EPS__
s	s
p	p
r	r
a	a
c	c
h	h

__BEGIN__	__EPS__
e	e
y	i
n	n

__BEGIN__	__EPS__
i	i
n	n

__BEGIN__	__EPS__
d	d
e	e
n	n

__BEGIN__	__EPS__
s	s
p	p
r	r
a	a
c	c
h	h

__BEGIN__	__EPS__
h	h
o	a
o	u
f	p
t	t

__BEGIN__	__EPS__
d	d
i	i
c	c
h	h

__BEGIN__	__EPS__
d	d
i	i
e	e

__BEGIN__	__EPS__
m	m
e	e
i	i
n	n

__BEGIN__	__EPS__
v	v
o	o
n	n

__BEGIN__	__EPS__
s	s
i	ie
h	h
e	e

__BEGIN__	__EPS__
m	m
o	o
c	c
h	h
t	te

__BEGIN__	__EPS__
e	i
m	h
e	m

__BEGIN__	__EPS__
w	w
o	o
l	ll
t	te

__BEGIN__	__EPS__
s	s
p	p
r	r
e	e
c	c
h	h
e	e
n	n

__BEGIN__	__EPS__
v	v
a	o
n	n

__BEGIN__	__EPS__
k	k
o	o
m	m
p	m
t	t

__BEGIN__	__EPS__
v	u
n	n
d	d

__BEGIN__	__EPS__
s	s
e	a
i	g
t	t
e	e
n	n
t	__EPS__

__BEGIN__	__EPS__
a	a
l	l
s	s

__BEGIN__	__EPS__
v	v
o	o
n	n

__BEGIN__	__EPS__
h	h
e	e
r	r
t	ze
z	n
l	l
e	e
i	i
d	d

__BEGIN__	__EPS__
m	m
e	e
n	n
s	s
c	c
h	h
e	e
n	n

__BEGIN__	__EPS__
y	ih
m	m

__BEGIN__	__EPS__
g	g
o	o
t	tt

__BEGIN__	__EPS__
d	d
i	i
e	e

__BEGIN__	__EPS__
v	u
n	n
s	s

__BEGIN__	__EPS__
r	r
e	e
i	i
c	c
h	h

__BEGIN__	__EPS__
d	d
e	e
m	m

__BEGIN__	__EPS__
f	f
u	ü
n	n
f	f
t	__EPS__
z	z
e	e
h	h
e	__EPS__
n	n

__BEGIN__	__EPS__
m	m
i	i
c	c
h	h

__BEGIN__	__EPS__
s	s
e	ee
l	le

__BEGIN__	__EPS__
i	j
a	a
m	mm
e	e
r	r

__BEGIN__	__EPS__
v	u
n	n
d	d

__BEGIN__	__EPS__
s	s
a	a
n	nk
t	t

__BEGIN__	__EPS__
m	me
y	i
n	n
e	e

__BEGIN__	__EPS__
a	a
u	u
c	c
h	h

__BEGIN__	__EPS__
v	u
n	n
d	d

__BEGIN__	__EPS__
l	l
e	e
i	i
b	be
s	s

__BEGIN__	__EPS__
s	s
o	o

__BEGIN__	__EPS__
m	me
y	i
n	n

__BEGIN__	__EPS__
s	s
y	ie

__BEGIN__	__EPS__
e	e
n	m
p	p
f	f
a	an
h	g
e	e

__BEGIN__	__EPS__
d	d
e	e
r	r

__BEGIN__	__EPS__
d	d
i	i
e	e
s	s
e	e
m	m

__BEGIN__	__EPS__
i	i
s	s
t	t

__BEGIN__	__EPS__
w	w
i	i
e	e

__BEGIN__	__EPS__
i	i
c	c
h	h

__BEGIN__	__EPS__
g	g
a	a
b	b

__BEGIN__	__EPS__
d	d
o	a

__BEGIN__	__EPS__
d	d
i	i
e	e

__BEGIN__	__EPS__
v	u
n	n
d	d

__BEGIN__	__EPS__
e	e
r	r

__BEGIN__	__EPS__
d	d
e	e
n	n

__BEGIN__	__EPS__
d	d
i	i
e	e

__BEGIN__	__EPS__
s	s
u	o
l	l
d	lt
i	e
n	n

__BEGIN__	__EPS__
a	a
l	l
s	s
o	o

__BEGIN__	__EPS__
b	b
e	e
y	i
d	de

__BEGIN__	__EPS__
s	s
p	p
r	r
a	a
c	c
h	h
e	e
n	n

__BEGIN__	__EPS__
s	s
p	p
r	r
a	a
c	c
h	h

__BEGIN__	__EPS__
i	i
c	c
h	h

__BEGIN__	__EPS__
m	m
i	i
c	c
h	h

__BEGIN__	__EPS__
p	p
y	i
l	l
a	a
t	t
o	us

__BEGIN__	__EPS__
s	s
i	ie

__BEGIN__	__EPS__
d	d
i	i
e	e

__BEGIN__	__EPS__
d	d
o	a

__BEGIN__	__EPS__
e	e
r	r

__BEGIN__	__EPS__
z	z
u	u

__BEGIN__	__EPS__
p	p
i	i
l	l
a	a
t	t
u	u
s	s

__BEGIN__	__EPS__
s	s
y	ie

__BEGIN__	__EPS__
m	m
i	i
c	c
h	h

__BEGIN__	__EPS__
w	w
i	i
l	l
l	l
e	e
n	n

__BEGIN__	__EPS__
h	h
a	a
i	be
n	n
t	__EPS__

__BEGIN__	__EPS__
m	m
i	i
c	c
h	h

__BEGIN__	__EPS__
d	d
e	e
n	n

__BEGIN__	__EPS__
w	w
o	o
r	r
t	t

__BEGIN__	__EPS__
s	s
p	p
r	r
a	a
c	c
h	h
e	e
n	n

__BEGIN__	__EPS__
m	m
e	e
i	i
n	n
e	e
s	s

__BEGIN__	__EPS__
s	s
t	t
a	a
r	r
c	k
k	e
s	s

__BEGIN__	__EPS__
s	s
y	ie

__BEGIN__	__EPS__
w	w
i	i
e	e

__BEGIN__	__EPS__
h	h
e	a
t	t
t	__EPS__

__BEGIN__	__EPS__
v	u
n	n
d	d

__BEGIN__	__EPS__
f	f
a	a
l	l
s	s
c	c
h	h

__BEGIN__	__EPS__
h	h
o	o
f	f
f	f
e	e
n	n

__BEGIN__	__EPS__
d	d
o	a

__BEGIN__	__EPS__
v	u
n	n
d	d

__BEGIN__	__EPS__
s	s
c	c
h	h
r	re
y	i
e	e
n	n
d	d
e	e

__BEGIN__	__EPS__
d	d
e	e
n	m

__BEGIN__	__EPS__
s	s
p	p
r	r
a	a
c	c
h	h

__BEGIN__	__EPS__
h	h
e	ä
t	t
t	t
e	e

__BEGIN__	__EPS__
e	e
r	r
d	d
r	r
e	e
i	i
c	c
h	h

__BEGIN__	__EPS__
a	a
l	__EPS__
l	l
s	s

__BEGIN__	__EPS__
s	s
y	ie

__BEGIN__	__EPS__
d	t
o	u
i	__EPS__
t	t

__BEGIN__	__EPS__
v	u
n	n
d	d

__BEGIN__	__EPS__
a	a
b	b

__BEGIN__	__EPS__
b	b
e	e
g	g
r	r
a	a
b	b
e	e
n	n

__BEGIN__	__EPS__
v	v
e	e
r	r
n	n
o	o
m	mm
e	e
n	n

__BEGIN__	__EPS__
s	se
i	i
n	n
e	e
m	m

__BEGIN__	__EPS__
e	e
r	r

__BEGIN__	__EPS__
y	e
s	s
z	__EPS__

__BEGIN__	__EPS__
s	s
u	o
n	n
d	d
e	e
r	r
n	n

__BEGIN__	__EPS__
d	d
a	a

__BEGIN__	__EPS__
d	de
i	i
n	n

__BEGIN__	__EPS__
g	g
e	e
d	d
a	a
c	c
h	h
t	te

__BEGIN__	__EPS__
s	s
e	e
i	i
n	n

__BEGIN__	__EPS__
i	j
u	u
d	d
e	e
n	n

__BEGIN__	__EPS__
a	a
l	l
s	s

__BEGIN__	__EPS__
i	i
s	s
t	t

__BEGIN__	__EPS__
a	a
l	l
s	s

__BEGIN__	__EPS__
e	e
r	r

__BEGIN__	__EPS__
h	h
a	a
i	__EPS__
t	t

__BEGIN__	__EPS__
v	u
n	n
s	sa
u	u
b	b
e	e
r	r

__BEGIN__	__EPS__
g	g
i	in
e	g

__BEGIN__	__EPS__
d	d
a	a
z	ss

__BEGIN__	__EPS__
g	g
a	a
r	r

__BEGIN__	__EPS__
t	t
e	e
m	m
p	p
e	e
l	l

__BEGIN__	__EPS__
s	s
p	p
r	r
a	a
c	c
h	h

__BEGIN__	__EPS__
g	g
o	o
t	t
t	t

__BEGIN__	__EPS__
a	a
n	n

__BEGIN__	__EPS__
v	u
n	n
d	d

__BEGIN__	__EPS__
w	w
a	a
r	r
d	d

__BEGIN__	__EPS__
s	s
i	i
c	t
z	z
z	__EPS__
e	e
n	n
d	d
e	e

__BEGIN__	__EPS__
v	u
n	n
s	s
a	ä
e	__EPS__
g	g
l	l
i	i
c	c
h	h
e	e
r	r

__BEGIN__	__EPS__
a	a
n	n

__BEGIN__	__EPS__
g	g
a	a
r	r

__BEGIN__	__EPS__
v	u
n	n
d	d

__BEGIN__	__EPS__
s	s
p	p
r	r
a	a
c	c
h	h

__BEGIN__	__EPS__
e	e
y	i
n	n

__BEGIN__	__EPS__
p	b
l	l
u	u
e	__EPS__
t	t

__BEGIN__	__EPS__
d	d
a	a
s	s

__BEGIN__	__EPS__
m	m
i	i
c	c
h	h

__BEGIN__	__EPS__
s	s
c	c
h	h
r	r
e	e
y	i
e	e
n	n

__BEGIN__	__EPS__
g	g
r	r
o	o
z	s
z	s
e	e
n	n

__BEGIN__	__EPS__
a	a
u	u
c	c
h	h

__BEGIN__	__EPS__
b	b
e	e
w	w
a	ah
r	r
e	e
n	n

__BEGIN__	__EPS__
i	j
a	a
c	c
o	o
b	b
u	u
s	s

__BEGIN__	__EPS__
v	u
n	n
d	d

__BEGIN__	__EPS__
s	s
p	p
r	r
a	a
c	c
h	h

__BEGIN__	__EPS__
g	g
o	ot
d	t
e	e
s	s

__BEGIN__	__EPS__
n	n
i	i
e	ch
t	t

__BEGIN__	__EPS__
w	w
e	e
r	r
f	f
f	__EPS__
e	e
n	n

__BEGIN__	__EPS__
l	l
e	eh
r	re

__BEGIN__	__EPS__
k	k
r	r
e	e
w	u
c	__EPS__
z	z
i	i
g	g
e	e
n	n

__BEGIN__	__EPS__
w	w
u	u
n	n
t	d

__BEGIN__	__EPS__
e	u
n	nd

__BEGIN__	__EPS__
s	s
i	i
c	c
h	h

__BEGIN__	__EPS__
c	k
r	r
e	e
u	u
t	__EPS__
z	z

__BEGIN__	__EPS__
d	d
y	i
r	r

__BEGIN__	__EPS__
h	h
a	a
i	be
n	n

__BEGIN__	__EPS__
g	g
e	e
h	h
o	o
l	l
f	f
f	__EPS__
e	e
n	n

__BEGIN__	__EPS__
t	t
u	u
n	n
d	__EPS__

__BEGIN__	__EPS__
f	f
ü	ü
r	r
s	s
t	t
e	e
n	n

__BEGIN__	__EPS__
m	m
i	i
t	t

__BEGIN__	__EPS__
d	t
e	ä
d	t
e	e

__BEGIN__	__EPS__
s	s
p	p
r	r
a	a
c	c
h	h

__BEGIN__	__EPS__
v	u
n	n
d	d

__BEGIN__	__EPS__
e	e
i	i
n	n

__BEGIN__	__EPS__
w	w
a	a
n	nn

__BEGIN__	__EPS__
z	z
u	u

__BEGIN__	__EPS__
s	s
o	o

__BEGIN__	__EPS__
v	u
n	n
d	d

__BEGIN__	__EPS__
g	g
r	r
o	o
s	s
z	se

__BEGIN__	__EPS__
d	d
e	e
m	m

__BEGIN__	__EPS__
w	wa
z	s

__BEGIN__	__EPS__
v	u
n	n
d	d

__BEGIN__	__EPS__
t	t
o	u
n	n
d	__EPS__

__BEGIN__	__EPS__
a	a
u	u
f	f
g	g
a	a
n	n
g	g
e	__EPS__

__BEGIN__	__EPS__
w	w
y	i
r	r

__BEGIN__	__EPS__
b	b
e	e
r	r
i	i
c	c
h	h
t	t
e	e

__BEGIN__	__EPS__
t	t
a	a
g	g

__BEGIN__	__EPS__
v	u
n	n
r	r
e	e
i	i
n	n

__BEGIN__	__EPS__
n	n
v	un

__BEGIN__	__EPS__
c	__EPS__
h	k
r	r
a	__EPS__
e	e
w	u
c	__EPS__
z	z
i	i
g	g
e	e
n	n

__BEGIN__	__EPS__
i	i
n	n

__BEGIN__	__EPS__
d	d
e	e
m	m

__BEGIN__	__EPS__
m	m
i	i
c	c
h	h

__BEGIN__	__EPS__
m	m
e	e
i	i
n	n

__BEGIN__	__EPS__
d	d
i	i
e	e

__BEGIN__	__EPS__
a	a
l	l
s	s
o	o

__BEGIN__	__EPS__
u	v
o	o
l	l
k	k

__BEGIN__	__EPS__
c	__EPS__
h	k
l	l
a	a
g	g
t	t
e	e
n	n

__BEGIN__	__EPS__
k	k
r	r
a	a
n	n
c	__EPS__
k	k
h	h
e	e
i	i
t	t

__BEGIN__	__EPS__
r	r
e	e
i	i
c	c
h	h

__BEGIN__	__EPS__
m	m
a	a
r	r
i	i
a	a

__BEGIN__	__EPS__
w	d
e	e
n	nn

__BEGIN__	__EPS__
s	s
e	e
n	n
d	de

__BEGIN__	__EPS__
m	m
i	i
c	c
h	h

__BEGIN__	__EPS__
n	n
o	o
c	c
h	h

__BEGIN__	__EPS__
s	s
y	ie

__BEGIN__	__EPS__
v	u
n	n
d	d

__BEGIN__	__EPS__
d	d
a	a
s	ss

__BEGIN__	__EPS__
a	a
l	l
l	l
e	e
r	r
s	__EPS__
t	__EPS__
e	e
r	r
k	__EPS__
s	s
t	te

__BEGIN__	__EPS__
w	w
u	u
n	n
d	d
e	e
r	r

__BEGIN__	__EPS__
i	ih
m	m

__BEGIN__	__EPS__
b	b
e	e
r	r
i	i
c	c
h	h
t	tet

__BEGIN__	__EPS__
d	d
i	i
e	e

__BEGIN__	__EPS__
m	m
a	a
r	r
i	i
a	a

__BEGIN__	__EPS__
l	le
u	u
d	t
e	e

__BEGIN__	m
n	itt
o	a
n	gsz
e	eit

__BEGIN__	__EPS__
l	l
i	i
e	e
u	b
e	e

__BEGIN__	__EPS__
d	d
o	a

__BEGIN__	__EPS__
o	ö
s	s
t	t
e	e
r	r
l	l
i	i
c	c
h	h
e	e
n	n

__BEGIN__	__EPS__
e	e
n	n
t	t
o	e
e	h
r	r
t	t

__BEGIN__	__EPS__
d	d
a	as
s	s

__BEGIN__	__EPS__
a	a
n	n
d	d
e	e
r	r
e	e
n	n

__BEGIN__	__EPS__
e	e
r	r
t	d
r	re
i	i
c	c
h	h

__BEGIN__	__EPS__
v	v
o	o
n	n

__BEGIN__	__EPS__
e	e
y	i
n	n
e	e
n	n

__BEGIN__	__EPS__
d	d
e	e
n	m

__BEGIN__	__EPS__
w	w
u	u
r	r
d	d
e	e
n	n

__BEGIN__	__EPS__
d	d
i	i
r	r

__BEGIN__	__EPS__
d	d
i	i
r	r

__BEGIN__	__EPS__
d	d
y	i
r	r

__BEGIN__	__EPS__
m	me
y	i
n	n

__BEGIN__	__EPS__
d	d
i	ie

__BEGIN__	__EPS__
i	ih
n	n

__BEGIN__	__EPS__
s	s
a	a
h	h
e	e
n	n

__BEGIN__	__EPS__
w	w
i	i
l	ll

__BEGIN__	__EPS__
t	__EPS__
z	z
o	o
i	__EPS__
c	__EPS__
h	g

__BEGIN__	__EPS__
m	me
i	i
n	n

__BEGIN__	__EPS__
w	w
a	a
t	s

__BEGIN__	__EPS__
y	ih
n	n

__BEGIN__	__EPS__
m	m
ü	ö
g	g
e	e
n	n

__BEGIN__	__EPS__
h	h
a	abe
n	n

__BEGIN__	__EPS__
d	d
e	e
r	r

__BEGIN__	__EPS__
d	d
a	a

__BEGIN__	__EPS__
h	h
e	e
r	r
a	a
u	u
e	__EPS__
z	s

__BEGIN__	__EPS__
d	d
a	a
r	__EPS__
n	n
a	a
c	c
h	h

__BEGIN__	__EPS__
d	d
e	e
n	n

__BEGIN__	__EPS__
d	d
o	a

__BEGIN__	__EPS__
d	d
a	a
z	ss

__BEGIN__	__EPS__
s	sch
w	w
e	e
s	s
t	t
e	e
r	r

__BEGIN__	__EPS__
t	t
o	o
t	t
e	e
n	n

__BEGIN__	__EPS__
i	i
n	n

__BEGIN__	__EPS__
p	b
i	i
s	s
t	t

__BEGIN__	__EPS__
d	d
i	i
e	e

__BEGIN__	__EPS__
b	b
e	e
d	d
e	e
c	c
k	k
e	e
n	n

__BEGIN__	__EPS__
e	e
r	r

__BEGIN__	__EPS__
l	l
a	ä
s	s
t	t
e	e
r	r
l	l
i	i
c	c
h	h
e	e
n	n

__BEGIN__	__EPS__
d	d
o	a

__BEGIN__	__EPS__
g	g
e	e
g	g
e	e
b	b
e	e
n	n

__BEGIN__	__EPS__
k	k
i	i
n	n
t	d

__BEGIN__	__EPS__
e	e
i	i
n	n

__BEGIN__	__EPS__
m	m
y	i
t	t

__BEGIN__	d
u	u

__BEGIN__	__EPS__
m	m
a	a
n	n

__BEGIN__	__EPS__
g	g
e	e
f	f
a	a
n	n
g	g
e	e
n	n

__BEGIN__	__EPS__
s	s
e	e
i	i
n	n

__BEGIN__	__EPS__
d	de
i	i
n	n
e	e
s	s

__BEGIN__	__EPS__
d	d
v	u
r	rch

__BEGIN__	__EPS__
m	me
i	i
n	n
e	e
m	m

__BEGIN__	__EPS__
w	w
a	a
i	h
r	r
h	h
e	e
i	i
t	t

__BEGIN__	__EPS__
d	d
e	e
n	n

__BEGIN__	__EPS__
d	d
y	ie

__BEGIN__	n
e	ich
n	t

__BEGIN__	__EPS__
e	e
i	i
n	n

__BEGIN__	__EPS__
d	d
i	i
e	e

__BEGIN__	__EPS__
s	s
e	eh
y	e
n	n

__BEGIN__	__EPS__
v	v
o	o
n	n

__BEGIN__	__EPS__
d	d
a	a
z	s

__BEGIN__	__EPS__
z	z
u	u
o	__EPS__

__BEGIN__	__EPS__
f	f
r	r
e	e
w	u
n	n
d	d

__BEGIN__	__EPS__
m	me
y	i
n	n

__BEGIN__	__EPS__
w	w
o	o
l	l
l	l
e	e
n	n
t	__EPS__

__BEGIN__	__EPS__
d	d
a	a
r	__EPS__
n	n
a	a
c	c
h	h

__BEGIN__	__EPS__
e	e
y	i
n	n
e	e
n	n

__BEGIN__	__EPS__
z	z
u	u

__BEGIN__	__EPS__
w	w
u	ü
i	__EPS__
r	r
d	de

__BEGIN__	__EPS__
h	h
e	ä
d	t
d	t
e	e
n	n

__BEGIN__	__EPS__
s	s
y	i
e	e

__BEGIN__	__EPS__
f	f
r	r
a	e
w	u
d	__EPS__
t	t
e	e

__BEGIN__	__EPS__
l	l
e	e
u	u
t	t
e	e
n	n

__BEGIN__	__EPS__
n	n
u	u
w	__EPS__
e	n

__BEGIN__	__EPS__
h	h
a	a
d	t

__BEGIN__	__EPS__
e	e
r	r

__BEGIN__	__EPS__
k	k
o	o
m	mm
e	e
n	n

__BEGIN__	__EPS__
e	e
y	i
m	n
e	em

__BEGIN__	__EPS__
v	v
i	ie
l	l

__BEGIN__	__EPS__
d	d
e	e
r	r

__BEGIN__	__EPS__
w	w
a	a
s	r

__BEGIN__	__EPS__
i	j
ü	ü
n	n
g	g
e	e
r	r

__BEGIN__	__EPS__
s	s
p	p
r	r
a	a
c	c
h	h

__BEGIN__	__EPS__
r	r
i	i
t	t
t	t
e	e
r	r

__BEGIN__	__EPS__
t	t
o	o
t	t
e	e
n	n

__BEGIN__	__EPS__
d	d
o	a

__BEGIN__	__EPS__
y	j
e	e

__BEGIN__	__EPS__
d	d
i	i
e	e

__BEGIN__	__EPS__
r	r
a	a
n	nn

__BEGIN__	__EPS__
d	t
o	u
e	__EPS__
n	n

__BEGIN__	__EPS__
k	k
o	a
m	m

__BEGIN__	__EPS__
v	u
n	n
n	d

__BEGIN__	__EPS__
c	c
e	e
n	n
t	t
u	u
r	r
i	i
o	o
n	__EPS__
e	__EPS__

__BEGIN__	__EPS__
d	d
i	i
e	e

__BEGIN__	__EPS__
d	da
z	s

__BEGIN__	__EPS__
a	oh
n	n
e	e

__BEGIN__	__EPS__
e	a
l	l
l	l
v	__EPS__
i	e

__BEGIN__	__EPS__
d	d
o	a

__BEGIN__	__EPS__
g	g
r	r
o	o
z	s
z	s
e	e
n	n

__BEGIN__	__EPS__
v	u
n	n
d	d

__BEGIN__	__EPS__
a	a
n	n
t	t
t	__EPS__
l	l
i	i
t	tz

__BEGIN__	__EPS__
v	v
o	o
n	n

__BEGIN__	__EPS__
d	d
i	i
e	e

__BEGIN__	__EPS__
s	s
p	p
r	r
a	a
c	c
h	h

__BEGIN__	__EPS__
v	u
n	n
d	d

__BEGIN__	__EPS__
q	be
u	f
i	r
t	ei
e	e
n	n

__BEGIN__	__EPS__
g	g
e	e
s	s
e	e
h	h
e	e
n	n

__BEGIN__	__EPS__
d	d
e	e
i	i
n	n

__BEGIN__	__EPS__
m	m
a	a
c	c
h	h
e	__EPS__
t	te

__BEGIN__	__EPS__
g	g
r	r
o	o
e	__EPS__
s	s
s	s
i	e
n	n

__BEGIN__	__EPS__
w	w
a	a
s	s

__BEGIN__	__EPS__
n	n
i	ich
t	t

__BEGIN__	__EPS__
g	g
r	r
o	o
s	ss

__BEGIN__	__EPS__
i	i
n	n

__BEGIN__	__EPS__
s	s
e	eh
r	r
e	__EPS__

__BEGIN__	__EPS__
i	i
c	c
h	h

__BEGIN__	__EPS__
m	m
i	i
r	r

__BEGIN__	__EPS__
v	ü
b	b
e	e
r	r
z	z
o	o
g	g
e	e
n	n

__BEGIN__	__EPS__
s	s
i	ie

__BEGIN__	__EPS__
w	wi
e	e
d	d
i	e
r	r

__BEGIN__	__EPS__
d	d
i	i
e	e

__BEGIN__	__EPS__
i	i
n	n

__BEGIN__	__EPS__
s	s
u	o
l	l
l	l
e	e
n	n

__BEGIN__	__EPS__
p	b
e	__EPS__
l	l
a	e
i	i
b	b

__BEGIN__	__EPS__
d	d
a	a
z	s

__BEGIN__	__EPS__
l	l
a	a
n	n
g	g
e	e
r	r

__BEGIN__	__EPS__
v	u
i	__EPS__
n	n
s	s
e	e
r	r

__BEGIN__	__EPS__
m	me
i	i
n	n
e	e
m	m

__BEGIN__	__EPS__
s	se
y	i
n	n
e	e
n	n

__BEGIN__	__EPS__
h	h
i	__EPS__
e	a
t	t

__BEGIN__	__EPS__
v	ü
b	b
e	e
r	r

__BEGIN__	__EPS__
i	i
n	n

__BEGIN__	__EPS__
l	l
i	ie
b	b
e	e
s	s

__BEGIN__	__EPS__
s	s
c	c
h	h
i	i
e	e
d	d

__BEGIN__	__EPS__
e	e
d	d
e	__EPS__
l	le
n	n

__BEGIN__	__EPS__
k	k
i	i
n	n
d	d

__BEGIN__	__EPS__
s	s
t	t
u	a
n	n
d	d

__BEGIN__	__EPS__
d	di
e	e
s	s
e	e
n	n

__BEGIN__	__EPS__
i	i
c	c
h	h

__BEGIN__	__EPS__
g	g
e	e
n	n
o	om
m	m
e	e
n	n

__BEGIN__	__EPS__
s	s
e	e
l	l
b	b
e	e
n	n

__BEGIN__	__EPS__
z	z
u	u

__BEGIN__	__EPS__
e	e
n	n
d	d
e	e
s	s

__BEGIN__	__EPS__
a	__EPS__
l	__EPS__
s	s
u	o
s	__EPS__

__BEGIN__	__EPS__
v	u
n	n
d	d

__BEGIN__	__EPS__
n	n
i	i
e	e

__BEGIN__	__EPS__
a	a
n	n

__BEGIN__	__EPS__
m	m
a	an
n	n

__BEGIN__	__EPS__
m	m
e	e
i	i
n	n

__BEGIN__	__EPS__
g	g
i	i
e	__EPS__
n	n
g	g

__BEGIN__	__EPS__
a	a
n	n

__BEGIN__	__EPS__
r	r
e	e
c	c
h	h
t	t
e	e
n	n

__BEGIN__	__EPS__
s	s
u	u
i	__EPS__
c	c
h	h
t	t

__BEGIN__	__EPS__
d	d
o	a

__BEGIN__	__EPS__
d	d
a	a
r	__EPS__
n	n
a	a
c	c
h	h

__BEGIN__	__EPS__
d	d
a	a
s	ss

__BEGIN__	__EPS__
d	d
e	e
r	r

__BEGIN__	__EPS__
g	g
e	e
s	s
i	eh
e	e
n	n

__BEGIN__	__EPS__
y	i
n	n

__BEGIN__	__EPS__
m	me
i	i
n	n
e	e
m	m

__BEGIN__	__EPS__
a	a
l	l
l	l
e	e
s	s

__BEGIN__	__EPS__
d	d
i	ie
t	s

__BEGIN__	__EPS__
h	h
e	a
t	t
t	t
e	e

__BEGIN__	__EPS__
s	s
i	ie

__BEGIN__	__EPS__
d	d
e	e
r	r

__BEGIN__	__EPS__
c	k
h	__EPS__
i	i
n	n
d	d

__BEGIN__	__EPS__
a	a
l	l
l	l
e	e
r	r
l	l
i	ie
b	b
s	s
t	t
e	e

__BEGIN__	__EPS__
k	k
i	i
n	n
t	d

__BEGIN__	__EPS__
v	u
n	n
d	d

__BEGIN__	__EPS__
s	s
o	oh
n	n

__BEGIN__	__EPS__
m	m
u	u
e	t
t	t
e	e
r	r

__BEGIN__	__EPS__
e	i
m	h
e	m

__BEGIN__	__EPS__
l	l
i	ie
g	g
t	t

__BEGIN__	__EPS__
c	__EPS__
z	z
a	e
i	i
c	c
h	h
e	e
n	n

__BEGIN__	__EPS__
g	g
a	a
l	l
y	i
l	l
e	e
a	a

__BEGIN__	__EPS__
i	j
v	u
d	d
e	e
n	n

__BEGIN__	__EPS__
c	__EPS__
z	ze
y	i
t	t

__BEGIN__	__EPS__
e	e
r	r

__BEGIN__	__EPS__
s	s
v	i
i	e

__BEGIN__	__EPS__
m	m
a	o
c	c
h	h
t	te

__BEGIN__	__EPS__
d	d
a	a
z	s

__BEGIN__	__EPS__
f	f
u	ü
r	r

__BEGIN__	__EPS__
v	u
n	n
d	d

__BEGIN__	__EPS__
s	s
i	i
e	e

__BEGIN__	__EPS__
s	s
o	o
l	l
d	lt
e	e

__BEGIN__	__EPS__
l	l
a	a
n	n
g	g
e	e

__BEGIN__	__EPS__
w	w
a	o
i	__EPS__
l	h
l	l

__BEGIN__	__EPS__
h	h
o	ö
r	r
t	t
e	e

__BEGIN__	__EPS__
d	d
a	a
s	s

__BEGIN__	__EPS__
d	d
y	ie

__BEGIN__	__EPS__
v	f
o	o
l	l
g	g
t	t
e	e
n	n
d	__EPS__

__BEGIN__	__EPS__
v	u
n	n
d	d
e	__EPS__

__BEGIN__	__EPS__
f	f
u	a
n	n
d	d
e	e
n	n

__BEGIN__	__EPS__
d	d
a	a
s	s

__BEGIN__	__EPS__
i	j
h	__EPS__
e	e
s	s
u	u
n	s

__BEGIN__	__EPS__
k	k
i	i
n	n
t	d

__BEGIN__	__EPS__
s	s
o	o
n	n
n	ne

__BEGIN__	__EPS__
m	m
i	i
c	c
h	h

__BEGIN__	__EPS__
h	__EPS__
e	e
r	r

__BEGIN__	__EPS__
k	k
i	i
n	n
t	d

__BEGIN__	__EPS__
e	e
r	r

__BEGIN__	__EPS__
s	s
o	o

__BEGIN__	__EPS__
d	d
o	a

__BEGIN__	__EPS__
s	s
p	p
r	r
a	a
c	c
h	h

__BEGIN__	__EPS__
n	n
a	a
c	c
h	h

__BEGIN__	__EPS__
e	e
t	t

__BEGIN__	__EPS__
d	d
u	u
r	r
c	c
h	h

__BEGIN__	__EPS__
c	c
o	o
n	n
s	s
v	u
m	m
a	a
t	t
u	u
m	m

__BEGIN__	__EPS__
m	m
i	i
n	n
n	n
o	e
n	__EPS__

__BEGIN__	__EPS__
i	i
c	c
h	h

__BEGIN__	__EPS__
a	a
n	n
n	n
a	a
s	s

__BEGIN__	__EPS__
d	d
i	i
c	c
h	h

__BEGIN__	__EPS__
v	u
n	n
d	d

__BEGIN__	__EPS__
c	ch
r	r
i	i
s	s
t	t
u	u
n	s

__BEGIN__	__EPS__
d	di
e	e
s	s
e	e

__BEGIN__	__EPS__
v	u
n	n
d	d

__BEGIN__	__EPS__
b	b
r	r
o	a
c	c
h	h
i	e
n	n

__BEGIN__	__EPS__
d	d
e	e
m	m

__BEGIN__	__EPS__
k	k
r	r
e	äh
t	t

__BEGIN__	__EPS__
v	v
u	e
r	r
g	g
o	a
s	s
s	s
e	e
n	n

__BEGIN__	__EPS__
s	s
p	p
r	r
a	a
c	c
h	h

__BEGIN__	__EPS__
h	h
i	i
e	er

__BEGIN__	__EPS__
c	c
h	h
r	r
i	i
s	s
t	t
u	u
s	s

__BEGIN__	__EPS__
d	d
e	e
m	m

__BEGIN__	__EPS__
k	k
e	a
y	i
s	s
i	e
r	r

__BEGIN__	__EPS__
c	k
o	ö
n	n
i	i
n	__EPS__
c	g

__BEGIN__	__EPS__
a	a
l	l
s	s
o	o

__BEGIN__	__EPS__
v	v
o	o
r	r

__BEGIN__	__EPS__
d	d
a	a
s	ss

__BEGIN__	__EPS__
s	s
o	oh
l	l
e	e
n	n

__BEGIN__	__EPS__
d	d
e	e
r	r

__BEGIN__	__EPS__
e	e
r	r
s	s
t	t
e	e

__BEGIN__	__EPS__
v	u
n	n
d	d

__BEGIN__	__EPS__
a	a
l	l
l	l
e	e
n	n

__BEGIN__	__EPS__
w	w
e	e
n	nn

__BEGIN__	__EPS__
h	h
i	i
e	e
s	s
s	s

__BEGIN__	__EPS__
w	w
a	a
n	n
n	n

__BEGIN__	__EPS__
k	k
i	i
n	n
d	d
e	e
s	s

__BEGIN__	__EPS__
l	l
i	ie
b	b
e	e

__BEGIN__	__EPS__
r	r
a	e
i	i
n	n
e	e
n	n

__BEGIN__	__EPS__
s	sch
w	w
e	e
i	i
c	g
h	e

__BEGIN__	__EPS__
w	w
a	o
i	h
l	l

__BEGIN__	__EPS__
d	d
i	i
n	n
g	g

__BEGIN__	__EPS__
v	u
n	n
d	d

__BEGIN__	__EPS__
s	s
y	ie

__BEGIN__	__EPS__
w	w
i	i
l	ll

__BEGIN__	__EPS__
d	d
a	a
t	ss

__BEGIN__	__EPS__
i	ih
n	n

__BEGIN__	__EPS__
v	u
n	n
d	d

__BEGIN__	__EPS__
d	d
a	a
z	ss

__BEGIN__	__EPS__
w	w
a	ah
r	r
e	e

__BEGIN__	__EPS__
e	i
m	h
e	m

__BEGIN__	__EPS__
s	s
a	a
c	c
h	he

__BEGIN__	__EPS__
b	b
e	e
s	sch
l	l
o	o
s	s
z	s

__BEGIN__	__EPS__
v	f
r	r
a	a
g	g
e	__EPS__
d	t
e	e

__BEGIN__	__EPS__
s	s
e	ä
v	u
l	le

__BEGIN__	__EPS__
t	t
r	r
u	e
w	u
e	e
n	n

__BEGIN__	__EPS__
d	d
i	i
e	e

__BEGIN__	__EPS__
g	g
r	r
o	o
s	s
z	s

__BEGIN__	__EPS__
n	n
i	ic
h	h
t	t

__BEGIN__	__EPS__
a	a
n	n
s	s
a	a
c	__EPS__
h	h

__BEGIN__	__EPS__
d	d
u	u

__BEGIN__	__EPS__
w	w
a	a
r	r
d	d

__BEGIN__	__EPS__
d	d
i	i
e	e

__BEGIN__	__EPS__
d	d
i	i
e	e

__BEGIN__	__EPS__
m	m
e	öc
h	h
t	t
e	e

__BEGIN__	__EPS__
w	w
y	i
r	r

__BEGIN__	__EPS__
n	n
i	ich
t	t

__BEGIN__	__EPS__
h	h
a	ä
e	m
m	m
e	e
r	r

__BEGIN__	__EPS__
g	g
r	r
a	a
b	b

__BEGIN__	__EPS__
e	e
i	i
n	n
e	e
m	m

__BEGIN__	__EPS__
e	e
r	r

__BEGIN__	__EPS__
v	a
z	u
z	s

__BEGIN__	__EPS__
c	__EPS__
z	ze
u	r
s	s
p	p
i	ie
l	l
t	t

__BEGIN__	__EPS__
m	m
a	a
r	r
i	i
a	a

__BEGIN__	__EPS__
k	k
u	o
n	nn
t	te

__BEGIN__	__EPS__
h	h
u	e
i	u
t	te

__BEGIN__	__EPS__
g	g
o	o
t	t
t	t
e	e
s	s

__BEGIN__	__EPS__
d	d
i	i
e	e

__BEGIN__	__EPS__
b	b
i	i
z	s
z	s
e	e
n	n

__BEGIN__	__EPS__
s	s
e	e
i	i
n	n

__BEGIN__	__EPS__
v	v
e	e

__BEGIN__	__EPS__
l	l
i	i
e	e
f	f

__BEGIN__	__EPS__
v	v
o	o
n	n

__BEGIN__	__EPS__
b	be
y	i

__BEGIN__	__EPS__
a	a
b	b
e	e
r	r

__BEGIN__	__EPS__
s	s
t	t
a	ä
t	tte

__BEGIN__	__EPS__
v	f
i	i
e	__EPS__
n	n
g	g
e	e
n	n

__BEGIN__	__EPS__
d	d
i	i
e	e

__BEGIN__	__EPS__
k	k
y	i
n	n
d	d
e	__EPS__

__BEGIN__	__EPS__
s	s
y	ie

__BEGIN__	__EPS__
t	t
v	u
o	__EPS__
t	t

__BEGIN__	__EPS__
d	da
z	s

__BEGIN__	__EPS__
m	me
y	i
n	n

__BEGIN__	__EPS__
a	a
r	r
m	m

__BEGIN__	__EPS__
r	r
e	e
t	de
t	te

__BEGIN__	__EPS__
h	h
a	ä
n	n
g	g
e	e
n	n

__BEGIN__	__EPS__
s	se
y	i
n	n

__BEGIN__	__EPS__
v	u
n	n
d	d

__BEGIN__	__EPS__
s	s
e	e
i	i
n	n

__BEGIN__	__EPS__
g	w
e	a
w	h
e	__EPS__
r	r
l	h
i	a
c	f
h	t

__BEGIN__	__EPS__
s	s
e	e
i	i
n	n
e	e

__BEGIN__	__EPS__
g	g
e	e
p	b
u	u
n	n
d	d
e	e
n	n

__BEGIN__	__EPS__
h	h
e	e
r	r

__BEGIN__	__EPS__
n	n
i	ich
t	t

__BEGIN__	__EPS__
i	ih
n	n

__BEGIN__	__EPS__
i	ih
r	r
e	e
n	n

__BEGIN__	__EPS__
e	e
r	r

__BEGIN__	__EPS__
e	e
r	r
b	b
a	a
r	r
m	m
e	__EPS__
t	t

__BEGIN__	__EPS__
e	e
r	r

__BEGIN__	__EPS__
m	me
i	i
n	n
e	e
s	s

__BEGIN__	__EPS__
w	w
i	i
l	lls
t	t

__BEGIN__	__EPS__
z	z
e	e
r	r
s	s
t	t
o	ö
e	__EPS__
r	r
e	e
r	r

__BEGIN__	__EPS__
p	b
i	i
t	t
t	t
e	e
r	r
l	l
i	i
c	c
h	h
e	__EPS__
n	__EPS__

__BEGIN__	__EPS__
b	b
r	r
e	e
c	c
h	h
e	e
n	n

__BEGIN__	__EPS__
i	j
u	ü
n	n
g	g
e	__EPS__
l	l
i	i
n	n
g	g
s	s

__BEGIN__	__EPS__
p	b
i	i
t	t
t	te

__BEGIN__	__EPS__
a	a
n	n

__BEGIN__	__EPS__
d	d
o	a

__BEGIN__	__EPS__
s	s
c	c
h	h
e	e
i	i
n	n

__BEGIN__	__EPS__
z	z
a	ä
r	r
t	t
l	l
i	i
c	c
h	h

__BEGIN__	__EPS__
m	m
e	e
i	i
n	n

__BEGIN__	__EPS__
v	f
r	r
o	a
w	u
e	e
n	n

__BEGIN__	__EPS__
l	l
i	ie
b	b
l	l
i	i
c	c
h	h
s	s
t	t
e	e
n	n

__BEGIN__	__EPS__
d	d
a	a
s	s

__BEGIN__	__EPS__
d	d
y	ie

__BEGIN__	__EPS__
w	w
i	i
e	e

__BEGIN__	__EPS__
d	d
i	ie

__BEGIN__	__EPS__
e	e
r	r
s	s
t	t
u	a
n	n
d	d
e	e
n	n

__BEGIN__	__EPS__
w	w
a	a
r	r
t	d

__BEGIN__	__EPS__
d	d
e	e
r	r

__BEGIN__	__EPS__
v	v
o	o
n	n

__BEGIN__	__EPS__
v	u
n	n
d	d

__BEGIN__	__EPS__
i	e
w	uch

__BEGIN__	__EPS__
i	i
n	n

__BEGIN__	__EPS__
g	g
e	eh
y	e
n	n

__BEGIN__	__EPS__
d	d
c	ass

__BEGIN__	__EPS__
d	d
o	a

__BEGIN__	__EPS__
n	n
o	o
c	c
h	h

__BEGIN__	__EPS__
s	sch
n	n
o	ö
e	__EPS__
d	d
e	e

__BEGIN__	__EPS__
f	f
u	ü
l	l
l	l
t	t
e	e

__BEGIN__	__EPS__
r	r
u	u
f	f
f	__EPS__
e	__EPS__
t	t

__BEGIN__	__EPS__
v	v
o	o
n	n

__BEGIN__	__EPS__
i	i
n	n

__BEGIN__	__EPS__
z	z
a	a
r	r
t	t
e	e
n	n

__BEGIN__	__EPS__
a	a
n	n

__BEGIN__	__EPS__
s	s
p	p
r	r
a	a
c	c
h	h

__BEGIN__	__EPS__
i	j
u	u
d	d
e	e
n	n

__BEGIN__	__EPS__
d	d
o	a

__BEGIN__	__EPS__
s	s
i	i
e	e

__BEGIN__	__EPS__
g	g
e	__EPS__
l	l
i	ie
d	d
e	e
r	r

__BEGIN__	__EPS__
g	g
i	ib
t	t

__BEGIN__	__EPS__
b	__EPS__
r	r
a	i
s	sse
t	n

__BEGIN__	__EPS__
s	s
p	p
r	r
a	a
c	c
h	h

__BEGIN__	__EPS__
i	i
c	c
h	h

__BEGIN__	__EPS__
w	w
a	a
r	r
t	d

__BEGIN__	__EPS__
s	s
p	p
r	r
a	a
c	c
h	h

__BEGIN__	__EPS__
m	m
e	e
i	i
n	n

__BEGIN__	__EPS__
i	i
c	c
h	h

__BEGIN__	__EPS__
n	n
i	ic
h	h
t	t

__BEGIN__	__EPS__
a	a
u	u
f	f

__BEGIN__	__EPS__
z	z
e	u

__BEGIN__	__EPS__
w	w
i	i
r	r

__BEGIN__	__EPS__
d	d
o	a

__BEGIN__	__EPS__
v	u
n	n
d	d

__BEGIN__	__EPS__
h	h
a	a
t	tt
e	e
n	n

__BEGIN__	__EPS__
v	v
o	o
n	n

__BEGIN__	__EPS__
s	s
p	p
r	r
a	a
c	c
h	h

__BEGIN__	__EPS__
v	u
n	n
d	d

__BEGIN__	__EPS__
d	d
i	i
e	e

__BEGIN__	__EPS__
w	w
i	i
l	l
l	l
e	e

__BEGIN__	__EPS__
o	oh

__BEGIN__	__EPS__
s	s
t	t
e	ä
r	r
i	__EPS__
c	__EPS__
k	k
e	e
n	n

__BEGIN__	__EPS__
d	d
i	i
e	e

__BEGIN__	__EPS__
c	k
r	r
e	e
u	u
c	__EPS__
z	z

__BEGIN__	__EPS__
b	b
e	e
g	g
e	e
u	b
e	e
n	n

__BEGIN__	__EPS__
m	m
i	i
t	t

__BEGIN__	__EPS__
b	b
r	r
a	ä
e	__EPS__
c	c
h	h
i	e
n	n
d	__EPS__

__BEGIN__	__EPS__
i	i
c	c
h	h

__BEGIN__	__EPS__
d	d
o	a

__BEGIN__	__EPS__
e	e
r	r
s	s
c	c
h	h
e	e
i	i
n	ne

__BEGIN__	__EPS__
g	g
e	e
s	s
e	e
l	l
l	l
e	e
n	n

__BEGIN__	__EPS__
g	g
e	e
s	s
e	äu
s	g
t	t

__BEGIN__	__EPS__
i	i
s	s
t	t

__BEGIN__	__EPS__
b	b
e	e
z	ss
e	e
r	r

__BEGIN__	__EPS__
d	d
e	e
i	i
n	n

__BEGIN__	__EPS__
c	k
r	re
u	u
c	__EPS__
z	z
e	i
g	g
e	__EPS__
t	t
e	e

__BEGIN__	__EPS__
i	i
c	c
h	h

__BEGIN__	__EPS__
c	__EPS__
z	z
e	e
i	i
t	t

__BEGIN__	__EPS__
n	n
i	i
e	e

__BEGIN__	__EPS__
g	g
r	r
o	o
i	__EPS__
s	s
z	s
e	e
r	r

__BEGIN__	__EPS__
e	e
r	r
t	t
ö	ö
d	te
t	t

__BEGIN__	__EPS__
v	u
n	n
s	s
z	__EPS__

__BEGIN__	__EPS__
a	a
l	l
l	l
e	e
r	r
l	l
i	i
e	e
b	b
s	s
t	t
e	e

__BEGIN__	__EPS__
v	f
i	ie
l	l

__BEGIN__	__EPS__
d	d
u	u

__BEGIN__	__EPS__
s	s
i	i
e	e

__BEGIN__	__EPS__
g	g
o	o
t	tt

__BEGIN__	__EPS__
g	g
h	__EPS__
e	e
l	li
e	e
u	f
e	e
r	r
t	t

__BEGIN__	__EPS__
n	n
a	ah
m	m
e	e
n	n

__BEGIN__	__EPS__
f	f
r	r
a	a
w	u
e	e
n	n

__BEGIN__	__EPS__
m	m
i	i
t	t

__BEGIN__	__EPS__
m	me
i	i
n	n

__BEGIN__	__EPS__
s	se
i	i
n	n
e	e
n	n

__BEGIN__	__EPS__
n	n
e	eh
m	m
e	e

__BEGIN__	__EPS__
v	v
o	o
l	l
k	k

__BEGIN__	__EPS__
s	s
o	o

__BEGIN__	__EPS__
g	g
u	o
l	l
d	d
e	e
i	ne
n	n

__BEGIN__	__EPS__
g	g
h	__EPS__
e	e
u	b
e	e
n	n

__BEGIN__	__EPS__
n	n
i	i
e	ch
t	t

__BEGIN__	__EPS__
t	d
r	r
v	ü
c	c
h	k
t	t
e	e

__BEGIN__	ge
w	w
o	o
r	r
d	d
e	e
n	n

__BEGIN__	__EPS__
a	a
l	l
l	l
e	e
n	n

__BEGIN__	__EPS__
e	e
r	r

__BEGIN__	__EPS__
a	a
l	l
l	__EPS__
s	s
o	o

__BEGIN__	__EPS__
l	l
i	i
e	e
b	b

__BEGIN__	__EPS__
y	i
m	h
e	m

__BEGIN__	__EPS__
z	z
e	e
r	r
z	ze
a	r
r	r
t	t
e	e

__BEGIN__	__EPS__
a	a
n	n

__BEGIN__	__EPS__
m	m
v	u
z	ss

__BEGIN__	__EPS__
d	d
u	u

__BEGIN__	__EPS__
r	r
e	ec
h	h
t	t
e	__EPS__

__BEGIN__	__EPS__
b	b
i	e
g	g
h	__EPS__
e	i
e	e
r	r
t	d
e	e
n	n

__BEGIN__	__EPS__
v	u
n	n
d	d

__BEGIN__	__EPS__
e	e
r	r

__BEGIN__	__EPS__
a	a
l	l
s	s
o	o

__BEGIN__	__EPS__
g	g
e	__EPS__
l	l
o	a
v	u
b	b
e	e
n	n
t	d

__BEGIN__	__EPS__
b	be
y	i

__BEGIN__	__EPS__
g	g
e	e
d	d
a	a
i	__EPS__
c	c
h	h
t	t
e	e
n	n

__BEGIN__	__EPS__
l	l
v	e
i	u
t	te

__BEGIN__	__EPS__
i	i
s	s
t	t

__BEGIN__	__EPS__
i	u
n	n
d	d

__BEGIN__	__EPS__
z	z
u	u

__BEGIN__	__EPS__
d	d
o	a

__BEGIN__	__EPS__
l	l
e	eh
r	r
e	e

__BEGIN__	__EPS__
s	se
i	i
n	n
e	e
n	n

__BEGIN__	__EPS__
m	me
i	i
n	n
e	e
s	s

__BEGIN__	__EPS__
z	s
e	o
h	gl
a	e
n	ic
t	h

__BEGIN__	__EPS__
a	a
l	l
s	s

__BEGIN__	__EPS__
d	d
a	as
s	s

__BEGIN__	__EPS__
m	m
a	a
n	n

__BEGIN__	__EPS__
s	s
e	ee
l	le

__BEGIN__	__EPS__
g	g
r	r
o	ös
z	s
t	t
e	e

__BEGIN__	__EPS__
m	m
i	i
r	r

__BEGIN__	__EPS__
h	h
o	ö
r	r
e	e

__BEGIN__	__EPS__
d	d
a	a
t	s

__BEGIN__	__EPS__
b	b
e	eg
n	n
u	ü
e	__EPS__
g	g
t	te

__BEGIN__	__EPS__
v	u
n	n
v	v
e	e
r	r
w	w
a	ah
r	r
t	t

__BEGIN__	__EPS__
d	d
e	e
n	n
n	n
e	__EPS__

__BEGIN__	__EPS__
d	d
a	a
z	s

__BEGIN__	__EPS__
k	k
i	i
n	n
t	d

__BEGIN__	__EPS__
v	u
n	n
d	d

__BEGIN__	__EPS__
f	f
r	r
a	a
w	ue
n	n

__BEGIN__	__EPS__
e	e
r	r

__BEGIN__	__EPS__
d	d
a	a
t	s

__BEGIN__	__EPS__
m	m
i	i
t	t

__BEGIN__	__EPS__
t	t
o	ö
t	t
e	e
n	n

__BEGIN__	__EPS__
i	ih
m	m

__BEGIN__	__EPS__
h	h
a	a
n	be

__BEGIN__	a
v	u
z	s
f	f
u	uh
r	r

__BEGIN__	__EPS__
s	s
y	ie

__BEGIN__	__EPS__
s	s
y	ie

__BEGIN__	__EPS__
m	m
a	a
n	n
n	n
e	__EPS__

__BEGIN__	__EPS__
y	ih
n	n

__BEGIN__	__EPS__
s	s
y	ie

__BEGIN__	__EPS__
s	s
o	o
l	ll
d	t
e	e

__BEGIN__	__EPS__
e	e
r	r
c	__EPS__
h	k
a	a
n	n
d	n
t	t

__BEGIN__	__EPS__
v	v
a	a
t	t
i	e
r	r

__BEGIN__	__EPS__
d	d
a	a
s	s
z	__EPS__

__BEGIN__	__EPS__
d	d
e	e
n	n

__BEGIN__	__EPS__
t	__EPS__
z	z
o	u

__BEGIN__	__EPS__
g	g
e	e
s	s
c	c
h	h
r	r
a	e
i	i

__BEGIN__	__EPS__
m	m
i	i
r	r

__BEGIN__	__EPS__
m	me
y	i
n	n
e	e
s	s

__BEGIN__	__EPS__
a	a
n	n

__BEGIN__	__EPS__
o	a
u	u
c	c
h	h

__BEGIN__	__EPS__
i	i
c	c
h	h

__BEGIN__	__EPS__
l	l
e	e
i	i
b	b

__BEGIN__	__EPS__
d	d
e	e
m	m

__BEGIN__	__EPS__
h	h
i	i
e	e
z	ss

__BEGIN__	__EPS__
d	d
e	e
n	n

__BEGIN__	__EPS__
v	v
o	o
n	n

__BEGIN__	__EPS__
h	h
e	a
t	tt
e	e
n	n

__BEGIN__	__EPS__
d	d
a	a
s	s

__BEGIN__	__EPS__
e	e
r	r
s	s
c	c
h	h
r	r
o	a
g	__EPS__
k	k
e	e
n	n

__BEGIN__	__EPS__
i	ih
r	re
n	n

__BEGIN__	__EPS__
g	g
a	ehe
n	n

__BEGIN__	__EPS__
k	k
u	o
m	mmt

__BEGIN__	__EPS__
d	d
i	i
e	e

__BEGIN__	__EPS__
d	t
a	a
c	__EPS__
h	g

__BEGIN__	__EPS__
p	b
e	e
s	s
u	o
n	n
d	d
e	e
r	rs

__BEGIN__	__EPS__
h	h
e	e
r	r
n	ni
e	e
d	d
e	e
r	r

__BEGIN__	__EPS__
d	d
v	u

__BEGIN__	__EPS__
e	e
r	r
t	d
h	__EPS__
r	r
i	e
e	i
c	c
h	h

__BEGIN__	__EPS__
i	i
c	c
h	h

__BEGIN__	__EPS__
g	g
r	r
o	o
z	ss
e	e
n	n

__BEGIN__	__EPS__
v	u
n	n
n	__EPS__
d	d

__BEGIN__	__EPS__
m	m
i	i
c	c
h	h

__BEGIN__	__EPS__
k	k
u	ö
n	n
c	i
k	g

__BEGIN__	__EPS__
n	n
i	ich
t	t

__BEGIN__	__EPS__
h	h
a	a
i	__EPS__
t	t

__BEGIN__	__EPS__
d	d
e	e
r	r

__BEGIN__	__EPS__
p	p
a	a
r	r
a	a
d	d
i	ie
s	s

__BEGIN__	__EPS__
s	s
o	ol
l	l

__BEGIN__	__EPS__
d	d
i	i
e	e

__BEGIN__	__EPS__
a	a
l	l
s	s

__BEGIN__	__EPS__
s	s
e	e
i	i
n	n

__BEGIN__	__EPS__
o	o
w	w
e	eh

__BEGIN__	__EPS__
s	s
i	ie

__BEGIN__	__EPS__
g	g
r	r
o	o
s	s
s	s
e	e

__BEGIN__	__EPS__
v	f
r	r
e	a
g	g
e	__EPS__
t	t
e	e

__BEGIN__	__EPS__
t	t
z	r
e	ä
h	n
e	e
r	__EPS__
n	n

__BEGIN__	__EPS__
h	h
a	ä
n	n
g	g
e	e
n	n

__BEGIN__	__EPS__
w	w
a	e
y	i
n	n
t	t

__BEGIN__	__EPS__
o	o
f	f
f	__EPS__
t	t

__BEGIN__	__EPS__
w	w
a	a
r	r
e	e
n	n

__BEGIN__	__EPS__
g	g
r	r
o	o
s	ss

__BEGIN__	__EPS__
t	t
o	o
d	d

__BEGIN__	__EPS__
d	d
a	as
z	s

__BEGIN__	__EPS__
e	e
s	s

__BEGIN__	__EPS__
a	__EPS__
l	__EPS__
s	s
u	o
s	__EPS__

__BEGIN__	__EPS__
d	d
w	u

__BEGIN__	__EPS__
s	s
y	ie

__BEGIN__	__EPS__
g	g
e	e
w	w
a	ah
r	r
e	e

__BEGIN__	__EPS__
i	i
c	ch

__BEGIN__	__EPS__
m	m
y	i
r	r

__BEGIN__	__EPS__
n	n
i	i
c	c
h	h
t	t

__BEGIN__	__EPS__
d	d
o	a

__BEGIN__	__EPS__
a	a
n	n
s	s
e	e
l	l
m	m
u	__EPS__
s	__EPS__

__BEGIN__	__EPS__
e	ehe

__BEGIN__	__EPS__
v	v
e	e
r	r
g	g
a	a
s	s
s	s

__BEGIN__	__EPS__
d	d
e	e
r	r

__BEGIN__	__EPS__
v	f
r	r
o	a
g	g
e	__EPS__
t	t
e	e

__BEGIN__	__EPS__
d	d
o	a

__BEGIN__	__EPS__
h	h
i	i
n	n

__BEGIN__	__EPS__
s	s
e	e
i	i
n	n
e	e
n	n

__BEGIN__	__EPS__
v	v
o	o
l	l
c	__EPS__
k	k

__BEGIN__	__EPS__
a	a
n	n
c	s
e	e
l	l
m	m
u	__EPS__
s	__EPS__

__BEGIN__	__EPS__
h	h
a	a
s	s
t	t

__BEGIN__	__EPS__
l	l
e	e
b	b
e	e
n	n

__BEGIN__	__EPS__
d	d
a	a
s	s

__BEGIN__	__EPS__
d	d
a	a
s	ss

__BEGIN__	__EPS__
d	d
e	e
m	m

__BEGIN__	__EPS__
e	e
y	i
n	n

__BEGIN__	__EPS__
m	me
y	i
n	n

__BEGIN__	__EPS__
w	w
i	o
l	l
l	l
e	e
n	n

__BEGIN__	__EPS__
h	h
i	ie
z	ss

__BEGIN__	__EPS__
m	m
e	e
i	i
n	n

__BEGIN__	__EPS__
v	u
n	n
d	d

__BEGIN__	__EPS__
s	s
e	e
i	i
n	n
e	e
m	m

__BEGIN__	__EPS__
s	se
y	i
n	n

__BEGIN__	__EPS__
s	s
e	e
n	n
t	t
e	e
n	n
c	c
i	ie

__BEGIN__	__EPS__
g	__EPS__
e	__EPS__
w	w
a	ah
r	r
e	e
r	r

__BEGIN__	__EPS__
m	m
i	i
c	c
h	h

__BEGIN__	__EPS__
m	v
a	i
n	__EPS__
i	e
g	l
e	e
n	n

__BEGIN__	__EPS__
s	s
i	i
t	__EPS__
t	t
z	z
e	e
n	n

__BEGIN__	__EPS__
a	a
u	u
f	f

__BEGIN__	__EPS__
w	w
a	a
s	r

__BEGIN__	__EPS__
z	z
e	u

__BEGIN__	__EPS__
g	g
a	a
n	n
t	__EPS__
z	z

__BEGIN__	__EPS__
d	d
a	a
n	n
n	n

__BEGIN__	__EPS__
b	b
e	e
i	i
n	n

__BEGIN__	__EPS__
k	k
i	i
n	n
d	d

__BEGIN__	__EPS__
a	a
l	l
l	l

__BEGIN__	__EPS__
m	m
e	e
i	i
n	n

__BEGIN__	__EPS__
m	m
a	a
l	l
e	__EPS__

__BEGIN__	__EPS__
k	k
i	i
n	n
d	d

__BEGIN__	__EPS__
e	e
s	s

__BEGIN__	__EPS__
i	i
c	c
h	h

__BEGIN__	__EPS__
o	u
m	m

__BEGIN__	__EPS__
l	l
a	a
u	u
t	t
e	e
r	r

__BEGIN__	__EPS__
g	g
e	e
b	b
i	e
n	n

__BEGIN__	__EPS__
d	d
i	i
e	e

__BEGIN__	__EPS__
f	f
r	r
a	a
u	u
e	e
n	n

__BEGIN__	__EPS__
v	v
e	e
r	r
n	n
a	ah
m	m

__BEGIN__	__EPS__
a	a
l	l
s	s
o	o

__BEGIN__	__EPS__
d	d
i	i
e	e
n	n
e	e
n	n

__BEGIN__	__EPS__
v	u
i	__EPS__
n	n
s	s
e	e
r	r

__BEGIN__	__EPS__
n	n
i	i
c	c
h	h
t	t

__BEGIN__	__EPS__
e	e
r	r

__BEGIN__	__EPS__
s	s
e	e
l	l
b	b
v	e
n	r

__BEGIN__	__EPS__
w	w
o	o

__BEGIN__	__EPS__
k	k
i	i
n	n
t	d

__BEGIN__	__EPS__
s	s
y	ie

__BEGIN__	__EPS__
a	a
n	n
t	t
w	w
o	o
e	__EPS__
r	r
d	t
e	e

__BEGIN__	__EPS__
s	s
p	p
r	r
a	a
c	c
h	h

__BEGIN__	__EPS__
d	d
e	e
r	r

__BEGIN__	__EPS__
m	m
a	a
r	r
i	i
a	a

__BEGIN__	__EPS__
d	d
o	a

__BEGIN__	__EPS__
h	dr
a	ec
r	k

__BEGIN__	__EPS__
m	m
u	u
o	s
s	s
t	t

__BEGIN__	__EPS__
m	v
a	__EPS__
n	i
i	e
c	l
h	e

__BEGIN__	__EPS__
a	a
n	n
s	s
e	e
l	l
m	m
e	__EPS__

__BEGIN__	__EPS__
d	d
a	a
s	s

__BEGIN__	__EPS__
v	v
o	o
r	r

__BEGIN__	__EPS__
h	h
e	ä
n	n
d	d
e	e

__BEGIN__	__EPS__
d	d
e	e
m	m

__BEGIN__	__EPS__
f	f
u	üh
r	r
t	t
e	e
n	n

__BEGIN__	__EPS__
s	s
e	e
i	i
n	n

__BEGIN__	__EPS__
v	u
n	n
d	d

__BEGIN__	__EPS__
s	s
a	e
i	i
l	l

__BEGIN__	__EPS__
v	u
n	n
d	t
e	e
r	r

__BEGIN__	__EPS__
g	g
i	i
e	__EPS__
n	n
g	g
e	e
n	n

__BEGIN__	a
v	u
s	s

__BEGIN__	__EPS__
e	ei
n	n

__BEGIN__	__EPS__
g	g
r	r
o	o
s	s
s	s
e	e
r	r

__BEGIN__	__EPS__
a	a
n	n
s	s
h	__EPS__
e	e
l	l
m	m

__BEGIN__	__EPS__
v	f
i	e
g	i
e	__EPS__
n	nd
s	s
c	c
h	h
a	a
f	f
f	__EPS__
t	t

__BEGIN__	__EPS__
w	w
e	e
i	i
b	b

__BEGIN__	__EPS__
w	w
i	il
l	l

__BEGIN__	__EPS__
i	i
s	s
t	t

__BEGIN__	__EPS__
d	d
i	i
e	e

__BEGIN__	__EPS__
v	v
o	o
n	n

