__BEGIN__	__EPS__
w	w
e	ä
r	re

__BEGIN__	__EPS__
d	d
o	a

__BEGIN__	__EPS__
m	m
i	i
t	t

__BEGIN__	__EPS__
s	s
a	a
g	g
h	__EPS__
e	e

__BEGIN__	__EPS__
w	w
i	i
e	__EPS__
s	s
s	s
e	e
n	n

__BEGIN__	__EPS__
k	k
i	i
n	n
t	d

__BEGIN__	__EPS__
v	u
n	n
d	d

__BEGIN__	__EPS__
d	d
u	u

__BEGIN__	__EPS__
w	w
a	a
s	s

__BEGIN__	__EPS__
i	ih
n	n

__BEGIN__	__EPS__
e	e
s	s

__BEGIN__	__EPS__
m	m
i	i
c	c
h	h

__BEGIN__	__EPS__
d	d
u	u

__BEGIN__	__EPS__
s	s
y	ie

__BEGIN__	__EPS__
h	h
e	__EPS__
b	a
b	b
e	e
n	n

__BEGIN__	__EPS__
c	__EPS__
z	z
u	o
g	g
e	e
n	n

__BEGIN__	__EPS__
d	d
o	a

__BEGIN__	__EPS__
c	k
r	r
v	e
i	u
t	z
z	i
g	g
o	__EPS__
t	t
e	e
n	n

__BEGIN__	__EPS__
m	m
a	a
n	nn

__BEGIN__	__EPS__
s	s
y	ie

__BEGIN__	__EPS__
d	d
a	a
z	ss

__BEGIN__	__EPS__
k	k
o	o
m	mm
e	e
n	n

__BEGIN__	__EPS__
d	d
o	a

__BEGIN__	__EPS__
y	ih
m	m

__BEGIN__	__EPS__
i	ih
m	m

__BEGIN__	__EPS__
d	d
e	e
n	n

__BEGIN__	__EPS__
m	m
e	e
i	i
n	n
e	e
n	n

__BEGIN__	__EPS__
w	w
a	a
s	s

__BEGIN__	__EPS__
d	d
a	a
s	s
z	s

__BEGIN__	__EPS__
m	me
y	i
m	n
e	em

__BEGIN__	__EPS__
d	d
i	i
c	c
h	h

__BEGIN__	__EPS__
s	s
p	p
r	r
a	a
c	c
h	h

__BEGIN__	__EPS__
e	e
i	i
n	n
e	e
n	n

__BEGIN__	__EPS__
e	n
n	icht

__BEGIN__	__EPS__
s	s
o	o
l	ll
t	t
e	e
s	s
t	t

__BEGIN__	__EPS__
v	v
o	o
n	n

__BEGIN__	__EPS__
e	nich
n	t

__BEGIN__	__EPS__
a	a
l	l
l	l
e	e
z	s

__BEGIN__	__EPS__
v	u
n	n
d	d

__BEGIN__	__EPS__
g	g
a	a
b	b

__BEGIN__	__EPS__
t	t
a	a
f	f
e	e
l	l
n	n

__BEGIN__	__EPS__
a	a
l	l
l	l

__BEGIN__	__EPS__
a	a
m	m
e	e
n	n

__BEGIN__	__EPS__
s	s
o	o

__BEGIN__	__EPS__
s	s
e	e
i	i
n	n

__BEGIN__	ge
f	f
u	u
n	n
d	d
e	e
n	n

__BEGIN__	__EPS__
h	h
e	e
r	r
z	z
e	__EPS__

__BEGIN__	__EPS__
i	i
c	c
h	h

__BEGIN__	__EPS__
n	n
i	ich
t	t

__BEGIN__	__EPS__
l	l
a	a
n	n
t	d

__BEGIN__	__EPS__
a	a
l	l
s	s

__BEGIN__	__EPS__
d	d
a	a
s	ss

__BEGIN__	n
e	ich
n	t

__BEGIN__	__EPS__
d	d
i	i
e	e

__BEGIN__	__EPS__
g	g
e	e
b	b
e	e

__BEGIN__	__EPS__
e	e
r	r
w	w
e	e
c	c
k	k
e	__EPS__
t	t
e	e

__BEGIN__	__EPS__
p	p
a	a
r	r
a	a
d	d
e	__EPS__
i	i
s	e
z	s

__BEGIN__	__EPS__
v	v
o	o
r	r

__BEGIN__	__EPS__
d	d
a	as
s	s

__BEGIN__	__EPS__
w	w
i	i
e	e

__BEGIN__	__EPS__
h	h
e	e
r	r
e	r

__BEGIN__	__EPS__
w	w
a	a
s	r

__BEGIN__	__EPS__
a	a
l	l
s	s
o	o

__BEGIN__	__EPS__
a	e
i	i
n	n

__BEGIN__	__EPS__
s	s
o	o

__BEGIN__	__EPS__
o	o
b	b

__BEGIN__	__EPS__
p	p
h	f
e	e
n	n
n	n
i	i
g	g

__BEGIN__	__EPS__
e	e
y	i
n	n

__BEGIN__	__EPS__
d	d
a	a

__BEGIN__	__EPS__
g	__EPS__
e	__EPS__
h	h
i	i
e	e
z	ss

__BEGIN__	__EPS__
t	t
u	u
c	c
h	h

__BEGIN__	__EPS__
m	m
e	e
n	n
s	s
c	c
h	h
e	e
n	n

__BEGIN__	__EPS__
m	m
i	i
c	c
h	h

__BEGIN__	__EPS__
f	f
r	r
a	a
g	g

__BEGIN__	__EPS__
d	d
a	a
p	b
e	e
y	i

__BEGIN__	__EPS__
g	g
a	a
r	r

__BEGIN__	__EPS__
d	d
i	i
c	c
k	k
e	__EPS__

__BEGIN__	__EPS__
i	j
a	am
m	m
e	e
r	r

__BEGIN__	__EPS__
l	l
e	e
u	u
i	__EPS__
t	t
e	e

__BEGIN__	__EPS__
w	w
e	ä
r	r
e	e

__BEGIN__	__EPS__
i	ih
n	n

__BEGIN__	__EPS__
v	b
n	i
z	s

__BEGIN__	__EPS__
s	s
e	ee
l	le

__BEGIN__	__EPS__
d	d
a	a
s	ss

__BEGIN__	__EPS__
l	l
e	e
i	i
c	c
h	h
n	n
a	a
m	m

__BEGIN__	__EPS__
w	w
a	a
r	r
t	d

__BEGIN__	__EPS__
s	s
y	ie

__BEGIN__	__EPS__
g	g
n	n
a	a
d	d
e	e

__BEGIN__	__EPS__
k	k
i	i
n	n
t	d

__BEGIN__	__EPS__
m	m
i	i
t	t
n	n
i	i
c	c
h	h
t	t
e	en

__BEGIN__	__EPS__
g	g
r	r
o	o
s	s
s	s
e	e
n	n

__BEGIN__	__EPS__
v	u
n	n
d	d

__BEGIN__	__EPS__
g	g
a	e
y	i
s	s
l	s
e	el
n	n

__BEGIN__	__EPS__
s	s
p	p
r	r
a	a
c	c
h	h

__BEGIN__	__EPS__
w	w
i	i
s	s
s	s
e	e
n	n
t	__EPS__

__BEGIN__	__EPS__
v	u
n	n
d	d

__BEGIN__	__EPS__
m	m
e	e
n	n
s	s
c	c
h	h
e	e
n	n

__BEGIN__	__EPS__
w	w
a	ä
r	r
r	e

__BEGIN__	__EPS__
g	__EPS__
e	__EPS__
t	t
r	r
o	ö
e	__EPS__
s	s
t	t
e	e
n	n

__BEGIN__	__EPS__
g	g
e	e
s	s
u	u
n	n
t	d

__BEGIN__	__EPS__
l	l
i	i
e	e
b	b

__BEGIN__	__EPS__
r	r
e	e
g	g
e	e
l	l

__BEGIN__	__EPS__
.	s
v	echs
i	t
.	e

__BEGIN__	__EPS__
e	e
i	i
n	n
e	e
n	n

__BEGIN__	__EPS__
v	u
n	n
d	d

__BEGIN__	__EPS__
o	u
r	r
l	l
o	a
e	__EPS__
p	u
p	b

__BEGIN__	__EPS__
c	g
a	o
l	l
u	g
a	a
r	t
i	h
e	a

__BEGIN__	__EPS__
d	d
o	a

__BEGIN__	__EPS__
a	a
n	n

__BEGIN__	__EPS__
g	g
e	e
v	f
u	ü
e	h
r	r
e	__EPS__
t	t

__BEGIN__	__EPS__
b	b
e	e
g	g
a	a
n	n
g	g
e	e
n	n

__BEGIN__	__EPS__
t	t
r	r
i	i
n	n
c	__EPS__
k	k
e	e
n	n

__BEGIN__	__EPS__
k	k
o	ö
n	n
y	i
n	__EPS__
c	__EPS__
k	g

__BEGIN__	__EPS__
d	d
e	e
n	n

__BEGIN__	__EPS__
s	s
y	ie

__BEGIN__	__EPS__
a	a
n	n

__BEGIN__	__EPS__
s	s
y	ie

__BEGIN__	__EPS__
m	m
a	a
g	g
t	d

__BEGIN__	__EPS__
m	me
i	i
n	n
e	e
n	n

__BEGIN__	__EPS__
s	a
u	n
u	st
e	ä
r	n
l	d
i	i
c	g
h	__EPS__

__BEGIN__	__EPS__
m	me
i	i
n	n

__BEGIN__	__EPS__
m	m
e	e
i	i
n	n
e	e
n	m

__BEGIN__	__EPS__
s	sch
w	w
e	e
r	r
l	l
i	i
c	c
h	h
e	e
n	n

__BEGIN__	__EPS__
k	k
r	r
a	a
f	f
f	__EPS__
t	t

__BEGIN__	__EPS__
i	u
n	n
d	d

__BEGIN__	__EPS__
d	d
y	ie

__BEGIN__	__EPS__
i	i
c	c
h	h

__BEGIN__	__EPS__
c	k
l	l
a	a
g	g
e	__EPS__
t	t
e	e
n	n

__BEGIN__	__EPS__
d	d
a	a
r	r
u	u
m	m
b	__EPS__

__BEGIN__	__EPS__
n	n
a	a
t	t
ü	ü
r	r
l	l
i	i
c	c
h	h
e	e
r	r

__BEGIN__	__EPS__
w	w
a	a
i	__EPS__
r	r
u	u
m	m
b	__EPS__

__BEGIN__	__EPS__
d	d
a	a
s	ss

__BEGIN__	__EPS__
l	l
e	e
ü	u
t	t
e	e
n	n

__BEGIN__	__EPS__
h	__EPS__
e	e
r	r

__BEGIN__	__EPS__
v	u
n	n
d	d

__BEGIN__	__EPS__
c	k
h	__EPS__
i	i
n	n
d	d
e	e
s	s

__BEGIN__	__EPS__
d	d
e	e
n	n

__BEGIN__	__EPS__
f	v
u	o
r	r

__BEGIN__	__EPS__
s	e
u	i
n	n
d	z
e	e
r	__EPS__
l	l
i	__EPS__
c	__EPS__
h	n

__BEGIN__	__EPS__
i	i
s	s
t	t

__BEGIN__	__EPS__
d	d
e	e
n	n

__BEGIN__	__EPS__
a	a
n	n

__BEGIN__	__EPS__
n	n
a	a
c	c
h	h
t	t

__BEGIN__	__EPS__
v	v
e	e
r	r
b	b
u	u
n	n
d	d
e	e
n	n

__BEGIN__	__EPS__
v	u
n	n
d	d

__BEGIN__	__EPS__
n	n
u	un

__BEGIN__	__EPS__
i	i
n	n

__BEGIN__	__EPS__
s	s
o	oh
n	n

__BEGIN__	__EPS__
v	v
o	o
n	n

__BEGIN__	__EPS__
v	u
n	n
d	d

__BEGIN__	__EPS__
a	a
l	l
s	s
o	o

__BEGIN__	__EPS__
d	d
e	e
i	i
n	n

__BEGIN__	__EPS__
g	__EPS__
e	a
m	l
e	__EPS__
y	__EPS__
n	__EPS__
i	__EPS__
c	__EPS__
l	l
i	__EPS__
c	__EPS__
h	__EPS__
e	e
n	__EPS__

__BEGIN__	__EPS__
e	e
r	r

__BEGIN__	__EPS__
i	u
n	n
d	d

__BEGIN__	__EPS__
c	c
e	e
n	n
t	t
u	u
r	r
i	i
o	o

__BEGIN__	__EPS__
v	u
n	n
d	d

__BEGIN__	__EPS__
d	d
e	e
m	m

__BEGIN__	__EPS__
d	d
o	a

__BEGIN__	__EPS__
a	o
d	d
e	e
r	r

__BEGIN__	__EPS__
w	w
o	o
l	ll
t	t
e	e
n	n

__BEGIN__	__EPS__
v	u
n	n
d	d

__BEGIN__	__EPS__
k	k
ü	ö
n	n
i	i
g	g

__BEGIN__	__EPS__
h	h
o	a
v	u
b	p
e	__EPS__
t	t

__BEGIN__	__EPS__
i	ih
n	n

__BEGIN__	__EPS__
h	h
e	e
r	r
e	r

__BEGIN__	__EPS__
d	d
o	a

__BEGIN__	__EPS__
a	a
l	l
l	l
e	e

__BEGIN__	__EPS__
d	d
o	a

__BEGIN__	__EPS__
v	v
o	o
n	n

__BEGIN__	__EPS__
v	v
o	o
r	r

__BEGIN__	__EPS__
p	p
s	s
a	a
l	l
t	m
e	__EPS__
r	__EPS__

__BEGIN__	__EPS__
d	d
i	i
r	r

__BEGIN__	__EPS__
s	s
v	oh
n	n

__BEGIN__	__EPS__
v	v
e	e
r	r
s	s
a	a
/	__EPS__
/	__EPS__
g	g
e	e
n	n

__BEGIN__	__EPS__
s	s
a	e
c	t
z	z
t	t
e	e
n	n

__BEGIN__	__EPS__
v	u
n	n
d	d

__BEGIN__	__EPS__
t	t
o	ö
t	t
e	e
n	n

__BEGIN__	__EPS__
s	sc
h	h
r	r
v	__EPS__
i	i
w	__EPS__
e	e
n	n

__BEGIN__	__EPS__
d	d
o	a
e	__EPS__

__BEGIN__	__EPS__
z	z
e	u

__BEGIN__	__EPS__
g	g
e	e
s	s
e	eh
y	e
n	n

__BEGIN__	__EPS__
a	a
r	r
m	m

__BEGIN__	__EPS__
z	z
e	u

__BEGIN__	__EPS__
k	k
i	i
n	n
t	d

__BEGIN__	__EPS__
y	j
e	e

__BEGIN__	__EPS__
i	j
o	o
h	ha
-	nne
s	s

__BEGIN__	__EPS__
d	d
y	i
r	r

__BEGIN__	__EPS__
g	g
e	e
y	i
s	ss
e	e
l	l
n	n

__BEGIN__	__EPS__
b	b
e	e
g	g
r	r
a	a
b	b
e	e
n	n

__BEGIN__	__EPS__
l	l
a	a
u	u
t	t
e	e
r	r

__BEGIN__	__EPS__
k	k
o	ö
n	n
i	i
g	g

__BEGIN__	__EPS__
t	t
o	o
d	d

__BEGIN__	__EPS__
v	u
n	n
d	d

__BEGIN__	__EPS__
m	m
i	i
t	t

__BEGIN__	__EPS__
k	k
r	r
e	e
w	u
c	__EPS__
z	z

__BEGIN__	__EPS__
g	g
e	e
i	i
s	s
t	t

__BEGIN__	__EPS__
n	n
i	i
e	ch
t	t

__BEGIN__	__EPS__
h	h
e	e
r	r
r	r
e	e
n	n

__BEGIN__	__EPS__
w	w
a	a
n	nn

__BEGIN__	__EPS__
i	j
u	u
d	d
e	e
n	n

__BEGIN__	__EPS__
c	k
r	r
u	e
i	u
t	z
z	i
g	g
e	e
n	n

__BEGIN__	__EPS__
b	b
l	l
i	i
j	e
u	b
e	e
n	n

__BEGIN__	__EPS__
s	se
i	i
n	n

__BEGIN__	__EPS__
k	k
r	r
e	e
ü	u
t	__EPS__
z	z

__BEGIN__	__EPS__
s	s
i	i
e	e

__BEGIN__	__EPS__
s	s
t	t
e	ehe
n	n

__BEGIN__	d
u	u

__BEGIN__	__EPS__
d	d
e	e
n	n

__BEGIN__	__EPS__
n	n
o	o
c	c
h	h

__BEGIN__	__EPS__
z	z
w	__EPS__
a	a
r	r
t	t
t	__EPS__
e	e

__BEGIN__	__EPS__
h	h
e	e
r	r
c	z
z	g
e	e
l	l
i	i
e	e
b	bt
e	e

__BEGIN__	__EPS__
y	j
e	e
m	m
a	a
n	n
t	d

__BEGIN__	__EPS__
m	m
i	i
t	t

__BEGIN__	__EPS__
s	s
a	a
z	s
z	s

__BEGIN__	__EPS__
d	de
i	i
n	n
e	e
r	r

__BEGIN__	__EPS__
a	a
b	b
e	__EPS__

__BEGIN__	__EPS__
k	g
e	e
g	g
e	e
n	n

__BEGIN__	__EPS__
e	e
i	i
n	n
e	e
n	n

__BEGIN__	__EPS__
e	e
r	r
l	l
a	o
s	s
c	c
h	h

__BEGIN__	__EPS__
m	m
i	i
t	t

__BEGIN__	__EPS__
g	g
e	e
s	s
i	eh
e	e
n	n

__BEGIN__	__EPS__
v	v
e	e
r	r
s	s
u	ö
e	h
n	n
t	t

__BEGIN__	__EPS__
n	n
i	i
m	mm
e	e
r	r

__BEGIN__	__EPS__
d	t
o	o
d	d
e	e
s	s

__BEGIN__	__EPS__
n	n
i	i
t	ch
t	t

__BEGIN__	__EPS__
t	t
e	e
n	m
p	p
e	e
l	l

__BEGIN__	__EPS__
i	i
s	s
t	t

__BEGIN__	__EPS__
k	k
i	i
n	n
d	d

__BEGIN__	__EPS__
g	g
e	e
r	r
e	e
c	c
h	h
t	t
e	e
n	n

__BEGIN__	__EPS__
k	k
i	i
n	n
t	d

__BEGIN__	__EPS__
i	j
e	e
r	r
u	u
s	s
a	a
l	l
e	e
m	m

__BEGIN__	__EPS__
e	e
r	r

__BEGIN__	__EPS__
l	l
a	a
n	n
g	g
e	e

__BEGIN__	__EPS__
s	s
i	ie

__BEGIN__	__EPS__
h	h
e	e
r	r
e	r

__BEGIN__	__EPS__
c	k
l	l
a	a
r	r

__BEGIN__	__EPS__
e	e
w	w
i	i
g	g
e	e
r	r

__BEGIN__	__EPS__
v	v
o	e
r	r
g	g
e	e
b	b
i	e
n	n

__BEGIN__	__EPS__
b	b
o	o
t	t

__BEGIN__	__EPS__
d	d
a	a
t	s

__BEGIN__	__EPS__
f	f
r	re
i	i
d	t
a	a
c	__EPS__
h	g

__BEGIN__	__EPS__
g	g
o	o
t	tte
s	s
s	s
u	oh
n	n

__BEGIN__	__EPS__
d	d
e	e
n	n

__BEGIN__	__EPS__
e	e
y	i
n	n
i	i
g	g
e	e
n	n

__BEGIN__	__EPS__
v	u
n	n
d	d

__BEGIN__	__EPS__
y	ih
r	r

__BEGIN__	__EPS__
e	e
i	i
n	n
e	e
n	n

__BEGIN__	__EPS__
i	i
c	c
h	h

__BEGIN__	__EPS__
i	i
c	c
h	h

__BEGIN__	__EPS__
d	d
i	i
e	e

__BEGIN__	__EPS__
d	d
e	e
r	r

__BEGIN__	__EPS__
m	m
i	i
t	t

__BEGIN__	__EPS__
s	s
o	o

__BEGIN__	__EPS__
d	d
e	e
r	r

__BEGIN__	__EPS__
v	u
n	n
d	d

__BEGIN__	__EPS__
t	t
e	a
t	t
e	e
n	n

__BEGIN__	__EPS__
v	v
o	o
n	n

__BEGIN__	__EPS__
v	f
r	re
o	u
d	d
e	e

__BEGIN__	__EPS__
i	i
c	c
h	h

__BEGIN__	d
u	u

__BEGIN__	__EPS__
w	w
e	e
r	r
f	__EPS__
f	f
e	e
n	n

__BEGIN__	__EPS__
g	g
a	a
r	r

__BEGIN__	__EPS__
s	s
o	o

__BEGIN__	__EPS__
e	e
r	r

__BEGIN__	__EPS__
v	v
o	o
r	r

__BEGIN__	__EPS__
a	a
l	l
l	l
e	e
y	i
n	n

__BEGIN__	__EPS__
d	d
i	i
e	e

__BEGIN__	__EPS__
i	i
c	c
h	h

__BEGIN__	__EPS__
m	m
i	i
r	r

__BEGIN__	__EPS__
d	d
i	i
e	e

__BEGIN__	__EPS__
m	m
i	i
t	t

__BEGIN__	__EPS__
t	__EPS__
z	z
o	u

__BEGIN__	__EPS__
a	a
n	n
s	s
h	__EPS__
e	e
l	l
m	m
u	__EPS__
s	__EPS__

__BEGIN__	__EPS__
d	d
a	a
s	ss

__BEGIN__	__EPS__
s	s
i	ie

__BEGIN__	__EPS__
i	ih
n	n

__BEGIN__	__EPS__
h	e
e	r

__BEGIN__	__EPS__
p	b
a	a
l	l
d	d

__BEGIN__	__EPS__
b	b
e	e
w	w
e	e
y	i
n	n
e	__EPS__
n	__EPS__
e	e
n	n
:	__EPS__

__BEGIN__	__EPS__
w	w
a	a
r	r
t	d

__BEGIN__	__EPS__
i	j
e	e
r	r
u	u
s	s
a	a
l	l
e	e
m	m

__BEGIN__	__EPS__
n	n
a	ah
m	m
e	e
n	n
d	__EPS__

__BEGIN__	__EPS__
s	s
i	i
e	e

__BEGIN__	__EPS__
t	z
e	u

__BEGIN__	__EPS__
i	j
h	__EPS__
e	e
s	s
u	u
n	s

__BEGIN__	__EPS__
z	z
e	u

__BEGIN__	__EPS__
d	d
i	i
e	e

__BEGIN__	__EPS__
w	w
u	ü
e	__EPS__
s	s
s	st
i	e
s	s
t	t

__BEGIN__	__EPS__
e	e
r	r

__BEGIN__	__EPS__
n	n
a	a
c	c
h	h
t	t

__BEGIN__	__EPS__
n	n
i	i
c	c
h	h
t	t

__BEGIN__	__EPS__
e	e
i	i
n	n

__BEGIN__	__EPS__
d	d
o	a

__BEGIN__	__EPS__
m	m
i	i
r	r

__BEGIN__	__EPS__
b	b
e	e
g	g
r	r
a	a
b	b
e	e
n	n

__BEGIN__	__EPS__
v	v
o	o
n	n

__BEGIN__	__EPS__
s	s
y	ie

__BEGIN__	__EPS__
k	k
i	i
n	n
t	d

__BEGIN__	__EPS__
d	d
r	r
e	e
y	i
e	e
r	r
h	l
a	e
n	i
d	__EPS__
e	__EPS__

__BEGIN__	__EPS__
c	k
r	r
e	e
u	u
t	__EPS__
z	z

__BEGIN__	__EPS__
e	e
r	r
c	k
h	__EPS__
a	a
n	nn
t	te

__BEGIN__	__EPS__
d	d
a	a

__BEGIN__	__EPS__
b	b
i	i
s	s
t	t

__BEGIN__	__EPS__
r	r
a	e
i	i
n	n
e	e

__BEGIN__	__EPS__
h	e
i	__EPS__
e	r

__BEGIN__	__EPS__
r	r
e	e
i	i
c	c
h	h

__BEGIN__	__EPS__
b	b
e	e
w	w
e	e
y	i
n	n
e	e
n	n

__BEGIN__	__EPS__
d	d
e	e
s	s

__BEGIN__	__EPS__
e	u
n	nd

__BEGIN__	__EPS__
b	b
e	e
g	g
r	r
a	a
b	b
e	e
n	n

__BEGIN__	__EPS__
h	__EPS__
e	e
r	r

__BEGIN__	__EPS__
h	h
e	e
r	rr
l	l
i	i
c	c
h	h
e	e

__BEGIN__	__EPS__
e	nich
n	t

__BEGIN__	__EPS__
d	d
i	i
e	e

__BEGIN__	__EPS__
a	a
l	l
z	s

__BEGIN__	__EPS__
d	d
i	i
e	e

__BEGIN__	__EPS__
o	o
b	b

__BEGIN__	__EPS__
z	ze
u	r
p	b
r	r
a	a
c	c
h	h
e	e
n	n

__BEGIN__	__EPS__
p	b
l	l
u	u
t	t

__BEGIN__	__EPS__
v	u
n	n
d	d

__BEGIN__	__EPS__
s	s
e	e
l	l
b	b
e	e
r	r

__BEGIN__	__EPS__
h	h
a	a
t	t
t	t
e	e
n	n

__BEGIN__	__EPS__
d	d
e	e
r	r

__BEGIN__	__EPS__
d	d
a	a
z	s

__BEGIN__	__EPS__
s	s
e	e
c	c
h	h
s	s
t	t
e	e
n	n

__BEGIN__	__EPS__
d	d
i	ie
s	s
e	e
r	r

__BEGIN__	__EPS__
d	d
e	e
n	n

__BEGIN__	__EPS__
d	d
e	e
i	i
n	n
e	e
r	r

__BEGIN__	__EPS__
w	w
a	a
t	s

__BEGIN__	__EPS__
a	a
l	l
s	s
e	__EPS__

__BEGIN__	__EPS__
t	t
o	o
t	t
t	__EPS__

__BEGIN__	__EPS__
m	m
e	eh
r	r

__BEGIN__	__EPS__
e	e
r	r

__BEGIN__	d
u	u

__BEGIN__	__EPS__
d	d
a	a
z	s

__BEGIN__	__EPS__
a	a
b	b
g	g
e	e
z	z
o	o
g	g
e	e
n	n

__BEGIN__	__EPS__
e	e
n	n
t	t
b	b
l	l
o	ö
e	s
t	__EPS__
z	s
e	e
n	n
t	d

__BEGIN__	__EPS__
d	d
i	i
e	e

__BEGIN__	__EPS__
a	a
n	n
s	s
h	__EPS__
e	e
l	l
m	m
e	__EPS__

__BEGIN__	__EPS__
d	d
a	a
r	__EPS__
n	n
a	a
c	c
h	h

__BEGIN__	__EPS__
h	h
a	a
i	__EPS__
t	t

__BEGIN__	__EPS__
d	d
a	a
z	ss

__BEGIN__	__EPS__
i	ih
n	ne
s	n

__BEGIN__	__EPS__
d	d
-	__EPS__
n	n
e	e

__BEGIN__	__EPS__
v	u
n	n
s	s
c	c
h	h
u	u
l	l
t	d

__BEGIN__	__EPS__
b	b
a	a
t	t
t	__EPS__
e	e
n	n
d	__EPS__

__BEGIN__	__EPS__
g	g
e	e
b	b
e	e
n	n

__BEGIN__	__EPS__
a	a
l	l
l	l
e	e
r	r

__BEGIN__	__EPS__
i	j
e	e
r	r
u	u
s	s
a	a
l	l
e	e
m	m

__BEGIN__	__EPS__
d	d
i	i
e	e

__BEGIN__	__EPS__
h	h
a	a
u	u
s	s

__BEGIN__	__EPS__
h	h
a	e
i	i
s	s
z	s
t	t

__BEGIN__	__EPS__
d	d
y	i
r	r

__BEGIN__	__EPS__
g	g
e	e
t	t
a	a
n	n

__BEGIN__	__EPS__
w	w
i	i
l	lls
t	t

__BEGIN__	__EPS__
i	ih
n	n

__BEGIN__	__EPS__
d	d
o	a

__BEGIN__	__EPS__
s	sch
w	w
e	e
s	s
t	t
e	e
r	r

__BEGIN__	__EPS__
d	d
o	a

__BEGIN__	__EPS__
d	d
o	a

__BEGIN__	__EPS__
m	m
i	i
t	t

__BEGIN__	__EPS__
d	d
a	a
s	ss

__BEGIN__	__EPS__
d	d
a	as
z	s

__BEGIN__	__EPS__
i	j
h	__EPS__
e	e
s	s
u	u
m	s

__BEGIN__	__EPS__
d	d
i	i
e	e

__BEGIN__	__EPS__
w	w
e	ä
r	re

__BEGIN__	__EPS__
l	l
a	a
s	s
z	s
e	e
n	n

__BEGIN__	__EPS__
v	u
n	n
d	d

__BEGIN__	__EPS__
r	r
e	ec
h	h
t	t
e	e
n	n

__BEGIN__	__EPS__
d	d
o	a

__BEGIN__	__EPS__
d	d
i	i
e	e

__BEGIN__	__EPS__
i	i
s	s
t	t

__BEGIN__	__EPS__
d	d
a	a
s	ss

__BEGIN__	__EPS__
p	b
u	a
n	n
t	d
e	e
n	n

__BEGIN__	__EPS__
i	i
c	c
h	h

__BEGIN__	__EPS__
g	g
v	u
t	t
e	e
s	s

__BEGIN__	__EPS__
s	k
i	r
e	a
c	n
h	k
e	e
n	n

__BEGIN__	__EPS__
i	ih
m	m

__BEGIN__	__EPS__
d	d
e	e
m	m

__BEGIN__	__EPS__
d	d
a	a
s	ss

__BEGIN__	__EPS__
g	g
r	r
o	o
i	__EPS__
s	s
s	s
e	e
n	n

__BEGIN__	__EPS__
m	m
e	e
i	i
n	n
e	e
m	m

__BEGIN__	__EPS__
s	se
y	i
n	n
r	e
e	r

__BEGIN__	__EPS__
m	m
a	a
n	n

__BEGIN__	__EPS__
g	g
e	e
s	s
c	c
h	hi
e	e
i	h
t	t

__BEGIN__	__EPS__
c	__EPS__
z	z
w	u

__BEGIN__	__EPS__
e	e
r	r
b	b
a	a
e	__EPS__
r	r
m	me
d	n

__BEGIN__	__EPS__
d	d
e	e
i	i
n	n

__BEGIN__	__EPS__
s	s
a	ol
l	l

__BEGIN__	__EPS__
a	a
u	u
c	c
h	h

__BEGIN__	__EPS__
n	n
a	a
c	c
h	h

__BEGIN__	__EPS__
d	d
e	e
m	m

__BEGIN__	__EPS__
e	u
n	nd

__BEGIN__	__EPS__
s	s
p	p
r	r
a	a
c	c
h	h

__BEGIN__	__EPS__
d	d
e	e
m	m

__BEGIN__	__EPS__
d	d
e	e
m	m

__BEGIN__	__EPS__
n	n
i	ich
t	t

__BEGIN__	__EPS__
i	i
n	n

__BEGIN__	__EPS__
h	h
o	a
u	u
p	p
t	t

__BEGIN__	__EPS__
k	k
i	i
n	n
d	d

__BEGIN__	__EPS__
a	a
n	n

__BEGIN__	__EPS__
d	ta
u	u
s	s
e	e
n	n
t	d

__BEGIN__	__EPS__
d	d
e	e
r	r

__BEGIN__	__EPS__
n	n
i	i
c	c
h	h
t	t

__BEGIN__	__EPS__
s	se
y	i
n	n
e	e

__BEGIN__	__EPS__
a	a
l	l
l	l
e	e

__BEGIN__	__EPS__
e	e
r	r

__BEGIN__	__EPS__
h	h
e	e
r	r
o	o
d	d
e	e
s	s

__BEGIN__	__EPS__
s	s
y	ie

__BEGIN__	__EPS__
d	t
o	ö
e	__EPS__
d	t
e	e
n	n

__BEGIN__	__EPS__
d	d
i	i
e	e

__BEGIN__	__EPS__
p	b
r	r
a	a
c	c
h	h
t	t
e	e
n	n

__BEGIN__	__EPS__
w	w
a	a
n	nn

__BEGIN__	__EPS__
i	i
n	n

__BEGIN__	__EPS__
s	s
y	ie

__BEGIN__	__EPS__
p	b
r	r
u	u
d	d
e	e
r	r

__BEGIN__	__EPS__
d	d
e	e
n	n

__BEGIN__	__EPS__
v	v
o	o
n	n

__BEGIN__	__EPS__
f	f
l	l
v	u
e	__EPS__
c	c
h	h
w	w
a	o
r	r
t	t

__BEGIN__	__EPS__
c	__EPS__
z	z
w	u

__BEGIN__	__EPS__
e	e
r	r

__BEGIN__	__EPS__
k	k
i	i
n	n
t	d

__BEGIN__	__EPS__
w	w
a	a
z	r

__BEGIN__	__EPS__
i	j
a	a
c	c
o	o
b	b
u	u
s	s

__BEGIN__	__EPS__
v	u
n	n
d	d

__BEGIN__	__EPS__
v	u
n	n
d	d

__BEGIN__	__EPS__
d	d
i	i
c	c
h	h

__BEGIN__	__EPS__
w	w
a	ah
r	r
h	h
a	e
i	i
t	t

__BEGIN__	__EPS__
w	w
e	a
r	r

__BEGIN__	__EPS__
k	k
o	om
m	m
e	e
n	n

__BEGIN__	__EPS__
z	z
e	ä
r	r
t	t
e	__EPS__
c	__EPS__
l	l
i	i
c	c
h	h
e	__EPS__

__BEGIN__	__EPS__
g	g
i	i
e	__EPS__
n	n
g	g

__BEGIN__	__EPS__
s	s
c	c
h	h
a	e
i	i
d	de

__BEGIN__	__EPS__
s	s
e	e
l	l
b	b
e	e
r	r

__BEGIN__	__EPS__
d	d
e	e
r	r

__BEGIN__	__EPS__
s	s
v	i
i	e

__BEGIN__	__EPS__
s	s
v	i
i	e

__BEGIN__	__EPS__
d	d
i	i
r	r

__BEGIN__	__EPS__
g	v
e	er
t	t
r	r
u	a
w	u
i	__EPS__
t	t

__BEGIN__	__EPS__
d	d
a	as
z	s

__BEGIN__	__EPS__
d	d
o	a

__BEGIN__	__EPS__
v	f
r	r
o	a
w	u
e	__EPS__

__BEGIN__	__EPS__
i	j
a	a
m	mm
e	e
r	r

__BEGIN__	__EPS__
a	a
n	n
s	s
h	__EPS__
e	e
l	l
m	m
u	__EPS__
s	__EPS__

__BEGIN__	__EPS__
g	g
e	e
l	l
e	e
i	i
t	t

__BEGIN__	__EPS__
d	d
e	e
n	n

__BEGIN__	__EPS__
w	w
a	a
n	n
t	de

__BEGIN__	__EPS__
v	u
n	n
d	d

__BEGIN__	__EPS__
s	s
c	c
h	h
a	ä
c	c
h	h
e	e
r	r

__BEGIN__	__EPS__
h	h
e	e
r	rr

__BEGIN__	__EPS__
s	s
o	o

__BEGIN__	__EPS__
d	t
a	a
g	g
e	e

__BEGIN__	__EPS__
m	m
a	a
n	n
i	i
g	g
e	e
r	r

__BEGIN__	__EPS__
d	t
e	ä
d	t
e	e
n	n

__BEGIN__	__EPS__
d	d
i	i
e	e

__BEGIN__	__EPS__
p	b
e	__EPS__
l	l
a	e
i	i
b	b

__BEGIN__	__EPS__
v	v
o	ö
l	l
l	l
e	__EPS__
k	__EPS__
l	__EPS__
i	i
c	g
h	__EPS__

__BEGIN__	__EPS__
d	d
e	e
r	r

__BEGIN__	__EPS__
w	w
a	a
n	nn

__BEGIN__	__EPS__
s	s
o	o

__BEGIN__	__EPS__
c	__EPS__
h	k
i	i
n	n
d	d

__BEGIN__	__EPS__
v	f
a	a
d	d
e	e
n	n

__BEGIN__	__EPS__
m	m
i	i
c	c
h	h

__BEGIN__	__EPS__
g	g
a	a
b	b

__BEGIN__	__EPS__
c	__EPS__
z	z
w	w
e	e
i	i
n	__EPS__

__BEGIN__	__EPS__
z	z
a	e
i	i
c	c
h	h
e	e
n	n

__BEGIN__	__EPS__
s	s
c	c
h	h
i	i
e	e
d	d

__BEGIN__	__EPS__
d	d
e	e
n	n
n	n
e	__EPS__

__BEGIN__	__EPS__
u	u
n	n
d	d

__BEGIN__	__EPS__
v	u
n	n
d	d

__BEGIN__	__EPS__
g	g
i	in
e	g

__BEGIN__	__EPS__
k	k
r	r
e	e
w	u
c	__EPS__
z	z

__BEGIN__	__EPS__
s	se
i	i
n	n
e	e
n	n

__BEGIN__	__EPS__
n	n
i	i
e	ch
t	t

__BEGIN__	__EPS__
o	ih
n	n

__BEGIN__	__EPS__
v	u
n	n
d	d

__BEGIN__	__EPS__
k	k
e	e
i	i
n	n

__BEGIN__	__EPS__
m	m
i	i
c	c
h	h

__BEGIN__	__EPS__
v	u
m	m
p	__EPS__

__BEGIN__	__EPS__
i	ih
m	m

__BEGIN__	__EPS__
s	se
y	i
n	ne
s	s

__BEGIN__	__EPS__
e	e
y	i
n	n
i	i
g	g
e	e
n	n

__BEGIN__	__EPS__
d	d
i	i
c	c
h	h

__BEGIN__	__EPS__
d	d
a	a

__BEGIN__	__EPS__
i	ih
n	n

__BEGIN__	__EPS__
w	w
o	u
r	r
d	d
e	e

__BEGIN__	__EPS__
v	u
n	n
d	d

__BEGIN__	__EPS__
d	da
z	ss

__BEGIN__	__EPS__
w	w
u	u
r	r
d	de

__BEGIN__	__EPS__
d	d
a	a
s	ss

__BEGIN__	__EPS__
b	b
e	e
k	k
a	an
n	n
t	t

__BEGIN__	__EPS__
f	f
v	ü
o	h
r	r
t	t
e	e

__BEGIN__	__EPS__
v	f
o	ü
r	r
c	c
h	h
t	tete

__BEGIN__	__EPS__
d	d
i	i
e	e

__BEGIN__	__EPS__
e	e
n	m
p	p
f	f
a	a
c	n
h	g
e	e
n	n
d	__EPS__

__BEGIN__	__EPS__
i	e
z	s

__BEGIN__	__EPS__
m	m
i	i
t	t

__BEGIN__	__EPS__
v	f
o	__EPS__
r	ra
w	u
e	e
n	n

__BEGIN__	__EPS__
d	d
o	a

__BEGIN__	__EPS__
i	i
c	c
h	h

__BEGIN__	__EPS__
s	s
o	o

__BEGIN__	__EPS__
v	v
o	o
n	n

__BEGIN__	__EPS__
m	m
a	a
r	r
i	i
a	a

__BEGIN__	__EPS__
v	v
o	o
n	n

__BEGIN__	__EPS__
d	d
a	a
u	v
o	o
n	n

__BEGIN__	__EPS__
d	d
r	r
u	ü
c	c
k	k
e	__EPS__
d	t
e	e

__BEGIN__	__EPS__
w	w
o	o
l	ll
t	t

__BEGIN__	__EPS__
d	d
o	a

__BEGIN__	__EPS__
s	s
c	c
h	h
e	e
l	l
t	t
w	w
o	o
r	r
t	t

__BEGIN__	__EPS__
a	a
m	m
e	e
n	n

__BEGIN__	__EPS__
j	j
e	e
r	r
e	e
m	m
i	i
a	a
s	s

__BEGIN__	__EPS__
w	w
a	a
r	r
e	e
n	n

__BEGIN__	__EPS__
i	i
n	n

__BEGIN__	__EPS__
d	d
a	a
z	ss

__BEGIN__	__EPS__
s	sch
l	l
a	a
g	g

__BEGIN__	__EPS__
n	n
i	ich
t	t

__BEGIN__	__EPS__
v	u
n	n
d	d

__BEGIN__	__EPS__
d	d
i	i
e	e

__BEGIN__	__EPS__
a	a
l	l
s	s
o	o

__BEGIN__	__EPS__
d	d
y	ie
s	s

__BEGIN__	__EPS__
d	d
a	a
z	s

__BEGIN__	__EPS__
f	f
i	i
e	e
l	l

__BEGIN__	__EPS__
d	d
u	u
r	r
c	c
h	h

__BEGIN__	__EPS__
s	s
p	p
r	r
a	a
c	c
h	h

__BEGIN__	__EPS__
d	d
i	i
e	e

__BEGIN__	__EPS__
e	e
i	i
n	n
e	e
n	n

__BEGIN__	__EPS__
d	d
e	e
r	r

__BEGIN__	__EPS__
b	b
e	e
t	t
r	r
v	ü
i	__EPS__
b	b
e	__EPS__
t	t

__BEGIN__	__EPS__
v	v
e	e
r	r
t	t
r	r
i	ie
b	b
e	e
n	n

__BEGIN__	__EPS__
s	s
a	a
c	__EPS__
h	h

__BEGIN__	__EPS__
e	e
r	r

__BEGIN__	__EPS__
i	ih
n	n

__BEGIN__	__EPS__
p	p
r	r
o	ü
e	__EPS__
u	f
e	e
n	n

__BEGIN__	__EPS__
s	s
o	o

__BEGIN__	__EPS__
r	r
e	e
c	c
h	h
t	t

__BEGIN__	__EPS__
e	e
y	i
a	a

__BEGIN__	__EPS__
t	t
a	a
c	g

__BEGIN__	__EPS__
n	n
v	un

__BEGIN__	__EPS__
w	w
a	a
s	r

__BEGIN__	__EPS__
d	d
a	a
t	ss

__BEGIN__	__EPS__
w	w
u	a
r	r
f	f
f	__EPS__
e	e
n	n

__BEGIN__	__EPS__
d	d
e	e
n	n

__BEGIN__	__EPS__
k	k
y	i
n	n
t	d

__BEGIN__	__EPS__
e	eh
e	e

__BEGIN__	__EPS__
s	s
i	ie

__BEGIN__	__EPS__
s	s
p	p
r	r
a	a
c	c
h	h

__BEGIN__	__EPS__
n	n
i	i
e	ch
t	t

__BEGIN__	__EPS__
m	m
e	e
i	i
n	n

__BEGIN__	__EPS__
v	u
n	n
d	d

__BEGIN__	__EPS__
a	__EPS__
u	o
b	w
e	eh

__BEGIN__	__EPS__
h	h
e	e
r	r
e	r

__BEGIN__	__EPS__
d	d
o	a

__BEGIN__	__EPS__
s	s
e	i
y	e

__BEGIN__	__EPS__
m	me
y	i
n	n

__BEGIN__	__EPS__
e	e
i	i
n	n
e	e
n	n

__BEGIN__	__EPS__
g	g
r	r
o	o
s	s
s	s
e	e
m	m

__BEGIN__	__EPS__
i	ih
n	n

__BEGIN__	__EPS__
h	__EPS__
e	e
r	r

__BEGIN__	__EPS__
e	e
i	i
n	n

__BEGIN__	__EPS__
h	h
e	e
r	r
c	__EPS__
z	z
e	__EPS__

__BEGIN__	__EPS__
a	a
l	l
l	l
e	e
i	i
n	n
e	e

__BEGIN__	__EPS__
d	d
e	e
n	n

__BEGIN__	__EPS__
a	a
n	n
s	s
a	a
c	__EPS__
h	h

__BEGIN__	__EPS__
a	a
l	l
s	s
o	o

__BEGIN__	__EPS__
w	w
a	ä
e	__EPS__
r	re

__BEGIN__	__EPS__
v	u
r	r
t	t
e	e
i	i
l	l
d	__EPS__
e	e

__BEGIN__	__EPS__
d	d
i	i
c	e
z	s

__BEGIN__	__EPS__
w	w
a	a
r	r
d	d

__BEGIN__	__EPS__
a	a
n	n
s	s
h	__EPS__
e	e
l	l
m	m
u	__EPS__
s	__EPS__
z	__EPS__

__BEGIN__	__EPS__
c	k
h	__EPS__
i	i
n	n
d	d

__BEGIN__	__EPS__
c	k
h	__EPS__
i	i
n	n
t	d

__BEGIN__	__EPS__
a	a
n	n
t	t
w	w
u	o
r	r
t	tet

__BEGIN__	__EPS__
v	u
n	n
d	d

__BEGIN__	__EPS__
m	m
y	i
r	r

__BEGIN__	__EPS__
b	b
e	e
t	t
r	r
u	ü
e	__EPS__
b	b
t	t

__BEGIN__	__EPS__
d	d
a	as
z	s

__BEGIN__	__EPS__
s	s
c	c
h	h
a	ä
n	n
t	d
l	l
i	i
c	c
h	h

__BEGIN__	__EPS__
g	g
e	e
k	k
r	r
o	ö
n	n
t	t

__BEGIN__	__EPS__
m	m
i	i
c	c
h	h

__BEGIN__	__EPS__
v	v
e	e
r	r
c	k
o	au
f	f
t	t

__BEGIN__	__EPS__
w	w
a	o
i	h
l	l
l	__EPS__

__BEGIN__	__EPS__
s	s
p	p
r	r
a	a
c	c
h	h

__BEGIN__	__EPS__
e	e
r	r

__BEGIN__	__EPS__
b	b
i	i
n	n

__BEGIN__	__EPS__
n	n
i	i
c	c
h	h
t	t

__BEGIN__	__EPS__
d	d
o	a

__BEGIN__	__EPS__
w	w
e	e
n	nn

__BEGIN__	__EPS__
s	s
e	eh
y	e
n	n

__BEGIN__	__EPS__
t	t
a	a
t	__EPS__
t	t
e	e
n	n
t	__EPS__

__BEGIN__	__EPS__
s	se
y	i
t	t
e	e
n	n

__BEGIN__	__EPS__
t	t
e	e
m	m
p	p
i	e
l	l

__BEGIN__	__EPS__
m	m
e	ehr

__BEGIN__	__EPS__
o	a
v	u
c	c
h	h

__BEGIN__	__EPS__
m	me
i	i
n	n
e	e
m	m

__BEGIN__	__EPS__
h	h
e	e
r	r
t	__EPS__
z	z

__BEGIN__	__EPS__
w	w
o	o
l	ll
t	t
e	e
n	n

__BEGIN__	__EPS__
d	d
e	e
n	n

__BEGIN__	a
v	u
f	f

__BEGIN__	__EPS__
s	s
c	c
h	h
r	r
i	i
r	e
n	n

__BEGIN__	__EPS__
d	d
a	a
s	s

__BEGIN__	__EPS__
s	s
t	t
a	ad
t	t

__BEGIN__	__EPS__
v	u
n	n
d	d

__BEGIN__	__EPS__
d	d
y	ie
t	s

__BEGIN__	__EPS__
d	d
a	a
s	s
z	__EPS__

__BEGIN__	__EPS__
b	b
a	a
r	r
r	r
a	a
b	b
a	a
n	s

__BEGIN__	__EPS__
v	u
n	n
d	d

__BEGIN__	__EPS__
c	k
r	re
u	u
t	__EPS__
z	z

__BEGIN__	__EPS__
y	ih
n	n

__BEGIN__	__EPS__
v	u
n	n
d	d

__BEGIN__	__EPS__
w	w
o	o
r	r
d	d
e	e
n	n

__BEGIN__	__EPS__
d	d
o	a
e	__EPS__

__BEGIN__	__EPS__
p	b
o	ö
s	s
z	e

__BEGIN__	__EPS__
v	__EPS__
e	__EPS__
r	__EPS__
s	s
c	c
h	h
m	m
e	a
c	c
h	h
t	__EPS__

__BEGIN__	__EPS__
e	e
y	i
n	n

__BEGIN__	__EPS__
h	h
e	a
t	t

__BEGIN__	__EPS__
g	g
e	e
g	g
e	e
n	n

__BEGIN__	__EPS__
i	ih
m	m

__BEGIN__	__EPS__
d	d
o	a

__BEGIN__	__EPS__
d	d
i	i
c	c
h	h

__BEGIN__	__EPS__
w	w
a	a
r	r
t	t
h	__EPS__
e	e

__BEGIN__	__EPS__
v	u
n	n
d	d

__BEGIN__	__EPS__
d	d
e	e
r	r

__BEGIN__	__EPS__
v	v
o	o
l	l
l	l
e	__EPS__
n	__EPS__
b	b
r	r
a	a
c	c
h	h
t	t

__BEGIN__	__EPS__
s	s
p	p
r	r
a	a
c	c
h	h

__BEGIN__	__EPS__
s	s
p	p
r	r
a	a
c	c
h	h
e	e
n	n

__BEGIN__	__EPS__
i	j
u	ü
n	n
g	g
e	e
r	r

__BEGIN__	__EPS__
b	b
r	r
u	u
n	n
n	n
e	e
n	n

__BEGIN__	__EPS__
c	k
l	l
a	a
g	ge

__BEGIN__	__EPS__
v	ü
b	b
e	e
r	r

__BEGIN__	__EPS__
v	u
n	n
d	d

__BEGIN__	__EPS__
a	a
n	n
s	s
h	__EPS__
e	e
l	l
m	m

__BEGIN__	__EPS__
o	o
b	b

__BEGIN__	__EPS__
g	g
r	r
o	o
s	s
s	s
e	e
n	n

__BEGIN__	__EPS__
n	n
i	ich
t	t

__BEGIN__	__EPS__
a	a
b	b
e	e
r	r

__BEGIN__	__EPS__
n	n
u	un

__BEGIN__	__EPS__
s	s
o	ol
l	l
t	t

__BEGIN__	__EPS__
b	b
i	i
t	t
t	t
e	e
r	r
k	k
e	e
i	i
t	t

__BEGIN__	__EPS__
a	a
l	l
l	l

__BEGIN__	__EPS__
i	i
c	c
h	h

__BEGIN__	__EPS__
c	k
h	__EPS__
u	ö
n	n
e	__EPS__
c	i
h	g
r	r
e	e
i	i
c	c
h	h

__BEGIN__	__EPS__
v	u
n	n
d	d

__BEGIN__	__EPS__
v	u
n	n
d	d

__BEGIN__	__EPS__
d	d
u	u

__BEGIN__	__EPS__
d	d
a	a
r	__EPS__
n	n
a	a
c	c
h	h

__BEGIN__	__EPS__
s	s
v	i
i	e

__BEGIN__	__EPS__
s	s
p	p
r	r
a	a
c	c
h	h
e	e
n	n

__BEGIN__	__EPS__
i	j
o	o
s	s
e	e
p	p
h	h

__BEGIN__	__EPS__
w	w
o	o
l	ll
d	t
e	e

__BEGIN__	__EPS__
n	n
i	i
c	c
h	h
t	t

__BEGIN__	__EPS__
d	d
o	a

__BEGIN__	__EPS__
e	e
r	r
c	__EPS__
z	z
o	o
g	g
e	e
n	n

__BEGIN__	__EPS__
w	w
a	a
n	nn

__BEGIN__	__EPS__
i	i
c	c
h	h

__BEGIN__	__EPS__
k	k
i	i
n	n
t	d

__BEGIN__	__EPS__
a	a
l	l
l	__EPS__
s	s
o	o

__BEGIN__	__EPS__
n	n
i	i
c	c
h	h
t	t

__BEGIN__	__EPS__
d	d
i	i
e	e

__BEGIN__	__EPS__
v	u
n	n
d	d

__BEGIN__	__EPS__
s	s
o	o

__BEGIN__	__EPS__
v	v
o	o
n	n

__BEGIN__	__EPS__
d	t
o	o
l	l
l	l

__BEGIN__	__EPS__
d	d
a	as
z	s

__BEGIN__	__EPS__
d	d
o	a

__BEGIN__	__EPS__
d	d
e	e
r	r

__BEGIN__	__EPS__
d	d
i	i
r	r

__BEGIN__	__EPS__
i	i
c	c
h	h

__BEGIN__	__EPS__
i	i
s	s
t	t

__BEGIN__	__EPS__
k	k
a	a
n	nn

__BEGIN__	__EPS__
d	d
e	e
n	n

__BEGIN__	__EPS__
m	me
y	i
n	n
e	e
r	r

__BEGIN__	__EPS__
y	ih
r	r

__BEGIN__	__EPS__
m	m
e	e
i	i
n	n

__BEGIN__	t
z	r
a	ä
h	n
e	e
r	__EPS__
r	__EPS__
n	n

__BEGIN__	__EPS__
c	__EPS__
z	z
o	o
r	r
e	__EPS__
n	n

__BEGIN__	__EPS__
w	w
a	a
s	r

__BEGIN__	__EPS__
h	h
e	a
t	t
t	t
e	e
n	n

__BEGIN__	__EPS__
n	n
e	e
b	b
e	e
n	n
t	__EPS__

__BEGIN__	__EPS__
m	me
i	i
n	n

__BEGIN__	__EPS__
s	s
y	ie

__BEGIN__	__EPS__
k	k
o	ö
e	__EPS__
n	n
i	i
n	__EPS__
c	__EPS__
k	g

__BEGIN__	__EPS__
d	d
e	e
i	i
n	n

__BEGIN__	__EPS__
i	ih
n	n

__BEGIN__	__EPS__
c	k
a	a
n	nn

__BEGIN__	__EPS__
c	k
r	r
e	e
u	u
c	__EPS__
z	z

__BEGIN__	__EPS__
s	__EPS__
c	__EPS__
h	g
u	e
f	f
f	ä
e	s
n	s

__BEGIN__	__EPS__
i	ih
m	m

__BEGIN__	__EPS__
g	g
e	e
s	s
e	e
g	g
n	n
e	e
t	t

__BEGIN__	__EPS__
v	u
n	n
d	d

__BEGIN__	__EPS__
g	g
e	e
b	b
a	e
i	i
n	n

__BEGIN__	__EPS__
v	u
n	n
d	d

__BEGIN__	__EPS__
w	w
e	o
l	ll
t	t
i	e

__BEGIN__	__EPS__
d	d
e	e
s	s

__BEGIN__	__EPS__
d	d
e	e
r	r

__BEGIN__	__EPS__
w	w
a	a
s	r

__BEGIN__	__EPS__
s	s
a	o
l	ll
t	t

__BEGIN__	__EPS__
v	v
o	o
r	r

__BEGIN__	__EPS__
m	m
i	i
t	t

__BEGIN__	__EPS__
d	d
i	i
e	e

__BEGIN__	__EPS__
d	d
o	a

__BEGIN__	__EPS__
a	a
l	l
l	l
e	e

__BEGIN__	__EPS__
k	k
l	l
a	a
g	g
t	t

__BEGIN__	__EPS__
d	d
i	i
e	e

__BEGIN__	__EPS__
c	k
h	__EPS__
i	i
n	n
t	d

__BEGIN__	__EPS__
m	m
i	i
r	r

__BEGIN__	__EPS__
s	s
e	e
i	i
n	n

__BEGIN__	__EPS__
m	m
i	i
t	t

__BEGIN__	__EPS__
t	t
e	a
t	t
t	__EPS__
e	e
n	n

__BEGIN__	__EPS__
e	e
r	r

__BEGIN__	__EPS__
u	ü
b	b
e	e
r	r

__BEGIN__	__EPS__
d	t
r	r
ü	u
g	g
e	e
n	n

__BEGIN__	__EPS__
a	a
l	l
l	l
e	e

__BEGIN__	__EPS__
d	d
o	a

__BEGIN__	__EPS__
d	d
ü	u

__BEGIN__	__EPS__
d	d
a	a
i	__EPS__
r	__EPS__

__BEGIN__	__EPS__
v	u
n	n
d	d

__BEGIN__	__EPS__
i	ih
m	m

__BEGIN__	__EPS__
a	a
u	u
c	c
h	h

__BEGIN__	__EPS__
v	u
n	n
d	d

__BEGIN__	__EPS__
s	s
t	t
i	i
r	r
b	b
t	t

__BEGIN__	__EPS__
v	u
n	n
d	d

__BEGIN__	__EPS__
b	b
l	l
o	u
i	__EPS__
d	t
e	__EPS__

__BEGIN__	__EPS__
s	s
p	p
r	r
i	i
c	c
h	h
e	__EPS__
t	t

__BEGIN__	__EPS__
m	m
y	i
r	r

__BEGIN__	__EPS__
w	w
i	i
e	e

__BEGIN__	__EPS__
d	d
e	e
r	r

__BEGIN__	__EPS__
z	z
u	u

__BEGIN__	__EPS__
s	s
t	t
e	e
i	i
n	n
e	e

__BEGIN__	__EPS__
s	s
e	eh
r	r
e	__EPS__

__BEGIN__	__EPS__
y	ih
n	n

__BEGIN__	__EPS__
g	g
e	e
h	h
o	ö
i	__EPS__
r	r
t	t

__BEGIN__	__EPS__
z	z
u	u

__BEGIN__	__EPS__
f	f
u	ü
r	r

__BEGIN__	__EPS__
d	d
i	i
e	e

__BEGIN__	__EPS__
m	m
a	a
r	r
i	i
a	a

__BEGIN__	__EPS__
l	l
i	i
e	e
p	b
l	l
i	i
c	c
h	h
e	e
n	n

__BEGIN__	__EPS__
s	s
p	p
r	r
e	e
c	c
h	h
e	e
n	n

__BEGIN__	__EPS__
v	v
o	o
n	n

__BEGIN__	__EPS__
i	j
u	u
d	d
e	e
n	n

__BEGIN__	__EPS__
d	d
i	i
e	e

__BEGIN__	__EPS__
p	b
l	l
u	u
t	t

__BEGIN__	__EPS__
d	d
o	a

__BEGIN__	__EPS__
h	h
e	ö
l	l
l	l
e	e

__BEGIN__	__EPS__
d	d
a	a
e	__EPS__

__BEGIN__	__EPS__
w	w
i	i
l	l
l	l
e	e
n	n

__BEGIN__	__EPS__
m	m
ö	ö
c	c
h	h
t	te

__BEGIN__	__EPS__
a	a
l	l
s	s

__BEGIN__	__EPS__
s	s
a	a
g	g

__BEGIN__	__EPS__
h	h
a	a
w	u
s	s

__BEGIN__	__EPS__
d	d
e	e
r	r

__BEGIN__	__EPS__
e	e
r	r

__BEGIN__	__EPS__
d	d
a	as
s	s

__BEGIN__	__EPS__
h	h
i	i
n	n

__BEGIN__	__EPS__
m	m
e	e
i	i
n	n

__BEGIN__	__EPS__
s	s
e	e
y	i

__BEGIN__	__EPS__
a	a
u	u
f	f
f	__EPS__

__BEGIN__	__EPS__
w	w
y	i
r	r

__BEGIN__	__EPS__
v	u
n	n
d	d

__BEGIN__	__EPS__
i	ih
r	r
e	e

__BEGIN__	__EPS__
s	s
o	o
e	h
n	n

__BEGIN__	__EPS__
i	ih
m	m

__BEGIN__	__EPS__
g	g
e	e
r	r
n	n
e	e

__BEGIN__	__EPS__
g	g
e	e
r	r
o	e
w	u
i	t
n	e

__BEGIN__	__EPS__
h	h
a	a
s	s
t	t

__BEGIN__	__EPS__
h	h
e	ä
t	t
t	te

__BEGIN__	__EPS__
p	p
r	r
o	o
p	p
h	h
e	e
c	ze
y	iung

__BEGIN__	__EPS__
s	s
p	p
r	r
a	a
c	c
h	h

__BEGIN__	__EPS__
a	a
l	l
l	l
e	e
i	i
n	n

__BEGIN__	__EPS__
g	g
e	e
b	b
e	e
n	n

__BEGIN__	__EPS__
s	s
e	e
i	i
n	n
e	e
n	n

__BEGIN__	__EPS__
f	f
u	ü
o	h
r	r
t	t
e	e

__BEGIN__	__EPS__
w	w
o	ol
l	l
t	t
e	e

__BEGIN__	__EPS__
a	a
l	l
s	s
o	o

__BEGIN__	__EPS__
f	f
r	r
a	a
g	g
e	e

__BEGIN__	__EPS__
v	v
o	o
n	n

__BEGIN__	__EPS__
d	d
u	u
r	r
c	c
h	h

__BEGIN__	__EPS__
m	me
i	i
n	n
e	e
n	n

__BEGIN__	__EPS__
s	s
p	p
r	r
a	a
c	c
h	h
e	e
n	n

__BEGIN__	__EPS__
d	d
e	e
n	n

__BEGIN__	__EPS__
c	k
h	__EPS__
l	l
a	a
g	g
t	t
e	e
n	n

__BEGIN__	__EPS__
e	i
m	h
e	m

__BEGIN__	__EPS__
h	h
u	o
e	__EPS__
b	b
e	e
n	n

__BEGIN__	__EPS__
v	u
n	n
d	d

__BEGIN__	__EPS__
d	d
e	e
m	m

__BEGIN__	__EPS__
a	a
n	n

__BEGIN__	__EPS__
l	l
a	a
n	n
c	__EPS__
k	g

__BEGIN__	__EPS__
h	h
e	e
i	i
l	l
i	i
g	g
e	e
n	n

__BEGIN__	__EPS__
s	s
o	o

__BEGIN__	__EPS__
i	ih
n	n

__BEGIN__	__EPS__
s	s
e	ee
l	l

__BEGIN__	__EPS__
s	s
a	o
l	ll

__BEGIN__	__EPS__
k	k
ü	ö
m	n
i	i
g	g
r	r
e	e
i	i
c	c
h	h

__BEGIN__	__EPS__
e	e
r	r

__BEGIN__	__EPS__
i	i
c	c
h	h

__BEGIN__	__EPS__
d	d
e	e
r	r

__BEGIN__	__EPS__
i	j
e	äm
m	m
e	e
r	r
l	l
i	i
c	c
h	h
e	e
r	r

__BEGIN__	__EPS__
n	n
i	i
e	e

__BEGIN__	__EPS__
d	d
o	a

__BEGIN__	__EPS__
i	i
c	c
h	h

__BEGIN__	__EPS__
k	k
a	a
m	m

__BEGIN__	__EPS__
g	g
e	e
m	m
e	e
i	i
n	n

__BEGIN__	__EPS__
v	u
n	n
d	d

__BEGIN__	__EPS__
v	v
i	ie
l	l

__BEGIN__	__EPS__
k	k
a	e
i	i
n	n

__BEGIN__	__EPS__
m	m
i	i
t	t

__BEGIN__	__EPS__
i	j
h	__EPS__
e	e
s	s
u	u
s	s

__BEGIN__	__EPS__
k	k
l	l
a	a
g	g
e	e

__BEGIN__	__EPS__
f	f
a	a
l	l
s	s
c	c
h	h
e	e

__BEGIN__	__EPS__
s	s
p	p
r	r
a	a
c	c
h	h

__BEGIN__	__EPS__
v	u
n	n
d	d

__BEGIN__	__EPS__
d	d
i	i
c	c
h	h

__BEGIN__	__EPS__
w	w
o	o
r	r
t	t

__BEGIN__	__EPS__
d	d
o	a

__BEGIN__	__EPS__
d	d
a	as
s	s

__BEGIN__	__EPS__
d	d
i	i
r	r

__BEGIN__	__EPS__
s	s
p	p
r	r
a	a
c	c
h	h

__BEGIN__	__EPS__
s	s
y	ie

__BEGIN__	__EPS__
i	j
u	u
d	d
e	e
n	n

__BEGIN__	__EPS__
l	l
e	eh
r	r
e	e

__BEGIN__	__EPS__
g	g
e	e
s	s
e	e
l	l
l	l
e	e

__BEGIN__	__EPS__
d	d
o	a

__BEGIN__	__EPS__
n	n
i	ich
t	t

__BEGIN__	__EPS__
a	a
l	l
s	s
o	o

__BEGIN__	__EPS__
h	h
e	e
r	r
t	__EPS__
z	z
e	e
n	n

__BEGIN__	__EPS__
d	d
i	i
r	r

__BEGIN__	__EPS__
m	m
a	a
n	n

__BEGIN__	__EPS__
i	i
n	n

__BEGIN__	__EPS__
r	r
a	e
y	i
n	n
e	e
n	n

__BEGIN__	__EPS__
s	s
p	p
r	r
a	a
c	c
h	h

__BEGIN__	__EPS__
s	se
y	i
n	n
e	e

__BEGIN__	__EPS__
e	nich
n	t

__BEGIN__	__EPS__
a	a
b	b
e	e
r	r

__BEGIN__	__EPS__
i	i
s	s
t	t

__BEGIN__	__EPS__
z	z
e	u
e	ei
n	n
a	a
n	n
d	d
r	__EPS__
e	e
n	r

__BEGIN__	__EPS__
s	s
i	i
e	e

__BEGIN__	__EPS__
l	l
e	e
b	b
e	e
n	n

__BEGIN__	__EPS__
g	g
e	i
n	n
g	g

__BEGIN__	__EPS__
d	d
a	a
r	r
y	i
n	n

__BEGIN__	__EPS__
d	d
e	e
m	m

__BEGIN__	__EPS__
w	w
a	a
r	r
e	e
n	n

__BEGIN__	__EPS__
e	e
t	t

__BEGIN__	__EPS__
e	e
i	i
n	n

__BEGIN__	__EPS__
w	w
i	i
l	ll

__BEGIN__	__EPS__
k	k
i	i
n	n
t	d

__BEGIN__	__EPS__
s	s
o	o

__BEGIN__	__EPS__
k	k
u	ö
n	n
i	i
g	g

__BEGIN__	__EPS__
s	s
i	e
j	i
n	n

__BEGIN__	__EPS__
a	a
u	u
f	f
s	s
e	e
c	t
z	z
t	t
e	e

__BEGIN__	__EPS__
o	o
c	__EPS__
h	h

__BEGIN__	__EPS__
e	u
n	nd

__BEGIN__	__EPS__
e	e
r	r

__BEGIN__	__EPS__
e	e
r	r

__BEGIN__	__EPS__
v	u
n	n
s	s
e	ä
g	g
l	l
i	i
c	c
h	h

__BEGIN__	__EPS__
s	s
p	p
r	r
a	a
c	c
h	h

__BEGIN__	__EPS__
m	l
i	i
n	e
n	b
e	e
n	v
k	o
l	l
i	__EPS__
c	__EPS__
h	l
e	e
s	s

__BEGIN__	__EPS__
b	b
l	l
ü	u
t	t

__BEGIN__	__EPS__
d	d
a	a
s	ss

__BEGIN__	__EPS__
w	w
a	a
r	r
s	__EPS__

__BEGIN__	__EPS__
i	j
v	u
d	d
e	e
n	n

__BEGIN__	__EPS__
e	e
r	r

__BEGIN__	__EPS__
d	t
r	ri
e	e
u	b
e	e
n	n

__BEGIN__	__EPS__
s	s
u	oh
n	n

__BEGIN__	__EPS__
k	k
ü	ü
s	ss
t	t

__BEGIN__	__EPS__
m	l
y	__EPS__
n	__EPS__
n	__EPS__
i	i
c	__EPS__
h	__EPS__
l	__EPS__
e	e
i	b
c	__EPS__
h	__EPS__
e	e
r	r

__BEGIN__	__EPS__
g	g
e	e
w	w
a	a
n	n
t	d

__BEGIN__	__EPS__
s	si
e	e

__BEGIN__	__EPS__
w	w
e	e
r	r
d	t
e	e

__BEGIN__	__EPS__
g	g
e	eh
e	e

__BEGIN__	__EPS__
e	e
r	r

__BEGIN__	__EPS__
i	i
n	n

__BEGIN__	__EPS__
d	d
e	e
s	s
g	g
e	__EPS__
l	le
i	i
c	c
h	h
s	en

__BEGIN__	__EPS__
d	d
a	a
t	ss

__BEGIN__	__EPS__
g	g
e	e
h	h
i	i
e	e
s	s
z	s

__BEGIN__	__EPS__
d	d
o	a

__BEGIN__	__EPS__
i	j
u	u
d	d
e	e
n	n

__BEGIN__	__EPS__
e	e
r	r
b	b
a	a
e	__EPS__
r	r
m	me
d	n

__BEGIN__	__EPS__
i	ih
m	m

__BEGIN__	__EPS__
m	m
i	i
t	t

__BEGIN__	__EPS__
h	h
a	a
i	a
r	r

__BEGIN__	__EPS__
c	k
l	l
a	a
g	g
e	e
n	n

__BEGIN__	__EPS__
k	k
i	i
n	n
t	d

__BEGIN__	__EPS__
b	b
e	e
d	t
r	r
o	ü
e	__EPS__
f	b
d	t
e	e
n	n

__BEGIN__	__EPS__
h	h
e	i
m	mm
e	e
l	l

__BEGIN__	__EPS__
s	s
e	e
i	i
n	n
e	e
n	m

__BEGIN__	__EPS__
e	e
r	r

__BEGIN__	__EPS__
g	g
a	a
l	l
i	i
l	l
e	ä
a	a

__BEGIN__	__EPS__
m	m
i	i
r	r

__BEGIN__	__EPS__
d	d
o	a

__BEGIN__	__EPS__
d	d
a	a
s	ss

__BEGIN__	__EPS__
v	u
n	n
d	d

__BEGIN__	__EPS__
v	a
f	u
f	f

__BEGIN__	__EPS__
i	j
o	o
h	h
a	a
n	nn
e	e
s	s

__BEGIN__	__EPS__
m	m
i	i
t	t

__BEGIN__	__EPS__
d	d
o	a

__BEGIN__	__EPS__
z	z
c	__EPS__
u	u

__BEGIN__	__EPS__
w	w
i	i
l	ll

__BEGIN__	__EPS__
h	h
a	a
y	be
n	n

__BEGIN__	__EPS__
n	n
i	i
c	c
h	h
t	t

__BEGIN__	__EPS__
s	s
c	c
h	h
r	r
e	e
y	i

__BEGIN__	__EPS__
m	m
a	a
r	r
t	t
e	e
r	r

__BEGIN__	__EPS__
m	m
i	i
c	c
h	h

__BEGIN__	d
u	u

__BEGIN__	__EPS__
v	u
n	n
s	s

__BEGIN__	__EPS__
g	g
i	i
b	b
s	s
t	t

__BEGIN__	__EPS__
a	a
n	n

__BEGIN__	__EPS__
a	a
l	l
s	s
o	o

__BEGIN__	__EPS__
d	d
o	a

__BEGIN__	__EPS__
a	a
r	r
m	m
e	e

__BEGIN__	__EPS__
v	i
m	m
m	m
e	e
r	r

__BEGIN__	__EPS__
h	h
a	a
m	mm
e	e
r	r
s	s
c	c
h	h
l	l
e	ä
g	ge

__BEGIN__	__EPS__
v	v
i	ie
l	l

__BEGIN__	__EPS__
c	c
e	e
t	t
e	e
r	r
a	a

__BEGIN__	__EPS__
d	d
e	e
r	r

__BEGIN__	__EPS__
r	r
i	i
c	c
h	h
t	t
e	e

__BEGIN__	__EPS__
s	s
o	o

__BEGIN__	__EPS__
i	ih
m	m

__BEGIN__	__EPS__
a	a
r	ri
m	m
a	a
t	tha
i	e
a	a

__BEGIN__	__EPS__
s	s
p	p
r	r
e	ä
c	c
h	he

__BEGIN__	__EPS__
m	m
a	a
l	l

__BEGIN__	__EPS__
d	d
a	a
t	ss

__BEGIN__	__EPS__
d	d
e	e
i	i
n	n

__BEGIN__	__EPS__
i	i
n	n

__BEGIN__	__EPS__
h	h
a	ä
n	n
g	g
e	__EPS__
t	t

__BEGIN__	__EPS__
v	v
o	o
n	n

__BEGIN__	__EPS__
i	ih
m	m

__BEGIN__	__EPS__
h	h
i	i
e	er

__BEGIN__	__EPS__
s	s
y	ie

__BEGIN__	__EPS__
d	d
o	a

__BEGIN__	__EPS__
a	a
n	n
s	s
h	__EPS__
e	e
l	l
m	m

__BEGIN__	__EPS__
s	s
i	i
n	n
t	d
h	__EPS__

__BEGIN__	__EPS__
e	e
n	n
t	t
s	s
c	c
h	h
u	u
l	l
d	d
i	i
g	g
e	e
n	n

__BEGIN__	__EPS__
w	w
e	e
l	l
t	t
e	__EPS__

__BEGIN__	__EPS__
w	w
y	i
e	e

__BEGIN__	__EPS__
i	i
c	c
h	h

__BEGIN__	__EPS__
o	o
b	b
e	__EPS__

__BEGIN__	__EPS__
d	d
a	a
s	ss

__BEGIN__	__EPS__
z	zu

__BEGIN__	fre
m	v
y	elhafte
n	n

__BEGIN__	__EPS__
b	b
y	i
s	s
z	__EPS__

__BEGIN__	__EPS__
s	s
o	o

__BEGIN__	__EPS__
v	b
n	i
t	__EPS__
z	s
e	__EPS__

__BEGIN__	__EPS__
t	t
r	r
o	o
y	__EPS__
s	s
t	t

__BEGIN__	__EPS__
s	s
a	a
n	nk
t	t

__BEGIN__	__EPS__
v	v
o	o
n	n

__BEGIN__	__EPS__
w	w
a	a
s	r

__BEGIN__	__EPS__
a	a
l	l
l	l
e	e
r	r

__BEGIN__	__EPS__
b	b
r	r
ü	u
s	s
t	t

__BEGIN__	__EPS__
s	s
t	t
i	i
m	m
m	m
e	e

__BEGIN__	__EPS__
a	ei
n	n

__BEGIN__	__EPS__
d	d
e	e
m	m

__BEGIN__	__EPS__
b	b
e	e
s	s
t	t
e	ä
r	r
c	k
k	t

__BEGIN__	__EPS__
d	d
i	i
e	e

__BEGIN__	__EPS__
m	m
a	a
l	l
e	__EPS__

__BEGIN__	__EPS__
d	d
o	o
c	c
h	h

__BEGIN__	__EPS__
a	a
n	n

__BEGIN__	__EPS__
i	i
c	c
h	h

__BEGIN__	__EPS__
k	k
a	e
i	i
n	n

__BEGIN__	__EPS__
i	ih
m	m

__BEGIN__	__EPS__
v	u
n	n
d	d

__BEGIN__	__EPS__
b	__EPS__
e	e
s	r
c	f
h	__EPS__
e	ü
c	l
h	l
e	e
n	n

__BEGIN__	__EPS__
i	i
s	s
t	t

__BEGIN__	__EPS__
s	s
c	c
h	h
r	r
ü	__EPS__
w	i
e	e
n	n

__BEGIN__	__EPS__
a	a
u	u
f	f
f	__EPS__
g	g
a	a
n	n
k	g
c	__EPS__
h	__EPS__

__BEGIN__	__EPS__
p	p
y	i
l	l
a	a
t	t
u	u
s	s

__BEGIN__	__EPS__
d	d
u	u
r	rc
h	h

__BEGIN__	__EPS__
s	s
u	o
n	nne

__BEGIN__	__EPS__
l	l
a	a
n	n
g	g

__BEGIN__	__EPS__
b	b
e	e
g	g
e	eh
r	r
t	t

__BEGIN__	__EPS__
w	w
e	ä
e	r
r	e

__BEGIN__	__EPS__
g	g
a	a
r	r

__BEGIN__	__EPS__
d	d
i	i
e	e

__BEGIN__	__EPS__
n	n
o	o
t	t

__BEGIN__	__EPS__
s	s
c	c
h	h
r	r
i	i
f	f
t	t

__BEGIN__	__EPS__
w	w
a	a
z	r

__BEGIN__	__EPS__
d	d
e	e
i	i
n	n

__BEGIN__	__EPS__
d	d
a	a
e	__EPS__

__BEGIN__	__EPS__
m	m
e	e
i	i
n	n

__BEGIN__	__EPS__
d	d
a	a
s	s

__BEGIN__	__EPS__
w	w
o	o
l	l
l	l
e	e
n	n

__BEGIN__	__EPS__
e	e
r	r

__BEGIN__	__EPS__
w	w
y	i
e	e

__BEGIN__	__EPS__
z	z
e	u

__BEGIN__	__EPS__
f	f
v	ü
e	h
r	r
t	t
e	e
n	n

__BEGIN__	__EPS__
n	n
i	ie
d	d
e	e
r	r

__BEGIN__	__EPS__
w	w
e	e
l	l
c	c
h	h
e	e
n	n

__BEGIN__	__EPS__
s	s
p	p
r	r
a	a
c	c
h	h

__BEGIN__	__EPS__
w	w
a	a
n	n
d	n

__BEGIN__	__EPS__
w	w
a	ä
e	r
r	e

__BEGIN__	__EPS__
s	s
t	t
u	u
n	n
d	de

__BEGIN__	__EPS__
h	h
i	i
n	n

__BEGIN__	__EPS__
s	s
y	i
m	m
o	o
n	n

__BEGIN__	__EPS__
m	m
a	a
n	n

__BEGIN__	__EPS__
i	j
a	a

__BEGIN__	__EPS__
a	a
n	n
d	d
e	e
r	re
n	n

__BEGIN__	__EPS__
g	g
e	e
s	s
e	e
t	t
z	z
e	__EPS__
t	t

__BEGIN__	__EPS__
e	e
r	r

__BEGIN__	__EPS__
r	r
e	e
x	x

__BEGIN__	__EPS__
w	w
e	e
l	l
t	t
e	__EPS__

__BEGIN__	__EPS__
s	s
p	p
r	r
a	a
c	c
h	h

