__BEGIN__	__EPS__
a	a
n	n

__BEGIN__	__EPS__
w	w
i	ie
d	d
e	e
r	r
k	k
o	o
m	mme

__BEGIN__	__EPS__
y	ih
n	n

__BEGIN__	__EPS__
v	f
o	ü
r	r
c	c
h	h
t	tet

__BEGIN__	__EPS__
v	v
e	e
r	r
l	l
i	i
e	e
s	s
s	s
e	est

__BEGIN__	n
e	ich
n	t

__BEGIN__	__EPS__
v	u
n	n
d	d

__BEGIN__	__EPS__
a	a
n	n

__BEGIN__	__EPS__
v	u
n	n
d	d

__BEGIN__	__EPS__
r	r
e	e
d	d
e	e

__BEGIN__	__EPS__
y	i
n	n

__BEGIN__	h
e	i
n	n
w	w
e	e
g	g

__BEGIN__	__EPS__
i	i
c	c
h	h

__BEGIN__	__EPS__
e	e
n	n
d	d
e	e

__BEGIN__	__EPS__
d	d
a	a

__BEGIN__	__EPS__
a	a
u	u
f	f
f	__EPS__

__BEGIN__	__EPS__
h	h
e	e
r	r
e	r

__BEGIN__	__EPS__
d	d
e	e
r	r

__BEGIN__	__EPS__
d	d
e	e
n	n

__BEGIN__	__EPS__
s	s
e	e
r	h
e	r

__BEGIN__	__EPS__
a	a
l	l
l	l
e	e
n	n

__BEGIN__	__EPS__
s	s
c	__EPS__
h	o
o	l
l	l

__BEGIN__	__EPS__
t	t
a	a
g	g
e	e
n	n

__BEGIN__	__EPS__
s	s
i	ie
b	b
e	e
n	n

__BEGIN__	__EPS__
a	a
m	n
p	b
l	l
i	i
c	c
k	k

__BEGIN__	__EPS__
e	e
r	r

__BEGIN__	__EPS__
y	ih
r	r

__BEGIN__	__EPS__
d	d
a	a
s	s

__BEGIN__	__EPS__
g	g
e	e
w	w
a	a
l	l
t	t

__BEGIN__	__EPS__
e	e
t	t
c	c
e	e
n	n

__BEGIN__	__EPS__
n	n
a	a
g	g
e	e
l	l

__BEGIN__	__EPS__
a	a
l	l
l	l
e	e
n	n

__BEGIN__	__EPS__
b	b
e	e
d	d
e	e
c	c
k	k
t	t

__BEGIN__	__EPS__
b	b
r	r
a	a
c	c
h	ht
e	e
n	n

__BEGIN__	__EPS__
d	d
e	e
n	n

__BEGIN__	__EPS__
e	e
r	r

__BEGIN__	__EPS__
v	u
r	r
s	s
a	a
c	c
h	he

__BEGIN__	__EPS__
m	me
i	i
n	n

__BEGIN__	__EPS__
s	s
p	p
a	a
n	n
g	g
e	e

__BEGIN__	__EPS__
n	n
a	a
c	c
h	h
g	g
e	e
v	f
o	o
l	l
g	g
t	t

__BEGIN__	__EPS__
d	d
a	a
r	__EPS__
n	n
a	a
c	c
h	h

__BEGIN__	__EPS__
d	d
e	e
n	n

__BEGIN__	__EPS__
v	v
e	e
r	r
s	s
c	c
h	h
w	w
u	u
n	n
d	d
e	e
n	n

__BEGIN__	__EPS__
a	e
i	i
n	n
e	e
n	n

__BEGIN__	__EPS__
s	sch
w	w
e	e
r	r
t	t
e	__EPS__

__BEGIN__	__EPS__
i	j
a	ä
e	m
m	m
e	e
r	r
l	l
i	i
c	c
h	h
e	e
n	n

__BEGIN__	__EPS__
s	s
p	p
r	r
a	a
c	c
h	h

__BEGIN__	__EPS__
m	m
e	e
n	n
t	__EPS__
s	s
c	c
h	h
l	l
i	i
c	c
h	h

__BEGIN__	__EPS__
d	d
a	a

__BEGIN__	__EPS__
l	l
e	e
i	i
b	b

__BEGIN__	__EPS__
a	a
m	m
e	e
n	n

__BEGIN__	__EPS__
i	i
n	n

__BEGIN__	__EPS__
v	v
e	e
r	r
m	dr
o	o
i	s
t	s

__BEGIN__	__EPS__
d	d
e	e
r	r

__BEGIN__	__EPS__
d	d
i	i
e	e

__BEGIN__	__EPS__
o	o
b	b

__BEGIN__	__EPS__
w	w
e	ä
r	r
e	e

__BEGIN__	__EPS__
w	w
a	a
s	r

__BEGIN__	__EPS__
w	w
u	u
n	n
d	d
e	e
n	n

__BEGIN__	__EPS__
e	e
r	r

__BEGIN__	__EPS__
d	d
o	a

__BEGIN__	__EPS__
d	d
i	i
e	e

__BEGIN__	__EPS__
i	i
n	n

__BEGIN__	__EPS__
s	s
e	e
i	i
n	n

__BEGIN__	__EPS__
i	i
n	n

__BEGIN__	__EPS__
v	v
o	o
n	n

__BEGIN__	__EPS__
i	i
n	n

__BEGIN__	__EPS__
a	a
l	l
l	l

__BEGIN__	__EPS__
h	h
a	a
b	b
i	e
n	n

__BEGIN__	__EPS__
d	d
i	i
e	e

__BEGIN__	__EPS__
v	u
n	n
d	d

__BEGIN__	__EPS__
m	m
a	a
n	n

__BEGIN__	__EPS__
d	d
e	e
m	m

__BEGIN__	__EPS__
s	s
e	e
i	i
n	n

__BEGIN__	__EPS__
a	a
r	r
e	__EPS__
m	m

__BEGIN__	__EPS__
l	l
a	a
u	u
t	t
t	__EPS__
e	e
r	r

__BEGIN__	__EPS__
i	j
ü	ü
d	d
i	i
s	s
i	__EPS__
c	c
h	h

__BEGIN__	__EPS__
e	e
r	r

__BEGIN__	__EPS__
w	w
a	a
r	r
t	d

__BEGIN__	__EPS__
v	u
n	n
d	d

__BEGIN__	__EPS__
d	d
a	a

__BEGIN__	__EPS__
d	d
e	e
r	r

__BEGIN__	__EPS__
i	j
o	o
h	h
a	a
n	nn
e	e
s	s

__BEGIN__	__EPS__
d	d
i	i
e	e

__BEGIN__	__EPS__
v	u
n	n
d	d

__BEGIN__	__EPS__
w	w
a	an
n	n

__BEGIN__	__EPS__
m	m
o	o
c	c
h	h
t	te

__BEGIN__	__EPS__
v	u
n	n
d	d

__BEGIN__	__EPS__
d	d
e	e
r	r

__BEGIN__	__EPS__
w	w
i	i
e	e

__BEGIN__	__EPS__
e	e
r	r

__BEGIN__	__EPS__
d	da
z	ss

__BEGIN__	__EPS__
e	e
i	i
n	n

__BEGIN__	__EPS__
d	d
a	as
z	s

__BEGIN__	__EPS__
h	h
e	a
t	t

__BEGIN__	__EPS__
f	f
u	ü
n	n
f	f
t	t
h	a
u	u
s	s
i	e
n	n
t	d
h	__EPS__

__BEGIN__	__EPS__
m	m
i	i
c	c
h	h

__BEGIN__	__EPS__
c	z
z	e
i	i
t	__EPS__
t	t
e	e
n	n

__BEGIN__	__EPS__
s	s
e	e
l	l
b	be

__BEGIN__	__EPS__
w	w
e	ei
s	ss
t	t

__BEGIN__	__EPS__
b	b
e	e
s	s
p	p
r	r
e	e
n	n
g	g
t	t

__BEGIN__	__EPS__
v	u
n	n
d	d

__BEGIN__	__EPS__
b	b
e	__EPS__
l	l
i	ie
b	b
e	e
n	n

__BEGIN__	__EPS__
m	m
a	a
g	g
d	d
a	a
l	l
e	e
n	n
a	a

__BEGIN__	__EPS__
m	me
y	i
n	n
e	e
m	m

__BEGIN__	__EPS__
h	h
o	ö
r	r
t	t
e	e

__BEGIN__	__EPS__
m	m
e	e
i	i
n	n

__BEGIN__	__EPS__
e	e
r	r

__BEGIN__	__EPS__
g	g
e	e
g	g
a	an
i	ge
n	n

__BEGIN__	__EPS__
m	m
a	ar
i	i
a	a

__BEGIN__	__EPS__
i	j
u	u
d	d
e	e
n	n

__BEGIN__	__EPS__
k	k
i	i
n	n
t	d

__BEGIN__	__EPS__
j	j
u	ü
n	n
g	g
e	e
r	r
n	n

__BEGIN__	__EPS__
d	d
i	i
e	e

__BEGIN__	__EPS__
d	d
a	as
s	s

__BEGIN__	__EPS__
d	d
i	ie
s	s
z	__EPS__

__BEGIN__	__EPS__
h	h
u	u
n	n
d	d
e	e

__BEGIN__	__EPS__
z	z
w	u
e	__EPS__

__BEGIN__	__EPS__
m	m
i	i
t	t

__BEGIN__	__EPS__
g	g
e	e
s	sch
l	l
a	a
i	ge
n	n

__BEGIN__	__EPS__
l	l
i	i
e	e
b	b
e	e
r	r

__BEGIN__	__EPS__
w	w
o	oh
l	l

__BEGIN__	__EPS__
f	f
r	re
u	u
n	n
t	d

__BEGIN__	__EPS__
d	d
e	e
m	m

__BEGIN__	__EPS__
a	a
l	l
l	l
e	e

__BEGIN__	__EPS__
e	e
r	r

__BEGIN__	__EPS__
d	d
o	a

__BEGIN__	__EPS__
d	de
i	i
n	n
e	e
n	n

__BEGIN__	__EPS__
n	n
i	ich
t	t

__BEGIN__	__EPS__
h	h
e	a
t	tt
e	e
n	n

__BEGIN__	__EPS__
d	d
i	i
c	c
h	h

__BEGIN__	__EPS__
d	d
i	i
e	e

__BEGIN__	__EPS__
n	n
i	i
e	e

__BEGIN__	__EPS__
s	s
t	t
e	i
m	m
m	m
e	e
n	n

__BEGIN__	__EPS__
g	g
a	a
r	r

__BEGIN__	__EPS__
h	h
e	e
r	r
z	z
e	__EPS__
k	__EPS__
l	l
i	i
c	c
h	h

__BEGIN__	__EPS__
s	s
p	p
r	r
a	a
c	c
h	h

__BEGIN__	__EPS__
a	a
l	l
l	l
e	e
s	s

__BEGIN__	__EPS__
i	ih
m	m

__BEGIN__	__EPS__
s	sch
w	w
e	e
r	r
t	t

__BEGIN__	__EPS__
s	s
y	ie

__BEGIN__	__EPS__
f	f
r	r
e	e
u	u
d	d
e	e

__BEGIN__	__EPS__
a	a
n	n
d	d
e	e
r	re

__BEGIN__	__EPS__
d	d
e	e
m	m

__BEGIN__	__EPS__
i	j
h	__EPS__
e	e
s	s
u	u
s	s

__BEGIN__	__EPS__
k	k
i	i
n	n
t	d

__BEGIN__	__EPS__
t	t
a	a
t	t
i	e
n	n

__BEGIN__	__EPS__
i	ih
n	n

__BEGIN__	__EPS__
i	i
c	c
h	h

__BEGIN__	__EPS__
m	m
u	u
o	s
s	s
t	t

__BEGIN__	__EPS__
g	g
e	es
l	c
o	h
d	r
e	e
m	i
e	__EPS__

__BEGIN__	__EPS__
d	d
o	a

__BEGIN__	__EPS__
l	l
e	e
y	i
d	d
e	e
n	n

__BEGIN__	__EPS__
s	s
a	a
c	c
h	he

__BEGIN__	__EPS__
o	u
r	r
l	l
o	a
e	__EPS__
p	u
p	b

__BEGIN__	__EPS__
e	e
r	r
s	s
a	a
c	__EPS__
h	h

__BEGIN__	__EPS__
w	w
a	a
s	s

__BEGIN__	__EPS__
d	d
o	a

__BEGIN__	__EPS__
g	g
a	a
n	n
c	__EPS__
z	z
e	e
r	r

__BEGIN__	__EPS__
m	m
i	i
t	t

__BEGIN__	__EPS__
d	d
u	u

__BEGIN__	__EPS__
d	d
a	a
m	m
i	i
t	t

__BEGIN__	__EPS__
a	a
l	l
l	l
e	e

__BEGIN__	__EPS__
v	v
o	o
n	n

__BEGIN__	__EPS__
v	u
n	n
d	d

__BEGIN__	__EPS__
s	s
e	eh
r	r
e	__EPS__

__BEGIN__	__EPS__
s	sch
w	w
e	e
r	r
t	t

__BEGIN__	__EPS__
s	s
a	a
g	ge

__BEGIN__	__EPS__
a	a
n	n

__BEGIN__	__EPS__
h	h
i	i
e	e
s	s
z	s

__BEGIN__	__EPS__
s	s
a	a
g	g

__BEGIN__	__EPS__
w	w
o	o
u	l
l	l
d	t
e	e

__BEGIN__	__EPS__
s	s
p	p
r	r
i	i
c	c
h	h
t	t

__BEGIN__	__EPS__
a	a
n	n
d	d
e	e
r	r
e	e
n	n

__BEGIN__	__EPS__
n	n
i	i
t	ch
t	t

__BEGIN__	__EPS__
f	f
r	r
a	a
w	u
e	__EPS__

__BEGIN__	__EPS__
m	m
a	ä
e	__EPS__
r	r

__BEGIN__	ver
s	s
p	p
o	o
t	t
t	t
e	ete
n	n

__BEGIN__	__EPS__
t	t
r	r
e	ä
h	__EPS__
e	__EPS__
r	n
e	e
n	n

__BEGIN__	__EPS__
s	se
y	i
n	n
e	e
n	n

__BEGIN__	__EPS__
s	s
i	ie

__BEGIN__	__EPS__
d	d
a	a
v	v
o	o
n	n

__BEGIN__	__EPS__
n	n
o	ah
m	m
e	e
n	n

__BEGIN__	__EPS__
w	w
a	a
s	r

__BEGIN__	__EPS__
i	i
c	c
h	h

__BEGIN__	__EPS__
w	w
a	a
n	nn

__BEGIN__	__EPS__
a	a
l	l
l	l
e	e

__BEGIN__	__EPS__
i	ih
m	m

__BEGIN__	__EPS__
s	s
p	p
r	r
a	a
c	c
h	h

__BEGIN__	__EPS__
m	me
y	i
n	n

__BEGIN__	__EPS__
v	ü
b	b
e	e
r	r

__BEGIN__	__EPS__
o	a
u	u
c	c
h	h

__BEGIN__	__EPS__
s	s
t	t
a	a
e	__EPS__
n	n
d	d
e	e
n	n

__BEGIN__	__EPS__
k	k
i	i
n	n
d	d

__BEGIN__	__EPS__
k	k
i	i
n	n
d	d

__BEGIN__	__EPS__
i	ih
n	n

__BEGIN__	__EPS__
w	w
a	a
z	r

__BEGIN__	__EPS__
c	__EPS__
z	z
o	o
g	g
e	e
n	n

__BEGIN__	__EPS__
w	w
i	i
l	l
l	l
e	e
n	n

__BEGIN__	__EPS__
g	g
e	e
f	f
ü	üh
r	r
t	t

__BEGIN__	__EPS__
a	a
l	l
l	l
e	e

__BEGIN__	__EPS__
h	h
o	och
g	g
i	e
t	__EPS__
z	z
i	i
j	__EPS__
d	t
e	__EPS__
s	__EPS__

__BEGIN__	__EPS__
d	d
o	a

__BEGIN__	__EPS__
l	l
o	o
n	n
g	g
i	i
n	n
u	u
s	s

__BEGIN__	__EPS__
g	g
e	e
r	r
i	i
c	c
h	h
t	t

__BEGIN__	__EPS__
m	m
o	o
c	c
h	h
t	te

__BEGIN__	__EPS__
a	a
l	l
s	s

__BEGIN__	__EPS__
d	d
e	e
m	m

__BEGIN__	__EPS__
v	f
r	re
v	u
n	n
t	d

__BEGIN__	__EPS__
d	d
o	a

__BEGIN__	__EPS__
g	g
r	r
u	ü
e	s
s	s
z	t

__BEGIN__	__EPS__
l	l
e	e
n	n
d	d
e	e
n	n

__BEGIN__	__EPS__
v	u
n	n
d	d

__BEGIN__	__EPS__
a	a
r	r
m	m

__BEGIN__	__EPS__
b	b
e	e
h	h
a	a
l	l
t	te

__BEGIN__	__EPS__
p	p
y	i
l	l
a	a
t	t
u	u
s	s

__BEGIN__	__EPS__
a	a
r	r
m	m
o	u
e	__EPS__
d	t
e	__EPS__

__BEGIN__	__EPS__
w	w
u	u
r	r
d	d
e	e

__BEGIN__	__EPS__
s	s
y	i
m	m
e	e
o	o
n	n

__BEGIN__	__EPS__
h	h
e	e
i	i
l	l
i	i
g	g
e	e
n	n

__BEGIN__	__EPS__
v	u
n	n
d	d

__BEGIN__	__EPS__
d	d
e	e
n	n

__BEGIN__	__EPS__
s	s
p	p
r	r
a	a
c	c
h	h

__BEGIN__	__EPS__
v	v
o	o
n	n

__BEGIN__	__EPS__
a	a
n	n

__BEGIN__	__EPS__
l	l
a	a
i	s
s	s

__BEGIN__	__EPS__
v	u
n	n
d	d

__BEGIN__	__EPS__
v	u
n	n
d	d

__BEGIN__	__EPS__
y	ih
n	n

__BEGIN__	__EPS__
v	u
n	n
d	d

__BEGIN__	__EPS__
c	__EPS__
z	z
o	u
g	zi
e	eh
t	t

__BEGIN__	__EPS__
c	c
e	e
n	n
t	t
u	u
r	r
i	i
o	o

__BEGIN__	__EPS__
s	s
p	p
r	r
a	a
c	c
h	h

__BEGIN__	__EPS__
s	s
u	ü
n	n
d	d
e	e
r	r

__BEGIN__	__EPS__
n	n
i	i
c	c
h	h
t	t
t	__EPS__

__BEGIN__	d
u	u

__BEGIN__	__EPS__
v	u
n	n
s	s
c	c
h	h
v	u
l	l
d	d
i	i
g	g

__BEGIN__	__EPS__
v	ü
i	__EPS__
b	b
e	e
r	r

__BEGIN__	__EPS__
v	u
n	n
d	d

__BEGIN__	__EPS__
i	j
u	u
d	d
e	e
n	n

__BEGIN__	__EPS__
d	d
u	u

__BEGIN__	__EPS__
e	e
r	r

__BEGIN__	__EPS__
t	t
e	e
m	m
p	p
e	e
l	l

__BEGIN__	__EPS__
a	g
l	leich
s	s
a	a
m	m

__BEGIN__	__EPS__
g	g
r	r
o	o
s	s
z	s
e	e
n	n

__BEGIN__	__EPS__
z	z
u	u
o	__EPS__

__BEGIN__	__EPS__
d	d
a	a
s	ss

__BEGIN__	__EPS__
l	l
a	a
g	g

__BEGIN__	__EPS__
i	i
n	n

__BEGIN__	__EPS__
s	s
e	e
l	e
l	le

__BEGIN__	__EPS__
i	ih
n	n

__BEGIN__	__EPS__
d	d
i	ie

__BEGIN__	__EPS__
i	ih
n	n

__BEGIN__	__EPS__
m	m
i	i
t	t

__BEGIN__	__EPS__
d	d
y	ie

__BEGIN__	__EPS__
h	h
o	ö
r	r
t	t

__BEGIN__	__EPS__
v	ü
b	b
e	e
r	r

__BEGIN__	__EPS__
d	d
o	a

__BEGIN__	__EPS__
m	m
o	u
i	__EPS__
t	t

__BEGIN__	__EPS__
o	oh

__BEGIN__	__EPS__
s	s
t	t
u	u
n	n
t	de

__BEGIN__	__EPS__
w	w
a	e
i	i
n	n
t	t

__BEGIN__	__EPS__
l	l
i	i
e	e
u	b
e	e

__BEGIN__	__EPS__
e	e
r	r
l	l
i	i
d	tt
e	e
n	n

__BEGIN__	__EPS__
d	d
e	e
r	r

__BEGIN__	__EPS__
d	de
i	i
n	n

__BEGIN__	__EPS__
v	u
n	n
n	d

__BEGIN__	__EPS__
r	r
a	e
i	i
n	n
e	e

__BEGIN__	__EPS__
h	h
e	ä
n	n
d	de

__BEGIN__	__EPS__
h	ha
u	u
s	s

__BEGIN__	__EPS__
v	u
n	n
d	d

__BEGIN__	__EPS__
k	k
o	o
m	mm
e	e

__BEGIN__	__EPS__
a	a
l	l
z	s

__BEGIN__	__EPS__
a	a
n	n
t	t
l	l
u	__EPS__
i	i
t	tz

__BEGIN__	__EPS__
n	n
a	a
y	i
n	n

__BEGIN__	__EPS__
a	a
c	c
h	h

__BEGIN__	__EPS__
l	le
i	i
b	b

__BEGIN__	__EPS__
m	m
a	a
g	g
d	d
a	a
l	l
e	e
n	n
a	a

__BEGIN__	__EPS__
i	i
n	n

__BEGIN__	__EPS__
i	ih
m	m

__BEGIN__	__EPS__
m	m
i	i
c	c
h	h

__BEGIN__	__EPS__
n	n
i	ic
h	h
t	t

__BEGIN__	__EPS__
e	e
r	r
g	g
i	i
n	n
g	g

__BEGIN__	__EPS__
w	w
a	a
r	r
t	d

__BEGIN__	__EPS__
p	p
y	i
l	l
a	a
t	t
o	us

__BEGIN__	__EPS__
r	r
e	e
c	c
h	h
t	t
e	e

__BEGIN__	__EPS__
m	m
i	i
t	t

__BEGIN__	__EPS__
g	g
o	o
d	tt
e	e
s	s

__BEGIN__	__EPS__
d	d
e	e
r	r

__BEGIN__	__EPS__
d	d
i	i
r	r

__BEGIN__	__EPS__
l	l
y	i
s	s
t	t

__BEGIN__	__EPS__
i	i
s	s
t	t

__BEGIN__	__EPS__
h	i
e	h
m	m

__BEGIN__	__EPS__
h	h
e	a
t	tt
e	e
n	n

__BEGIN__	__EPS__
g	g
a	a
l	l
g	g
e	e
n	n

__BEGIN__	__EPS__
s	s
y	i
m	m
e	e
o	o
n	n
s	s

__BEGIN__	__EPS__
v	u
n	n
d	d

__BEGIN__	__EPS__
w	w
e	e
y	i
n	n
e	__EPS__
t	t
e	e
n	n

__BEGIN__	__EPS__
m	m
e	e
n	n
s	s
c	c
h	h
l	l
i	i
c	c
h	h
s	e

__BEGIN__	__EPS__
v	u
n	n
d	d

__BEGIN__	__EPS__
v	v
a	o
n	n

__BEGIN__	__EPS__
v	u
n	n
d	d

__BEGIN__	__EPS__
m	m
e	e
i	i
n	n

__BEGIN__	__EPS__
a	a
l	l
z	s

__BEGIN__	__EPS__
m	l
i	i
n	e
n	b
i	e
g	v
k	o
l	l
i	__EPS__
c	__EPS__
h	l

__BEGIN__	__EPS__
y	ih
n	n

__BEGIN__	__EPS__
i	ih
n	n

__BEGIN__	__EPS__
w	w
e	e
i	i
n	n
t	t
e	e
n	n

__BEGIN__	__EPS__
d	d
i	i
e	e

__BEGIN__	__EPS__
e	e
r	r

__BEGIN__	__EPS__
w	w
e	e
r	r
d	d
e	e
n	n

__BEGIN__	__EPS__
g	b
e	e
c	__EPS__
z	w
u	__EPS__
g	e
n	__EPS__
i	i
s	se

__BEGIN__	__EPS__
w	w
a	ah
r	r
e	e

__BEGIN__	__EPS__
d	t
e	ä
d	t
e	e

__BEGIN__	__EPS__
p	b
e	e
y	i

__BEGIN__	__EPS__
v	u
n	n
d	d
t	__EPS__

__BEGIN__	__EPS__
a	a
n	n

__BEGIN__	__EPS__
m	m
a	a
l	l

__BEGIN__	__EPS__
g	__EPS__
e	__EPS__
t	t
r	r
o	ö
s	s
t	t
e	e
n	n

__BEGIN__	__EPS__
e	__EPS__
n	__EPS__
s	s
o	o
l	ll
t	t

__BEGIN__	__EPS__
s	se
y	i
n	n
e	e
n	n

__BEGIN__	__EPS__
e	e
y	i
n	n

__BEGIN__	__EPS__
b	b
l	le
i	i

__BEGIN__	__EPS__
w	w
o	ol
l	l
t	te

__BEGIN__	__EPS__
s	s
a	a
g	g

__BEGIN__	__EPS__
e	e
r	r

__BEGIN__	__EPS__
z	z
o	u

__BEGIN__	__EPS__
z	s
o	o
h	gl
a	e
n	i
t	c
z	h

__BEGIN__	__EPS__
s	s
e	e
l	l
b	b
e	e
r	r

__BEGIN__	__EPS__
a	a
n	n
t	t
w	w
e	o
r	r
t	t
e	e
t	t

__BEGIN__	__EPS__
i	ih
n	n

__BEGIN__	__EPS__
e	e
i	i
n	n

__BEGIN__	__EPS__
e	e
z	s

__BEGIN__	__EPS__
f	f
r	r
a	a
u	u
w	__EPS__
e	__EPS__

__BEGIN__	__EPS__
i	i
n	n

__BEGIN__	__EPS__
m	m
i	i
c	c
h	h

__BEGIN__	__EPS__
n	n
i	ich
t	t

__BEGIN__	__EPS__
a	a
l	l
l	l
e	e

__BEGIN__	__EPS__
e	ehe

__BEGIN__	__EPS__
i	i
m	m

__BEGIN__	__EPS__
d	d
o	a

__BEGIN__	__EPS__
w	w
a	a
s	r

__BEGIN__	__EPS__
d	d
a	a
s	s

__BEGIN__	__EPS__
w	w
i	i
r	r

__BEGIN__	__EPS__
n	n
o	o
c	c
h	h

__BEGIN__	__EPS__
m	me
i	i
n	n

__BEGIN__	__EPS__
i	ih
m	m

__BEGIN__	__EPS__
p	p
e	e
t	tr
e	u
r	s

__BEGIN__	__EPS__
l	l
i	i
e	e
b	b
s	s
t	t
e	e
s	s

__BEGIN__	__EPS__
o	u
i	__EPS__
r	r
c	k
o	u
n	n
d	d
e	e
n	n

__BEGIN__	__EPS__
k	k
i	i
n	n
t	d

__BEGIN__	__EPS__
s	s
i	ie

__BEGIN__	__EPS__
d	d
e	e
i	i
n	n
e	e
s	s

__BEGIN__	__EPS__
d	d
i	i
e	e

__BEGIN__	__EPS__
m	m
u	u
e	s
s	s
t	te

__BEGIN__	__EPS__
g	g
a	e
i	is
s	s
e	e
l	l
n	n

__BEGIN__	__EPS__
y	ih
r	r

__BEGIN__	__EPS__
m	m
e	ee
r	r
d	d
o	o
r	r
n	n
e	e
n	n

__BEGIN__	__EPS__
d	d
o	a

__BEGIN__	__EPS__
v	u
n	n
d	d

__BEGIN__	__EPS__
y	i
n	n

__BEGIN__	__EPS__
a	a
n	n

__BEGIN__	__EPS__
e	e
y	i
n	n

__BEGIN__	__EPS__
s	s
o	o

__BEGIN__	__EPS__
i	i
n	h
n	n

__BEGIN__	__EPS__
s	s
e	e
l	l
b	b
s	st

__BEGIN__	__EPS__
v	u
n	n
d	d

__BEGIN__	__EPS__
l	l
e	e
y	g
t	t
e	e
m	n

__BEGIN__	__EPS__
s	r
c	__EPS__
h	__EPS__
a	ä
c	u
h	b
e	e
r	r
n	n

__BEGIN__	__EPS__
d	d
a	a

__BEGIN__	__EPS__
k	k
a	an
n	n

__BEGIN__	__EPS__
v	u
n	n
d	d

__BEGIN__	__EPS__
e	e
y	i
n	n

__BEGIN__	__EPS__
n	n
a	ah
m	m
e	e
n	n

__BEGIN__	__EPS__
d	d
o	a

__BEGIN__	__EPS__
v	f
r	r
a	a
u	u
w	__EPS__
e	__EPS__

__BEGIN__	__EPS__
m	m
e	e
i	i
n	n

__BEGIN__	__EPS__
v	u
n	n
d	d

__BEGIN__	__EPS__
a	a
l	l
l	l
e	e
s	s

__BEGIN__	__EPS__
v	u
n	n
d	d

__BEGIN__	__EPS__
l	l
a	a
u	__EPS__
s	s
s	s
e	e
n	n

__BEGIN__	__EPS__
v	ü
b	b
e	e
r	r

__BEGIN__	__EPS__
b	b
r	r
a	a
c	c
h	h
t	te

__BEGIN__	__EPS__
s	s
t	t
o	ö
e	s
s	s
z	e

__BEGIN__	__EPS__
v	v
o	o
r	r

__BEGIN__	__EPS__
v	u
n	n
n	d

__BEGIN__	__EPS__
m	m
i	i
t	t

__BEGIN__	__EPS__
f	f
u	ü
i	__EPS__
r	r

__BEGIN__	__EPS__
e	e
r	r
l	l
o	ö
y	__EPS__
s	s
t	t

__BEGIN__	__EPS__
e	e
s	s

__BEGIN__	__EPS__
s	s
t	t
u	ü
r	r
b	b
e	e

__BEGIN__	__EPS__
s	s
y	ie

__BEGIN__	__EPS__
t	t
o	o
d	d

__BEGIN__	__EPS__
m	me
i	i
n	n

__BEGIN__	__EPS__
p	p
i	i
l	l
a	a
t	t
u	u
s	s

__BEGIN__	__EPS__
m	m
i	i
r	r

__BEGIN__	__EPS__
s	s
c	c
h	h
a	ä
e	__EPS__
c	c
h	h
e	e
r	r
n	n

__BEGIN__	__EPS__
g	g
e	e
s	s
a	a
m	mm
e	e
l	l
t	t

__BEGIN__	__EPS__
a	a
n	n
s	s
h	__EPS__
e	e
l	l
m	m
u	__EPS__
s	__EPS__

__BEGIN__	__EPS__
a	a
l	l
l	l
e	e
r	r

__BEGIN__	__EPS__
m	me
i	i
n	n
e	e
m	m

__BEGIN__	__EPS__
d	d
i	i
e	e

__BEGIN__	__EPS__
m	m
i	i
c	c
h	h

__BEGIN__	__EPS__
w	w
a	a
r	r
t	d

__BEGIN__	__EPS__
f	f
r	r
e	e
w	u
d	d
e	e

__BEGIN__	__EPS__
v	u
n	n
d	d

__BEGIN__	__EPS__
a	a
u	u
c	c
h	h

__BEGIN__	__EPS__
e	e
r	r
l	l
o	ö
s	s
e	__EPS__
t	t

__BEGIN__	__EPS__
d	d
a	a
s	s

__BEGIN__	__EPS__
n	n
a	a
c	c
h	h
t	t

__BEGIN__	__EPS__
m	m
u	ut
t	t
e	e
r	r

__BEGIN__	__EPS__
n	n
i	i
m	mm
e	e
r	r

__BEGIN__	__EPS__
d	d
a	a
z	ss

__BEGIN__	__EPS__
h	h
e	a
t	t
t	t
e	e
n	n

__BEGIN__	__EPS__
n	n
o	o
t	t

__BEGIN__	__EPS__
d	d
e	e
r	r

__BEGIN__	__EPS__
d	d
y	ie

__BEGIN__	__EPS__
s	__EPS__
w	wer

__BEGIN__	__EPS__
v	u
n	n
t	t
e	e
r	r

__BEGIN__	__EPS__
b	b
r	a
a	r
s	s
t	t
e	e
n	n

__BEGIN__	__EPS__
d	d
i	i
r	r

__BEGIN__	__EPS__
y	ih
r	r
e	e
n	n

__BEGIN__	__EPS__
d	d
i	i
e	e

__BEGIN__	__EPS__
w	w
a	a
s	r

__BEGIN__	__EPS__
s	s
v	i
i	e

__BEGIN__	__EPS__
a	a
u	u
f	f

__BEGIN__	__EPS__
r	r
e	e
d	d
e	e
n	n

__BEGIN__	__EPS__
m	m
e	e
i	i
n	n

__BEGIN__	__EPS__
a	a
l	l
l	l
e	e
n	n

__BEGIN__	d
u	u

__BEGIN__	__EPS__
l	l
i	i
e	e
b	b
e	e

__BEGIN__	__EPS__
v	u
n	n
n	d

__BEGIN__	__EPS__
d	d
a	a
z	ss

__BEGIN__	__EPS__
g	g
e	e
y	i
s	s
t	t

__BEGIN__	__EPS__
w	w
o	o
e	l
l	l
t	t

__BEGIN__	__EPS__
n	n
o	o
c	c
h	h

__BEGIN__	__EPS__
a	a
l	l
l	l
e	e
n	n

__BEGIN__	__EPS__
d	d
e	e
i	i
n	n
e	e
m	m

__BEGIN__	__EPS__
f	ü
r	b
a	e
i	r
d	__EPS__
i	__EPS__
k	m
e	__EPS__
i	u
t	t

__BEGIN__	__EPS__
v	f
i	i
e	e
l	l

__BEGIN__	__EPS__
s	s
a	o
l	ll
t	t

__BEGIN__	__EPS__
n	n
i	i
e	ch
t	t

__BEGIN__	__EPS__
e	e
r	r

__BEGIN__	__EPS__
i	ih
n	n

__BEGIN__	__EPS__
d	d
e	e
m	m

__BEGIN__	__EPS__
s	s
e	e
i	i
n	n

__BEGIN__	__EPS__
h	__EPS__
e	e
r	r

__BEGIN__	__EPS__
d	d
e	e
n	n

__BEGIN__	__EPS__
m	m
e	e
n	n
s	sc
h	h
e	e
n	n

__BEGIN__	__EPS__
e	e
r	r
l	l
o	o
e	__EPS__
s	s
c	c
h	h
e	e
n	n

__BEGIN__	__EPS__
v	f
i	i
e	e
l	l

__BEGIN__	__EPS__
b	b
r	r
e	i
n	n
g	g
e	e
n	n

__BEGIN__	__EPS__
s	s
e	e
h	h
e	e
n	n
t	d

__BEGIN__	__EPS__
w	w
a	a
n	nn

__BEGIN__	__EPS__
v	ü
i	__EPS__
b	b
e	e
r	r

__BEGIN__	__EPS__
s	s
u	o
n	n
d	d
e	e
r	r
n	n

__BEGIN__	__EPS__
z	z
a	e
i	i
c	c
h	h
e	e
n	n

__BEGIN__	__EPS__
c	k
h	__EPS__
r	r
a	__EPS__
e	e
w	u
c	__EPS__
z	z

__BEGIN__	__EPS__
s	s
c	c
h	h
r	r
e	e
i	i

__BEGIN__	__EPS__
s	s
i	i
t	t
z	z
e	e
n	n

__BEGIN__	n
e	ich
n	t

__BEGIN__	__EPS__
i	j
u	u
d	d
e	e
n	n

__BEGIN__	__EPS__
l	le
y	i
b	b
e	__EPS__

__BEGIN__	__EPS__
d	d
a	a
z	ss

__BEGIN__	__EPS__
m	m
i	i
t	t

__BEGIN__	__EPS__
d	d
o	a

__BEGIN__	__EPS__
g	g
a	a
s	s
z	s
e	e

__BEGIN__	__EPS__
n	n
i	ich
t	t

__BEGIN__	__EPS__
c	k
l	l
a	a
g	ge

__BEGIN__	__EPS__
m	m
i	i
r	r

__BEGIN__	__EPS__
d	d
o	a

__BEGIN__	__EPS__
d	d
o	a

__BEGIN__	__EPS__
d	d
o	a

__BEGIN__	__EPS__
m	m
e	e
i	i
n	n
e	e
n	m

__BEGIN__	__EPS__
m	m
y	i
r	r

__BEGIN__	__EPS__
b	b
e	e
g	g
e	eh
r	r
t	t

__BEGIN__	__EPS__
g	g
e	e
t	t
a	a
n	n

__BEGIN__	__EPS__
v	v
i	i
e	e
r	r
d	t
e	e
n	n

__BEGIN__	__EPS__
a	a
n	n
s	s
e	e
l	l
m	m
e	__EPS__

__BEGIN__	__EPS__
e	e
r	r

__BEGIN__	__EPS__
e	e
r	r
p	b
i	__EPS__
d	__EPS__
e	e
m	b
t	te

__BEGIN__	__EPS__
h	h
o	ö
r	r
t	t
e	e

__BEGIN__	__EPS__
r	r
i	i
t	t
t	t
e	e
r	r

__BEGIN__	__EPS__
r	r
e	e
d	d
e	e
n	n

__BEGIN__	__EPS__
t	__EPS__
z	z
w	w
i	e
j	i
u	f
e	e
l	l

__BEGIN__	__EPS__
m	m
e	e
i	i
n	n
e	e
s	s

__BEGIN__	__EPS__
h	h
i	i
e	e
s	s
z	se

__BEGIN__	__EPS__
d	d
e	e
r	r

__BEGIN__	__EPS__
m	m
i	i
c	c
h	h

__BEGIN__	__EPS__
d	d
a	a
s	ss

__BEGIN__	__EPS__
z	z
v	u

__BEGIN__	__EPS__
i	i
n	n

__BEGIN__	__EPS__
w	w
o	o
l	ll
t	te

__BEGIN__	__EPS__
y	je

__BEGIN__	__EPS__
d	d
y	i
e	e

__BEGIN__	__EPS__
w	w
i	i
l	ll

__BEGIN__	__EPS__
i	j
h	__EPS__
e	e
s	s
u	u
s	s

__BEGIN__	__EPS__
r	r
o	o
t	t

__BEGIN__	__EPS__
e	ei
n	n

__BEGIN__	__EPS__
w	w
a	o
n	h
n	__EPS__
e	e
n	r

__BEGIN__	__EPS__
m	m
e	e
i	i
n	n

__BEGIN__	__EPS__
d	d
e	e
n	n
n	n

__BEGIN__	__EPS__
d	d
u	u

__BEGIN__	__EPS__
g	g
e	e
n	n
u	ü
g	g
e	__EPS__
t	te

__BEGIN__	__EPS__
m	m
i	i
t	t

__BEGIN__	__EPS__
s	s
a	a
n	n
d	dte

__BEGIN__	__EPS__
d	d
o	a

__BEGIN__	__EPS__
w	w
a	a
r	r
t	d

__BEGIN__	__EPS__
m	m
i	i
c	c
h	h

__BEGIN__	__EPS__
s	sch
l	l
o	ö
z	s
z	s
e	er
n	n

__BEGIN__	__EPS__
w	w
i	i
r	r
t	t
i	i
n	n

__BEGIN__	__EPS__
v	u
n	n
d	d

__BEGIN__	__EPS__
i	ih
n	n

__BEGIN__	__EPS__
d	d
v	u

__BEGIN__	__EPS__
s	s
a	a
n	nd
t	te

__BEGIN__	__EPS__
o	o
b	b

__BEGIN__	__EPS__
o	o
f	b
f	__EPS__

__BEGIN__	__EPS__
n	n
e	eh
m	m
e	e
n	n

__BEGIN__	__EPS__
r	r
ü	u
w	h
e	__EPS__
t	t
e	e

__BEGIN__	__EPS__
n	n
i	ich
t	t

__BEGIN__	__EPS__
w	w
i	i
r	r

__BEGIN__	__EPS__
d	d
o	a

__BEGIN__	__EPS__
s	s
i	e
e	i
n	n
e	e

__BEGIN__	__EPS__
m	m
i	i
t	t

__BEGIN__	__EPS__
m	m
i	i
r	r

__BEGIN__	__EPS__
e	e
r	r

__BEGIN__	__EPS__
h	h
a	a
t	t

__BEGIN__	__EPS__
d	d
e	e
r	r

__BEGIN__	__EPS__
d	d
e	e
m	m

__BEGIN__	__EPS__
t	t
u	u
n	n
t	__EPS__

__BEGIN__	__EPS__
s	s
i	i
j	e

__BEGIN__	__EPS__
e	e
r	r

__BEGIN__	__EPS__
w	w
a	a
r	r

__BEGIN__	__EPS__
f	f
r	r
a	a
u	u
w	__EPS__
e	__EPS__

__BEGIN__	__EPS__
d	d
u	u

__BEGIN__	__EPS__
u	u
m	ms
b	c
e	h
s	ri
a	e
g	be
t	n

__BEGIN__	__EPS__
w	w
a	a
n	n
d	n

__BEGIN__	__EPS__
h	h
o	ö
i	__EPS__
r	r
t	t
e	e

__BEGIN__	__EPS__
f	f
r	re
u	u
n	n
t	d

__BEGIN__	__EPS__
d	d
e	e
s	s

__BEGIN__	__EPS__
v	u
n	n
d	d

__BEGIN__	__EPS__
k	k
a	a
m	m

__BEGIN__	__EPS__
h	h
i	i
n	n
g	g
e	e
n	n

__BEGIN__	__EPS__
g	g
e	e
s	s
p	p
r	r
a	o
c	c
h	h
e	e
n	n

__BEGIN__	__EPS__
d	d
i	i
e	e

__BEGIN__	__EPS__
f	f
a	a
l	l
s	s
c	c
h	h
e	e

__BEGIN__	__EPS__
n	n
u	un

__BEGIN__	__EPS__
w	w
i	ie
d	d
e	e
r	r

__BEGIN__	__EPS__
v	u
n	n
d	d

__BEGIN__	__EPS__
h	h
e	e
l	l
y	y

__BEGIN__	__EPS__
h	h
a	a
t	t
t	t
o	e
n	n

__BEGIN__	__EPS__
i	ih
m	m

__BEGIN__	__EPS__
s	s
p	p
r	r
a	a
c	c
h	h

__BEGIN__	__EPS__
g	g
r	r
o	o
s	s
s	s
e	e
n	n

__BEGIN__	__EPS__
h	h
i	i
l	l
f	f

__BEGIN__	__EPS__
w	w
a	ol
l	l
d	te

__BEGIN__	__EPS__
w	w
o	ah
r	r

__BEGIN__	__EPS__
i	u
n	n
d	d

__BEGIN__	__EPS__
d	d
e	e
m	m

__BEGIN__	__EPS__
b	b
e	e
r	r
i	i
c	c
h	h
t	t
e	e
n	n

__BEGIN__	__EPS__
v	u
n	n
d	d

__BEGIN__	__EPS__
s	s
o	o

__BEGIN__	__EPS__
m	m
e	e
y	i
n	n
e	e
m	m

__BEGIN__	__EPS__
a	a
n	n

__BEGIN__	__EPS__
p	p
y	i
l	l
a	a
t	t
u	u
s	s

__BEGIN__	__EPS__
k	k
a	a
m	m

__BEGIN__	__EPS__
w	w
.	a
.	r
.	__EPS__

__BEGIN__	__EPS__
e	e
r	r

__BEGIN__	__EPS__
v	u
n	n
d	d

__BEGIN__	__EPS__
a	a
n	n

__BEGIN__	__EPS__
i	ih
n	n

__BEGIN__	__EPS__
l	b
y	e
n	t
l	t
a	u
c	c
h	h

__BEGIN__	__EPS__
f	f
i	i
n	n
g	g
i	__EPS__
t	t

__BEGIN__	__EPS__
s	s
i	i
c	c
h	h

__BEGIN__	__EPS__
q	k
w	__EPS__
a	a
m	m

__BEGIN__	__EPS__
i	i
c	c
h	h

__BEGIN__	__EPS__
v	u
n	n
d	d
e	__EPS__

__BEGIN__	__EPS__
e	e
i	i
n	n

__BEGIN__	__EPS__
m	m
i	i
r	r

__BEGIN__	__EPS__
a	a
n	n

__BEGIN__	__EPS__
v	u
n	n
n	d

__BEGIN__	__EPS__
k	k
i	i
n	n
t	d

__BEGIN__	__EPS__
c	__EPS__
z	z
a	e
i	i
c	c
h	h
e	e
n	n

__BEGIN__	__EPS__
v	u
n	n
d	d

__BEGIN__	__EPS__
a	a
n	n

__BEGIN__	__EPS__
l	l
a	e
i	g
t	te

__BEGIN__	__EPS__
v	u
n	n
d	d

__BEGIN__	__EPS__
d	d
o	a

__BEGIN__	__EPS__
g	__EPS__
e	__EPS__
v	f
o	o
l	l
g	g
e	e
n	n

__BEGIN__	__EPS__
b	be
y	i

__BEGIN__	__EPS__
a	a
n	n

__BEGIN__	__EPS__
k	k
i	i
n	n
t	d

__BEGIN__	__EPS__
m	m
a	a
n	n

__BEGIN__	__EPS__
y	ih
r	r

__BEGIN__	__EPS__
s	s
o	oh
n	n

__BEGIN__	__EPS__
v	f
o	ü
i	__EPS__
r	r

__BEGIN__	__EPS__
i	ih
m	m

__BEGIN__	__EPS__
e	e
t	t

__BEGIN__	e
v	u
c	c
h	h

__BEGIN__	__EPS__
z	z
ü	u

__BEGIN__	__EPS__
v	u
n	n
d	d

__BEGIN__	__EPS__
h	h
i	i
e	e
s	ss

__BEGIN__	__EPS__
e	e
r	r
l	l
o	ö
s	s
e	__EPS__
t	t

__BEGIN__	__EPS__
l	l
y	ie
b	b
e	e

__BEGIN__	__EPS__
d	d
a	a
s	ss

__BEGIN__	__EPS__
f	f
r	r
a	a
g	g
e	e
n	n

__BEGIN__	__EPS__
e	e
y	i
n	n
s	s
t	t
i	ie
s	s
s	s
e	e

__BEGIN__	__EPS__
h	h
y	i
n	n
n	n
e	en

__BEGIN__	__EPS__
d	d
e	e
n	n

__BEGIN__	__EPS__
d	d
o	a

__BEGIN__	__EPS__
h	h
e	e
r	r
c	__EPS__
z	z

__BEGIN__	__EPS__
h	h
e	e
r	r
t	__EPS__
z	z
e	g
n	e
l	l
i	i
e	e
b	bt
e	e
r	r

__BEGIN__	__EPS__
s	sch
l	l
a	a
i	ge
n	n

__BEGIN__	__EPS__
d	d
o	a

__BEGIN__	__EPS__
d	d
o	a

__BEGIN__	__EPS__
v	v
o	o
n	n

__BEGIN__	__EPS__
v	u
n	n
d	d

__BEGIN__	__EPS__
s	s
t	t
u	a
e	__EPS__
n	n
d	d

__BEGIN__	__EPS__
d	d
o	a

__BEGIN__	__EPS__
m	m
e	e
i	i
n	n

__BEGIN__	__EPS__
w	w
a	a
r	r
t	d

__BEGIN__	__EPS__
s	s
p	p
r	r
a	a
c	c
h	h

__BEGIN__	__EPS__
s	s
i	i
c	c
h	h

__BEGIN__	__EPS__
n	n
o	o
s	s
t	t
e	e
r	r

__BEGIN__	__EPS__
m	m
i	i
c	c
h	h

__BEGIN__	__EPS__
i	i
c	c
h	h

__BEGIN__	__EPS__
d	d
o	a

__BEGIN__	__EPS__
i	ih
n	n

__BEGIN__	__EPS__
w	w
e	u
s	ss
t	te

__BEGIN__	__EPS__
t	t
o	o
t	t
e	e
n	n

__BEGIN__	__EPS__
h	h
e	a
t	t

__BEGIN__	__EPS__
m	m
o	u
d	tt
e	e
r	r

__BEGIN__	__EPS__
k	k
r	r
e	e
u	u
c	__EPS__
z	z
i	i
g	g
e	__EPS__
t	t

__BEGIN__	__EPS__
e	e
r	r

__BEGIN__	__EPS__
a	e
y	i
n	n
g	g
e	e
p	b
o	o
r	r
e	e
n	ne
s	s

__BEGIN__	__EPS__
d	d
o	a

__BEGIN__	__EPS__
h	h
e	e
l	l
i	i
a	a
m	m

__BEGIN__	__EPS__
i	i
c	c
h	h

__BEGIN__	__EPS__
s	s
a	o
l	ll
t	t

__BEGIN__	__EPS__
w	w
a	a
s	r

__BEGIN__	__EPS__
f	f
u	a
n	n
d	d
e	e
n	n

__BEGIN__	__EPS__
a	a
l	l
s	s
e	__EPS__

__BEGIN__	__EPS__
m	m
i	i
r	r

__BEGIN__	__EPS__
n	n
a	a
c	c
h	h

__BEGIN__	__EPS__
m	m
i	i
r	r

__BEGIN__	__EPS__
w	w
a	a
r	r
d	d

__BEGIN__	__EPS__
i	ih
n	n

__BEGIN__	__EPS__
l	l
a	a
n	n
g	g

__BEGIN__	__EPS__
t	t
o	o
t	t
e	e
n	n

__BEGIN__	__EPS__
v	u
n	n
d	d

__BEGIN__	__EPS__
a	a
l	l
l	l
e	e

__BEGIN__	__EPS__
w	w
a	ah
r	r

__BEGIN__	__EPS__
s	s
a	ol
l	l
t	t

__BEGIN__	__EPS__
k	k
i	i
n	n
t	d

__BEGIN__	__EPS__
s	s
i	i
e	e

__BEGIN__	__EPS__
m	m
i	i
t	t

__BEGIN__	__EPS__
d	d
i	i
e	e

__BEGIN__	__EPS__
t	t
r	r
a	a
g	g
e	e
n	n

__BEGIN__	__EPS__
k	k
i	i
n	n
t	d

__BEGIN__	__EPS__
v	u
n	n
d	d

__BEGIN__	__EPS__
p	wa
i	r
t	t
e	ete
n	n

__BEGIN__	__EPS__
v	u
n	n
d	d

__BEGIN__	__EPS__
v	u
n	n
d	d

__BEGIN__	__EPS__
d	d
a	a

__BEGIN__	__EPS__
s	s
c	c
h	h
r	r
e	e
y	i
b	be

__BEGIN__	__EPS__
d	d
i	i
e	e

__BEGIN__	__EPS__
d	d
e	e
n	n
n	n
e	__EPS__

__BEGIN__	__EPS__
s	s
e	e
i	i
l	l

__BEGIN__	__EPS__
v	u
r	r
t	t
e	e
i	i
l	l
d	__EPS__
e	e

__BEGIN__	__EPS__
s	sch
l	l
o	o
z	s
e	s

__BEGIN__	__EPS__
v	u
n	n
d	d

__BEGIN__	__EPS__
s	s
p	p
r	r
a	a
c	c
h	h

__BEGIN__	__EPS__
g	g
a	e
i	i
s	s
t	t

__BEGIN__	__EPS__
m	m
e	e
i	i
n	ne
s	s

__BEGIN__	__EPS__
s	s
e	ä
u	u
l	l
e	e

__BEGIN__	__EPS__
d	d
e	e
r	r

__BEGIN__	__EPS__
a	a
n	n
c	t
z	__EPS__
l	l
i	i
c	t
z	z
e	e

__BEGIN__	__EPS__
f	f
a	a
l	l
s	s
c	c
h	h

__BEGIN__	__EPS__
c	__EPS__
z	z
u	u

__BEGIN__	__EPS__
d	d
i	i
e	e

__BEGIN__	__EPS__
m	m
u	u
s	ss
t	t
e	e
n	n

__BEGIN__	__EPS__
w	w
i	i
l	ll

__BEGIN__	__EPS__
l	l
e	e
d	d
i	i
g	g

__BEGIN__	__EPS__
s	s
i	ie

__BEGIN__	__EPS__
w	w
a	a
s	s

__BEGIN__	__EPS__
g	g
e	e
g	g
e	e
n	n

__BEGIN__	__EPS__
r	r
a	e
i	i
n	n
e	e
n	n

__BEGIN__	__EPS__
b	b
e	e
i	i
d	d
e	e

__BEGIN__	__EPS__
h	h
e	a
t	tt
e	e

__BEGIN__	__EPS__
n	n
i	i
c	c
h	h
t	t

__BEGIN__	__EPS__
m	m
i	i
t	t

__BEGIN__	__EPS__
h	h
a	a
u	u
p	p
t	t

__BEGIN__	__EPS__
d	d
a	a
z	s

__BEGIN__	__EPS__
s	s
t	t
y	i
m	mm
e	e

__BEGIN__	__EPS__
w	w
u	a
r	r
f	f
f	__EPS__
e	e
n	n

__BEGIN__	__EPS__
e	e
t	t
w	w
a	a
s	s
z	__EPS__

__BEGIN__	__EPS__
s	s
c	c
h	h
r	r
e	e
i	ie

__BEGIN__	__EPS__
d	d
e	e
i	i
n	n

__BEGIN__	__EPS__
v	u
n	n
d	d

__BEGIN__	__EPS__
z	z
a	a
r	r
t	t
e	e
r	r

__BEGIN__	__EPS__
i	i
c	c
h	h

__BEGIN__	__EPS__
m	m
i	i
r	r

__BEGIN__	__EPS__
t	t
o	o
t	t

__BEGIN__	__EPS__
h	h
e	a
t	t

__BEGIN__	__EPS__
g	g
e	e
s	s
p	p
r	r
o	o
c	c
h	h
e	e
n	n

__BEGIN__	__EPS__
h	h
y	i
n	n
n	n
e	en

__BEGIN__	__EPS__
w	w
o	o
r	r
t	t

__BEGIN__	__EPS__
o	o
w	w
e	eh

__BEGIN__	__EPS__
v	u
n	n
n	d

__BEGIN__	__EPS__
v	u
n	n
d	d

__BEGIN__	__EPS__
m	m
a	a
n	nn

__BEGIN__	__EPS__
v	u
n	n
r	r
e	e
c	c
h	h
t	t

__BEGIN__	__EPS__
d	d
o	a

__BEGIN__	__EPS__
b	b
o	ö
e	__EPS__
s	s
e	e
r	r

__BEGIN__	__EPS__
s	s
p	p
r	r
a	a
c	c
h	h

__BEGIN__	__EPS__
m	m
e	e
i	i
n	n

__BEGIN__	__EPS__
v	v
o	o
n	n

__BEGIN__	__EPS__
i	ih
m	m

__BEGIN__	__EPS__
r	r
e	e
i	i
n	n
e	e
n	n

__BEGIN__	__EPS__
l	l
o	o
s	s
z	__EPS__

__BEGIN__	__EPS__
v	an
o	g
r	e
s	s
p	p
i	uc
e	k
t	t
e	e
n	n

__BEGIN__	__EPS__
y	i
m	h
e	m

__BEGIN__	__EPS__
a	a
l	l
l	l
e	e
m	m

__BEGIN__	__EPS__
i	j
u	u
d	d
e	e
n	n

__BEGIN__	__EPS__
m	m
i	i
t	t

__BEGIN__	__EPS__
v	u
n	n
s	s

__BEGIN__	__EPS__
d	d
o	a

__BEGIN__	__EPS__
s	s
i	e
j	i
n	n

__BEGIN__	__EPS__
h	h
i	i
e	e
s	s
z	s

__BEGIN__	__EPS__
d	d
i	i
e	e

__BEGIN__	__EPS__
g	__EPS__
e	__EPS__
s	s
a	ä
u	u
g	g
t	t
e	e
n	n

__BEGIN__	__EPS__
i	j
e	e

__BEGIN__	__EPS__
e	e
i	i
n	n
e	e
n	n

__BEGIN__	__EPS__
m	m
i	i
t	t

__BEGIN__	__EPS__
d	d
a	as
z	s

__BEGIN__	__EPS__
g	g
r	r
o	o
z	s
z	s
e	e
m	m

__BEGIN__	__EPS__
f	f
u	ü
e	s
s	s
z	e

__BEGIN__	__EPS__
a	a
n	n

__BEGIN__	__EPS__
s	e
u	i
n	n
d	z
e	e
r	__EPS__
l	l
e	n
i	__EPS__
c	__EPS__
h	__EPS__

__BEGIN__	__EPS__
t	__EPS__
z	z
o	u

__BEGIN__	__EPS__
d	d
a	a

__BEGIN__	__EPS__
h	h
o	ö
r	r
t	t
e	e
s	s
t	t

__BEGIN__	__EPS__
d	d
i	i
e	e

__BEGIN__	m
n	itt
o	a
n	g
c	s
z	z
e	e
i	i
t	t

__BEGIN__	__EPS__
g	g
e	e
s	sch
l	l
e	e
c	c
h	h
t	t

__BEGIN__	__EPS__
s	s
p	p
r	r
a	a
c	c
h	h

__BEGIN__	__EPS__
e	e
s	s

__BEGIN__	__EPS__
k	k
r	r
o	o
n	ne

__BEGIN__	__EPS__
e	e
s	s
s	s
e	__EPS__
i	i
c	__EPS__
h	g

__BEGIN__	__EPS__
i	i
n	n

__BEGIN__	__EPS__
d	d
e	e
m	m

__BEGIN__	__EPS__
z	z
o	u

__BEGIN__	__EPS__
h	h
a	e
i	i
s	s
s	s
z	t

__BEGIN__	__EPS__
g	g
e	e
s	s
c	c
h	h
a	a
c	__EPS__
h	h

__BEGIN__	__EPS__
d	d
i	i
e	e

__BEGIN__	__EPS__
o	au
c	c
h	h

__BEGIN__	__EPS__
t	zu

__BEGIN__	__EPS__
g	g
e	e
s	s
c	c
h	h
a	a
c	__EPS__
h	h

__BEGIN__	__EPS__
p	b
r	r
e	e
c	c
h	h
e	e
n	n

__BEGIN__	__EPS__
d	d
a	a
s	ss

__BEGIN__	__EPS__
d	d
e	e
n	nn

__BEGIN__	__EPS__
v	u
n	n
d	d

__BEGIN__	__EPS__
a	a
l	l
s	s
o	o

__BEGIN__	__EPS__
y	ih
n	n

__BEGIN__	__EPS__
w	w
e	e
h	h

__BEGIN__	__EPS__
t	t
u	u
e	e
n	n
t	d

__BEGIN__	__EPS__
g	g
i	i
n	n
g	g
e	e
n	n

__BEGIN__	__EPS__
m	m
i	i
e	__EPS__
r	r

__BEGIN__	__EPS__
m	m
v	u
e	t
t	t
e	e
r	r

__BEGIN__	__EPS__
c	k
a	a
y	i
p	p
h	h
a	a
s	s

__BEGIN__	__EPS__
g	g
e	e
s	s
c	c
h	h
e	e
h	h
e	e
n	n

__BEGIN__	__EPS__
w	w
i	i
e	e

__BEGIN__	__EPS__
v	v
i	ie
l	l

__BEGIN__	__EPS__
a	a
l	l
t	t

__BEGIN__	__EPS__
v	ü
e	__EPS__
b	b
e	e
l	l

__BEGIN__	__EPS__
a	a
l	l
s	s
o	o

__BEGIN__	__EPS__
i	j
e	ä
m	mm
e	e
r	r
l	l
i	i
c	c
h	h
e	e
n	n

__BEGIN__	__EPS__
z	z
a	a
r	r
t	t
e	e

__BEGIN__	__EPS__
d	d
e	e
r	r

__BEGIN__	__EPS__
f	f
u	üh
r	r
t	t

__BEGIN__	__EPS__
w	w
o	o
l	l
k	k
c	__EPS__
h	__EPS__
e	e
n	n

__BEGIN__	__EPS__
p	p
i	i
l	l
a	a
t	t
o	us

__BEGIN__	__EPS__
v	v
i	i
e	e
r	r

__BEGIN__	__EPS__
g	g
o	o
t	tt

__BEGIN__	__EPS__
d	d
e	e
m	m

__BEGIN__	__EPS__
a	a
b	b

__BEGIN__	__EPS__
t	t
o	o
d	d

__BEGIN__	__EPS__
v	u
n	n
d	d

__BEGIN__	__EPS__
v	v
o	o
n	n

__BEGIN__	__EPS__
d	de
i	i
n	n

__BEGIN__	__EPS__
g	g
e	e
b	b
e	e
n	n

__BEGIN__	__EPS__
w	w
a	a
r	r
e	e
n	n

__BEGIN__	__EPS__
m	m
i	i
t	t

__BEGIN__	__EPS__
p	p
h	f
e	e
n	n
n	n
y	i
g	g
e	e

__BEGIN__	__EPS__
v	b
n	i
z	s

__BEGIN__	__EPS__
i	j
h	__EPS__
e	e
s	s
u	us

__BEGIN__	__EPS__
m	m
y	ir

__BEGIN__	__EPS__
i	ih
n	n

__BEGIN__	__EPS__
u	u
n	n
d	d

__BEGIN__	__EPS__
m	m
a	a
r	r
i	i
a	a

__BEGIN__	__EPS__
d	d
a	a

__BEGIN__	__EPS__
d	d
i	i
c	e
z	s

__BEGIN__	__EPS__
n	n
i	i
c	c
h	h
t	t

__BEGIN__	__EPS__
t	z
e	u

__BEGIN__	__EPS__
s	s
c	c
h	h
a	e
y	i
d	t
e	e
l	l
n	n

__BEGIN__	__EPS__
d	d
a	a
s	s

__BEGIN__	__EPS__
v	u
m	m
f	f
i	i
n	n
g	g

__BEGIN__	__EPS__
v	u
n	n
d	d

__BEGIN__	__EPS__
e	e
i	i
n	n

__BEGIN__	__EPS__
d	d
a	a
n	n
n	n
e	e
n	n

__BEGIN__	__EPS__
d	d
i	i
e	e

__BEGIN__	__EPS__
d	d
i	i
e	e

__BEGIN__	__EPS__
v	u
n	n
d	d

__BEGIN__	__EPS__
t	__EPS__
z	z
e	u

__BEGIN__	__EPS__
g	g
e	e
w	w
a	a
n	nn

__BEGIN__	__EPS__
v	v
o	o
n	n

__BEGIN__	__EPS__
s	se
i	i
n	t
t	dem

__BEGIN__	__EPS__
n	n
i	i
t	ch
t	t

__BEGIN__	__EPS__
s	s
a	a
c	c
h	h
e	e

__BEGIN__	__EPS__
y	ih
n	n

__BEGIN__	__EPS__
d	d
o	a

__BEGIN__	__EPS__
y	i
n	n

__BEGIN__	__EPS__
s	s
y	ie

__BEGIN__	__EPS__
c	__EPS__
z	z
w	u

__BEGIN__	__EPS__
c	k
r	r
u	e
c	u
z	z
e	e

__BEGIN__	__EPS__
k	k
i	i
n	n
t	d

__BEGIN__	__EPS__
v	u
n	n
d	d

__BEGIN__	__EPS__
v	u
n	n
d	d

__BEGIN__	__EPS__
g	g
a	a
b	b

__BEGIN__	__EPS__
d	d
a	a
u	v
i	i
d	d

__BEGIN__	__EPS__
h	h
a	a
u	__EPS__
s	s
t	t

__BEGIN__	__EPS__
i	j
u	u
d	d
e	e
n	n

__BEGIN__	__EPS__
g	g
e	e
h	h
e	e
y	i
s	s
c	__EPS__
h	s
e	e
n	n

__BEGIN__	__EPS__
i	j
o	o
h	h
a	a
n	nn
e	e
s	s

__BEGIN__	__EPS__
b	b
r	r
u	a
c	c
h	h
e	e
n	n
t	__EPS__

__BEGIN__	__EPS__
a	a
b	b
e	e
r	r

__BEGIN__	__EPS__
v	u
n	n
d	d

__BEGIN__	__EPS__
v	v
o	o
n	n

__BEGIN__	__EPS__
s	s
y	ie

__BEGIN__	__EPS__
d	d
o	a

__BEGIN__	__EPS__
c	__EPS__
z	z
u	u

__BEGIN__	__EPS__
d	d
a	a

__BEGIN__	__EPS__
e	e
w	w
i	i
g	g
e	e
n	n

__BEGIN__	__EPS__
d	d
e	e
n	n

__BEGIN__	__EPS__
e	u
e	n
n	d

__BEGIN__	__EPS__
d	d
a	a
r	r

__BEGIN__	__EPS__
y	ih
r	r
e	e
n	n

__BEGIN__	__EPS__
h	h
e	e
r	r
c	__EPS__
z	z
e	e
n	n
l	l
a	e
i	i
d	d

__BEGIN__	__EPS__
a	a
n	n

__BEGIN__	__EPS__
g	g
a	a
s	s
s	s
e	e
n	n

__BEGIN__	__EPS__
i	i
s	s
t	t

__BEGIN__	__EPS__
h	h
e	ä
n	n
d	de

__BEGIN__	__EPS__
a	a
l	l
s	s

__BEGIN__	__EPS__
d	d
o	a

__BEGIN__	__EPS__
d	d
e	e
r	r

__BEGIN__	__EPS__
s	s
e	e
i	i
n	n

__BEGIN__	__EPS__
n	n
o	o
c	c
h	h

__BEGIN__	__EPS__
t	t
o	o
t	t

__BEGIN__	__EPS__
s	s
o	o

__BEGIN__	__EPS__
g	g
v	ü
o	__EPS__
t	t
i	e

__BEGIN__	__EPS__
s	s
i	i
e	e

__BEGIN__	__EPS__
r	re
i	i
c	c
h	h

__BEGIN__	__EPS__
s	s
c	c
h	h
a	a
n	n
d	d
e	e
n	n

__BEGIN__	__EPS__
l	le
i	i
c	c
h	hn
a	a
m	m
e	__EPS__

__BEGIN__	__EPS__
e	e
w	v
a	a
n	n
g	g
e	e
l	l
i	i
s	s
t	t

__BEGIN__	__EPS__
i	i
s	s
t	t

__BEGIN__	__EPS__
s	s
t	t
e	e
y	i
n	n
e	e

__BEGIN__	__EPS__
z	z
u	u
o	__EPS__

__BEGIN__	__EPS__
d	d
e	e
r	r

__BEGIN__	__EPS__
d	d
a	a
z	s

__BEGIN__	__EPS__
g	g
i	in
e	g

__BEGIN__	__EPS__
b	b
e	e
d	t
r	r
o	ü
i	__EPS__
f	b
f	__EPS__
n	n
i	i
s	s
s	s
e	e

__BEGIN__	__EPS__
h	h
e	e
r	r
o	o
d	d
e	e
s	s

__BEGIN__	__EPS__
v	v
a	a
t	t
t	__EPS__
e	e
r	r

__BEGIN__	__EPS__
d	d
o	a

__BEGIN__	__EPS__
e	e
r	r

__BEGIN__	__EPS__
v	v
o	o
n	n

__BEGIN__	__EPS__
z	t
a	r
h	__EPS__
e	ä
r	n
e	e
n	n

__BEGIN__	__EPS__
a	a
l	l
s	s
o	o

__BEGIN__	__EPS__
m	m
y	i
r	r

__BEGIN__	__EPS__
w	wä
r	r
e	e

__BEGIN__	__EPS__
s	s
o	o
n	h
e	n

__BEGIN__	__EPS__
g	g
e	eh

__BEGIN__	__EPS__
n	n
u	i
i	ch
t	t

__BEGIN__	__EPS__
a	a
l	l
r	l
e	er
l	l
i	i
e	e
f	b
s	s
t	t
e	e

__BEGIN__	__EPS__
a	a
n	n
s	s
h	__EPS__
e	e
l	l
m	m
u	__EPS__
s	__EPS__

__BEGIN__	__EPS__
w	w
i	i
s	s
s	s
e	e
n	n

__BEGIN__	__EPS__
a	a
u	u
c	c
h	h

__BEGIN__	__EPS__
d	d
i	i
c	c
h	h

__BEGIN__	__EPS__
h	h
e	a
t	t

__BEGIN__	__EPS__
d	d
e	e
r	r

__BEGIN__	__EPS__
i	ih
m	m

__BEGIN__	__EPS__
y	ih
m	m

__BEGIN__	__EPS__
v	u
n	n
s	s

__BEGIN__	__EPS__
a	a
n	n
s	s
e	e
l	l
m	m
e	__EPS__

__BEGIN__	__EPS__
l	l
i	i
e	e
f	b
f	__EPS__

__BEGIN__	__EPS__
d	d
a	a

__BEGIN__	__EPS__
w	w
e	e
i	i
n	n
e	e
n	n

__BEGIN__	__EPS__
h	h
e	e
r	r
t	__EPS__
z	z
e	e
n	n

__BEGIN__	__EPS__
d	d
a	a
z	ss

__BEGIN__	__EPS__
i	ih
n	n

__BEGIN__	__EPS__
i	j
o	o
h	h
a	a
n	n
n	n
e	e
s	s

__BEGIN__	__EPS__
y	j
e	e
z	t
u	__EPS__
n	z
t	t

__BEGIN__	__EPS__
b	b
e	e
r	r
i	i
c	c
h	h
t	tet

__BEGIN__	__EPS__
a	a
l	l
l	l
e	e

__BEGIN__	__EPS__
i	j
a	a
m	m
e	e
r	r

__BEGIN__	__EPS__
k	k
i	i
n	n
t	d

__BEGIN__	__EPS__
v	u
n	n
d	d

__BEGIN__	__EPS__
v	u
n	n
d	d

__BEGIN__	__EPS__
d	d
u	u

__BEGIN__	__EPS__
d	d
e	e
i	i
n	n

__BEGIN__	__EPS__
f	f
r	r
o	oh

__BEGIN__	__EPS__
l	l
i	i
e	e
b	b
e	e

__BEGIN__	__EPS__
d	d
e	e
r	r

__BEGIN__	__EPS__
k	k
i	i
n	n
t	d

__BEGIN__	__EPS__
d	d
i	i
r	r

__BEGIN__	__EPS__
i	ih
n	n

__BEGIN__	__EPS__
s	s
p	p
a	a
n	nne

__BEGIN__	__EPS__
c	k
h	__EPS__
i	i
n	n
t	d
h	h
a	e
i	i
t	t

__BEGIN__	__EPS__
v	v
a	a
t	t
e	e
r	r

__BEGIN__	__EPS__
w	w
i	i
e	e

__BEGIN__	__EPS__
g	g
r	r
o	os
s	s

__BEGIN__	__EPS__
a	a
n	n
t	t
l	l
u	__EPS__
i	i
t	tz

__BEGIN__	__EPS__
e	e
s	s

__BEGIN__	__EPS__
a	a
n	n
s	s
h	__EPS__
e	e
l	l
m	m
e	__EPS__

__BEGIN__	__EPS__
i	j
o	o
h	h
-	anne
s	s

__BEGIN__	__EPS__
e	e
r	r

__BEGIN__	__EPS__
d	d
e	e
m	m

__BEGIN__	__EPS__
h	h
a	a
u	u
p	pt

__BEGIN__	__EPS__
d	d
e	e
r	r

__BEGIN__	__EPS__
l	l
i	i
e	e
u	b
e	e

__BEGIN__	__EPS__
a	a
u	u
f	f

__BEGIN__	__EPS__
s	s
o	o
g	g

__BEGIN__	__EPS__
d	d
e	e
n	n

__BEGIN__	__EPS__
i	i
n	n

__BEGIN__	__EPS__
f	f
r	r
a	a
w	u
e	e
n	n

__BEGIN__	__EPS__
v	u
n	n
d	d

__BEGIN__	__EPS__
a	a
n	n
s	s
h	__EPS__
e	e
l	l
m	m
u	__EPS__
s	__EPS__

__BEGIN__	__EPS__
i	i
n	n

__BEGIN__	__EPS__
k	g
e	e
g	g
e	e
n	n

__BEGIN__	__EPS__
s	s
o	o

__BEGIN__	__EPS__
w	w
e	oh
l	l

__BEGIN__	__EPS__
z	z
u	u
o	__EPS__

__BEGIN__	__EPS__
s	s
t	t
i	i
e	e
s	s
s	s
e	e
n	n
n	__EPS__

__BEGIN__	__EPS__
h	h
o	o
r	r
t	t

__BEGIN__	__EPS__
i	i
n	n

__BEGIN__	__EPS__
w	w
i	i
e	e

__BEGIN__	__EPS__
s	s
y	ie

__BEGIN__	__EPS__
v	u
n	n
d	d

__BEGIN__	__EPS__
d	d
u	ü
n	n
c	k
h	__EPS__
e	__EPS__
t	t

__BEGIN__	__EPS__
o	o
d	d
e	e
r	r

__BEGIN__	__EPS__
h	h
o	o
c	c
h	h

__BEGIN__	__EPS__
g	g
a	a
l	l
l	l
v	e
n	n

__BEGIN__	__EPS__
a	a
l	l
s	s
o	o
e	__EPS__

__BEGIN__	__EPS__
s	s
o	o
r	r
g	g
e	e
n	n

__BEGIN__	__EPS__
s	s
y	ie

__BEGIN__	__EPS__
k	k
o	o
m	mm
e	e

__BEGIN__	__EPS__
i	j
a	a
c	c
o	o
b	b
i	u
z	s

__BEGIN__	__EPS__
d	d
e	e
n	m

__BEGIN__	__EPS__
d	d
a	a

__BEGIN__	__EPS__
d	d
e	e
r	r

__BEGIN__	__EPS__
d	d
i	i
c	c
h	h

__BEGIN__	__EPS__
n	n
i	i
c	c
h	h
t	t

__BEGIN__	__EPS__
d	d
a	a
r	r
a	a
u	u
s	s

__BEGIN__	__EPS__
e	e
r	r

__BEGIN__	__EPS__
g	g
o	ö
e	t
t	t
l	l
i	i
c	c
h	h
e	e

__BEGIN__	__EPS__
h	h
e	e
r	r
e	r

__BEGIN__	__EPS__
h	h
a	a
b	b
e	e
n	n

__BEGIN__	__EPS__
n	n
a	a
c	c
h	h

__BEGIN__	__EPS__
v	v
o	o
n	n

__BEGIN__	__EPS__
l	l
i	i
e	e
w	b
e	e

__BEGIN__	__EPS__
s	s
i	i
n	n
d	d

__BEGIN__	__EPS__
d	d
i	i
e	e

__BEGIN__	__EPS__
i	j
o	o
s	s
e	e
p	p
h	h

__BEGIN__	__EPS__
m	m
e	e
n	n
s	s
c	c
h	h
e	e
n	n

__BEGIN__	__EPS__
d	d
i	i
e	e

__BEGIN__	__EPS__
v	u
n	n
d	d

__BEGIN__	__EPS__
a	a
n	n

__BEGIN__	__EPS__
d	d
a	as
s	s

__BEGIN__	__EPS__
e	e
r	r

__BEGIN__	__EPS__
k	k
i	i
n	n
t	d

__BEGIN__	__EPS__
n	n
o	o
c	c
h	h

__BEGIN__	__EPS__
m	m
e	e
i	i
n	n
s	e
z	s

__BEGIN__	__EPS__
s	s
o	o

__BEGIN__	__EPS__
i	ih
m	m

__BEGIN__	__EPS__
d	d
v	u

__BEGIN__	__EPS__
s	s
a	a
g	g

__BEGIN__	__EPS__
v	ü
b	b
e	e
r	r

__BEGIN__	__EPS__
w	w
e	e
t	tt
e	e
r	r

__BEGIN__	__EPS__
a	e
i	i
n	n

__BEGIN__	__EPS__
s	s
o	o

__BEGIN__	__EPS__
v	u
n	n
d	d

__BEGIN__	__EPS__
m	m
e	e
i	i
n	n
e	e
n	n

__BEGIN__	__EPS__
s	s
p	p
r	r
e	e
c	c
h	h
e	e
n	n

__BEGIN__	__EPS__
l	l
i	i
e	e
u	b
e	e

__BEGIN__	__EPS__
g	g
r	r
a	a
b	b

__BEGIN__	__EPS__
v	v
e	e
r	r
w	w
a	a
n	n
d	d
e	e
l	l
t	t

__BEGIN__	a
v	u
f	f

__BEGIN__	__EPS__
m	m
i	i
c	c
h	h

__BEGIN__	__EPS__
v	u
n	n
n	d

