__BEGIN__	__EPS__
i	i
c	c
h	h

__BEGIN__	__EPS__
n	n
i	i
c	c
h	h
t	t

__BEGIN__	__EPS__
a	a
n	n
d	d
e	e
r	r
e	e

__BEGIN__	__EPS__
t	d
r	r
v	ü
c	c
h	k
t	t
o	e
n	n

__BEGIN__	__EPS__
b	b
e	e
g	g
e	eh
r	r
o	e
n	n

__BEGIN__	__EPS__
l	l
a	e
y	i
d	d
e	__EPS__

__BEGIN__	__EPS__
h	h
i	i
n	n
e	__EPS__
f	f
l	l
v	i
i	e
z	s
e	s
t	t

__BEGIN__	__EPS__
d	d
i	e
e	i
n	n

__BEGIN__	__EPS__
y	ih
n	n

__BEGIN__	__EPS__
v	v
o	o
n	n

__BEGIN__	__EPS__
b	b
e	__EPS__
l	le
i	i
b	b
e	e
n	n

__BEGIN__	__EPS__
s	s
y	ie

__BEGIN__	__EPS__
k	k
y	i
n	n
d	d
e	__EPS__

__BEGIN__	__EPS__
g	g
e	e
r	r
e	e
c	c
h	h
t	t
e	e
n	n

__BEGIN__	__EPS__
v	u
n	n
d	d

__BEGIN__	__EPS__
s	s
e	e
y	i
n	n
e	e

__BEGIN__	__EPS__
a	a
u	u
f	f
f	__EPS__

__BEGIN__	__EPS__
t	t
o	o
d	t

__BEGIN__	__EPS__
s	s
c	c
h	h
r	r
i	i
r	__EPS__
e	e
n	n

__BEGIN__	__EPS__
s	s
e	e
i	i
n	n

__BEGIN__	__EPS__
a	a
u	u
s	s
e	e
i	i
n	n
a	a
n	n
d	d
e	e
r	r

__BEGIN__	__EPS__
d	d
i	i
e	e

__BEGIN__	d
ü	u

__BEGIN__	__EPS__
m	m
i	i
t	t
t	t
a	e
y	i
l	le
n	n

__BEGIN__	__EPS__
i	u
n	n
d	d

__BEGIN__	__EPS__
s	se
y	i
n	n

__BEGIN__	__EPS__
g	g
e	e
n	n
o	o
m	mm
e	e
n	n

__BEGIN__	__EPS__
a	a
n	n
s	s
h	__EPS__
e	e
l	l
m	m

__BEGIN__	__EPS__
e	e
n	m
p	p
f	f
a	a
n	n
t	d

__BEGIN__	__EPS__
g	g
r	r
o	o
e	__EPS__
s	s
s	s
e	e

__BEGIN__	__EPS__
l	l
e	e
g	g
e	__EPS__
t	t
e	e
n	n

__BEGIN__	__EPS__
s	sch
l	l
ü	u
g	g
e	e
n	n

__BEGIN__	__EPS__
i	i
s	s
t	t

__BEGIN__	__EPS__
v	u
n	n
s	s

__BEGIN__	__EPS__
v	f
i	i
n	n
d	de
t	t

__BEGIN__	__EPS__
p	p
i	i
l	l
a	a
t	t
o	us

__BEGIN__	__EPS__
a	a
l	l
l	l
z	z
o	u
m	m
a	a
i	__EPS__
l	l
l	__EPS__

__BEGIN__	__EPS__
t	__EPS__
z	ze
o	r
r	r
i	i
s	s
s	s
e	e
n	n

__BEGIN__	__EPS__
e	e
s	s

__BEGIN__	__EPS__
m	m
u	u
t	tt
e	e
r	r

__BEGIN__	__EPS__
w	w
a	a
r	r
t	d

__BEGIN__	__EPS__
i	i
c	c
h	h

__BEGIN__	__EPS__
s	s
o	o
i	l
l	l
d	t
e	e

__BEGIN__	__EPS__
s	s
c	c
h	h
a	a
n	nd
t	t

__BEGIN__	__EPS__
s	s
e	e
i	i
n	n

__BEGIN__	__EPS__
e	e
i	i
n	n

__BEGIN__	__EPS__
d	d
i	i
e	e

__BEGIN__	__EPS__
d	d
i	i
e	e

__BEGIN__	__EPS__
d	d
e	i
w	e

__BEGIN__	__EPS__
m	m
i	i
t	t

__BEGIN__	__EPS__
e	e
r	r
s	s
t	t
a	a
r	r
r	r
e	__EPS__
t	te

__BEGIN__	__EPS__
i	ih
n	n

__BEGIN__	__EPS__
d	d
o	a

__BEGIN__	__EPS__
m	m
a	a
r	r
i	i
a	a

__BEGIN__	__EPS__
e	e
n	m
p	p
f	f
i	i
e	__EPS__
n	n
g	g

__BEGIN__	__EPS__
e	nich
n	t

__BEGIN__	__EPS__
o	o
f	b
f	__EPS__

__BEGIN__	__EPS__
m	m
e	e
i	i
n	n

__BEGIN__	__EPS__
d	d
u	u

__BEGIN__	__EPS__
h	h
y	ies
s	s

__BEGIN__	__EPS__
d	d
a	a
e	__EPS__
r	__EPS__
n	n
a	a
e	__EPS__
c	c
h	h

__BEGIN__	__EPS__
d	d
o	a

__BEGIN__	__EPS__
v	u
n	n
d	d

__BEGIN__	__EPS__
s	s
c	c
h	h
r	r
i	i
j	e
f	b
f	__EPS__

__BEGIN__	__EPS__
m	m
e	e
n	n
s	s
c	c
h	h
e	__EPS__

__BEGIN__	__EPS__
k	k
i	i
n	n
d	d

__BEGIN__	__EPS__
s	s
v	ü
o	s
z	si
e	g
k	k
e	e
i	i
t	t

__BEGIN__	__EPS__
w	k
e	l
e	ä
n	g
l	l
i	i
k	c
e	h
n	e

__BEGIN__	__EPS__
v	v
i	i
e	e
r	r
d	t
e	e
n	n

__BEGIN__	__EPS__
s	s
i	ie

__BEGIN__	__EPS__
d	d
a	a

__BEGIN__	__EPS__
m	m
e	e
y	i
n	n
e	e
n	n

__BEGIN__	__EPS__
g	g
e	e
r	r
i	i
c	c
h	h
t	t

__BEGIN__	__EPS__
l	l
i	i
e	e
b	b
e	e
n	n

__BEGIN__	__EPS__
m	m
i	i
c	c
h	h

__BEGIN__	__EPS__
d	d
e	e
r	r

__BEGIN__	__EPS__
d	d
e	e
r	r

__BEGIN__	__EPS__
i	i
n	n

__BEGIN__	__EPS__
d	d
i	i
e	e

__BEGIN__	__EPS__
g	g
r	r
o	o
s	s
s	s
e	e
m	m

__BEGIN__	__EPS__
s	s
p	p
r	r
a	a
c	c
h	h

__BEGIN__	__EPS__
k	k
e	e
n	n
n	n
e	e

__BEGIN__	__EPS__
i	u
n	n
d	d

__BEGIN__	__EPS__
s	s
u	ü
n	n
d	de

__BEGIN__	__EPS__
i	i
c	c
h	h

__BEGIN__	__EPS__
d	d
y	ie

__BEGIN__	__EPS__
a	a
l	l
l	l
e	e
s	s

__BEGIN__	__EPS__
d	d
o	a

__BEGIN__	__EPS__
d	d
e	e
m	m

__BEGIN__	__EPS__
h	h
a	a
t	t
t	t
e	e
n	n

__BEGIN__	__EPS__
e	n
n	icht

__BEGIN__	__EPS__
v	v
o	o
n	n

__BEGIN__	__EPS__
e	e
r	r
c	__EPS__
z	z
e	e
u	u
g	g
e	__EPS__
t	t

__BEGIN__	__EPS__
v	u
m	m
b	__EPS__
f	f
i	i
e	__EPS__
n	n
g	g

__BEGIN__	__EPS__
d	d
i	i
e	e

__BEGIN__	__EPS__
e	e
r	r
l	l
o	ö
s	s
e	__EPS__
t	t

__BEGIN__	__EPS__
i	ih
m	m

__BEGIN__	__EPS__
i	j
h	__EPS__
e	e
s	s
u	u
s	s

__BEGIN__	__EPS__
i	i
c	c
h	h

__BEGIN__	__EPS__
m	m
e	e
i	i
n	n

__BEGIN__	__EPS__
m	m
y	i
t	t

__BEGIN__	__EPS__
b	b
i	i
s	s
t	t

__BEGIN__	__EPS__
i	i
c	c
h	h

__BEGIN__	__EPS__
t	t
o	o
d	d
e	e

__BEGIN__	__EPS__
s	s
t	t
a	e
i	i
n	n

__BEGIN__	__EPS__
i	i
c	c
h	h

__BEGIN__	__EPS__
n	n
a	a
c	c
h	h

__BEGIN__	__EPS__
g	g
r	r
v	u
n	n
d	d
e	e
l	l
o	o
s	s
v	e
n	n

__BEGIN__	__EPS__
s	s
i	i
e	e

__BEGIN__	__EPS__
s	s
a	a
c	__EPS__
h	h

__BEGIN__	__EPS__
v	u
n	n
t	t
t	__EPS__
e	e
r	r

__BEGIN__	__EPS__
v	u
n	n
d	d

__BEGIN__	__EPS__
y	ih
n	n

__BEGIN__	__EPS__
n	n
ü	u
n	n

__BEGIN__	__EPS__
m	m
o	ö
r	r
d	d
e	e
r	r

__BEGIN__	__EPS__
d	d
a	a
z	ss

__BEGIN__	__EPS__
r	r
u	u
o	h
w	t
e	e
t	__EPS__

__BEGIN__	__EPS__
d	d
a	a

__BEGIN__	__EPS__
a	a
n	n

__BEGIN__	__EPS__
u	an
e	g
r	e
s	s
p	p
u	e
w	__EPS__
e	i
n	t

__BEGIN__	__EPS__
f	f
r	r
a	a
g	g
t	t

__BEGIN__	__EPS__
d	d
e	e
r	r

__BEGIN__	__EPS__
e	e
n	m
p	p
h	f
i	i
e	__EPS__
n	n
g	g
e	e

__BEGIN__	__EPS__
d	d
a	a
s	s

__BEGIN__	__EPS__
w	w
o	o
l	ll
t	te

__BEGIN__	__EPS__
a	a
l	l
s	s
o	o

__BEGIN__	__EPS__
g	__EPS__
e	__EPS__
s	s
t	t
r	r
a	a
f	f
f	__EPS__
t	t
e	e

__BEGIN__	__EPS__
a	a
n	n

__BEGIN__	__EPS__
d	d
a	a
z	ss

__BEGIN__	__EPS__
a	a
n	n
s	s
h	__EPS__
e	e
l	l
m	m
e	__EPS__

__BEGIN__	__EPS__
g	g
e	e
p	b
o	o
r	re
n	n

__BEGIN__	__EPS__
g	g
e	e
l	l
o	a
u	u
f	f
f	__EPS__
e	e
n	n

__BEGIN__	__EPS__
d	d
e	e
r	r

__BEGIN__	__EPS__
g	g
e	e
r	r
i	ic
h	h
t	t

__BEGIN__	__EPS__
e	e
r	r

__BEGIN__	n
e	ich
n	t

__BEGIN__	__EPS__
m	m
i	i
c	c
h	h

__BEGIN__	__EPS__
f	f
r	r
e	e
w	u
n	n
d	d
e	e
n	n

__BEGIN__	__EPS__
n	n
i	i
c	c
h	h
t	t

__BEGIN__	__EPS__
v	u
n	n
d	d

__BEGIN__	__EPS__
k	k
o	a
m	m

__BEGIN__	__EPS__
v	u
n	n
d	d

__BEGIN__	__EPS__
m	m
e	e
i	i
n	n

__BEGIN__	__EPS__
s	s
i	i
c	c
h	h

__BEGIN__	__EPS__
l	le
y	i
d	d
e	e
s	s

__BEGIN__	__EPS__
e	e
r	r

__BEGIN__	__EPS__
g	t
e	ü
w	c
a	__EPS__
e	h
r	t
i	i
u	ge

__BEGIN__	__EPS__
p	p
e	e
t	t
r	r
u	u
s	s

__BEGIN__	__EPS__
t	t
a	a
g	g
i	__EPS__
z	s

__BEGIN__	__EPS__
v	u
n	n
n	d

__BEGIN__	__EPS__
k	k
u	o
m	m
b	me

__BEGIN__	__EPS__
i	j
h	__EPS__
e	e
s	s
u	u
s	s
z	__EPS__

__BEGIN__	__EPS__
i	i
c	c
h	h

__BEGIN__	__EPS__
g	g
r	r
o	o
z	s
z	s
e	e

__BEGIN__	__EPS__
r	r
i	i
t	t
t	t
e	e
r	r

__BEGIN__	__EPS__
i	j
a	a
v	m
m	m
e	e
r	r

__BEGIN__	__EPS__
s	sc
w	h
a	w
i	e
r	r
l	l
i	i
c	c
h	h

__BEGIN__	__EPS__
m	m
o	o
c	c
h	h
t	te

__BEGIN__	d
u	u

__BEGIN__	__EPS__
s	s
p	p
r	r
a	a
c	c
h	h

__BEGIN__	__EPS__
b	b
y	i
s	s
z	__EPS__

__BEGIN__	__EPS__
h	h
u	o
b	b

__BEGIN__	__EPS__
l	l
e	e
i	i
b	b
e	__EPS__

__BEGIN__	__EPS__
m	m
a	a
c	c
h	he

__BEGIN__	__EPS__
c	k
h	__EPS__
i	i
n	n
d	d

__BEGIN__	__EPS__
k	k
u	o
m	m
b	m
t	t

__BEGIN__	__EPS__
m	me
i	i
n	n

__BEGIN__	__EPS__
m	m
e	e
n	n
s	s
c	c
h	h
e	e
n	n

__BEGIN__	__EPS__
d	d
a	a
s	s

__BEGIN__	__EPS__
v	u
n	n
d	d

__BEGIN__	__EPS__
v	v
e	e
r	r
d	d
a	a
m	mm
n	n
ü	i
s	s
z	__EPS__

__BEGIN__	__EPS__
i	i
n	n

__BEGIN__	__EPS__
r	r
e	e
d	d
e	e

__BEGIN__	__EPS__
v	u
m	m
b	__EPS__
e	__EPS__

__BEGIN__	__EPS__
n	n
i	i
c	c
h	h
t	t

__BEGIN__	__EPS__
m	m
i	i
r	r

__BEGIN__	__EPS__
s	s
a	a
c	__EPS__
h	h

__BEGIN__	__EPS__
e	e
r	r
s	sc
h	h
v	ü
t	tt
e	erte

__BEGIN__	__EPS__
c	ch
r	r
i	i
s	s
t	tus

__BEGIN__	__EPS__
i	i
c	c
h	h

__BEGIN__	__EPS__
s	s
y	ie

__BEGIN__	__EPS__
d	d
a	a

__BEGIN__	__EPS__
m	m
i	i
t	t

__BEGIN__	__EPS__
h	h
o	o
c	c
h	h

__BEGIN__	__EPS__
f	f
i	i
e	__EPS__
n	n
g	g

__BEGIN__	__EPS__
i	j
a	a
e	m
m	m
e	e
r	r

__BEGIN__	__EPS__
v	v
i	ie
l	l

__BEGIN__	__EPS__
t	t
r	r
a	a
u	ue
r	r
e	__EPS__
n	n

__BEGIN__	__EPS__
d	d
e	e
r	r

__BEGIN__	__EPS__
l	l
e	e
g	g
t	t
e	e
n	n
d	__EPS__

__BEGIN__	__EPS__
z	z
u	u

__BEGIN__	__EPS__
w	w
o	o
r	r
d	d
e	e
n	n

__BEGIN__	__EPS__
i	ih
n	n

__BEGIN__	__EPS__
i	i
c	c
h	h

__BEGIN__	__EPS__
v	u
n	n
d	d

__BEGIN__	__EPS__
a	a
l	l
z	s

__BEGIN__	__EPS__
g	__EPS__
e	__EPS__
s	s
e	e
i	i
n	n

__BEGIN__	__EPS__
s	s
t	t
o	o
c	c
h	h
e	e
n	n

__BEGIN__	__EPS__
d	d
o	a

__BEGIN__	__EPS__
d	d
a	a
t	s

__BEGIN__	__EPS__
z	z
u	u

__BEGIN__	__EPS__
e	e
i	i
n	n

__BEGIN__	__EPS__
s	s
e	e
y	i
s	s
t	t

__BEGIN__	__EPS__
t	__EPS__
z	z
o	u

__BEGIN__	__EPS__
d	d
i	i
e	e

__BEGIN__	__EPS__
v	u
n	n
d	d

__BEGIN__	__EPS__
m	m
i	i
r	r

__BEGIN__	__EPS__
c	k
h	__EPS__
r	r
a	a
n	n
c	k
h	__EPS__
e	e
t	s

__BEGIN__	__EPS__
m	m
i	i
t	t

__BEGIN__	__EPS__
e	e
s	s

__BEGIN__	__EPS__
d	d
e	e
n	n

__BEGIN__	__EPS__
n	n
i	i
e	ch
t	t

__BEGIN__	__EPS__
h	h
o	a
u	u
f	p
f	__EPS__
t	t

__BEGIN__	__EPS__
j	j
o	u
e	__EPS__
d	d
e	e
n	n

__BEGIN__	__EPS__
d	d
a	a
s	ss

__BEGIN__	__EPS__
d	d
a	a
t	s

__BEGIN__	m
n	itt
o	a
n	g

__BEGIN__	__EPS__
m	m
a	a
n	n

__BEGIN__	__EPS__
m	m
i	i
t	t

__BEGIN__	__EPS__
t	t
r	r
u	u
g	g
s	s
t	t

__BEGIN__	__EPS__
e	e
r	r

__BEGIN__	__EPS__
a	a
l	l
l	l
e	e
n	n

__BEGIN__	__EPS__
b	b
r	r
o	u
d	d
e	e
r	r

__BEGIN__	__EPS__
v	f
i	i
n	n
d	d
e	e

__BEGIN__	__EPS__
i	i
s	st

__BEGIN__	__EPS__
e	e
r	r
t	t
a	e
i	i
l	l
t	t

__BEGIN__	__EPS__
d	d
e	e
r	r

__BEGIN__	__EPS__
s	s
t	t
r	r
a	a
f	__EPS__
f	f
e	e
n	n

__BEGIN__	__EPS__
p	p
i	i
l	l
a	a
t	t
u	u
s	s

__BEGIN__	__EPS__
v	u
n	n
d	d

__BEGIN__	__EPS__
l	l
e	e
g	g
t	t
e	e
n	n

__BEGIN__	__EPS__
v	u
n	n
d	d

__BEGIN__	__EPS__
t	t
r	r
a	a
d	t
e	e
n	n

__BEGIN__	__EPS__
w	w
a	a
z	r

__BEGIN__	__EPS__
d	d
i	i
e	e

__BEGIN__	__EPS__
i	j
o	o
h	h
a	a
n	nn
e	e
s	s

__BEGIN__	__EPS__
i	i
n	n

__BEGIN__	__EPS__
i	ih
n	n

__BEGIN__	__EPS__
i	i
n	n

__BEGIN__	__EPS__
v	v
a	o
n	n

__BEGIN__	__EPS__
d	d
o	o
c	c
h	h

__BEGIN__	__EPS__
i	ih
n	n

__BEGIN__	__EPS__
s	s
e	e
i	i
n	n

__BEGIN__	__EPS__
y	i
m	h
e	m

__BEGIN__	__EPS__
s	s
t	t
u	u
n	n
t	de

__BEGIN__	__EPS__
d	d
o	a

__BEGIN__	__EPS__
d	d
i	ie
s	s
e	e

__BEGIN__	__EPS__
d	d
o	a

__BEGIN__	__EPS__
n	n
a	ah
m	m
e	e
n	n

__BEGIN__	__EPS__
m	m
u	u
t	tt
e	e
r	r

__BEGIN__	__EPS__
a	a
l	l
s	s

__BEGIN__	__EPS__
h	e
e	r

__BEGIN__	__EPS__
d	d
o	a

__BEGIN__	__EPS__
v	ü
i	__EPS__
b	b
e	e
r	r
s	s
i	i
c	c
h	htig

__BEGIN__	__EPS__
v	u
n	n
s	s
e	e
r	r

__BEGIN__	__EPS__
s	se
y	i
d	t
e	e

__BEGIN__	__EPS__
v	v
o	o
n	n

__BEGIN__	__EPS__
y	ih
n	n

__BEGIN__	__EPS__
m	m
a	ah
n	ne

__BEGIN__	n
e	ich
n	t

__BEGIN__	__EPS__
s	s
p	p
r	r
a	a
c	c
h	h

__BEGIN__	__EPS__
g	g
e	e
w	w
a	a
n	n
t	d

__BEGIN__	__EPS__
d	d
o	a

__BEGIN__	__EPS__
d	d
o	a

__BEGIN__	__EPS__
a	a
n	n
t	t
b	w
ü	o
r	r
t	t
e	e
n	n

__BEGIN__	__EPS__
g	g
e	e
w	w
a	a
n	nn

__BEGIN__	__EPS__
m	m
i	i
r	r

__BEGIN__	__EPS__
v	u
n	n
d	d

__BEGIN__	__EPS__
t	t
o	o
d	__EPS__
t	t
e	e
n	n

__BEGIN__	__EPS__
d	d
i	i
e	e

__BEGIN__	__EPS__
e	e
y	i
n	n
e	e
n	m

__BEGIN__	__EPS__
w	w
i	ie
d	d
e	e
r	r
m	m
a	a
c	c
h	h
e	e
n	n

__BEGIN__	__EPS__
f	f
r	r
e	e
w	u
n	n
t	d
e	e
n	n

__BEGIN__	__EPS__
p	b
i	i
n	n

__BEGIN__	__EPS__
s	s
t	t
u	a
n	n
d	d

__BEGIN__	__EPS__
e	e
r	r
f	f
ü	ü
l	l
l	l
e	e
t	t

__BEGIN__	__EPS__
d	d
o	a

__BEGIN__	__EPS__
a	a
r	r
m	m

__BEGIN__	__EPS__
v	f
o	u
i	h
r	r

__BEGIN__	__EPS__
a	a
u	u
s	s
z	__EPS__
g	g
e	e
f	f
u	ü
i	h
r	r
t	t

__BEGIN__	__EPS__
v	u
n	n
d	d

__BEGIN__	__EPS__
g	g
o	o
t	tt
e	e
s	s
s	s
u	oh
n	n

__BEGIN__	__EPS__
v	v
o	o
n	n

__BEGIN__	__EPS__
l	l
i	ie
g	g
t	t

__BEGIN__	__EPS__
d	d
e	eh
n	n
t	t
e	e
n	n

__BEGIN__	__EPS__
s	sch
w	w
a	a
c	c
h	h

__BEGIN__	__EPS__
a	a
n	n

__BEGIN__	__EPS__
m	m
e	e
i	i
n	n
e	e
m	m

__BEGIN__	__EPS__
o	o

__BEGIN__	__EPS__
n	n
a	e
y	i
g	g
e	__EPS__
t	t

__BEGIN__	__EPS__
d	d
o	a

__BEGIN__	__EPS__
e	e
r	r

__BEGIN__	__EPS__
d	d
o	a

__BEGIN__	__EPS__
k	k
r	r
a	a
n	n
k	k
c	__EPS__
h	h
a	e
i	i
d	t

__BEGIN__	__EPS__
i	i
c	c
h	h

__BEGIN__	__EPS__
i	i
c	c
h	h

__BEGIN__	__EPS__
c	k
r	re
u	u
c	z
e	i
g	ge

__BEGIN__	__EPS__
e	e
r	r

__BEGIN__	__EPS__
d	d
e	e
r	r

__BEGIN__	__EPS__
g	g
o	o
t	t
t	t
e	e
s	s

__BEGIN__	__EPS__
m	m
o	o
c	c
h	h
t	t
e	e

__BEGIN__	__EPS__
v	u
n	n
d	d

__BEGIN__	__EPS__
v	u
n	n
d	d

__BEGIN__	__EPS__
i	i
c	c
h	h

__BEGIN__	__EPS__
d	d
e	e
m	m

__BEGIN__	__EPS__
h	h
e	e
r	r
c	__EPS__
z	z
e	e
n	n

__BEGIN__	__EPS__
s	s
p	p
r	r
a	a
c	c
h	h
e	__EPS__

__BEGIN__	__EPS__
h	h
e	a
t	t

__BEGIN__	__EPS__
d	d
i	i
e	e

__BEGIN__	__EPS__
m	me
y	i
n	n
e	e
m	m

__BEGIN__	__EPS__
s	s
e	e
i	i
n	n

__BEGIN__	__EPS__
k	k
l	l
a	a
g	g
e	e

__BEGIN__	__EPS__
l	le
i	i
d	d
e	e
t	t

__BEGIN__	__EPS__
s	s
i	i
e	e

__BEGIN__	__EPS__
f	f
u	ü
s	s
s	s
e	e

__BEGIN__	__EPS__
p	b
r	r
w	u
n	nn
e	e
n	n

__BEGIN__	__EPS__
d	d
e	e
r	r

__BEGIN__	__EPS__
h	h
e	e
r	r

__BEGIN__	__EPS__
m	m
a	a
l	l

__BEGIN__	__EPS__
d	d
o	a

__BEGIN__	__EPS__
k	k
e	e
y	i
n	n

__BEGIN__	__EPS__
i	i
c	c
h	h

__BEGIN__	__EPS__
h	h
e	a
t	t

__BEGIN__	__EPS__
s	s
y	ie

__BEGIN__	__EPS__
g	g
e	e
w	w
a	a
n	n
t	d

__BEGIN__	__EPS__
d	d
a	a
i	__EPS__
r	__EPS__

__BEGIN__	__EPS__
v	u
n	n
d	d

__BEGIN__	__EPS__
s	s
e	e
i	i
n	n

__BEGIN__	__EPS__
p	p
i	i
l	l
a	a
t	t
u	u
s	s

__BEGIN__	__EPS__
s	se
y	i
n	n

__BEGIN__	__EPS__
d	d
u	u

__BEGIN__	__EPS__
v	u
n	n
d	d

__BEGIN__	__EPS__
a	a
n	n
d	d
e	e
r	re
n	n

__BEGIN__	__EPS__
n	n
i	ich
t	t

__BEGIN__	__EPS__
s	s
p	p
r	r
e	e
c	c
h	h
e	e
n	n

__BEGIN__	__EPS__
g	g
e	e
r	r
i	i
c	c
h	h
t	t

__BEGIN__	__EPS__
d	d
i	i
e	e

__BEGIN__	__EPS__
h	h
e	a
t	tt
e	e
n	n

__BEGIN__	__EPS__
k	k
a	a
m	men

__BEGIN__	__EPS__
t	t
i	i
t	t
u	u
s	s

__BEGIN__	__EPS__
e	e
w	u
e	e
r	r

__BEGIN__	__EPS__
i	i
n	n

__BEGIN__	__EPS__
r	r
i	ic
h	h
t	t
e	e
r	r

__BEGIN__	__EPS__
m	m
a	a
r	r
i	i
a	a

__BEGIN__	__EPS__
f	f
i	i
n	n
d	d
e	e
t	t

__BEGIN__	__EPS__
o	o
f	f
f	f
e	e
n	n

__BEGIN__	__EPS__
v	u
e	__EPS__
r	r
t	t
a	e
i	i
l	l

__BEGIN__	__EPS__
d	d
a	a
e	__EPS__

__BEGIN__	__EPS__
z	z
w	u

__BEGIN__	__EPS__
s	s
a	a
c	__EPS__
h	h
e	e
n	n

__BEGIN__	__EPS__
d	d
e	e
r	r

__BEGIN__	__EPS__
m	m
i	i
t	t

__BEGIN__	__EPS__
i	ih
n	n

__BEGIN__	__EPS__
d	d
i	i
e	e

__BEGIN__	__EPS__
n	n
i	ich
t	t

__BEGIN__	__EPS__
s	s
e	e
i	ine
m	m

__BEGIN__	__EPS__
m	l
y	i
n	e
n	b
e	e

__BEGIN__	__EPS__
v	u
n	n
d	d

__BEGIN__	__EPS__
v	v
o	o
n	n

__BEGIN__	__EPS__
i	ih
m	m

__BEGIN__	__EPS__
c	k
r	re
u	u
c	__EPS__
z	z
i	e
s	s

__BEGIN__	__EPS__
s	sch
w	w
e	e
r	r
t	t

__BEGIN__	__EPS__
c	__EPS__
z	z
u	__EPS__
o	o
g	g
e	e
n	n

__BEGIN__	__EPS__
a	a
u	u
f	f

__BEGIN__	__EPS__
u	a
f	u
f	f
g	g
e	e
r	r
i	i
c	c
h	h
t	tet

__BEGIN__	__EPS__
e	e
r	r

__BEGIN__	__EPS__
d	d
a	as
z	s

__BEGIN__	__EPS__
b	b
r	r
u	a
c	c
h	h
e	e
n	n
t	__EPS__

__BEGIN__	__EPS__
e	ä
g	g
i	y
p	p
t	t
i	e
n	n

__BEGIN__	__EPS__
l	l
e	e
i	g
t	t
t	__EPS__
e	e
n	n

__BEGIN__	__EPS__
s	s
i	ie

__BEGIN__	__EPS__
v	u
n	n
d	d

__BEGIN__	__EPS__
d	d
u	u

__BEGIN__	__EPS__
d	d
a	a
t	ss

__BEGIN__	__EPS__
d	d
a	a
s	s

__BEGIN__	__EPS__
e	e
r	r

__BEGIN__	__EPS__
a	a
l	l
l	l
e	e

__BEGIN__	__EPS__
c	__EPS__
h	k
a	a
m	m

__BEGIN__	__EPS__
i	ih
m	m

__BEGIN__	__EPS__
s	s
y	ie

__BEGIN__	__EPS__
e	nich
n	t

__BEGIN__	__EPS__
e	e
s	s
s	s
e	e
n	n

__BEGIN__	__EPS__
h	h
a	a
w	u
t	t

__BEGIN__	__EPS__
d	d
i	i
e	e

__BEGIN__	__EPS__
t	t
o	ö
e	__EPS__
d	t
e	e
n	n

__BEGIN__	__EPS__
a	a
n	n

__BEGIN__	__EPS__
v	u
n	n
d	d

__BEGIN__	__EPS__
d	d
y	i
r	r

__BEGIN__	__EPS__
s	s
p	p
r	r
a	a
c	c
h	h

__BEGIN__	__EPS__
d	d
o	a

__BEGIN__	__EPS__
w	w
o	o
l	ll
d	t
e	e

__BEGIN__	__EPS__
s	s
i	i
b	__EPS__
e	e
n	b
d	t
e	e
n	n

__BEGIN__	__EPS__
b	b
i	i
t	t
t	t
e	e
r	r
l	l
i	i
c	c
h	h
e	e
n	n

__BEGIN__	__EPS__
v	v
o	o
l	ll
b	b
r	r
a	a
c	c
h	h
t	t

__BEGIN__	__EPS__
s	s
e	e
i	i
n	n

__BEGIN__	__EPS__
d	d
y	ie

__BEGIN__	__EPS__
e	e
r	r
b	b
e	a
r	r
m	m
d	e
e	n

__BEGIN__	__EPS__
d	d
u	u
r	r
c	c
h	h

__BEGIN__	__EPS__
s	se
y	i
n	n

__BEGIN__	__EPS__
m	m
i	i
t	t

__BEGIN__	__EPS__
m	m
y	i
r	r

__BEGIN__	__EPS__
k	k
u	ö
i	n
n	i
g	g

__BEGIN__	__EPS__
s	s
y	ie

__BEGIN__	__EPS__
v	u
n	n
d	d

__BEGIN__	__EPS__
h	h
a	a
t	t

__BEGIN__	__EPS__
d	d
e	e
r	r

__BEGIN__	__EPS__
w	w
a	a
s	r

__BEGIN__	__EPS__
g	g
r	r
o	o
z	s
z	s
e	e
r	r

__BEGIN__	__EPS__
v	u
n	n
d	d

__BEGIN__	__EPS__
i	j
e	e
r	r
u	u
s	s
a	a
l	l
e	e
n	m

__BEGIN__	__EPS__
b	b
e	e
z	ss
e	e
r	r

__BEGIN__	__EPS__
s	s
a	a
c	__EPS__
h	h

__BEGIN__	__EPS__
b	b
e	e
y	i
n	n

__BEGIN__	__EPS__
m	a
a	u
l	ss
a	ät
r	z
y	i
s	g
c	e
h	r

__BEGIN__	__EPS__
o	o
w	w
e	eh

__BEGIN__	__EPS__
m	me
y	i
n	n
e	e
n	m

__BEGIN__	__EPS__
h	h
i	ä
e	t
t	te

__BEGIN__	__EPS__
d	d
a	a
s	s

__BEGIN__	__EPS__
a	a
l	l
l	l
e	e
n	n

__BEGIN__	__EPS__
n	n
i	i
c	c
h	h
t	t

__BEGIN__	__EPS__
v	u
n	n
d	d

__BEGIN__	__EPS__
l	le
i	i
b	b

__BEGIN__	__EPS__
s	s
p	p
r	r
a	a
c	c
h	h

__BEGIN__	__EPS__
w	w
i	i
l	l
l	l
e	e
n	n

__BEGIN__	__EPS__
d	d
e	e
n	n

__BEGIN__	__EPS__
s	s
i	ie

__BEGIN__	__EPS__
d	d
i	i
e	e
p	b

__BEGIN__	__EPS__
s	s
i	ie

__BEGIN__	__EPS__
t	t
a	a
g	g

__BEGIN__	__EPS__
w	w
o	o
l	ll
t	t

__BEGIN__	__EPS__
d	d
a	a
t	ss

__BEGIN__	__EPS__
c	__EPS__
z	z
u	ü
c	c
h	h
t	t
e	i
g	g
e	e

__BEGIN__	__EPS__
b	b
a	a
t	t

__BEGIN__	__EPS__
d	d
i	i
e	e

__BEGIN__	__EPS__
c	k
r	r
u	e
c	u
e	z

__BEGIN__	__EPS__
d	d
a	a

__BEGIN__	__EPS__
n	n
e	e
b	b
e	e
n	n
t	__EPS__

__BEGIN__	__EPS__
a	a
b	b

__BEGIN__	__EPS__
d	d
i	i
e	e

__BEGIN__	__EPS__
t	t
o	o
t	d
e	e
s	s

__BEGIN__	__EPS__
s	s
e	e
r	h
e	r

__BEGIN__	__EPS__
e	e
r	r

__BEGIN__	__EPS__
n	n
i	ich
t	t

__BEGIN__	__EPS__
d	d
u	u

__BEGIN__	__EPS__
s	s
a	a
c	__EPS__
h	h

__BEGIN__	__EPS__
s	s
p	p
r	r
a	a
c	c
h	h

__BEGIN__	__EPS__
m	me
i	i
n	n
e	e
s	s

__BEGIN__	__EPS__
a	a
n	n

__BEGIN__	h
e	e
b	b
r	r
e	ä
i	i
s	s
c	c
h	h

__BEGIN__	__EPS__
s	s
e	e
i	i
n	n
e	e
n	m

__BEGIN__	__EPS__
d	d
o	a

__BEGIN__	__EPS__
m	m
i	i
r	r

__BEGIN__	__EPS__
s	s
y	ie

__BEGIN__	__EPS__
m	m
e	e
i	i
n	n

__BEGIN__	__EPS__
z	z
a	ä
r	r
t	t
l	l
i	i
c	c
h	h

__BEGIN__	__EPS__
s	s
o	o
l	ll
t	t

__BEGIN__	__EPS__
n	n
u	u

__BEGIN__	__EPS__
n	n
i	ich
d	t

__BEGIN__	__EPS__
s	__EPS__
u	a
n	l
d	l
e	e
r	__EPS__
l	__EPS__
i	i
c	__EPS__
h	n

__BEGIN__	__EPS__
d	d
o	a

__BEGIN__	__EPS__
n	n
v	un

__BEGIN__	__EPS__
f	f
r	r
a	a
g	g
t	t

__BEGIN__	__EPS__
m	m
i	i
t	t

__BEGIN__	__EPS__
i	ih
n	n

__BEGIN__	__EPS__
i	i
c	c
h	h

__BEGIN__	__EPS__
e	i
n	n
m	m
i	i
t	t
t	t
e	e
n	n

__BEGIN__	__EPS__
r	r
e	e
c	c
h	h
t	t
e	__EPS__

__BEGIN__	__EPS__
i	j
h	__EPS__
e	e
r	r
u	u
s	s
a	a
l	l
e	e
m	m

__BEGIN__	__EPS__
m	m
a	a
r	r
i	i
a	a

__BEGIN__	__EPS__
v	u
n	n
d	d

__BEGIN__	__EPS__
b	b
a	a
t	t

__BEGIN__	__EPS__
v	u
n	n
d	d

__BEGIN__	__EPS__
v	u
n	n
d	d

__BEGIN__	__EPS__
c	c
e	e
n	n
t	t
u	u
r	r
i	i
o	o

__BEGIN__	__EPS__
w	w
i	i
e	e

__BEGIN__	__EPS__
d	d
a	a
s	s

__BEGIN__	__EPS__
w	we
y	i
s	ss
a	a
g	gung

__BEGIN__	__EPS__
v	u
n	n
d	d

__BEGIN__	__EPS__
d	d
a	a

__BEGIN__	__EPS__
e	e
n	m
p	p
h	f
i	i
e	__EPS__
n	n
g	g
e	e

__BEGIN__	__EPS__
g	g
r	r
o	o
s	s
z	s

__BEGIN__	__EPS__
l	l
u	i
f	e
f	f
e	e
n	n
d	__EPS__

__BEGIN__	__EPS__
i	ih
m	m

__BEGIN__	__EPS__
e	e
r	r
t	d
r	r
i	e
e	i
c	c
h	h

__BEGIN__	__EPS__
k	ge
ü	s
n	ch
n	l
e	echt

__BEGIN__	__EPS__
d	d
a	as
s	s

__BEGIN__	__EPS__
d	d
o	a

__BEGIN__	__EPS__
f	f
a	a
l	l
l	l
i	__EPS__
t	t

__BEGIN__	__EPS__
p	p
e	e
t	t
e	r
r	us

__BEGIN__	__EPS__
w	w
a	a
r	r
t	d

__BEGIN__	__EPS__
v	u
n	n
d	d

__BEGIN__	__EPS__
d	d
e	e
n	n
n	n
o	o
c	c
h	h

__BEGIN__	__EPS__
d	d
a	a
z	ss

__BEGIN__	__EPS__
k	k
i	i
n	n
t	d

__BEGIN__	__EPS__
t	t
r	r
a	a
g	g
e	e
n	n

__BEGIN__	__EPS__
g	__EPS__
e	__EPS__
c	__EPS__
z	z
e	e
w	u
g	g
e	e
n	n

__BEGIN__	__EPS__
s	s
e	eh
r	r
e	__EPS__

__BEGIN__	__EPS__
v	u
n	n
s	s

__BEGIN__	__EPS__
a	a
n	n
t	t
l	l
v	__EPS__
i	i
t	t
e	z

__BEGIN__	__EPS__
v	u
n	n
d	d

__BEGIN__	__EPS__
w	d
a	e
n	n
t	n

__BEGIN__	__EPS__
w	w
a	a
r	r
h	h
a	e
i	i
d	__EPS__
t	t

__BEGIN__	__EPS__
g	g
e	ä
b	b
e	e

__BEGIN__	__EPS__
m	m
i	i
t	t

__BEGIN__	__EPS__
m	m
a	a
g	g

__BEGIN__	__EPS__
s	s
o	o
l	ll

__BEGIN__	__EPS__
n	n
i	ich
t	t

__BEGIN__	__EPS__
e	i
m	h
e	m

__BEGIN__	__EPS__
i	j
h	__EPS__
e	e
s	s
u	u
s	s
z	__EPS__

__BEGIN__	__EPS__
j	e
s	s

__BEGIN__	__EPS__
a	a
l	l
l	l
e	e
n	n

__BEGIN__	__EPS__
d	d
i	i
r	r

__BEGIN__	__EPS__
m	me
y	i
n	n

__BEGIN__	__EPS__
g	g
o	o
t	tte
z	s

__BEGIN__	__EPS__
m	m
i	i
r	r

__BEGIN__	__EPS__
n	n
a	e
i	i
n	n

__BEGIN__	__EPS__
i	i
n	n

__BEGIN__	__EPS__
g	g
o	o
t	tt

__BEGIN__	__EPS__
d	d
o	o
c	c
h	h

__BEGIN__	__EPS__
h	h
i	ä
e	t
t	te

__BEGIN__	__EPS__
d	d
e	e
i	i
n	n

__BEGIN__	__EPS__
v	u
n	n
d	d

__BEGIN__	__EPS__
p	p
y	i
l	l
a	a
t	t
u	u
s	s

__BEGIN__	__EPS__
m	m
o	o
c	c
h	h
t	te

__BEGIN__	__EPS__
n	n
a	ah
t	t

__BEGIN__	__EPS__
d	d
u	u

__BEGIN__	__EPS__
a	a
n	n

__BEGIN__	__EPS__
y	irgendje
m	m
a	a
n	nd

__BEGIN__	__EPS__
z	z
u	uc
h	h
t	t

__BEGIN__	__EPS__
i	i
n	n

__BEGIN__	__EPS__
d	d
o	a

__BEGIN__	__EPS__
d	d
i	i
c	c
h	h

__BEGIN__	__EPS__
n	n
u	un

__BEGIN__	__EPS__
w	w
e	ä
r	re

__BEGIN__	__EPS__
v	v
o	o
n	n

__BEGIN__	__EPS__
w	w
a	a
r	r
f	__EPS__
f	f

__BEGIN__	__EPS__
s	s
p	p
o	o
t	t
t	t
e	e
n	n

__BEGIN__	__EPS__
v	u
n	n
d	d

__BEGIN__	__EPS__
p	p
y	i
l	l
a	a
t	t
o	us

__BEGIN__	__EPS__
v	u
n	n
d	t
e	e
r	r

__BEGIN__	__EPS__
w	w
o	o
i	__EPS__
r	r
t	t

__BEGIN__	__EPS__
e	e
i	i
n	n
e	e
r	r

__BEGIN__	__EPS__
i	j
a	a
c	c
o	o
b	b
i	u
z	s

__BEGIN__	__EPS__
v	v
i	ie
l	l

__BEGIN__	__EPS__
h	h
a	a
s	s
t	t

__BEGIN__	__EPS__
d	d
a	a

__BEGIN__	__EPS__
w	w
a	a
r	r
t	t
e	e
t	t

__BEGIN__	__EPS__
n	n
v	un

__BEGIN__	__EPS__
d	d
a	a
s	ss

__BEGIN__	__EPS__
g	g
e	e
t	t
a	e
i	i
l	l
t	t

__BEGIN__	__EPS__
s	s
o	o

__BEGIN__	__EPS__
d	d
a	a
s	s

__BEGIN__	__EPS__
p	p
i	i
l	l
o	a
t	t
v	u
s	s

__BEGIN__	__EPS__
h	e
i	__EPS__
e	r

__BEGIN__	__EPS__
c	k
h	__EPS__
i	i
n	n
t	d

__BEGIN__	__EPS__
m	m
e	e
y	i
n	n
e	e
m	m

__BEGIN__	__EPS__
m	m
i	i
t	t
a	e
i	i
n	n
a	a
n	n
d	d
e	e
r	r

__BEGIN__	__EPS__
s	s
e	e
i	i
n	n

__BEGIN__	__EPS__
h	h
a	a
t	t
t	t
i	e
n	n

__BEGIN__	__EPS__
s	s
t	t
e	ehe
n	n
d	d
e	e

__BEGIN__	__EPS__
w	w
o	o
r	r
d	d
e	e
n	n

__BEGIN__	__EPS__
w	b
e	__EPS__
l	l
e	ei
b	b
e	e
n	n

__BEGIN__	__EPS__
d	d
y	ie

__BEGIN__	__EPS__
s	s
v	oh
n	n

__BEGIN__	__EPS__
d	d
i	i
e	e

__BEGIN__	__EPS__
v	u
n	n
d	d

__BEGIN__	__EPS__
s	s
c	c
h	h
r	r
a	e
y	ie

__BEGIN__	__EPS__
s	s
a	a
g	g
e	e

__BEGIN__	__EPS__
c	k
h	__EPS__
u	ö
n	n
i	i
g	g
e	e

__BEGIN__	__EPS__
d	d
i	i
c	c
h	h

__BEGIN__	__EPS__
s	s
c	c
h	h
o	ö
e	__EPS__
n	n

__BEGIN__	__EPS__
g	g
e	e
b	b
a	a
r	r
s	s
t	t

__BEGIN__	__EPS__
i	ih
m	m

__BEGIN__	__EPS__
s	s
e	ee
l	le

__BEGIN__	__EPS__
k	k
i	i
n	n
d	d
e	e
s	s

__BEGIN__	__EPS__
m	m
e	e
i	i
n	n

__BEGIN__	__EPS__
w	w
a	a
n	n
n	n

__BEGIN__	__EPS__
w	w
i	e
j	i
f	b
f	__EPS__

__BEGIN__	__EPS__
r	r
o	oh
r	r

__BEGIN__	__EPS__
y	ih
m	m

__BEGIN__	__EPS__
i	i
c	c
h	h

__BEGIN__	__EPS__
a	a
u	u
c	c
h	h

__BEGIN__	__EPS__
v	f
o	__EPS__
r	r
w	a
e	u

__BEGIN__	__EPS__
s	s
c	c
h	h
u	u
c	__EPS__
h	h

__BEGIN__	__EPS__
n	n
v	u
r	r

__BEGIN__	__EPS__
s	s
y	ie

__BEGIN__	__EPS__
h	h
i	i
e	__EPS__
n	n
g	g
e	e
n	n

__BEGIN__	__EPS__
d	d
o	a

__BEGIN__	__EPS__
i	ih
m	m

__BEGIN__	__EPS__
m	me
i	i
n	n

__BEGIN__	__EPS__
a	a
n	n
t	t
l	l
u	i
c	t
z	z

__BEGIN__	__EPS__
w	w
a	a
t	s

__BEGIN__	__EPS__
a	a
u	u
f	f
g	g
e	e
s	s
t	t
a	a
n	n
d	d
e	e
n	n

__BEGIN__	__EPS__
a	a
l	l
s	s
z	__EPS__

__BEGIN__	__EPS__
m	m
i	i
t	t

__BEGIN__	__EPS__
z	z
w	u

__BEGIN__	__EPS__
w	w
i	ie
d	d
e	e
r	r

__BEGIN__	__EPS__
n	n
i	i
c	c
h	h
t	t

__BEGIN__	__EPS__
s	s
e	e
i	i
n	n

__BEGIN__	__EPS__
i	j
a	a

__BEGIN__	__EPS__
i	ih
r	r
e	e
n	n

__BEGIN__	__EPS__
s	s
y	ie

__BEGIN__	__EPS__
s	s
c	c
h	h
a	a
r	r
p	__EPS__
f	f
f	__EPS__

__BEGIN__	__EPS__
k	k
i	i
n	n
t	d

__BEGIN__	__EPS__
e	e
r	r
t	d
r	r
i	e
j	i
c	c
h	h

__BEGIN__	__EPS__
v	u
n	n
d	d

__BEGIN__	__EPS__
d	d
a	a
s	s

__BEGIN__	__EPS__
d	d
c	as

__BEGIN__	__EPS__
w	w
a	a
s	r

__BEGIN__	__EPS__
d	d
a	as
z	s

__BEGIN__	__EPS__
i	ih
m	m

__BEGIN__	__EPS__
m	m
e	e
i	i
n	n
e	e
m	m

__BEGIN__	__EPS__
g	g
e	e
s	s
c	c
h	h
r	r
a	e
i	i

__BEGIN__	__EPS__
s	s
p	p
r	r
a	a
c	c
h	h

__BEGIN__	__EPS__
e	e
n	m
p	p
h	f
a	a
n	n
g	g
e	e
n	n

__BEGIN__	__EPS__
y	ih
m	m

__BEGIN__	__EPS__
a	a
n	n
t	t
l	l
u	__EPS__
o	i
t	t
z	z

__BEGIN__	__EPS__
e	e
i	i
n	n

__BEGIN__	__EPS__
d	d
a	a
s	s

__BEGIN__	__EPS__
p	b
e	e
y	i

__BEGIN__	__EPS__
z	r
e	e
s	cht
e	e
m	n

__BEGIN__	__EPS__
d	d
i	i
e	e

__BEGIN__	__EPS__
e	e
r	r
f	f
u	ü
l	ll
t	t

__BEGIN__	__EPS__
a	a
l	l
s	s

__BEGIN__	__EPS__
v	b
n	i
t	__EPS__
z	s

__BEGIN__	__EPS__
f	f
a	a
s	s
t	t
e	__EPS__

__BEGIN__	__EPS__
i	i
c	c
h	h

__BEGIN__	__EPS__
s	sch
w	w
e	e
s	s
t	t
e	e
r	r

__BEGIN__	__EPS__
s	s
y	ie

__BEGIN__	__EPS__
s	s
ü	ü
n	n
d	de

__BEGIN__	__EPS__
d	da
z	s
s	s
e	e
l	l
b	b
e	e

__BEGIN__	__EPS__
s	s
y	ie

__BEGIN__	__EPS__
i	i
c	c
h	h

__BEGIN__	__EPS__
b	be
y	i

__BEGIN__	__EPS__
g	g
e	e
f	f
l	l
o	o
z	ss
e	e
n	n

__BEGIN__	__EPS__
b	b
e	e
g	g
r	r
ü	a
b	b
e	e

__BEGIN__	__EPS__
b	b
l	l
u	u
o	__EPS__
t	t

__BEGIN__	__EPS__
m	m
a	a
c	c
h	h
e	e
n	n

__BEGIN__	__EPS__
v	u
n	n
d	d

__BEGIN__	__EPS__
v	u
n	n
d	d

__BEGIN__	__EPS__
d	d
o	a

__BEGIN__	__EPS__
t	t
o	ö
t	t
t	__EPS__
e	e
t	t

__BEGIN__	__EPS__
p	p
i	i
l	l
a	a
t	t
v	u
s	s

__BEGIN__	__EPS__
i	i
s	s
t	t

__BEGIN__	__EPS__
e	e
r	r

__BEGIN__	__EPS__
m	me
y	i
n	n
e	e
n	m

__BEGIN__	__EPS__
a	a
l	l
l	l
e	e

__BEGIN__	__EPS__
d	d
o	a

__BEGIN__	__EPS__
f	f
r	r
e	e
w	u
n	n
t	d

__BEGIN__	__EPS__
y	j
e	e

__BEGIN__	__EPS__
w	w
a	a
s	r

__BEGIN__	__EPS__
w	w
o	o
r	r
d	d
e	e
n	n

__BEGIN__	__EPS__
s	s
c	c
h	h
r	r
a	i
y	e

__BEGIN__	__EPS__
v	u
n	n
d	d

__BEGIN__	__EPS__
s	s
e	e
i	i
n	n

__BEGIN__	__EPS__
s	s
t	t
a	ad
t	t

__BEGIN__	__EPS__
w	wi
e	e
d	d
e	e
r	r

__BEGIN__	__EPS__
m	m
o	o
c	c
h	h
t	t
e	e

__BEGIN__	__EPS__
m	m
o	o
c	c
h	h
t	te

__BEGIN__	__EPS__
s	sch
l	l
u	u
g	g
e	e
n	n

__BEGIN__	__EPS__
y	ih
n	n

__BEGIN__	__EPS__
h	h
o	a
e	__EPS__
f	u
f	p
d	t
e	__EPS__

__BEGIN__	__EPS__
h	__EPS__
e	e
r	r

__BEGIN__	__EPS__
v	v
e	e
r	r
l	l
o	e
e	u
g	g
e	__EPS__
n	ne
t	t

__BEGIN__	__EPS__
v	u
n	n
d	d

__BEGIN__	__EPS__
s	s
o	o

__BEGIN__	__EPS__
m	l
i	i
n	e
i	b
k	e
l	v
i	o
c	l
h	l

__BEGIN__	__EPS__
h	h
u	o
b	b
e	e
n	n

__BEGIN__	__EPS__
e	a
r	r
b	b
e	e
i	i
t	t

__BEGIN__	__EPS__
a	a
n	n
t	t
l	l
u	i
c	t
z	z
e	__EPS__

__BEGIN__	__EPS__
v	v
i	ie
l	l

__BEGIN__	__EPS__
v	u
n	n
d	d

__BEGIN__	__EPS__
e	e
r	r

__BEGIN__	__EPS__
k	k
o	o
m	mm
e	e
n	n

__BEGIN__	__EPS__
h	h
o	ö
i	__EPS__
r	re

__BEGIN__	__EPS__
v	v
e	e
r	r
s	s
u	ö
e	h
n	n
e	__EPS__
t	t

__BEGIN__	__EPS__
y	i
m	h
e	m

__BEGIN__	__EPS__
y	i
m	h
e	m

__BEGIN__	__EPS__
a	a
l	l
l	l
e	e
s	s

__BEGIN__	__EPS__
a	a
n	n
s	s
h	__EPS__
e	e
l	l
m	m
u	__EPS__
s	__EPS__

__BEGIN__	__EPS__
y	j
e	e

__BEGIN__	__EPS__
v	u
n	n
d	d

__BEGIN__	__EPS__
a	o
w	w
e	eh

__BEGIN__	__EPS__
v	v
i	ie
l	l

__BEGIN__	__EPS__
d	d
e	e
r	r

__BEGIN__	__EPS__
v	u
n	n
d	d

__BEGIN__	__EPS__
s	s
p	p
r	r
a	a
c	c
h	h

__BEGIN__	__EPS__
h	h
o	ö
r	r
t	t
e	e
n	n

__BEGIN__	__EPS__
d	d
i	i
e	e

__BEGIN__	__EPS__
d	d
o	a

__BEGIN__	__EPS__
s	s
e	i
y	e

__BEGIN__	__EPS__
w	w
e	e
n	n
n	n
e	__EPS__

__BEGIN__	__EPS__
a	a
l	l
z	s

__BEGIN__	__EPS__
v	u
n	n
d	d

__BEGIN__	__EPS__
n	n
w	un

__BEGIN__	__EPS__
i	ih
n	n

__BEGIN__	__EPS__
f	f
y	i
n	n
d	d
e	e
n	n

__BEGIN__	__EPS__
v	u
n	n
d	d

__BEGIN__	__EPS__
e	e
r	r

__BEGIN__	__EPS__
v	v
e	e
r	r
d	t
r	r
a	a
g	g
e	e
n	n

__BEGIN__	__EPS__
e	e
n	m
p	p
f	f
a	a
n	n
g	g
e	e
n	n

__BEGIN__	__EPS__
h	h
e	e
r	r
o	o
d	d
e	e
s	s

__BEGIN__	__EPS__
e	e
r	r

__BEGIN__	__EPS__
s	se
y	i
n	n

__BEGIN__	__EPS__
d	d
u	u
r	r
c	c
h	h

__BEGIN__	__EPS__
n	n
u	un

__BEGIN__	__EPS__
d	d
o	a

__BEGIN__	d
u	u

__BEGIN__	__EPS__
l	l
i	i
e	e
s	ss

__BEGIN__	__EPS__
d	d
e	e
s	s

__BEGIN__	__EPS__
d	d
o	a

__BEGIN__	__EPS__
s	s
p	p
r	r
a	a
c	c
h	h

__BEGIN__	__EPS__
d	d
a	as
z	s

__BEGIN__	__EPS__
d	d
a	a
z	ss

__BEGIN__	__EPS__
e	e
r	r

__BEGIN__	__EPS__
s	si
e	e

__BEGIN__	__EPS__
p	p
s	s
a	a
l	l
t	__EPS__
e	m
r	__EPS__

__BEGIN__	__EPS__
s	s
p	p
r	r
a	a
c	c
h	h

__BEGIN__	__EPS__
d	d
e	e
i	i
n	n

__BEGIN__	__EPS__
e	e
r	r

__BEGIN__	__EPS__
g	g
i	i
e	__EPS__
n	n
g	g
e	e
n	n

__BEGIN__	__EPS__
v	u
n	n
d	d

__BEGIN__	__EPS__
n	n
i	i
c	c
h	h
t	t

__BEGIN__	__EPS__
d	d
e	e
r	r

__BEGIN__	__EPS__
i	ih
n	n

__BEGIN__	__EPS__
g	g
e	e
m	m
a	a
c	c
h	h
t	t

__BEGIN__	__EPS__
l	l
a	a
n	n
g	g

__BEGIN__	__EPS__
m	m
i	i
t	t

__BEGIN__	__EPS__
m	m
e	e
i	i
n	n
e	e

__BEGIN__	__EPS__
n	n
i	ich
t	t

__BEGIN__	__EPS__
h	h
e	a
t	t

__BEGIN__	__EPS__
z	z
c	__EPS__
u	u

__BEGIN__	__EPS__
a	a
l	l
s	s
o	o

__BEGIN__	__EPS__
e	e
u	u
c	c
h	h

__BEGIN__	__EPS__
l	l
o	au
p	f
e	e
n	n

__BEGIN__	__EPS__
g	g
e	es
f	t
u	an
g	d
i	e
t	n

__BEGIN__	__EPS__
w	w
a	a
s	__EPS__
z	r

__BEGIN__	__EPS__
d	d
o	a

__BEGIN__	__EPS__
e	e
r	r
n	n
s	s
t	t

__BEGIN__	__EPS__
c	__EPS__
z	z
u	u

__BEGIN__	__EPS__
i	i
n	n

__BEGIN__	__EPS__
s	s
e	e
i	i
n	n

__BEGIN__	__EPS__
z	t
e	r
h	än
e	e
r	n

__BEGIN__	__EPS__
h	h
e	e
r	r
o	o
d	d
e	e
s	s

__BEGIN__	__EPS__
d	d
i	i
e	e

__BEGIN__	__EPS__
c	__EPS__
e	e
t	__EPS__
e	u
r	__EPS__
a	m
v	__EPS__

__BEGIN__	__EPS__
s	s
o	o
e	h
n	n

__BEGIN__	__EPS__
c	__EPS__
z	z
u	u

__BEGIN__	__EPS__
w	w
o	o
l	l
d	lt
e	e

__BEGIN__	__EPS__
h	h
e	a
t	t
t	t
e	e
n	n

__BEGIN__	__EPS__
g	g
e	e
f	f
e	ä
l	l
l	l
i	i
g	g

__BEGIN__	__EPS__
t	d
e	eh
n	n
t	t
e	e
n	n
t	__EPS__

__BEGIN__	__EPS__
e	e
u	u
c	c
h	h

__BEGIN__	__EPS__
g	g
e	e
f	f
l	l
o	o
s	s
s	s
e	e
n	n

__BEGIN__	__EPS__
g	g
e	e
s	s
u	u
e	__EPS__
n	n
t	d

__BEGIN__	__EPS__
s	s
c	c
h	h
i	i
n	n
d	d
e	e
t	t

__BEGIN__	__EPS__
v	u
n	n
d	d

__BEGIN__	__EPS__
g	g
e	e
s	s
c	c
h	h
l	l
e	e
c	c
h	h
t	t

__BEGIN__	__EPS__
s	s
p	p
r	r
a	a
c	c
h	h

__BEGIN__	__EPS__
d	d
c	ass

__BEGIN__	__EPS__
g	__EPS__
e	__EPS__
h	h
o	o
i	__EPS__
f	f
f	__EPS__

__BEGIN__	__EPS__
n	n
o	o
t	t

__BEGIN__	__EPS__
y	ih
n	n

__BEGIN__	__EPS__
s	s
y	ie

__BEGIN__	__EPS__
d	d
i	e
e	i
n	n

__BEGIN__	__EPS__
d	d
y	ie

__BEGIN__	__EPS__
l	l
i	i
e	e
b	b
e	e

__BEGIN__	__EPS__
r	r
e	e
d	d
e	e
n	n
d	d
e	__EPS__

__BEGIN__	__EPS__
v	u
n	n
d	d

__BEGIN__	a
v	u
f	f

__BEGIN__	__EPS__
s	s
e	e
i	i
n	n

__BEGIN__	__EPS__
n	n
i	i
c	c
h	h
t	t

__BEGIN__	__EPS__
q	k
u	__EPS__
a	a
m	m
e	e
n	n

__BEGIN__	__EPS__
h	h
e	ä
n	n
c	__EPS__
k	g
e	__EPS__
t	t

__BEGIN__	__EPS__
e	e
r	r
l	l
o	ö
s	s
e	e
n	n

__BEGIN__	__EPS__
d	d
i	i
e	e

__BEGIN__	__EPS__
v	u
n	n
d	d

__BEGIN__	__EPS__
v	u
n	n
d	d

__BEGIN__	__EPS__
d	d
e	ri
r	t
d	t
e	e
n	n

__BEGIN__	__EPS__
s	sch
w	w
e	e
r	r
t	t

__BEGIN__	__EPS__
d	d
y	i
r	r

__BEGIN__	__EPS__
d	d
e	e
s	s

__BEGIN__	__EPS__
n	n
a	a
m	m
e	e
n	n

__BEGIN__	__EPS__
s	s
p	p
r	r
a	a
c	c
h	h

__BEGIN__	__EPS__
i	j
e	ä
m	mm
e	e
r	r
l	l
e	__EPS__
i	i
c	c
h	h
e	e
n	n

__BEGIN__	__EPS__
g	g
a	a
r	r

__BEGIN__	__EPS__
d	d
a	a
e	__EPS__

__BEGIN__	__EPS__
d	d
u	u
e	__EPS__

__BEGIN__	__EPS__
s	se
i	i
n	n
e	e
r	r

__BEGIN__	__EPS__
e	e
z	s

__BEGIN__	__EPS__
e	e
s	s

__BEGIN__	__EPS__
d	d
e	e
m	m

__BEGIN__	__EPS__
d	d
i	ie

__BEGIN__	__EPS__
d	d
e	e
n	n

__BEGIN__	__EPS__
s	s
i	ie

__BEGIN__	__EPS__
s	se
i	i
n	n

__BEGIN__	__EPS__
s	s
u	oh
n	n

__BEGIN__	__EPS__
s	s
i	i
c	c
h	h

__BEGIN__	__EPS__
g	g
l	l
a	a
u	u
b	b
e	e
n	n
t	__EPS__

__BEGIN__	__EPS__
d	d
a	a

__BEGIN__	__EPS__
e	eh
r	r
e	e

__BEGIN__	__EPS__
v	v
o	o
n	n

__BEGIN__	__EPS__
s	s
e	e
n	n
d	d
e	e
t	t

__BEGIN__	__EPS__
d	__EPS__
i	e
r	r
l	l
o	ö
e	__EPS__
s	s
i	e
n	n

__BEGIN__	__EPS__
s	s
e	e
i	i
n	n
e	e
n	m

__BEGIN__	__EPS__
k	k
y	i
n	n
t	d

__BEGIN__	__EPS__
v	u
n	n
d	d

__BEGIN__	__EPS__
e	e
i	i
n	n

__BEGIN__	__EPS__
t	t
r	r
e	ä
h	n
e	e
n	n

__BEGIN__	__EPS__
o	e
n	r
t	__EPS__
f	b
e	a
r	r
m	m
e	__EPS__
t	t

__BEGIN__	__EPS__
m	m
a	a
n	n

__BEGIN__	__EPS__
w	w
e	e
l	l
t	t

__BEGIN__	__EPS__
p	p
y	i
l	l
a	a
t	t
u	u
s	s

__BEGIN__	__EPS__
z	ze
u	r
s	s
c	c
h	h
l	l
a	a
c	g
h	__EPS__
e	e
n	n

__BEGIN__	__EPS__
n	n
u	un

__BEGIN__	__EPS__
o	o
s	s
t	t
e	e
r	r
n	n

__BEGIN__	__EPS__
d	d
a	a
z	s

__BEGIN__	__EPS__
d	d
e	e
r	r

__BEGIN__	__EPS__
c	k
l	l
e	ä
g	g
l	l
i	i
c	c
h	h
e	e

__BEGIN__	__EPS__
h	h
i	i
e	e
s	s
z	s

__BEGIN__	__EPS__
s	s
e	e
l	l
i	i
c	g
h	__EPS__

__BEGIN__	__EPS__
w	we
a	i
s	s
s	s
a	a
g	g
v	u
n	n
g	g
e	__EPS__

__BEGIN__	__EPS__
n	n
u	un

__BEGIN__	__EPS__
s	s
i	ie
b	b
e	e
n	n

__BEGIN__	__EPS__
d	d
o	a

__BEGIN__	__EPS__
m	m
e	üt
t	ter
l	l
i	i
c	c
h	h
e	e
r	r

__BEGIN__	__EPS__
d	d
u	u
r	r
c	c
h	h

__BEGIN__	__EPS__
d	d
o	a

__BEGIN__	__EPS__
v	u
n	n
d	d

__BEGIN__	__EPS__
w	w
a	e
i	i
n	n
t	t

__BEGIN__	__EPS__
d	d
i	i
e	e

__BEGIN__	__EPS__
t	t
r	r
a	a
g	g
e	e
n	n

__BEGIN__	__EPS__
e	e
r	r
b	b
a	a
r	r
m	m
e	__EPS__
t	te

__BEGIN__	__EPS__
e	nich
n	t

__BEGIN__	__EPS__
s	s
u	u
c	c
h	h
t	t
e	e

__BEGIN__	__EPS__
d	d
e	e
r	r

__BEGIN__	__EPS__
s	s
i	i
m	m
e	e
o	o
n	n

__BEGIN__	__EPS__
d	tät
e	e
s	s
t	t

__BEGIN__	__EPS__
n	n
u	un

__BEGIN__	__EPS__
w	w
a	a
s	r

__BEGIN__	__EPS__
i	i
c	c
h	h

__BEGIN__	__EPS__
g	g
e	e
w	w
a	a
n	n
d	d

__BEGIN__	__EPS__
d	d
e	e
r	r

__BEGIN__	__EPS__
y	ih
r	r

__BEGIN__	__EPS__
e	u
n	nd

__BEGIN__	__EPS__
y	i
n	n
n	n
i	i
c	g
h	k
e	ei
d	t
e	e
n	n

__BEGIN__	__EPS__
e	e
r	r

__BEGIN__	__EPS__
s	s
e	e
i	i
n	n

__BEGIN__	__EPS__
i	j
u	u
d	d
e	e
n	n

__BEGIN__	__EPS__
s	s
o	o

__BEGIN__	__EPS__
a	a
l	l
s	s
o	o

__BEGIN__	__EPS__
w	w
a	a
r	r
t	d

__BEGIN__	__EPS__
m	me
y	i
n	n

__BEGIN__	__EPS__
d	d
o	a

__BEGIN__	__EPS__
n	n
a	ah
m	m
e	e
n	n

__BEGIN__	__EPS__
a	a
n	n

__BEGIN__	__EPS__
v	u
n	n
d	d

__BEGIN__	__EPS__
d	d
o	a
e	__EPS__

__BEGIN__	__EPS__
i	ih
n	n

__BEGIN__	__EPS__
w	w
e	e
e	h

__BEGIN__	__EPS__
n	n
ü	un

__BEGIN__	__EPS__
r	r
u	ü
g	c
g	k
e	e
n	n

__BEGIN__	__EPS__
z	t
a	r
e	ä
h	n
e	e
r	n

__BEGIN__	__EPS__
v	u
n	n
d	d

__BEGIN__	__EPS__
w	wu
n	n
d	d
e	e
n	n

__BEGIN__	__EPS__
e	e
r	r
g	g
i	i
e	__EPS__
n	n
g	g

__BEGIN__	__EPS__
n	n
o	o
c	c
h	h

__BEGIN__	__EPS__
i	j
e	ä
m	mm
e	e
r	r
l	l
i	i
c	c
h	h

__BEGIN__	__EPS__
u	u
n	n
s	s

__BEGIN__	__EPS__
v	f
r	r
a	a
u	u
w	__EPS__
e	__EPS__

__BEGIN__	__EPS__
i	ih
r	r

__BEGIN__	__EPS__
a	a
n	n
s	s
h	__EPS__
e	e
l	l
m	m
u	__EPS__
s	__EPS__

__BEGIN__	__EPS__
f	f
r	r
o	au

__BEGIN__	__EPS__
d	d
e	e
s	s

__BEGIN__	__EPS__
w	w
a	a
r	r
t	d

__BEGIN__	__EPS__
h	ha
u	u
s	s

__BEGIN__	__EPS__
m	m
a	a
l	l
e	__EPS__

__BEGIN__	__EPS__
d	d
a	a
r	r
v	u
m	m
b	__EPS__

__BEGIN__	__EPS__
n	n
u	un

__BEGIN__	__EPS__
m	m
i	i
t	t

__BEGIN__	__EPS__
s	s
e	e
i	i
n	n

__BEGIN__	__EPS__
e	e
r	r

__BEGIN__	__EPS__
v	u
n	n
d	d

__BEGIN__	__EPS__
a	a
n	n
d	d
e	e
r	re

__BEGIN__	__EPS__
n	n
i	i
c	c
h	h
t	t

__BEGIN__	__EPS__
v	u
n	n
d	d

__BEGIN__	__EPS__
g	g
r	r
o	o
t	ss
e	e

__BEGIN__	__EPS__
d	d
a	a
s	ss

__BEGIN__	__EPS__
r	r
e	e
d	d
e	e

__BEGIN__	__EPS__
e	e
r	r

__BEGIN__	__EPS__
v	u
n	n
d	d

__BEGIN__	__EPS__
r	r
a	a
n	nn

__BEGIN__	__EPS__
d	d
i	i
e	e

__BEGIN__	__EPS__
g	g
o	o
t	tt
e	e
s	s

__BEGIN__	__EPS__
v	u
n	n
d	d

__BEGIN__	__EPS__
e	e
r	r

__BEGIN__	__EPS__
a	a
l	l
s	s

__BEGIN__	__EPS__
e	e
r	r
h	h
o	ö
r	r
t	t
e	e

__BEGIN__	__EPS__
m	m
o	o
c	c
h	h
t	te

__BEGIN__	__EPS__
d	d
o	a

__BEGIN__	__EPS__
a	a
c	c
h	h

__BEGIN__	__EPS__
d	d
a	as
s	s

__BEGIN__	__EPS__
z	z
e	e
i	i
g	g
e	__EPS__
t	t
e	e

__BEGIN__	__EPS__
w	w
a	ah
r	r

__BEGIN__	__EPS__
n	n
i	ic
e	h
t	t

__BEGIN__	__EPS__
e	i
m	h
e	m

__BEGIN__	__EPS__
m	me
i	i
n	n

__BEGIN__	__EPS__
i	j
u	u
d	d
e	e
n	n

__BEGIN__	__EPS__
v	u
n	n
d	d

__BEGIN__	__EPS__
s	s
o	o

__BEGIN__	__EPS__
i	j
ü	u
d	d
e	e
n	n

__BEGIN__	__EPS__
d	d
e	e
r	r

__BEGIN__	__EPS__
h	h
e	a
t	t

__BEGIN__	__EPS__
d	d
a	a
i	__EPS__
r	r
u	u
m	m
b	__EPS__

__BEGIN__	__EPS__
d	d
a	a
z	s

__BEGIN__	__EPS__
e	e
i	i
n	n

__BEGIN__	__EPS__
k	k
r	r
a	a
n	n
g	__EPS__
k	k

__BEGIN__	__EPS__
d	d
a	as
s	s

__BEGIN__	__EPS__
m	m
a	o
c	c
h	h
t	te

__BEGIN__	__EPS__
v	ü
b	b
e	e
r	r
z	z
o	o
g	g
e	e
n	n

__BEGIN__	__EPS__
j	j
u	u
d	d
e	e
n	n

__BEGIN__	__EPS__
g	g
e	e
s	s
e	a
i	g
t	t

__BEGIN__	__EPS__
d	d
e	e
r	r

__BEGIN__	__EPS__
d	d
a	a
n	nn

__BEGIN__	__EPS__
m	m
i	i
t	t

__BEGIN__	__EPS__
v	u
n	n
n	d

__BEGIN__	__EPS__
a	a
n	n

__BEGIN__	__EPS__
s	s
o	o

__BEGIN__	__EPS__
w	w
e	e
i	i
n	n
e	__EPS__
n	__EPS__
t	t

__BEGIN__	__EPS__
w	w
i	i
t	t
t	t
i	__EPS__
b	we

__BEGIN__	__EPS__
g	g
e	e
w	w
e	e
s	se
t	n

__BEGIN__	__EPS__
d	d
e	e
r	r

__BEGIN__	__EPS__
o	o
w	w
e	eh

__BEGIN__	__EPS__
g	g
e	e
v	f
r	r
a	a
e	__EPS__
g	g
e	__EPS__
t	t

__BEGIN__	__EPS__
m	m
i	i
t	t

__BEGIN__	__EPS__
w	w
o	ol
l	l
t	t

__BEGIN__	__EPS__
g	g
e	e
r	r
e	e
c	c
h	h
t	t
e	e
n	n

__BEGIN__	__EPS__
e	e
r	r
b	b
a	a
e	__EPS__
r	r
m	me
d	n

__BEGIN__	__EPS__
d	d
a	a
r	__EPS__
n	n
a	a
c	c
h	h

__BEGIN__	__EPS__
b	b
y	i
n	n

__BEGIN__	__EPS__
h	h
o	au
p	p
t	t

__BEGIN__	__EPS__
s	s
o	oh
n	n

__BEGIN__	__EPS__
i	ih
n	n

__BEGIN__	__EPS__
g	g
r	r
a	a
b	b

__BEGIN__	__EPS__
p	p
e	e
t	t
e	r
r	us

__BEGIN__	__EPS__
e	e
i	i
n	n

__BEGIN__	__EPS__
v	u
n	n
d	d

__BEGIN__	__EPS__
d	d
e	e
s	s

__BEGIN__	__EPS__
e	e
y	i
a	__EPS__

__BEGIN__	__EPS__
m	m
o	ö
g	g
e	e

__BEGIN__	__EPS__
i	j
u	u
n	n
g	g

__BEGIN__	__EPS__
g	__EPS__
e	__EPS__
m	m
a	a
c	c
h	h
e	e
n	n

__BEGIN__	__EPS__
g	g
r	r
o	o
s	s
z	s
e	e

__BEGIN__	__EPS__
s	s
e	e
x	c
t	hs
t	t
z	z
e	e
i	i
t	t

__BEGIN__	__EPS__
s	s
e	e
i	i
n	n

__BEGIN__	__EPS__
v	u
n	n
d	d

__BEGIN__	__EPS__
i	i
c	c
h	h

__BEGIN__	__EPS__
s	s
e	a
n	nk
t	t
e	__EPS__

__BEGIN__	__EPS__
a	a
l	l
s	s
o	o

__BEGIN__	__EPS__
e	e
r	r
s	s
t	t
ü	ü
n	n
d	d
e	e

__BEGIN__	__EPS__
s	s
a	a
c	__EPS__
h	h

__BEGIN__	__EPS__
g	g
e	e
s	s
c	c
h	h
i	ich
t	t
e	e

__BEGIN__	__EPS__
a	a
n	n
t	t
w	w
e	o
r	r
t	t
e	e
t	t

__BEGIN__	__EPS__
v	f
a	e
s	s
t	t

__BEGIN__	__EPS__
m	m
e	e
y	i
n	n

__BEGIN__	__EPS__
d	d
o	a

__BEGIN__	__EPS__
n	n
y	i
e	e

__BEGIN__	__EPS__
d	d
e	e
m	m

__BEGIN__	__EPS__
s	s
c	c
h	h
r	r
e	e
i	i
t	__EPS__
e	e
n	n

__BEGIN__	__EPS__
d	d
e	e
n	n

__BEGIN__	__EPS__
w	w
a	a
t	s

__BEGIN__	__EPS__
v	u
n	n
d	d

__BEGIN__	__EPS__
v	v
o	o
n	n

__BEGIN__	__EPS__
w	w
a	a
s	r

__BEGIN__	__EPS__
w	w
o	oh
l	l

__BEGIN__	__EPS__
c	__EPS__
z	z
u	u

__BEGIN__	__EPS__
d	d
e	e
n	n

__BEGIN__	__EPS__
v	v
i	ie
l	l

__BEGIN__	__EPS__
w	w
a	a
n	nn

__BEGIN__	__EPS__
a	a
l	l
l	l
e	e
m	m

__BEGIN__	__EPS__
o	a
u	u
g	g
i	e
n	n

__BEGIN__	__EPS__
i	i
c	c
h	h

__BEGIN__	__EPS__
d	d
o	o
r	r
n	n

__BEGIN__	__EPS__
i	i
c	c
h	h

__BEGIN__	__EPS__
d	d
a	a
t	s

__BEGIN__	__EPS__
i	j
e	ä
m	mm
e	e
r	r
l	l
i	i
c	c
h	h
e	e
r	r

__BEGIN__	__EPS__
v	u
n	n
d	d

__BEGIN__	__EPS__
d	d
o	a

__BEGIN__	__EPS__
d	d
e	e
m	m

__BEGIN__	__EPS__
v	u
n	n
d	d

__BEGIN__	__EPS__
s	s
p	p
r	r
a	a
c	c
h	h
e	e
n	n
t	__EPS__

__BEGIN__	__EPS__
w	w
y	i
r	r

__BEGIN__	__EPS__
h	h
o	ö
r	r
e	__EPS__
t	te

__BEGIN__	__EPS__
a	a
l	l
s	s

__BEGIN__	__EPS__
a	a
b	b
e	e
r	r

__BEGIN__	__EPS__
w	w
o	oh
l	l

__BEGIN__	__EPS__
s	s
i	i
c	c
i	i
o	o

__BEGIN__	__EPS__
h	h
a	a
n	be

__BEGIN__	__EPS__
w	w
a	a
s	r

__BEGIN__	__EPS__
f	f
v	ü
e	__EPS__
r	r
s	s
t	t

