__BEGIN__	__EPS__
k	k
i	i
n	n
d	d

__BEGIN__	__EPS__
g	g
e	e
s	s
t	t
a	a
l	l
t	t

__BEGIN__	__EPS__
v	u
m	m
b	__EPS__
e	__EPS__

__BEGIN__	__EPS__
e	e
i	i
n	n
e	e
n	n

__BEGIN__	__EPS__
j	j
e	e
r	r
u	u
s	s
a	a
l	l
e	e
m	m

__BEGIN__	__EPS__
d	d
e	e
i	i
n	n
e	e
m	m

__BEGIN__	__EPS__
b	b
i	i
t	t
t	t
e	e
r	r
l	l
i	i
c	c
h	h

__BEGIN__	__EPS__
w	w
o	o
l	ll
t	t
e	e
n	n

__BEGIN__	__EPS__
m	m
i	i
t	t

__BEGIN__	__EPS__
m	m
a	a
g	g
t	d

__BEGIN__	__EPS__
g	g
r	r
o	o
e	__EPS__
s	s
s	s
i	e
n	n

__BEGIN__	__EPS__
i	i
s	s
t	t

__BEGIN__	__EPS__
h	i
e	h
m	m

__BEGIN__	__EPS__
a	a
n	n
d	d
e	e
r	re

__BEGIN__	__EPS__
g	g
e	l
l	a
o	u
b	be

__BEGIN__	__EPS__
c	k
h	__EPS__
l	l
a	ä
e	__EPS__
g	g
l	l
e	__EPS__
i	i
c	c
h	h

__BEGIN__	__EPS__
k	k
u	u
n	n
t	d

__BEGIN__	__EPS__
a	a
n	n
g	f
e	a
n	n
g	g
e	__EPS__

__BEGIN__	__EPS__
v	u
n	n
d	d

__BEGIN__	__EPS__
v	u
n	n
d	d

__BEGIN__	__EPS__
i	ih
n	n

__BEGIN__	__EPS__
g	g
e	e
l	l
a	a
w	u
f	f
e	e
n	n

__BEGIN__	__EPS__
f	f
r	r
o	öh
l	l
i	i
c	c
h	h

__BEGIN__	__EPS__
s	s
t	t
e	e
r	r
b	b
i	e
n	n

__BEGIN__	__EPS__
i	ih
n	n

__BEGIN__	__EPS__
f	f
r	r
a	a
w	u

__BEGIN__	__EPS__
a	a
l	l
l	l
e	e

__BEGIN__	__EPS__
g	k
e	e
y	i
n	n
e	e
n	n

__BEGIN__	__EPS__
d	d
a	a
i	__EPS__
n	n
e	n

__BEGIN__	__EPS__
c	k
r	r
ü	e
t	u
z	z

__BEGIN__	__EPS__
m	me
y	i
n	n

__BEGIN__	__EPS__
s	se
y	i
n	n
e	e
r	r

__BEGIN__	__EPS__
m	m
i	i
r	r

__BEGIN__	__EPS__
d	d
a	a
r	r
v	u
m	m
b	__EPS__
e	__EPS__

__BEGIN__	__EPS__
r	r
e	e
d	d
e	e
n	n

__BEGIN__	__EPS__
m	m
i	i
c	c
h	h

__BEGIN__	__EPS__
m	m
o	o
c	c
h	h
t	t
e	e

__BEGIN__	__EPS__
d	t
o	o
i	__EPS__
t	t

__BEGIN__	__EPS__
d	d
e	e
i	i
n	n

__BEGIN__	__EPS__
a	e
i	i
n	n

__BEGIN__	__EPS__
n	n
u	u
o	n

__BEGIN__	__EPS__
l	l
i	i
e	e
z	s
s	s
e	e
n	n

__BEGIN__	__EPS__
w	w
o	oh
l	l

__BEGIN__	__EPS__
v	f
o	__EPS__
r	r
w	a
e	u

__BEGIN__	__EPS__
h	h
a	a
b	b
t	t

__BEGIN__	__EPS__
m	m
a	an
n	n

__BEGIN__	__EPS__
g	g
e	e
m	m
a	a
c	c
h	h
t	t

__BEGIN__	__EPS__
s	sch
w	w
e	e
s	s
t	t
e	e
r	r

__BEGIN__	__EPS__
z	z
o	u

__BEGIN__	__EPS__
s	s
i	ie

__BEGIN__	__EPS__
s	s
a	a
b	bb
a	a
c	t
z	s

__BEGIN__	__EPS__
h	h
e	e
r	r
c	__EPS__
z	z
e	e
n	n
l	l
a	e
y	i
d	d
e	e
s	s

__BEGIN__	__EPS__
a	o
w	w
e	eh

__BEGIN__	__EPS__
i	i
c	c
h	h

__BEGIN__	__EPS__
s	s
p	p
e	e
c	c
i	i
o	o
s	s
a	a

__BEGIN__	__EPS__
v	v
o	o
n	n

__BEGIN__	__EPS__
g	g
e	e
r	r
n	n
e	e

__BEGIN__	__EPS__
l	le
u	u
t	t
e	e
n	n

__BEGIN__	__EPS__
s	se
i	i
n	n

__BEGIN__	__EPS__
h	h
o	ö
r	r
t	te

__BEGIN__	__EPS__
f	f
u	ü
i	__EPS__
r	r

__BEGIN__	__EPS__
h	h
e	e
r	rr
s	s
c	c
h	h
a	a
f	f
t	t

__BEGIN__	__EPS__
b	be
i	i

__BEGIN__	__EPS__
v	u
n	n
s	s

__BEGIN__	__EPS__
k	k
a	e
i	i
n	n

__BEGIN__	__EPS__
i	i
c	c
h	h

__BEGIN__	__EPS__
w	w
e	e
i	i
n	n
d	e
e	n

__BEGIN__	__EPS__
v	u
n	n
d	d

__BEGIN__	__EPS__
d	d
i	ie
s	s

__BEGIN__	__EPS__
s	se
i	i
n	n

__BEGIN__	__EPS__
d	d
v	u

__BEGIN__	__EPS__
i	i
c	c
h	h

__BEGIN__	__EPS__
o	u
e	__EPS__
r	r
s	s
a	a
c	c
h	h
i	e
n	n

__BEGIN__	__EPS__
d	d
a	a
s	s

__BEGIN__	__EPS__
s	s
o	ol
l	l
t	t

__BEGIN__	__EPS__
l	l
e	e
i	i
b	be
s	s

__BEGIN__	__EPS__
b	b
l	l
i	i
e	e
b	b
e	e

__BEGIN__	__EPS__
p	b
a	e
y	i
d	d
e	e
w	__EPS__

__BEGIN__	__EPS__
d	d
o	a

__BEGIN__	__EPS__
d	d
o	a

__BEGIN__	__EPS__
s	s
e	e
i	i
n	n

__BEGIN__	__EPS__
v	v
o	o
l	l
c	__EPS__
k	k
s	s

__BEGIN__	__EPS__
s	s
i	e
e	i
t	t
e	e
n	n

__BEGIN__	__EPS__
e	e
s	s

__BEGIN__	__EPS__
m	m
i	i
t	t

__BEGIN__	__EPS__
m	m
i	i
r	r

__BEGIN__	__EPS__
b	b
e	e
y	i
n	n

__BEGIN__	__EPS__
a	a
n	n

__BEGIN__	__EPS__
b	b
u	u
o	s
s	s
z	e

__BEGIN__	__EPS__
d	d
e	e
s	s

__BEGIN__	__EPS__
u	a
f	u
f	f

__BEGIN__	__EPS__
h	h
i	i
n	n
g	g
e	ehe
n	n

__BEGIN__	__EPS__
i	i
c	c
h	h

__BEGIN__	__EPS__
m	m
i	i
r	r

__BEGIN__	__EPS__
d	d
o	a

__BEGIN__	__EPS__
v	u
n	n
n	d

__BEGIN__	__EPS__
c	__EPS__
h	k
i	i
n	n
d	d

__BEGIN__	__EPS__
d	d
a	a
z	s

__BEGIN__	__EPS__
o	ü
u	b
e	e
r	r
l	l
o	a
e	u
y	f
e	e
n	n
d	d
e	e

__BEGIN__	__EPS__
h	h
e	e
r	r
c	__EPS__
z	z
e	e
n	__EPS__
l	l
a	e
i	i
d	d

__BEGIN__	__EPS__
d	d
y	ie
t	s

__BEGIN__	__EPS__
s	s
i	i
e	e

__BEGIN__	__EPS__
c	__EPS__
z	z
u	u

__BEGIN__	__EPS__
s	s
i	i
e	e

__BEGIN__	__EPS__
m	m
i	i
t	t

__BEGIN__	__EPS__
b	b
e	e
g	g
r	r
a	a
b	b
e	e

__BEGIN__	__EPS__
g	g
v	u
t	t

__BEGIN__	__EPS__
p	b
i	i
t	t
t	t
e	e
r	r
l	l
e	__EPS__
i	i
c	c
h	h
e	e
n	n

__BEGIN__	__EPS__
s	s
p	p
r	r
a	a
c	c
h	h
e	e
n	n

__BEGIN__	__EPS__
v	u
n	n
d	d

__BEGIN__	__EPS__
a	a
n	n
d	d
e	e
r	re
n	n

__BEGIN__	__EPS__
d	d
a	a
z	s

__BEGIN__	__EPS__
s	s
t	t
u	a
n	n
d	d

__BEGIN__	__EPS__
d	d
a	a
e	__EPS__
m	m
e	i
d	t
e	__EPS__

__BEGIN__	__EPS__
a	a
l	l
z	s

__BEGIN__	__EPS__
g	g
e	e
s	s
i	i
c	c
h	h
e	e
r	r
t	t

__BEGIN__	__EPS__
g	g
e	e
f	f
a	a
n	n
g	g
e	e
n	n

__BEGIN__	__EPS__
t	t
o	o
d	d
e	__EPS__

__BEGIN__	__EPS__
v	ü
r	b
a	e
i	r
d	__EPS__
i	__EPS__
c	__EPS__
h	__EPS__
a	m
i	u
t	t

__BEGIN__	__EPS__
e	e
y	i
a	a

__BEGIN__	__EPS__
o	o
m	m
n	n
i	i
a	a

__BEGIN__	__EPS__
w	w
o	ol
l	l
t	t
e	e
n	n

__BEGIN__	__EPS__
m	m
y	i
t	t

__BEGIN__	__EPS__
f	f
r	r
a	a
w	u

__BEGIN__	__EPS__
i	ih
n	n

__BEGIN__	__EPS__
v	u
n	n
d	d

__BEGIN__	__EPS__
s	s
p	p
r	r
a	a
c	c
h	h

__BEGIN__	__EPS__
m	m
e	e
n	n
s	s
c	c
h	h
l	l
e	__EPS__
i	i
c	c
h	he
s	s

__BEGIN__	__EPS__
t	__EPS__
z	z
o	u

__BEGIN__	__EPS__
h	e
e	r

__BEGIN__	__EPS__
d	d
a	a
r	r

__BEGIN__	__EPS__
k	k
r	r
e	e
u	u
c	__EPS__
z	z

__BEGIN__	__EPS__
g	g
r	r
o	o
s	s
z	s
e	e
n	n

__BEGIN__	__EPS__
i	u
n	n
d	d

__BEGIN__	__EPS__
d	t
o	ö
e	__EPS__
d	t
e	e
n	n

__BEGIN__	__EPS__
v	u
n	n
s	s
a	ä
e	__EPS__
g	g
l	l
i	i
c	c
h	h
e	e
r	r

__BEGIN__	__EPS__
w	w
a	a
s	s
s	s
e	e
r	r

__BEGIN__	__EPS__
v	v
o	o
n	n

__BEGIN__	__EPS__
l	le
ü	u
t	te

__BEGIN__	__EPS__
t	t
a	ä
e	__EPS__
t	t
e	e

__BEGIN__	__EPS__
a	a
n	n
g	g
e	e
s	s
i	i
c	c
h	h
t	t
e	__EPS__

__BEGIN__	__EPS__
h	h
e	ö
l	l
l	l
e	e

__BEGIN__	__EPS__
j	j
o	u
e	__EPS__
d	d
e	e
n	n

__BEGIN__	__EPS__
w	l
e	e
t	__EPS__
a	i
g	d
e	e
n	n

__BEGIN__	__EPS__
b	b
i	i
s	s
t	t

__BEGIN__	__EPS__
e	e
r	r
l	l
e	e
d	d
i	i
g	g
t	t

__BEGIN__	__EPS__
s	s
t	t
u	a
n	n
d	d

__BEGIN__	__EPS__
i	i
c	c
h	h

__BEGIN__	__EPS__
d	d
o	o
c	c
h	h

__BEGIN__	__EPS__
w	w
a	a
s	r

__BEGIN__	__EPS__
a	a
l	l
l	l
e	e
s	s

__BEGIN__	__EPS__
n	n
i	i
c	c
h	h
t	t

__BEGIN__	__EPS__
i	j
u	u
d	d
e	e
n	n

__BEGIN__	__EPS__
n	n
a	ac
h	h
t	t
e	__EPS__
s	s

__BEGIN__	__EPS__
v	v
a	o
n	n

__BEGIN__	__EPS__
h	h
o	o
l	l
c	__EPS__
z	z
d	d
o	o
r	r
n	n

__BEGIN__	__EPS__
a	a
u	u
c	c
h	h

__BEGIN__	__EPS__
g	g
e	e
h	h
o	ö
i	__EPS__
r	r
t	t

__BEGIN__	__EPS__
m	m
o	o
c	c
h	h
t	te

__BEGIN__	__EPS__
z	z
u	u
o	__EPS__

__BEGIN__	__EPS__
s	s
e	e
i	i
n	ne
s	s

__BEGIN__	__EPS__
s	sch
w	w
a	a
n	n
g	g
e	e
r	r

__BEGIN__	__EPS__
s	s
a	a
c	__EPS__
h	h

__BEGIN__	__EPS__
i	i
c	c
h	h

__BEGIN__	__EPS__
m	m
y	i
r	r

__BEGIN__	__EPS__
o	a
u	u
c	c
h	h

__BEGIN__	__EPS__
v	u
n	n
d	d

__BEGIN__	__EPS__
d	d
a	a

__BEGIN__	__EPS__
s	s
c	c
h	h
m	m
a	a
c	c
h	h

__BEGIN__	__EPS__
d	d
i	i
e	e
b	b

__BEGIN__	__EPS__
s	s
c	c
h	h
r	r
e	e
y	ie

__BEGIN__	__EPS__
d	d
i	ie
s	s

__BEGIN__	__EPS__
l	l
u	i
f	e
f	f

__BEGIN__	__EPS__
s	s
t	t
a	ad
t	t

__BEGIN__	__EPS__
i	ih
m	m

__BEGIN__	__EPS__
m	m
i	i
t	t

__BEGIN__	__EPS__
c	k
l	l
e	ä
g	g
e	__EPS__
l	l
i	i
c	c
h	h
i	e
n	n

__BEGIN__	__EPS__
k	k
y	i
n	n
d	d
e	__EPS__

__BEGIN__	__EPS__
g	g
e	e
s	s
e	e
c	t
z	z

__BEGIN__	__EPS__
m	m
i	i
r	r

__BEGIN__	__EPS__
e	i
m	h
e	m

__BEGIN__	__EPS__
a	a
l	l
s	s

__BEGIN__	a
v	u
s	s
s	s
e	ä
t	t
z	z
i	i
g	g
e	e
n	n

__BEGIN__	__EPS__
t	t
r	r
o	o
s	s
t	t
e	e
s	s

__BEGIN__	__EPS__
s	s
t	t
u	u
o	h
l	l

__BEGIN__	__EPS__
y	ih
m	m

__BEGIN__	__EPS__
g	g
e	e
r	r
n	n
e	e

__BEGIN__	__EPS__
k	k
u	o
n	nn
d	t
e	e

__BEGIN__	__EPS__
m	m
e	e
r	r
c	__EPS__
k	ke

__BEGIN__	__EPS__
s	s
a	a
n	n
t	d
t	te

__BEGIN__	__EPS__
n	n
i	ic
e	h
t	t

__BEGIN__	__EPS__
a	a
b	b
g	g
r	r
u	u
n	n
t	d

__BEGIN__	__EPS__
a	a
l	l
s	s

__BEGIN__	__EPS__
m	m
e	e
y	i
n	n

__BEGIN__	__EPS__
l	le
i	i
b	b

__BEGIN__	__EPS__
d	t
a	a
d	t
e	e
n	n

__BEGIN__	__EPS__
a	a
l	l
s	s
o	o

__BEGIN__	__EPS__
m	m
i	i
t	t

__BEGIN__	__EPS__
h	e
i	r

__BEGIN__	__EPS__
s	s
i	i
e	e

__BEGIN__	__EPS__
w	w
e	eh

__BEGIN__	__EPS__
m	m
i	i
t	t

__BEGIN__	__EPS__
g	g
o	ö
t	tt
l	l
i	i
c	c
h	h
e	e

__BEGIN__	__EPS__
d	d
e	e
n	m

__BEGIN__	__EPS__
g	g
a	a
n	n
t	__EPS__
z	z

__BEGIN__	__EPS__
d	d
o	a

__BEGIN__	__EPS__
v	v
o	o
r	r

__BEGIN__	__EPS__
g	g
e	e
s	s
c	c
h	h
a	a
f	f
f	f
e	e
n	n

__BEGIN__	__EPS__
e	e
i	i
n	n

__BEGIN__	__EPS__
a	a
n	n

__BEGIN__	__EPS__
s	s
e	e
c	__EPS__
h	h
t	t

__BEGIN__	__EPS__
m	m
i	i
t	t

__BEGIN__	__EPS__
i	i
n	n

__BEGIN__	__EPS__
g	g
e	e
s	s
t	t
a	a
l	l
t	t

__BEGIN__	__EPS__
n	n
i	i
c	c
h	h
t	t

__BEGIN__	__EPS__
v	u
n	n
d	d

__BEGIN__	__EPS__
d	d
e	e
n	n

__BEGIN__	__EPS__
h	h
u	a
s	u
z	s

__BEGIN__	__EPS__
e	e
i	i
n	n

__BEGIN__	__EPS__
a	a
u	u
f	f
f	__EPS__

__BEGIN__	__EPS__
d	d
o	a

__BEGIN__	__EPS__
d	d
a	a
s	s

__BEGIN__	__EPS__
a	a
n	n
s	s
a	a
c	__EPS__
h	h

__BEGIN__	__EPS__
o	a
u	u
f	f

__BEGIN__	__EPS__
d	d
a	a
s	s

__BEGIN__	__EPS__
d	d
e	e
r	r

__BEGIN__	__EPS__
v	u
m	m
b	__EPS__

__BEGIN__	__EPS__
v	u
n	n
d	d

__BEGIN__	__EPS__
m	m
a	a
r	r
i	i
a	a

__BEGIN__	__EPS__
d	d
a	a

__BEGIN__	__EPS__
a	a
l	l
s	s
o	o

__BEGIN__	__EPS__
s	s
e	i
u	e

__BEGIN__	__EPS__
v	v
i	ie
l	l

__BEGIN__	__EPS__
m	me
i	i
n	n
e	e
s	s

__BEGIN__	__EPS__
t	t
o	o
d	d
e	e
s	s
z	__EPS__

__BEGIN__	__EPS__
i	e
r	r
l	l
o	a
u	u
b	b
e	__EPS__
t	t
e	e

__BEGIN__	__EPS__
m	m
i	i
t	t

__BEGIN__	__EPS__
i	j
e	e
s	s
u	u
s	s

__BEGIN__	__EPS__
d	d
i	i
c	c
h	h

__BEGIN__	__EPS__
o	a
u	u
g	g
e	e
n	n

__BEGIN__	__EPS__
l	l
a	a
n	n
g	g

__BEGIN__	__EPS__
a	a
l	l
z	s
ü	o

__BEGIN__	__EPS__
z	z
u	u

__BEGIN__	__EPS__
e	e
z	s

__BEGIN__	__EPS__
e	e
s	s

__BEGIN__	__EPS__
g	g
e	e
d	d
a	a
i	__EPS__
c	c
h	h
t	t
e	e
n	n

__BEGIN__	__EPS__
h	h
a	a
t	t

__BEGIN__	__EPS__
i	i
n	n

__BEGIN__	__EPS__
w	w
o	o
r	r
t	t

__BEGIN__	__EPS__
h	h
a	ä
n	n
g	g
e	e
n	n

__BEGIN__	__EPS__
g	g
h	__EPS__
e	e
r	s
u	__EPS__
c	c
h	hr
t	ei

__BEGIN__	__EPS__
e	e
r	r
f	f
u	ü
i	l
l	l
e	__EPS__
t	t

__BEGIN__	__EPS__
e	e
r	r

__BEGIN__	__EPS__
d	d
o	a

__BEGIN__	__EPS__
d	d
a	a

__BEGIN__	__EPS__
v	u
n	n
d	d

__BEGIN__	__EPS__
w	w
o	ol
l	l
d	t
e	e

__BEGIN__	__EPS__
d	d
i	i
e	e

__BEGIN__	__EPS__
v	u
n	n
n	d

__BEGIN__	__EPS__
h	h
e	a
t	t

__BEGIN__	__EPS__
d	d
r	re
y	i
e	e
r	r

__BEGIN__	__EPS__
u	ü
b	b
r	r
i	i
g	g

__BEGIN__	__EPS__
r	r
e	e
i	i
n	n
e	e
n	n

__BEGIN__	__EPS__
p	b
l	l
u	u
t	t

__BEGIN__	__EPS__
v	u
n	n
d	d

__BEGIN__	__EPS__
g	g
e	e
s	s
e	e
l	l
l	l
e	e

__BEGIN__	__EPS__
s	s
t	t
ü	a
n	n
d	d
e	e
n	n

__BEGIN__	__EPS__
d	d
i	ie
z	s

__BEGIN__	__EPS__
i	ih
n	n

__BEGIN__	__EPS__
o	o
f	f
f	f
e	e
n	n
b	b
a	a
i	__EPS__
r	r

__BEGIN__	__EPS__
a	e
y	i
n	n
e	e
r	r

__BEGIN__	__EPS__
i	i
s	s
t	t

__BEGIN__	__EPS__
g	g
r	r
o	o
s	s
z	s
e	e
n	n

__BEGIN__	__EPS__
b	b
a	e
i	i
n	n

__BEGIN__	__EPS__
f	f
l	l
o	o
s	s
z	s

__BEGIN__	__EPS__
w	w
i	i
l	ll

__BEGIN__	__EPS__
i	j
h	e
-	s
u	u

__BEGIN__	__EPS__
g	g
e	e
l	l
a	a
n	n
g	g
e	e
n	n

__BEGIN__	__EPS__
a	a
l	l
l	l

__BEGIN__	__EPS__
h	ha
u	u
s	s

__BEGIN__	__EPS__
v	u
n	n
d	d

__BEGIN__	__EPS__
w	w
a	ä
e	__EPS__
r	re

__BEGIN__	__EPS__
d	d
e	e
s	s
t	t
e	o
r	__EPS__

__BEGIN__	__EPS__
i	i
c	c
h	h

__BEGIN__	__EPS__
h	h
e	ei
l	li
g	g
e	e
r	__EPS__

__BEGIN__	__EPS__
d	d
i	ie
s	s

__BEGIN__	__EPS__
v	u
n	n
d	d

__BEGIN__	__EPS__
s	s
u	u
c	c
h	h
t	t
e	e

__BEGIN__	__EPS__
s	s
p	p
r	r
a	a
c	c
h	h

__BEGIN__	__EPS__
s	s
i	ie

__BEGIN__	__EPS__
v	v
o	o
n	n

__BEGIN__	__EPS__
g	k
h	__EPS__
e	e
y	i
n	n

__BEGIN__	__EPS__
g	g
e	e
s	s
t	t
a	a
l	l
t	tet

__BEGIN__	__EPS__
d	d
o	a

__BEGIN__	__EPS__
d	d
e	e
s	s

__BEGIN__	__EPS__
d	d
i	i
e	e

__BEGIN__	__EPS__
h	__EPS__
e	e
r	r

__BEGIN__	__EPS__
m	l
i	ie
n	b
e	e
c	v
h	o
l	l
e	__EPS__
i	l
c	__EPS__
h	__EPS__
e	__EPS__
n	__EPS__

__BEGIN__	__EPS__
y	j
a	ah
r	r

__BEGIN__	__EPS__
v	u
n	n
d	d

__BEGIN__	__EPS__
h	h
e	e
r	r
t	z
z	e
l	l
e	e
i	i
d	d

__BEGIN__	__EPS__
e	e
i	i
n	n

__BEGIN__	__EPS__
i	u
n	n
d	d

__BEGIN__	__EPS__
v	u
n	n
n	d

__BEGIN__	__EPS__
v	u
n	n
d	d

__BEGIN__	__EPS__
n	n
o	o
e	__EPS__
t	t

__BEGIN__	__EPS__
g	__EPS__
e	__EPS__
t	t
r	r
a	a
g	g
e	e
n	n

__BEGIN__	__EPS__
n	n
i	i
c	c
h	h
t	t

__BEGIN__	__EPS__
d	d
e	e
m	m

__BEGIN__	__EPS__
a	a
l	l
l	l
e	e

__BEGIN__	__EPS__
d	b
r	e
o	t
e	r
g	__EPS__
e	ü
n	g
e	e
r	r
e	__EPS__

__BEGIN__	__EPS__
v	u
n	n
d	d

__BEGIN__	__EPS__
s	s
y	ie

__BEGIN__	__EPS__
h	h
e	e
r	r
c	__EPS__
z	z

__BEGIN__	__EPS__
m	m
e	e
r	r
c	__EPS__
k	ke

__BEGIN__	a
v	u
f	f
h	h
e	ä
l	l
t	t

__BEGIN__	__EPS__
h	h
e	e
r	r
t	__EPS__
z	z
e	e
n	n
l	l
i	i
e	e
b	be
s	s

__BEGIN__	__EPS__
g	g
o	u
i	__EPS__
t	t

__BEGIN__	__EPS__
s	se
i	i

__BEGIN__	__EPS__
i	i
c	c
h	h

__BEGIN__	__EPS__
m	m
e	e
i	i
n	n
e	e
r	r

__BEGIN__	__EPS__
e	e
l	l
e	e
m	m
e	e
n	n
t	t
e	e
n	n

__BEGIN__	__EPS__
d	d
e	e
r	r

__BEGIN__	__EPS__
d	d
a	a
r	__EPS__
n	n
a	a
c	c
h	h

__BEGIN__	__EPS__
s	s
p	p
e	e
c	c
i	i
o	o
s	s
u	u
s	s

__BEGIN__	__EPS__
d	d
a	a
t	ss

__BEGIN__	__EPS__
j	j
u	u
d	d
e	e
n	n

__BEGIN__	__EPS__
o	o

__BEGIN__	__EPS__
n	n
a	ah
m	m

__BEGIN__	__EPS__
i	j
v	ü
n	n
g	g
e	e
r	r

__BEGIN__	__EPS__
s	s
i	e
g	i
e	__EPS__
s	s
t	t

__BEGIN__	e
v	u
c	c
h	h

__BEGIN__	__EPS__
d	d
e	e
r	r

__BEGIN__	__EPS__
d	t
o	u
e	__EPS__
n	n

__BEGIN__	__EPS__
m	m
e	e
i	h
r	r

__BEGIN__	__EPS__
w	w
i	i
l	lls
t	t

__BEGIN__	__EPS__
v	ü
b	b
e	e
r	r

__BEGIN__	__EPS__
c	k
r	r
e	e
u	u
t	__EPS__
z	z

__BEGIN__	__EPS__
c	k
h	__EPS__
r	r
e	e
u	u
e	__EPS__
c	__EPS__
z	z

__BEGIN__	__EPS__
v	u
m	m
b	__EPS__
g	g
r	r
i	i
f	f
f	f
e	e
n	n

__BEGIN__	__EPS__
v	v
o	o
n	n

__BEGIN__	__EPS__
i	i
c	c
h	h

__BEGIN__	__EPS__
k	k
l	l
a	a
g	g
t	t

__BEGIN__	__EPS__
s	s
i	i
e	e

__BEGIN__	__EPS__
v	u
n	n
d	d

__BEGIN__	__EPS__
d	d
a	a
s	s

__BEGIN__	__EPS__
v	v
e	e
r	r
c	k
h	__EPS__
e	eh
r	r
e	__EPS__
t	t

__BEGIN__	__EPS__
s	s
y	ie

__BEGIN__	__EPS__
v	f
a	a
n	n
t	d

__BEGIN__	__EPS__
f	f
r	r
o	ö
e	h
l	l
i	i
c	c
h	h

__BEGIN__	__EPS__
v	u
n	n
d	d

__BEGIN__	__EPS__
i	j
u	u
d	d
e	e
n	n

__BEGIN__	__EPS__
m	m
e	eh
r	r

__BEGIN__	__EPS__
g	g
e	e
f	f
a	a
n	n
g	g
i	e
n	n

__BEGIN__	__EPS__
h	e
e	r

__BEGIN__	__EPS__
v	u
n	n
d	d

__BEGIN__	__EPS__
p	b
e	e
i	i
c	c
h	h
t	t

__BEGIN__	__EPS__
h	h
i	i
m	mm
e	e
l	l
r	r
e	e
i	i
c	c
h	h

__BEGIN__	__EPS__
l	l
e	e
u	u
t	te

__BEGIN__	__EPS__
w	w
a	a
r	r
v	u
m	m
b	__EPS__

__BEGIN__	__EPS__
h	h
e	a
t	t
t	t
e	e
n	n

__BEGIN__	__EPS__
h	h
e	e
r	r
n	ni
e	e
d	d
e	e
r	r

__BEGIN__	__EPS__
k	k
o	o
m	mm
e	e
n	n

__BEGIN__	__EPS__
a	a
l	l
z	s

__BEGIN__	__EPS__
k	k
r	r
u	e
i	u
c	__EPS__
z	z
i	i
g	g
e	e
n	n

__BEGIN__	__EPS__
g	g
e	e
s	s
u	ü
n	n
d	dig
t	t

__BEGIN__	__EPS__
d	d
i	i
s	e
z	s

__BEGIN__	__EPS__
l	l
e	__EPS__
i	i
f	e
f	f

__BEGIN__	__EPS__
d	d
i	i
r	r

__BEGIN__	__EPS__
v	u
n	n
d	d

__BEGIN__	__EPS__
g	g
e	e
i	i
s	s
t	t

__BEGIN__	__EPS__
f	f
r	r
a	a
w	u
e	__EPS__

__BEGIN__	__EPS__
m	m
e	e
i	i
n	n

__BEGIN__	__EPS__
e	e
z	s

__BEGIN__	__EPS__
s	s
a	a
s	s
z	s

__BEGIN__	__EPS__
a	a
u	u
c	c
h	h

__BEGIN__	__EPS__
s	s
c	c
h	h
a	a
f	f
t	t

__BEGIN__	__EPS__
m	m
e	a
n	n

__BEGIN__	__EPS__
g	g
e	e
s	s
a	a
y	g
t	t

__BEGIN__	__EPS__
i	i
c	ch

__BEGIN__	__EPS__
d	d
i	i
c	c
h	h

__BEGIN__	__EPS__
s	s
e	e
i	i
n	n

__BEGIN__	__EPS__
m	me
y	i
n	n
e	e
n	m

__BEGIN__	__EPS__
i	i
s	s
t	t

__BEGIN__	__EPS__
n	n
ü	ah
n	m

__BEGIN__	__EPS__
a	a
l	l
l	l
e	e
r	r

__BEGIN__	__EPS__
h	h
e	e
r	r
o	o
d	de
z	s

__BEGIN__	__EPS__
g	g
e	e
s	s
v	u
n	n
t	d

__BEGIN__	__EPS__
d	d
a	a

__BEGIN__	__EPS__
d	d
i	i
t	e
z	s

__BEGIN__	__EPS__
u	ü
b	b
e	e
r	r

__BEGIN__	__EPS__
w	w
a	a
s	r

__BEGIN__	__EPS__
h	h
i	i
e	e
s	s
z	s

__BEGIN__	__EPS__
n	n
e	e
s	s
t	t
e	er
n	n

__BEGIN__	__EPS__
g	g
e	e
u	f
a	a
n	n
g	g
e	e
n	n

__BEGIN__	__EPS__
s	s
p	p
r	r
a	a
c	c
h	h

__BEGIN__	__EPS__
c	__EPS__
z	z
u	u

__BEGIN__	__EPS__
i	j
e	e
r	r
u	u
s	s
a	a
l	l
e	e
m	m

__BEGIN__	__EPS__
h	h
o	ö
e	__EPS__
r	r
e	e

__BEGIN__	__EPS__
v	u
n	n
s	s
e	er

__BEGIN__	__EPS__
s	s
c	c
h	h
e	ä
c	c
h	h
e	e
r	r

__BEGIN__	__EPS__
a	a
l	l
s	s
z	__EPS__

__BEGIN__	__EPS__
s	se
y	i
n	n
e	e
n	n

__BEGIN__	__EPS__
f	f
u	u
e	__EPS__
s	s
s	s

__BEGIN__	__EPS__
d	d
o	a

__BEGIN__	__EPS__
w	w
a	a
z	r

__BEGIN__	__EPS__
w	w
a	a
z	r

__BEGIN__	__EPS__
u	f
a	a
l	l
s	s
c	c
h	h
e	e
r	r

__BEGIN__	__EPS__
g	g
e	e
b	b
e	e
n	n

__BEGIN__	__EPS__
i	i
c	c
h	h

__BEGIN__	__EPS__
a	a
n	n

__BEGIN__	__EPS__
a	__EPS__
w	ü
s	b
s	__EPS__
e	e
r	r
m	m
a	a
s	s
s	s
e	i
n	g

__BEGIN__	__EPS__
v	u
n	n
d	d

__BEGIN__	__EPS__
i	ih
n	n
e	e
n	n

__BEGIN__	__EPS__
d	d
a	a

__BEGIN__	__EPS__
s	s
i	i
c	c
h	h

__BEGIN__	__EPS__
i	ih
r	r

__BEGIN__	__EPS__
n	n
i	i
t	ch
t	t

__BEGIN__	__EPS__
g	g
h	__EPS__
e	e
u	f
o	ü
e	h
d	r
t	t

__BEGIN__	__EPS__
w	w
i	ie
d	d
e	e
r	r

__BEGIN__	__EPS__
e	e
r	r

__BEGIN__	__EPS__
h	e
e	r

__BEGIN__	__EPS__
a	w
c	e
h	i
t	s
e	e

__BEGIN__	__EPS__
i	ih
m	m

__BEGIN__	__EPS__
s	s
c	__EPS__
h	__EPS__
o	o
l	ll
t	t
e	e

__BEGIN__	__EPS__
c	k
h	__EPS__
i	i
n	n
d	d

__BEGIN__	__EPS__
m	m
i	i
t	t

__BEGIN__	__EPS__
n	n
e	e
n	nn
t	t

__BEGIN__	__EPS__
i	ih
n	n

__BEGIN__	__EPS__
v	v
o	o
n	n

__BEGIN__	__EPS__
d	d
i	i
e	e

__BEGIN__	__EPS__
s	s
o	o

__BEGIN__	__EPS__
d	d
e	e
n	n

__BEGIN__	__EPS__
i	i
c	c
h	h

__BEGIN__	__EPS__
d	d
o	a

__BEGIN__	__EPS__
i	i
n	n

__BEGIN__	__EPS__
d	d
i	i
e	e
s	s
s	__EPS__
e	e
n	n

__BEGIN__	__EPS__
f	f
r	r
e	e
v	u
t	t

__BEGIN__	__EPS__
m	m
i	i
t	t

__BEGIN__	__EPS__
d	d
u	u

__BEGIN__	__EPS__
m	m
i	i
r	r

__BEGIN__	__EPS__
r	r
e	e
i	i
c	c
h	h

__BEGIN__	__EPS__
f	f
r	r
a	a
u	u
w	__EPS__
e	__EPS__

__BEGIN__	__EPS__
d	d
e	e
r	r

__BEGIN__	__EPS__
m	m
i	i
t	t

__BEGIN__	__EPS__
g	g
e	e
s	s
c	c
h	h
e	e
h	h
e	e
n	n

__BEGIN__	__EPS__
h	h
e	e
r	r
e	__EPS__

__BEGIN__	__EPS__
d	d
e	e
m	m

__BEGIN__	__EPS__
i	ih
m	m

__BEGIN__	__EPS__
w	w
o	oh
l	l

__BEGIN__	__EPS__
s	s
p	p
r	r
a	a
c	c
h	h

__BEGIN__	__EPS__
i	j
u	ü
n	n
g	g
e	e
r	r

__BEGIN__	__EPS__
v	v
i	i
e	e
r	r
d	t
e	e
n	n

__BEGIN__	__EPS__
s	s
c	c
h	h
e	ä
c	c
h	h
e	e
r	r
n	n

__BEGIN__	__EPS__
e	e
r	r

__BEGIN__	__EPS__
b	be
y	i

__BEGIN__	__EPS__
g	g
e	en

__BEGIN__	__EPS__
z	z
w	u

__BEGIN__	__EPS__
i	ih
m	m

__BEGIN__	__EPS__
d	d
i	ie
t	s

__BEGIN__	__EPS__
l	l
e	e
u	u
t	te

__BEGIN__	__EPS__
d	d
r	r
e	e
y	i

__BEGIN__	__EPS__
d	d
a	a
s	ss

__BEGIN__	__EPS__
v	u
n	n
d	d

__BEGIN__	__EPS__
m	m
e	e
i	i
n	n

__BEGIN__	__EPS__
v	v
o	o
n	n

__BEGIN__	__EPS__
a	a
u	u
f	f
f	__EPS__

__BEGIN__	__EPS__
a	a
m	m
e	e
n	n

__BEGIN__	__EPS__
z	z
u	u

__BEGIN__	__EPS__
w	w
o	o
u	l
l	l
d	t
e	e

__BEGIN__	__EPS__
d	d
o	a

__BEGIN__	__EPS__
g	g
e	e
a	a
n	n
t	t
w	w
u	o
r	r
t	tet

__BEGIN__	__EPS__
d	d
a	a
z	s

__BEGIN__	__EPS__
d	d
a	a
z	ss

__BEGIN__	__EPS__
w	w
o	ol
l	l
t	t
e	e
n	n
t	__EPS__

__BEGIN__	__EPS__
v	u
n	n
d	d

__BEGIN__	__EPS__
a	a
l	l
l	l
e	e

__BEGIN__	__EPS__
i	i
c	c
h	h

__BEGIN__	__EPS__
s	s
e	e
i	i
n	ne

__BEGIN__	__EPS__
g	g
e	e
s	s
c	c
h	h
r	r
i	ie
b	b
e	e
n	n

__BEGIN__	__EPS__
s	s
c	c
h	h
o	o
i	__EPS__
s	s
s	s

__BEGIN__	__EPS__
d	d
e	e
n	n

__BEGIN__	__EPS__
k	k
i	i
n	n
d	d
e	e
s	s

__BEGIN__	__EPS__
a	a
n	n

__BEGIN__	__EPS__
v	f
r	r
a	a
e	__EPS__
c	g
h	__EPS__
d	t
e	e

__BEGIN__	__EPS__
m	m
y	i
r	r

__BEGIN__	__EPS__
a	a
n	n
d	d
e	e
r	re

__BEGIN__	__EPS__
s	s
u	__EPS__
i	i
c	e
h	h

__BEGIN__	__EPS__
f	f
u	üh
r	r
t	t
e	e
n	n

__BEGIN__	__EPS__
e	e
r	r

__BEGIN__	__EPS__
d	d
a	a
z	s

__BEGIN__	__EPS__
d	d
o	a

__BEGIN__	__EPS__
t	d
u	ü
r	rs
t	t
e	e
t	t

__BEGIN__	__EPS__
l	l
a	a
n	n
g	g

__BEGIN__	__EPS__
m	me
i	i
n	n
e	e
m	m

__BEGIN__	__EPS__
w	w
e	ä
r	r
e	e

__BEGIN__	__EPS__
d	d
u	u
r	r
c	c
h	h

__BEGIN__	__EPS__
h	h
e	e
r	r
t	__EPS__
z	z
e	__EPS__
n	__EPS__
l	l
i	i
c	c
h	h

__BEGIN__	__EPS__
s	s
e	e
y	i

__BEGIN__	__EPS__
e	e
r	r
s	s
c	c
h	h
r	r
a	a
k	k

__BEGIN__	__EPS__
k	k
r	r
u	e
i	u
c	__EPS__
z	z

__BEGIN__	__EPS__
v	u
n	n
d	d
e	__EPS__

__BEGIN__	__EPS__
d	d
o	a

__BEGIN__	__EPS__
v	v
o	o
l	l
k	k

__BEGIN__	__EPS__
k	k
e	e
i	i
n	n

__BEGIN__	__EPS__
s	sch
l	l
a	a
h	g
e	e
n	n

__BEGIN__	__EPS__
i	i
s	s
t	t

__BEGIN__	__EPS__
g	g
r	r
o	o
s	s
s	s
e	e

__BEGIN__	__EPS__
l	l
e	e
u	u
t	__EPS__
t	t
e	e
n	n

__BEGIN__	__EPS__
i	i
c	c
h	h

__BEGIN__	__EPS__
w	w
o	o
l	ll
d	t
e	e
n	n

__BEGIN__	__EPS__
a	a
n	n
t	t
w	w
o	o
r	r
t	t
t	__EPS__
e	e
t	t

__BEGIN__	__EPS__
c	__EPS__
z	z
w	u

__BEGIN__	__EPS__
v	u
n	n
d	d

__BEGIN__	__EPS__
b	b
a	a
n	n
t	d

__BEGIN__	__EPS__
a	a
l	l
s	s

__BEGIN__	__EPS__
m	m
e	ehr

__BEGIN__	__EPS__
v	u
n	n
d	d

__BEGIN__	__EPS__
m	m
e	eh
r	r

__BEGIN__	__EPS__
h	h
e	e
r	r
t	__EPS__
z	z
e	__EPS__

__BEGIN__	__EPS__
c	__EPS__
z	z
e	e
i	i
c	c
h	h
e	e
n	n

__BEGIN__	__EPS__
a	a
l	l
l	l
e	e
n	n

__BEGIN__	__EPS__
t	t
o	o
d	d

__BEGIN__	__EPS__
t	t
e	e
m	m
p	p
e	e
l	l
l	__EPS__

__BEGIN__	__EPS__
p	p
y	i
l	l
a	a
t	t
u	u
s	s

__BEGIN__	__EPS__
o	e
n	r
t	__EPS__
f	b
a	a
r	r
m	m
t	t

__BEGIN__	__EPS__
s	s
a	a
g	g
e	e
n	n

__BEGIN__	__EPS__
e	e
r	r

__BEGIN__	__EPS__
d	d
u	u

__BEGIN__	__EPS__
n	n
i	ich
t	t

__BEGIN__	__EPS__
w	w
a	a
t	s

__BEGIN__	__EPS__
w	w
a	a
s	r

__BEGIN__	__EPS__
d	d
a	a
s	s

__BEGIN__	__EPS__
h	h
e	e
i	i
l	l
e	__EPS__

__BEGIN__	__EPS__
a	a
n	n
t	t
l	l
u	i
e	__EPS__
c	t
z	z

__BEGIN__	__EPS__
l	l
e	ä
s	s
t	t
e	e
r	r
l	l
i	i
c	c
h	h
e	e
n	n

__BEGIN__	__EPS__
d	d
i	i
r	e
r	s
e	em

__BEGIN__	__EPS__
d	d
a	a
n	nn

__BEGIN__	__EPS__
u	a
f	u
f	f
s	s
a	e
c	t
z	zt
e	e
n	n
d	__EPS__

__BEGIN__	__EPS__
l	l
a	a
m	m
a	a
z	z
a	a
b	b
a	a
t	t
h	h
a	a
n	n
i	i

__BEGIN__	__EPS__
a	a
u	u
c	c
h	h

__BEGIN__	__EPS__
m	m
a	a
n	n

__BEGIN__	__EPS__
a	a
l	l
s	s
o	o

__BEGIN__	__EPS__
f	f
o	ü
r	r
c	c
h	h
t	tete

__BEGIN__	__EPS__
m	m
e	e
i	i
n	n

__BEGIN__	__EPS__
s	se
y	i

__BEGIN__	__EPS__
n	n
i	i
c	c
h	h
t	t

__BEGIN__	__EPS__
w	w
a	a
s	r

__BEGIN__	__EPS__
v	v
o	o
n	n

__BEGIN__	__EPS__
d	d
u	u
r	r
c	c
h	h

__BEGIN__	__EPS__
e	e
r	r
l	l
o	ö
s	s
t	t

__BEGIN__	__EPS__
w	w
o	ol
l	l
t	te

__BEGIN__	__EPS__
s	s
i	i
e	e

__BEGIN__	__EPS__
v	u
n	n
d	d

__BEGIN__	__EPS__
s	s
c	c
h	h
r	r
i	i
e	e
r	__EPS__
e	__EPS__
n	n

__BEGIN__	__EPS__
f	f
u	ü
e	s
z	s
z	e

__BEGIN__	__EPS__
m	m
a	a
r	r
t	t
e	e
r	r

__BEGIN__	__EPS__
m	m
e	ö
c	c
h	h
t	te

__BEGIN__	__EPS__
d	d
a	a
r	r

__BEGIN__	__EPS__
s	s
y	ie

__BEGIN__	d
v	u

__BEGIN__	__EPS__
w	w
a	a
r	r
t	d

__BEGIN__	__EPS__
w	w
i	i
e	e
d	d
e	e
r	r

__BEGIN__	__EPS__
t	t
o	o
t	t
e	e
n	n

__BEGIN__	__EPS__
s	sch
w	w
e	e
r	r
t	t

__BEGIN__	__EPS__
a	a
l	l
s	s
o	o

__BEGIN__	__EPS__
s	s
a	e
l	l
i	i
g	g

__BEGIN__	__EPS__
v	u
n	n
d	d

__BEGIN__	__EPS__
h	h
e	e
r	r

__BEGIN__	__EPS__
g	g
r	r
a	a
b	b
e	__EPS__

__BEGIN__	__EPS__
d	d
o	a

__BEGIN__	__EPS__
g	g
r	r
o	o
s	s
s	s
e	e
m	m

__BEGIN__	__EPS__
t	t
e	e
m	m
p	pe
l	l

__BEGIN__	__EPS__
i	i
c	c
h	h

__BEGIN__	__EPS__
h	h
e	e
r	r
a	a
b	b
e	__EPS__

__BEGIN__	__EPS__
s	s
ü	oh
n	n

__BEGIN__	__EPS__
t	z
z	e
o	r
b	b
r	r
e	e
c	c
h	h
e	e
n	n

__BEGIN__	__EPS__
d	d
a	a
t	s

__BEGIN__	__EPS__
d	d
y	i
e	e

__BEGIN__	__EPS__
e	e
r	r

__BEGIN__	__EPS__
e	e
r	r
l	l
i	i
t	t
t	t
e	en

__BEGIN__	__EPS__
g	g
e	e
l	l
o	a
f	u
f	f
e	e
n	n

__BEGIN__	__EPS__
v	v
a	a
t	t
t	__EPS__
e	e
r	r

__BEGIN__	__EPS__
m	me
i	i
n	n
e	e
m	m

__BEGIN__	__EPS__
n	n
i	ic
h	h
t	t

__BEGIN__	__EPS__
t	t
a	o
t	t
e	e
n	n

__BEGIN__	__EPS__
z	z
u	u
o	__EPS__

__BEGIN__	__EPS__
d	d
o	a

__BEGIN__	__EPS__
f	v
u	o
r	rbei
g	g
i	i
n	n
g	g
e	e
n	n

__BEGIN__	__EPS__
n	n
ü	u
n	n

__BEGIN__	__EPS__
s	sch
m	m
e	e
r	r
c	__EPS__
z	z

__BEGIN__	__EPS__
w	w
o	oh
l	l

__BEGIN__	__EPS__
i	ih
n	n

__BEGIN__	__EPS__
g	g
e	e
k	k
r	r
o	ö
n	n
e	__EPS__
t	t

__BEGIN__	__EPS__
v	u
n	n
s	s
e	e
r	r

__BEGIN__	__EPS__
s	sch
l	l
o	u
i	__EPS__
g	g
e	e
n	n

__BEGIN__	__EPS__
i	i
s	s
t	t

__BEGIN__	__EPS__
e	e
s	s
z	__EPS__

__BEGIN__	__EPS__
m	m
e	e
i	i
n	ne
s	s

__BEGIN__	__EPS__
d	d
a	a
r	r

__BEGIN__	__EPS__
i	ih
m	m

__BEGIN__	__EPS__
n	n
o	o
c	c
h	h

__BEGIN__	__EPS__
d	d
a	a
s	s

__BEGIN__	__EPS__
g	g
a	eh
e	e
n	n

__BEGIN__	__EPS__
s	s
p	p
r	r
a	a
c	c
h	h

__BEGIN__	__EPS__
a	e
i	i
n	n

__BEGIN__	__EPS__
d	d
e	e
r	r

__BEGIN__	__EPS__
d	d
i	i
r	r

__BEGIN__	__EPS__
e	e
r	r
f	f
u	ü
i	__EPS__
l	l
l	l
e	__EPS__
t	__EPS__
t	t

__BEGIN__	__EPS__
d	d
e	e
n	n

__BEGIN__	__EPS__
m	me
y	i
n	n
e	e
n	n

__BEGIN__	__EPS__
m	m
a	a
r	r
i	i
a	a

__BEGIN__	__EPS__
a	a
n	n
d	d
e	e
r	re

__BEGIN__	__EPS__
i	j
u	u
d	d
e	e
n	n

__BEGIN__	__EPS__
m	m
y	ir

__BEGIN__	__EPS__
d	d
i	i
e	e

__BEGIN__	__EPS__
d	d
i	i
e	__EPS__
r	r

__BEGIN__	__EPS__
d	da
z	ss

__BEGIN__	__EPS__
g	g
e	e
d	d
a	a
c	c
h	h
t	t

__BEGIN__	__EPS__
n	m
o	i
n	t
c	tags
z	z
e	e
i	i
t	t

__BEGIN__	__EPS__
k	k
i	i
n	n
t	d

__BEGIN__	__EPS__
d	d
o	a

__BEGIN__	__EPS__
d	d
e	e
r	r

__BEGIN__	__EPS__
w	w
i	i
e	e

__BEGIN__	__EPS__
s	se
i	i
n	n
e	e

__BEGIN__	__EPS__
d	d
o	a

__BEGIN__	__EPS__
d	d
e	e
r	r

__BEGIN__	__EPS__
a	a
b	b
e	__EPS__
g	g
e	e
g	g
a	a
n	n
g	g
e	e
n	n

__BEGIN__	__EPS__
d	d
e	e
n	n

__BEGIN__	__EPS__
m	m
e	e
i	i
n	n

__BEGIN__	__EPS__
s	se
i	i
m	n
e	em

__BEGIN__	__EPS__
h	h
e	e
r	r
o	o
d	d
e	e
s	s

__BEGIN__	__EPS__
i	i
c	c
h	h

__BEGIN__	__EPS__
v	v
o	o
l	ll

__BEGIN__	__EPS__
b	g
e	e
s	s
c	c
h	h
a	a
c	__EPS__
h	h

__BEGIN__	__EPS__
e	e
r	r

__BEGIN__	__EPS__
d	d
o	a

__BEGIN__	__EPS__
k	k
o	o
m	m
m	m
e	e
n	n

__BEGIN__	__EPS__
i	j
u	u
d	d
e	e
n	n

__BEGIN__	__EPS__
e	e
i	i
n	n

__BEGIN__	__EPS__
g	g
e	e
s	s
c	c
h	h
e	eh
y	e
n	n

__BEGIN__	__EPS__
h	h
e	a
t	t

__BEGIN__	__EPS__
w	w
a	a
s	r

__BEGIN__	__EPS__
a	e
i	i
n	n
e	e
m	m

__BEGIN__	__EPS__
v	u
m	m
b	__EPS__
v	f
a	a
n	n
g	g
e	e
n	n

__BEGIN__	__EPS__
w	w
a	a
s	r

__BEGIN__	__EPS__
m	me
i	i
n	ne
s	s

__BEGIN__	__EPS__
d	d
i	i
n	n
g	g

__BEGIN__	__EPS__
p	b
i	i
s	s
t	t

__BEGIN__	__EPS__
s	s
a	a
g	h
s	s
t	t

__BEGIN__	__EPS__
l	l
u	u
c	c
a	a
s	s

__BEGIN__	__EPS__
e	e
i	i
u	u
s	s

__BEGIN__	__EPS__
d	d
a	as
s	s

__BEGIN__	__EPS__
n	n
i	i
e	ch
t	t

__BEGIN__	__EPS__
k	k
e	e
y	i
n	n

__BEGIN__	__EPS__
d	d
y	ie

__BEGIN__	__EPS__
v	u
n	n
d	d

__BEGIN__	__EPS__
k	k
i	i
n	n
d	d
e	e
s	s

__BEGIN__	__EPS__
y	ih
m	m

__BEGIN__	__EPS__
i	i
c	c
h	h

__BEGIN__	__EPS__
v	u
n	n
d	d

__BEGIN__	__EPS__
l	l
v	e
i	u
t	t
e	e

__BEGIN__	__EPS__
h	h
u	i
l	l
f	f
f	__EPS__
e	e

__BEGIN__	__EPS__
e	e
r	r

__BEGIN__	__EPS__
y	i
m	h
e	m

__BEGIN__	__EPS__
r	r
u	ü
c	c
k	ken

__BEGIN__	__EPS__
s	s
p	p
r	r
o	a
c	c
h	h
i	e
n	n

__BEGIN__	__EPS__
s	s
o	o

__BEGIN__	__EPS__
s	s
a	a
n	n
d	dte

__BEGIN__	__EPS__
n	n
i	i
c	c
h	h
t	t

__BEGIN__	__EPS__
h	h
e	e
r	r
o	o
d	d
e	e
s	s

__BEGIN__	__EPS__
m	m
i	i
c	c
h	h

__BEGIN__	__EPS__
i	i
c	c
h	h

__BEGIN__	__EPS__
d	d
y	i
r	r

__BEGIN__	__EPS__
s	sc
h	h
r	re
i	i
b	b
e	e
n	n
t	__EPS__

__BEGIN__	__EPS__
c	k
a	a
n	nn

__BEGIN__	__EPS__
g	g
e	e
l	l
e	i
d	tt
e	e
n	n

__BEGIN__	__EPS__
p	p
i	i
l	l
a	a
t	t
u	u
s	s

__BEGIN__	__EPS__
o	a
v	u
c	c
h	h

__BEGIN__	__EPS__
d	d
e	e
m	m

__BEGIN__	__EPS__
n	n
a	a
c	c
h	h

__BEGIN__	__EPS__
w	w
e	eh

__BEGIN__	__EPS__
g	g
a	a
r	r

__BEGIN__	__EPS__
i	j
o	o
h	h
a	a
n	nne
s	s

__BEGIN__	__EPS__
m	v
a	__EPS__
n	i
i	e
c	l
h	e

__BEGIN__	__EPS__
m	me
i	i
n	n

__BEGIN__	__EPS__
h	h
a	a
n	be

__BEGIN__	__EPS__
m	m
o	o
n	n
d	d
e	__EPS__

__BEGIN__	__EPS__
i	ih
n	n

__BEGIN__	__EPS__
e	e
r	r

__BEGIN__	__EPS__
a	a
b	b

__BEGIN__	__EPS__
m	m
i	i
t	t

__BEGIN__	__EPS__
v	u
n	n
d	d

__BEGIN__	__EPS__
s	s
t	t
a	ä
t	tte

__BEGIN__	__EPS__
a	a
l	l
l	l
e	e
n	n

__BEGIN__	__EPS__
i	u
n	n
d	d

__BEGIN__	__EPS__
r	r
i	i
b	p
b	p
e	e
n	n

__BEGIN__	__EPS__
v	f
i	i
e	e
l	l

__BEGIN__	__EPS__
v	v
o	o
n	n

__BEGIN__	__EPS__
v	u
n	n
d	d

__BEGIN__	__EPS__
s	s
c	c
h	h
v	u
l	l
d	d
i	i
g	g

__BEGIN__	__EPS__
v	u
n	n
d	d

__BEGIN__	__EPS__
g	g
a	a
r	r

__BEGIN__	__EPS__
s	s
y	ie

__BEGIN__	__EPS__
d	d
e	e
m	m

__BEGIN__	__EPS__
n	n
u	un

__BEGIN__	__EPS__
s	s
c	c
h	h
a	a
n	n
d	d
e	e

__BEGIN__	__EPS__
s	s
i	i
c	e
h	he

__BEGIN__	__EPS__
v	u
n	n
s	s
i	e
r	r

__BEGIN__	__EPS__
h	h
e	e
r	r
t	__EPS__
z	z
e	__EPS__
n	__EPS__
l	l
i	i
c	c
h	h

__BEGIN__	__EPS__
a	a
l	l
l	l
e	e
n	n

__BEGIN__	__EPS__
v	v
o	o
n	n

__BEGIN__	__EPS__
c	__EPS__
z	z
w	u

__BEGIN__	__EPS__
m	m
i	i
t	t

__BEGIN__	__EPS__
w	w
i	i
l	l
l	l
e	e
n	n

__BEGIN__	__EPS__
s	s
a	a
n	n
d	kt

__BEGIN__	__EPS__
i	i
c	c
h	h

__BEGIN__	__EPS__
s	s
y	ie

__BEGIN__	__EPS__
p	p
i	i
l	l
a	a
t	t
u	u
s	s

__BEGIN__	__EPS__
t	t
o	o
l	l
l	l
e	e

__BEGIN__	__EPS__
k	k
i	i
n	n
c	de
z	s

__BEGIN__	__EPS__
e	e
r	r

__BEGIN__	__EPS__
e	e
s	s

__BEGIN__	__EPS__
l	l
e	e
g	g
t	t

__BEGIN__	__EPS__
a	a
n	n
s	s
h	__EPS__
e	e
l	l
m	m
u	__EPS__
s	__EPS__

__BEGIN__	__EPS__
d	d
i	i
e	e

__BEGIN__	__EPS__
d	d
a	as
s	s

__BEGIN__	__EPS__
v	u
n	n
d	d

__BEGIN__	__EPS__
i	i
c	c
h	h

__BEGIN__	__EPS__
s	s
y	ie

__BEGIN__	__EPS__
d	d
u	u

__BEGIN__	__EPS__
k	k
i	i
n	n
t	d

__BEGIN__	__EPS__
m	me
y	i
n	n

__BEGIN__	__EPS__
v	u
m	m
f	f
o	an
g	g
e	e
n	n

__BEGIN__	__EPS__
e	e
r	r
f	f
r	r
e	e
v	u
t	t

__BEGIN__	__EPS__
m	m
i	i
c	c
h	h

__BEGIN__	__EPS__
h	h
e	e
r	r
c	__EPS__
z	z
e	e
n	n
l	l
a	e
y	i
d	d
e	e
s	s

__BEGIN__	__EPS__
w	w
a	a
s	r

__BEGIN__	__EPS__
v	v
o	o
n	n

__BEGIN__	__EPS__
d	d
u	u

__BEGIN__	__EPS__
w	w
e	ah
r	r
l	l
i	i
c	c
h	h

__BEGIN__	__EPS__
s	s
t	t
a	ad
t	t

__BEGIN__	__EPS__
b	b
e	e
d	d
e	e
c	c
k	k
e	e
n	n
d	d

__BEGIN__	__EPS__
d	d
e	e
r	r

__BEGIN__	__EPS__
n	n
a	ah
m	m

__BEGIN__	__EPS__
l	l
e	ebe
n	n
t	d
i	i
g	g

__BEGIN__	__EPS__
d	d
a	a
s	ss

__BEGIN__	__EPS__
i	ih
m	m

__BEGIN__	__EPS__
s	s
i	e
e	i
s	s
t	t

__BEGIN__	__EPS__
f	f
r	r
a	a
w	ue
n	n

__BEGIN__	__EPS__
d	de
y	i
n	n
i	e
s	s

__BEGIN__	__EPS__
l	l
e	e
i	i
p	b

__BEGIN__	__EPS__
c	k
l	l
e	ä
g	g
e	__EPS__
l	l
i	i
c	c
h	h
e	e

__BEGIN__	__EPS__
a	a
l	l
s	s
o	o

__BEGIN__	__EPS__
v	u
n	n
d	d

__BEGIN__	__EPS__
q	k
u	__EPS__
a	a
m	m

__BEGIN__	__EPS__
s	s
y	ie

__BEGIN__	__EPS__
s	s
o	o

__BEGIN__	__EPS__
s	s
i	i
c	c
h	h

__BEGIN__	__EPS__
s	s
p	p
r	r
a	a
c	c
h	h

__BEGIN__	__EPS__
d	d
u	u

__BEGIN__	__EPS__
d	d
u	u

__BEGIN__	__EPS__
p	b
e	e
g	g
i	i
n	nn
e	e
n	n

__BEGIN__	__EPS__
m	m
o	o
c	c
h	h
t	te

__BEGIN__	__EPS__
a	oh
n	n
e	e

__BEGIN__	__EPS__
d	d
a	a
t	s

__BEGIN__	__EPS__
w	w
a	a
s	r

__BEGIN__	__EPS__
l	l
a	a
i	s
s	s
t	t

__BEGIN__	__EPS__
d	d
a	a
r	r

__BEGIN__	__EPS__
m	m
e	e
i	i
n	n

__BEGIN__	__EPS__
w	w
a	a
s	r

__BEGIN__	__EPS__
v	v
o	o
n	n

__BEGIN__	__EPS__
u	u
n	n
d	d

__BEGIN__	__EPS__
s	s
t	t
a	ä
t	tte

__BEGIN__	__EPS__
s	s
o	o

__BEGIN__	__EPS__
d	d
v	ü
e	__EPS__
r	r
r	r
e	e
n	n

__BEGIN__	__EPS__
s	s
e	e
c	__EPS__
h	h
t	t

__BEGIN__	__EPS__
i	ih
m	m

__BEGIN__	__EPS__
s	s
y	i
m	m
e	e
o	o
n	n

__BEGIN__	__EPS__
h	h
a	a
u	u
s	s

__BEGIN__	__EPS__
v	u
n	n
d	d

__BEGIN__	__EPS__
d	d
a	a
s	s

__BEGIN__	__EPS__
p	p
y	i
l	l
a	a
t	t
u	u
s	s

__BEGIN__	__EPS__
n	n
i	i
c	c
h	h
t	t

__BEGIN__	__EPS__
r	r
e	e
i	__EPS__
c	c
h	h
t	t

__BEGIN__	__EPS__
v	u
n	n
d	d

__BEGIN__	__EPS__
b	b
e	e
n	n
o	o
m	mm
e	e
n	n

__BEGIN__	__EPS__
e	e
s	s

__BEGIN__	__EPS__
g	g
e	e
h	h
o	ö
i	__EPS__
r	r
t	t

__BEGIN__	__EPS__
i	j
o	o
h	h
a	a
n	n
n	n
e	e
s	s

__BEGIN__	__EPS__
e	e
r	r
f	f
u	ü
l	ll
t	t

__BEGIN__	__EPS__
d	d
e	e
r	r

__BEGIN__	__EPS__
m	m
i	i
t	t

__BEGIN__	__EPS__
d	d
e	e
r	r

__BEGIN__	__EPS__
s	s
o	oh
n	n

__BEGIN__	__EPS__
m	me
y	i
n	ne
s	s

__BEGIN__	__EPS__
a	a
n	n

__BEGIN__	__EPS__
w	w
a	a
n	nn

__BEGIN__	__EPS__
a	a
u	u
f	f

__BEGIN__	__EPS__
n	n
a	a
c	c
h	h
t	t

__BEGIN__	__EPS__
w	w
i	i
e	e

__BEGIN__	__EPS__
h	h
e	a
ü	u
b	p
t	t

__BEGIN__	__EPS__
e	e
s	s
t	t

__BEGIN__	__EPS__
s	s
t	t
o	ö
s	s
s	s
e	e

__BEGIN__	__EPS__
s	s
c	c
h	h
r	r
i	i
r	__EPS__
e	e
n	n

__BEGIN__	__EPS__
e	e
r	r
b	b
a	a
r	r
m	m
e	e

__BEGIN__	__EPS__
v	u
n	n
d	d

__BEGIN__	__EPS__
d	d
a	a

__BEGIN__	__EPS__
n	n
o	o
t	t

__BEGIN__	__EPS__
m	m
i	i
t	t

__BEGIN__	__EPS__
d	d
r	re
i	i
j	e
n	n

__BEGIN__	__EPS__
m	m
i	i
c	c
h	h

__BEGIN__	__EPS__
g	g
e	e
v	f
e	ä
r	r
w	b
e	__EPS__
t	t

__BEGIN__	__EPS__
s	s
a	a
g	g
e	e
n	n

__BEGIN__	__EPS__
k	k
u	ö
i	n
n	i
g	g

__BEGIN__	__EPS__
i	i
c	c
h	h

__BEGIN__	__EPS__
c	k
h	__EPS__
r	r
a	a
f	f
t	t

__BEGIN__	__EPS__
g	g
e	e
t	t
r	r
a	a
u	u
t	t

__BEGIN__	__EPS__
b	b
e	e
d	d
a	e
c	c
h	k
t	t

__BEGIN__	__EPS__
w	wi
e	e
d	d
e	e
r	r

__BEGIN__	__EPS__
m	m
o	oc
h	h
t	t
e	e

__BEGIN__	__EPS__
o	au
c	c
h	h

__BEGIN__	__EPS__
e	i
m	h
e	m

__BEGIN__	__EPS__
i	ih
n	n

__BEGIN__	__EPS__
d	d
e	e
m	m

__BEGIN__	__EPS__
h	h
a	a
u	b
e	e

__BEGIN__	__EPS__
p	h
u	ü
c	g
h	__EPS__
e	e
l	l
n	n

__BEGIN__	__EPS__
g	g
r	r
a	a
b	b

__BEGIN__	__EPS__
l	l
i	i
e	e
f	f
f	__EPS__
e	e
n	n

__BEGIN__	__EPS__
v	v
i	ie
l	le

__BEGIN__	__EPS__
f	f
r	r
e	e
w	u
t	te

__BEGIN__	__EPS__
d	d
e	e
r	r

__BEGIN__	__EPS__
i	j
e	e

__BEGIN__	__EPS__
s	s
p	p
e	e
y	i
s	s
t	t
e	e

__BEGIN__	__EPS__
h	h
a	a
i	s
s	t

__BEGIN__	__EPS__
v	u
n	n
d	d

__BEGIN__	__EPS__
z	z
a	e
i	i
c	c
h	h
e	e
n	n

__BEGIN__	__EPS__
e	e
r	r

__BEGIN__	__EPS__
d	d
i	__EPS__
e	u

__BEGIN__	__EPS__
t	d
r	r
o	o
w	h
t	t
e	e
n	n
t	__EPS__

__BEGIN__	__EPS__
d	d
a	as
z	s

__BEGIN__	__EPS__
g	g
e	e
t	t
r	r
a	a
g	g
i	e
n	n

__BEGIN__	__EPS__
n	n
i	ich
t	t

__BEGIN__	__EPS__
s	s
a	a
g	g
t	t

__BEGIN__	__EPS__
m	m
i	i
r	r

__BEGIN__	__EPS__
s	s
c	c
h	h
r	r
a	e
i	ie

__BEGIN__	__EPS__
d	d
e	e
r	r

__BEGIN__	__EPS__
m	m
o	ö
r	r
d	d
e	e
r	r

__BEGIN__	__EPS__
v	u
n	n
d	d

__BEGIN__	__EPS__
b	b
i	i
s	s
c	c
h	h
o	o
f	__EPS__
f	f

__BEGIN__	__EPS__
s	s
i	i
e	e

__BEGIN__	__EPS__
p	p
l	l
o	o
r	r
a	a
n	n
s	s

__BEGIN__	__EPS__
e	e
r	r
z	z
u	e
i	u
g	g
e	e
n	n

__BEGIN__	__EPS__
v	v
o	o
n	n

__BEGIN__	__EPS__
m	m
a	a
r	r
i	i
a	a

__BEGIN__	__EPS__
i	i
c	c
h	h

__BEGIN__	__EPS__
d	d
a	a
t	ss

__BEGIN__	__EPS__
i	ih
n	n

__BEGIN__	__EPS__
w	w
a	a
s	r

__BEGIN__	__EPS__
m	m
i	i
r	r

__BEGIN__	__EPS__
i	j
a	a
m	mm
e	e
r	r

__BEGIN__	__EPS__
m	me
i	i
n	n

__BEGIN__	__EPS__
n	n
i	i
c	c
h	h
t	t

__BEGIN__	__EPS__
e	e
y	i
n	n

__BEGIN__	__EPS__
d	d
e	e
s	s

__BEGIN__	__EPS__
y	ih
r	r
m	e
e	m

__BEGIN__	__EPS__
b	b
i	i
s	s
z	__EPS__

__BEGIN__	__EPS__
v	f
i	i
n	n
d	de

__BEGIN__	__EPS__
v	v
o	o
n	n

__BEGIN__	__EPS__
i	i
c	c
h	h

__BEGIN__	__EPS__
s	s
v	o
n	n
n	n
e	e

__BEGIN__	__EPS__
e	e
r	r
l	le
i	i
d	d
e	e
n	n

__BEGIN__	__EPS__
h	ha
u	u
s	s

__BEGIN__	__EPS__
o	ü
u	b
e	e
r	r

__BEGIN__	__EPS__
v	u
n	n
d	d

__BEGIN__	__EPS__
m	m
i	i
c	c
h	h

__BEGIN__	__EPS__
d	d
a	as
z	s

__BEGIN__	__EPS__
w	w
o	o
l	ll
t	t

__BEGIN__	__EPS__
v	u
n	n
d	d

__BEGIN__	__EPS__
d	d
a	a
s	ss

__BEGIN__	__EPS__
k	k
e	e
i	i
n	n

__BEGIN__	__EPS__
i	j
u	u
d	d
e	e
n	n

__BEGIN__	__EPS__
s	s
y	ie

__BEGIN__	__EPS__
v	u
n	n
d	d

__BEGIN__	__EPS__
w	w
a	a
r	r
t	d

__BEGIN__	__EPS__
d	d
e	e
s	s

__BEGIN__	__EPS__
a	a
u	u
f	f

__BEGIN__	__EPS__
s	s
o	o

__BEGIN__	__EPS__
m	m
i	i
t	t

__BEGIN__	__EPS__
i	i
c	c
h	h

__BEGIN__	__EPS__
h	h
e	e
r	r
c	__EPS__
z	z
e	__EPS__

__BEGIN__	__EPS__
a	a
n	n
g	g
e	e
b	b
u	u
n	n
d	d
e	e
n	n

__BEGIN__	__EPS__
v	vi
e	e
l	l
e	e

__BEGIN__	__EPS__
n	n
i	ie
d	d
e	e
r	r

__BEGIN__	__EPS__
s	s
o	o

__BEGIN__	__EPS__
d	d
u	u

__BEGIN__	__EPS__
m	m
e	e
n	n
s	s
c	c
h	h
l	l
i	i
c	c
h	h
e	e

__BEGIN__	__EPS__
v	u
n	n
d	d

__BEGIN__	__EPS__
p	b
i	i
n	n

__BEGIN__	__EPS__
c	__EPS__
z	z
u	u

__BEGIN__	__EPS__
v	u
n	n
d	d

__BEGIN__	__EPS__
v	v
o	o
n	n

__BEGIN__	__EPS__
s	s
u	o
s	__EPS__

__BEGIN__	__EPS__
n	n
o	o
c	c
h	h

__BEGIN__	__EPS__
s	s
o	o
l	ll
t	t

__BEGIN__	__EPS__
d	d
v	u
r	r
c	c
h	h

__BEGIN__	__EPS__
s	s
p	pr
e	ich
t	t

__BEGIN__	__EPS__
m	m
a	a
n	n

__BEGIN__	__EPS__
i	u
n	n
d	d

__BEGIN__	__EPS__
k	ka
u	u
m	m
e	__EPS__

__BEGIN__	__EPS__
d	d
a	a

__BEGIN__	__EPS__
g	k
h	__EPS__
e	e
y	i
n	n

__BEGIN__	__EPS__
t	t
i	i
t	t
u	u
s	s

__BEGIN__	__EPS__
s	s
a	ol
l	l
t	t

__BEGIN__	__EPS__
g	__EPS__
e	__EPS__
r	r
a	e
i	i
c	c
h	h
e	e
n	n

__BEGIN__	__EPS__
v	f
a	ah
r	r
e	e
n	n

__BEGIN__	__EPS__
v	u
n	n
d	d
e	__EPS__

__BEGIN__	__EPS__
e	e
s	s

__BEGIN__	__EPS__
u	f
a	a
l	l
l	l
e	e
n	n

__BEGIN__	__EPS__
w	w
a	a
s	r

__BEGIN__	__EPS__
s	s
e	i
w	e

__BEGIN__	__EPS__
d	d
i	i
e	e

__BEGIN__	__EPS__
d	d
a	a

__BEGIN__	__EPS__
w	w
a	a
n	nn

__BEGIN__	__EPS__
g	g
e	e
d	t
a	a
i	__EPS__
n	n

__BEGIN__	__EPS__
g	g
e	e
h	h
o	ö
r	r
i	__EPS__
t	t

__BEGIN__	__EPS__
o	o
s	s
t	t
e	e
r	r
t	t
a	a
g	g

__BEGIN__	__EPS__
e	e
y	i
n	n
e	e
n	n

__BEGIN__	__EPS__
w	d
e	e
n	nn

__BEGIN__	__EPS__
w	wi
e	e
d	d
i	e
r	r

__BEGIN__	__EPS__
c	__EPS__
z	z
e	e
i	i
t	t

__BEGIN__	__EPS__
i	j
e	e
r	ru
s	s
u	a
l	l
e	e
m	m

__BEGIN__	__EPS__
l	l
a	a
s	ss
t	t

__BEGIN__	__EPS__
f	f
v	ü
e	h
r	r
t	t
e	e
n	n

__BEGIN__	__EPS__
v	u
n	n
d	d

__BEGIN__	__EPS__
a	a
l	l
s	s

__BEGIN__	__EPS__
l	l
a	a
n	n
d	d
e	__EPS__

__BEGIN__	__EPS__
h	h
e	ä
t	tte

__BEGIN__	__EPS__
d	d
o	a

__BEGIN__	__EPS__
w	w
y	i
r	r

__BEGIN__	__EPS__
m	m
o	o
c	c
h	h
t	te

__BEGIN__	__EPS__
d	d
e	e
n	n

__BEGIN__	__EPS__
p	p
e	e
r	r

__BEGIN__	__EPS__
w	w
i	i
r	r

__BEGIN__	__EPS__
s	s
e	e
i	i
n	n
e	e
n	m

__BEGIN__	__EPS__
m	m
a	a
g	g
d	d
a	a
l	l
e	e
n	n
a	a

__BEGIN__	__EPS__
w	w
e	e
r	r

__BEGIN__	__EPS__
h	h
y	i
e	e
s	s
s	s
i	e
n	n

__BEGIN__	__EPS__
i	ih
m	m

__BEGIN__	__EPS__
d	d
o	a

__BEGIN__	__EPS__
d	d
o	a

__BEGIN__	__EPS__
k	k
i	i
n	n
t	d

__BEGIN__	__EPS__
r	r
o	o
t	t

__BEGIN__	__EPS__
p	p
e	e
t	t
t	r
e	u
r	s

__BEGIN__	__EPS__
m	m
e	e
n	n
s	s
c	c
h	h
e	e
n	n
k	ge
ü	s
n	ch
n	l
e	echt

__BEGIN__	__EPS__
m	m
a	a
r	r
i	i
a	a

__BEGIN__	__EPS__
n	n
i	i
c	c
h	h
t	t

__BEGIN__	__EPS__
b	b
l	l
o	o
e	s
s	s

__BEGIN__	__EPS__
d	d
r	re
i	i
s	s
s	s
i	i
g	g

__BEGIN__	__EPS__
h	h
e	e
r	r
c	__EPS__
z	z
e	__EPS__
n	__EPS__
l	l
e	__EPS__
i	i
c	c
h	h
e	e
n	n

__BEGIN__	__EPS__
w	w
a	a
s	r

__BEGIN__	__EPS__
h	h
e	e
i	i
s	s
z	s
e	__EPS__
t	t

__BEGIN__	__EPS__
v	u
n	n
d	d

__BEGIN__	__EPS__
a	a
l	ll

__BEGIN__	__EPS__
h	h
a	a
t	t

__BEGIN__	__EPS__
m	me
y	i
m	n
e	em

__BEGIN__	__EPS__
v	v
o	o
n	n

__BEGIN__	__EPS__
s	s
a	a
c	c
h	he

__BEGIN__	__EPS__
e	e
n	n
t	t
z	z
c	__EPS__
w	w
e	e
y	i

__BEGIN__	__EPS__
a	a
l	l
l	l
e	e
n	n

__BEGIN__	__EPS__
n	n
e	eh
m	m
e	e
n	n

__BEGIN__	__EPS__
d	d
e	e
m	m

__BEGIN__	__EPS__
d	d
e	e
n	n

__BEGIN__	__EPS__
s	s
a	a
g	g
e	e

__BEGIN__	__EPS__
w	w
i	i
e	e

__BEGIN__	__EPS__
y	ih
n	n

__BEGIN__	__EPS__
n	n
o	o
i	__EPS__
t	t

__BEGIN__	__EPS__
s	s
y	ie

__BEGIN__	__EPS__
d	d
i	i
e	e

__BEGIN__	__EPS__
s	s
y	ie

__BEGIN__	__EPS__
d	d
e	e
r	r

__BEGIN__	__EPS__
d	d
e	e
s	s

__BEGIN__	__EPS__
a	o
w	w
e	eh

__BEGIN__	__EPS__
l	l
y	ie
s	ss

__BEGIN__	__EPS__
i	j
u	u
d	d
e	e
n	n

__BEGIN__	__EPS__
w	w
u	u
n	n
d	d
e	e
r	r

__BEGIN__	__EPS__
m	m
i	i
t	t

__BEGIN__	__EPS__
s	s
p	p
r	r
e	e
c	c
h	h
e	e

__BEGIN__	__EPS__
a	a
l	l
l	l
e	e
s	s

__BEGIN__	__EPS__
g	g
a	eh
i	e
n	n

__BEGIN__	__EPS__
v	u
n	n
d	d

__BEGIN__	__EPS__
a	a
n	n

__BEGIN__	d
v	u

__BEGIN__	a
v	u
p	f

__BEGIN__	__EPS__
w	w
i	i
r	r

__BEGIN__	__EPS__
e	e
n	n
t	t
l	l
e	e
d	d
i	i
g	g
e	__EPS__
t	t

__BEGIN__	__EPS__
v	a
f	u
f	f

__BEGIN__	__EPS__
m	l
y	i
n	__EPS__
y	e
k	b
l	l
e	__EPS__
i	i
c	c
h	h
e	e
s	s

__BEGIN__	__EPS__
d	d
i	i
e	e

__BEGIN__	__EPS__
p	b
e	e
y	i

