__BEGIN__	__EPS__
d	d
i	i
e	e

__BEGIN__	__EPS__
s	s
i	i
j	e

__BEGIN__	__EPS__
v	u
m	m
b	__EPS__

__BEGIN__	__EPS__
e	e
i	i
n	n

__BEGIN__	__EPS__
e	e
r	r
d	d
e	e
n	n
k	k
e	e
n	n

__BEGIN__	__EPS__
h	e
e	r

__BEGIN__	__EPS__
d	d
a	a
z	ss

__BEGIN__	__EPS__
d	da
z	ss

__BEGIN__	__EPS__
v	v
e	e
r	r
l	l
a	e
u	u
g	g
e	__EPS__
n	ne
t	t

__BEGIN__	__EPS__
a	a
l	l
s	s
o	o

__BEGIN__	__EPS__
z	z
v	u

__BEGIN__	__EPS__
d	d
o	a
e	__EPS__

__BEGIN__	__EPS__
a	a
u	u
c	c
h	h

__BEGIN__	__EPS__
d	d
e	e
m	m

__BEGIN__	__EPS__
m	me
i	i
n	n
e	e
s	s

__BEGIN__	__EPS__
s	s
c	c
h	h
e	e
i	i
d	d
e	et

__BEGIN__	__EPS__
i	ih
m	m

__BEGIN__	__EPS__
v	a
f	u
f	f

__BEGIN__	__EPS__
s	s
p	p
r	r
a	a
c	c
h	h

__BEGIN__	__EPS__
m	m
i	i
c	c
h	h

__BEGIN__	__EPS__
s	s
e	e
i	i
n	n

__BEGIN__	__EPS__
v	u
n	n
d	d

__BEGIN__	__EPS__
d	d
e	e
s	s

__BEGIN__	__EPS__
h	h
e	e
i	i
l	l
i	i
g	g
i	__EPS__
s	s
t	t
e	e
n	n

__BEGIN__	__EPS__
d	d
a	a

__BEGIN__	__EPS__
s	s
p	p
r	r
a	a
c	c
h	h

__BEGIN__	__EPS__
c	k
h	__EPS__
i	i
n	n
t	d

__BEGIN__	__EPS__
s	s
w	oh
n	n

__BEGIN__	__EPS__
d	d
i	i
e	e
b	b

__BEGIN__	__EPS__
e	e
r	r

__BEGIN__	__EPS__
d	d
a	a
s	ss

__BEGIN__	__EPS__
s	s
e	e
i	i
n	n
e	e
r	r

__BEGIN__	__EPS__
c	__EPS__
z	z
o	o
r	r
n	n

__BEGIN__	__EPS__
v	u
n	n
d	d

__BEGIN__	__EPS__
f	f
a	a
n	n
t	d

__BEGIN__	__EPS__
d	d
a	a
s	ss

__BEGIN__	__EPS__
z	z
a	a
r	r
t	t
e	e
n	n

__BEGIN__	__EPS__
z	z
u	o
g	g
e	e
n	n

__BEGIN__	__EPS__
e	e
s	s

__BEGIN__	__EPS__
c	k
r	r
u	e
i	u
c	__EPS__
z	z

__BEGIN__	__EPS__
m	m
a	a
r	r
t	t
e	e
r	r

__BEGIN__	__EPS__
w	w
a	an
n	n

__BEGIN__	__EPS__
d	d
a	a

__BEGIN__	__EPS__
a	o
b	b
e	__EPS__

__BEGIN__	__EPS__
m	m
y	i
r	r

__BEGIN__	__EPS__
w	w
a	a
s	r

__BEGIN__	__EPS__
d	d
i	ie
s	s
e	e
r	r

__BEGIN__	__EPS__
m	m
e	eh
r	r

__BEGIN__	__EPS__
e	e
z	s

__BEGIN__	__EPS__
v	u
n	n
s	s
e	ä
g	g
l	l
i	i
c	c
h	h
e	e

__BEGIN__	__EPS__
d	t
o	o
i	__EPS__
t	t

__BEGIN__	__EPS__
l	l
i	i
e	e
u	b
e	e
n	n

__BEGIN__	__EPS__
d	d
e	e
r	r

__BEGIN__	__EPS__
w	w
o	ah
r	r

__BEGIN__	__EPS__
o	au
c	c
h	h

__BEGIN__	__EPS__
g	g
e	e
b	b
a	e
i	i
n	n

__BEGIN__	__EPS__
v	v
o	o
r	r

__BEGIN__	__EPS__
v	u
n	n
d	d

__BEGIN__	__EPS__
w	w
o	a
r	r
t	d

__BEGIN__	__EPS__
a	a
n	n

__BEGIN__	__EPS__
a	a
l	l
c	l
z	z
ü	ei
t	t

__BEGIN__	__EPS__
d	d
e	e
r	r

__BEGIN__	__EPS__
p	b
i	i
n	n

__BEGIN__	__EPS__
b	b
e	e
r	r
e	e
i	i
t	t
e	e
n	n

__BEGIN__	__EPS__
k	k
i	i
n	n
d	d

__BEGIN__	__EPS__
s	s
a	o
l	ll

__BEGIN__	__EPS__
d	de
i	i
n	ne
s	s

__BEGIN__	__EPS__
w	w
a	a
r	r
e	e
n	n

__BEGIN__	__EPS__
v	u
n	n
d	d

__BEGIN__	__EPS__
a	a
n	n
s	s
h	__EPS__
e	e
l	l
m	m
u	__EPS__
s	__EPS__

__BEGIN__	__EPS__
g	g
e	e
d	d
a	a
c	c
h	h
t	te

__BEGIN__	__EPS__
w	w
a	a
z	r

__BEGIN__	__EPS__
v	v
e	e
r	r
t	t
e	e
i	i
l	l
e	e
n	n

__BEGIN__	__EPS__
m	me
y	i
n	n

__BEGIN__	__EPS__
v	u
n	n
d	d

__BEGIN__	__EPS__
v	f
i	e
e	i
n	n
t	d

__BEGIN__	__EPS__
m	m
i	i
t	t

__BEGIN__	__EPS__
c	c
r	r
ü	u
c	c
i	i
f	f
i	i
g	g
e	e
n	n
t	t

__BEGIN__	__EPS__
e	e
r	r
l	l
i	i
t	tt
e	e
n	n

__BEGIN__	__EPS__
a	e
i	i
n	n
e	e
n	n

__BEGIN__	__EPS__
v	u
n	n
d	d

__BEGIN__	__EPS__
m	m
a	a
n	nn

__BEGIN__	__EPS__
m	m
e	eh
r	r
e	__EPS__

__BEGIN__	__EPS__
e	e
r	r

__BEGIN__	__EPS__
s	s
v	ie

__BEGIN__	__EPS__
c	__EPS__
h	k
i	i
n	n
d	d

__BEGIN__	__EPS__
g	g
r	r
e	ä
b	b
e	e
r	r

__BEGIN__	__EPS__
s	s
c	c
h	h
o	ö
n	n

__BEGIN__	__EPS__
k	k
i	i
n	n
d	d
e	__EPS__

__BEGIN__	__EPS__
d	d
a	a
z	ss

__BEGIN__	__EPS__
r	r
i	i
c	c
h	h
t	t
e	e
r	r

__BEGIN__	__EPS__
a	e
i	i
n	n

__BEGIN__	__EPS__
s	s
e	e
h	h
n	ne
n	n
d	d

__BEGIN__	__EPS__
g	g
o	o
t	t
t	t

__BEGIN__	__EPS__
k	k
o	o
m	mm
e	e
n	n

__BEGIN__	__EPS__
z	z
w	u

__BEGIN__	__EPS__
m	m
o	o
c	c
h	h
t	te

__BEGIN__	__EPS__
w	w
i	i
l	ll

__BEGIN__	__EPS__
v	u
n	n
d	d

__BEGIN__	__EPS__
s	s
i	i
e	e

__BEGIN__	__EPS__
g	g
o	ot
t	t

__BEGIN__	__EPS__
f	f
r	r
o	ü
c	c
h	h
t	t
e	e

__BEGIN__	__EPS__
c	ke
h	h
e	__EPS__
r	r
t	t

__BEGIN__	__EPS__
d	d
i	i
e	e

__BEGIN__	__EPS__
u	a
s	u
z	s

__BEGIN__	__EPS__
i	j
o	o
h	h
a	a
n	nn
e	e
s	s

__BEGIN__	__EPS__
k	k
o	ö
n	n
i	i
n	__EPS__
g	g

__BEGIN__	__EPS__
e	e
w	w
i	i
g	g
e	e
n	n

__BEGIN__	__EPS__
i	i
c	c
h	h

__BEGIN__	__EPS__
c	c
r	r
u	u
c	c
i	i
f	f
i	i
g	g
e	e

__BEGIN__	__EPS__
g	g
i	i
n	n
g	g
e	e
n	n

__BEGIN__	__EPS__
d	d
a	a
s	s
.	__EPS__
.	__EPS__
.	__EPS__

__BEGIN__	__EPS__
d	d
e	e
n	n

__BEGIN__	__EPS__
g	g
e	e
w	w
u	__EPS__
i	i
r	r
k	k
t	t

__BEGIN__	__EPS__
q	k
u	__EPS__
a	a
n	m

__BEGIN__	__EPS__
c	k
h	__EPS__
i	i
n	n
d	d

__BEGIN__	__EPS__
m	m
e	e
i	i
n	n
e	e
n	n

__BEGIN__	__EPS__
s	s
e	e
l	l
b	b
e	e
n	r

__BEGIN__	__EPS__
s	s
p	p
r	r
e	ä
c	c
h	h
e	e

__BEGIN__	__EPS__
a	a
n	n
n	n
a	a
s	s

__BEGIN__	__EPS__
v	u
n	n
d	d

__BEGIN__	__EPS__
n	n
i	i
c	c
h	h
t	t

__BEGIN__	__EPS__
g	g
a	e
i	i
s	s
s	s
e	e
l	l
n	n

__BEGIN__	__EPS__
v	u
n	n
d	d

__BEGIN__	__EPS__
k	k
a	e
i	i
n	n
e	e
n	n

__BEGIN__	__EPS__
v	ü
b	b
e	e
l	l

__BEGIN__	__EPS__
l	l
i	i
e	e
u	b
e	e
n	n

__BEGIN__	__EPS__
f	f
r	r
a	a
w	u

__BEGIN__	__EPS__
a	a
l	l
s	s
o	o

__BEGIN__	__EPS__
s	s
o	o

__BEGIN__	__EPS__
e	ä
l	l
t	te
r	r
e	e
n	n

__BEGIN__	__EPS__
s	s
a	a
n	nd
t	t

__BEGIN__	__EPS__
s	s
y	ie

__BEGIN__	__EPS__
l	l
e	e
b	b
e	e
n	n

__BEGIN__	__EPS__
a	a
u	u
f	f
f	__EPS__

__BEGIN__	__EPS__
e	e
r	r
p	b
a	a
r	r
m	m
v	u
n	n
g	g

__BEGIN__	__EPS__
s	s
o	o

__BEGIN__	__EPS__
d	d
e	e
r	r

__BEGIN__	__EPS__
s	s
t	t
i	i
l	l
l	l
e	e
n	n

__BEGIN__	__EPS__
l	l
a	a
n	n
g	g
k	__EPS__

__BEGIN__	__EPS__
n	n
e	e
i	i
g	g
t	t

__BEGIN__	__EPS__
m	m
e	ee
r	r
b	b
i	i
n	n
z	s
e	e
n	n

__BEGIN__	__EPS__
d	d
o	a

__BEGIN__	__EPS__
r	r
u	u
e	__EPS__
f	fe

__BEGIN__	__EPS__
d	d
e	e
r	r

__BEGIN__	__EPS__
g	g
e	e
s	s
c	c
h	h
e	e
h	h
e	e
n	n

__BEGIN__	__EPS__
g	g
r	r
o	o
z	s
z	s

__BEGIN__	__EPS__
s	s
i	ie

__BEGIN__	__EPS__
a	a
l	l
s	s
e	__EPS__

__BEGIN__	__EPS__
v	u
n	n
d	d

__BEGIN__	__EPS__
s	s
c	c
h	h
e	e
l	l
m	m

__BEGIN__	__EPS__
h	h
e	a
t	t

__BEGIN__	__EPS__
m	m
i	i
c	c
h	h

__BEGIN__	__EPS__
u	v
o	o
l	l
c	__EPS__
k	k

__BEGIN__	__EPS__
w	w
a	a
t	s

__BEGIN__	__EPS__
s	s
o	o

__BEGIN__	__EPS__
m	m
a	a
r	r
i	i
a	a

__BEGIN__	__EPS__
m	m
e	e
i	i
n	n
e	e
m	m

__BEGIN__	__EPS__
p	b
i	i
s	s
t	t

__BEGIN__	__EPS__
m	m
i	i
t	t

__BEGIN__	__EPS__
f	f
u	üh
r	re
n	n

__BEGIN__	__EPS__
d	d
i	i
e	e

__BEGIN__	__EPS__
i	i
c	c
h	h

__BEGIN__	__EPS__
s	s
i	i
c	e
h	h

__BEGIN__	__EPS__
d	d
a	a
n	nn

__BEGIN__	__EPS__
g	g
e	e
g	g
a	an
i	ge
n	n

__BEGIN__	__EPS__
g	g
r	r
o	o
s	s
z	s

__BEGIN__	__EPS__
a	a
l	l
l	l
e	e
n	n

__BEGIN__	__EPS__
h	h
e	e
l	l
i	i
a	a
s	s

__BEGIN__	__EPS__
v	u
n	n
d	d

__BEGIN__	__EPS__
s	s
c	c
h	h
a	e
i	i
d	de

__BEGIN__	__EPS__
a	a
v	u
f	f

__BEGIN__	__EPS__
b	b
e	e
g	g
u	a
n	n
d	n
e	__EPS__

__BEGIN__	__EPS__
a	a
n	n

__BEGIN__	__EPS__
w	w
a	a
s	r

__BEGIN__	__EPS__
s	s
t	t
a	ad
t	t

__BEGIN__	__EPS__
s	s
t	t
i	i
m	mm
e	e

__BEGIN__	__EPS__
i	i
c	c
h	h

__BEGIN__	__EPS__
s	r
c	__EPS__
h	__EPS__
a	ä
c	u
h	b
e	e
r	r

__BEGIN__	__EPS__
v	u
n	n
d	d

__BEGIN__	__EPS__
i	ih
n	n

__BEGIN__	__EPS__
v	u
n	n
d	d

__BEGIN__	__EPS__
h	h
a	a
t	t
t	t
e	e
n	n

__BEGIN__	__EPS__
h	h
i	i
n	n
g	g
e	e
b	b
e	e
n	n

__BEGIN__	__EPS__
v	v
o	o
l	l
c	k

__BEGIN__	__EPS__
d	d
a	a
r	__EPS__
n	n
a	a
c	c
h	h

__BEGIN__	__EPS__
a	a
n	n

__BEGIN__	__EPS__
s	s
c	c
h	h
e	e
i	i
t	t
e	e
l	l

__BEGIN__	__EPS__
d	d
e	a
r	__EPS__

__BEGIN__	__EPS__
v	u
n	n
s	s
e	e
r	r

__BEGIN__	__EPS__
a	o
b	b

__BEGIN__	__EPS__
v	u
n	n
d	d

__BEGIN__	__EPS__
s	s
o	ol
l	l
t	t

__BEGIN__	__EPS__
n	n
a	a
c	c
h	h
t	t
r	r
a	a
g	g
e	e
n	n

__BEGIN__	n
e	ich
n	t

__BEGIN__	__EPS__
e	e
r	r

__BEGIN__	__EPS__
p	b
l	l
u	u
t	t
i	i
g	g
e	e
n	n

__BEGIN__	__EPS__
s	sch
w	w
e	e
s	s
t	t
e	e
r	r

__BEGIN__	__EPS__
d	d
e	e
r	r

__BEGIN__	__EPS__
y	ih
r	r

__BEGIN__	__EPS__
p	b
l	l
u	u
e	__EPS__
t	t

__BEGIN__	__EPS__
e	i
m	h
e	m

__BEGIN__	__EPS__
d	d
e	e
r	r

__BEGIN__	__EPS__
m	m
i	i
t	t

__BEGIN__	__EPS__
d	d
y	ie

__BEGIN__	__EPS__
d	d
e	e
s	s

__BEGIN__	__EPS__
w	w
a	a
r	r
t	d

__BEGIN__	__EPS__
n	n
i	ich
t	t

__BEGIN__	__EPS__
s	s
e	e
l	l
b	b
e	__EPS__
s	st

__BEGIN__	__EPS__
v	u
n	n
d	d

__BEGIN__	__EPS__
a	o
w	w
e	eh

__BEGIN__	__EPS__
v	u
n	n
d	d

__BEGIN__	__EPS__
k	k
i	i
n	n
d	d
e	e
s	s

__BEGIN__	__EPS__
d	t
a	a
e	__EPS__
d	t
e	e
n	n

__BEGIN__	__EPS__
d	d
a	a
v	v
o	o
n	n

__BEGIN__	__EPS__
a	a
l	l
l	l
e	e
n	n

__BEGIN__	__EPS__
v	u
n	n
d	d

__BEGIN__	__EPS__
s	s
e	e
n	n
d	d
e	e

__BEGIN__	__EPS__
w	w
i	i
l	l
l	l
e	e
n	n

__BEGIN__	__EPS__
d	d
u	u
r	r
c	c
h	h

__BEGIN__	__EPS__
w	w
u	a
r	r
f	f
f	__EPS__
e	e
n	n

__BEGIN__	__EPS__
n	n
o	o
c	c
h	h

__BEGIN__	__EPS__
m	m
i	i
c	c
h	h

__BEGIN__	__EPS__
m	m
e	e
e	h
r	r

__BEGIN__	__EPS__
a	a
l	l
l	l

__BEGIN__	__EPS__
f	f
r	r
a	a
w	u
o	__EPS__
e	e
n	n

__BEGIN__	__EPS__
h	h
a	a
e	__EPS__
s	s
t	t

__BEGIN__	__EPS__
e	e
r	r
s	s
t	t
a	a
r	r
p	b

__BEGIN__	__EPS__
f	f
r	r
a	a
w	u
o	__EPS__
e	e
n	n

__BEGIN__	__EPS__
h	h
e	e
r	r
e	r

__BEGIN__	__EPS__
n	n
a	ah
m	m
e	e
n	n

__BEGIN__	__EPS__
w	w
a	a
n	n
n	n

__BEGIN__	__EPS__
s	s
p	p
r	r
a	a
c	c
h	h
e	e
n	n

__BEGIN__	__EPS__
p	b
e	e
g	g
e	eh
r	r
t	t

__BEGIN__	__EPS__
w	w
a	a
s	r

__BEGIN__	__EPS__
i	i
n	n

__BEGIN__	__EPS__
i	ih
m	m

__BEGIN__	__EPS__
s	sch
m	m
e	äh
l	l
i	i
c	c
h	h
e	e
n	n

__BEGIN__	__EPS__
e	nich
n	t

__BEGIN__	__EPS__
d	d
i	i
e	e

__BEGIN__	__EPS__
m	m
i	i
c	c
h	h

__BEGIN__	__EPS__
p	b
i	i
t	t
t	t
e	e
r	r
c	k
h	__EPS__
a	e
i	i
t	t

__BEGIN__	__EPS__
h	h
y	i
e	e
s	s
z	s

__BEGIN__	__EPS__
s	s
c	c
h	h
o	ö
n	n

__BEGIN__	__EPS__
d	d
o	a

__BEGIN__	__EPS__
g	g
e	e
w	w
e	e
s	s
s	__EPS__
e	e
n	n

__BEGIN__	__EPS__
v	v
o	o
n	n

__BEGIN__	__EPS__
k	k
i	i
n	n
d	d

__BEGIN__	__EPS__
b	b
e	e
s	sch
l	l
o	o
z	s
z	s
e	e
n	n

__BEGIN__	__EPS__
g	g
a	a
n	n
t	__EPS__
z	z

__BEGIN__	__EPS__
m	m
e	e
n	n
s	s
c	c
h	h
e	e
n	n

__BEGIN__	__EPS__
m	m
i	i
t	t

__BEGIN__	__EPS__
v	u
n	n
d	d

__BEGIN__	__EPS__
m	l
y	__EPS__
n	__EPS__
i	i
k	e
l	b
e	e
i	v
c	o
h	ll

__BEGIN__	__EPS__
e	e
r	r

__BEGIN__	__EPS__
d	d
i	ie
s	s
e	e
m	m
e	__EPS__

__BEGIN__	__EPS__
w	w
a	a
s	r

__BEGIN__	__EPS__
v	u
n	n
d	d

__BEGIN__	__EPS__
s	se
y	i
n	n
e	e
n	n

__BEGIN__	__EPS__
d	d
o	a

__BEGIN__	__EPS__
v	u
n	n
d	d

__BEGIN__	__EPS__
s	s
e	e
i	i
n	n
e	e
n	n

__BEGIN__	__EPS__
i	ih
m	m

__BEGIN__	__EPS__
w	w
ä	ah
r	r
l	l
i	i
c	c
h	h

__BEGIN__	__EPS__
s	s
i	i
c	c
h	h

__BEGIN__	__EPS__
e	e
r	r

__BEGIN__	__EPS__
w	wa
z	s

__BEGIN__	__EPS__
i	j
u	ün
g	g
e	e
r	r
n	n

__BEGIN__	__EPS__
v	v
o	o
n	n

__BEGIN__	__EPS__
v	u
n	n
d	d

__BEGIN__	__EPS__
a	a
l	l
l	l
e	e

__BEGIN__	__EPS__
c	k
h	__EPS__
a	a
m	m

__BEGIN__	__EPS__
s	s
o	o

__BEGIN__	__EPS__
p	p
y	i
l	l
a	a
t	t
o	us

__BEGIN__	__EPS__
a	a
n	n

__BEGIN__	__EPS__
v	u
n	n
s	s
c	c
h	h
u	u
l	l
d	d
i	i
g	g

__BEGIN__	__EPS__
e	e
y	i
a	__EPS__

__BEGIN__	__EPS__
w	w
u	u
n	n
d	de

__BEGIN__	__EPS__
v	ü
b	b
i	e
r	r

__BEGIN__	__EPS__
s	s
p	p
o	ö
t	t
l	t
i	is
c	c
h	h

__BEGIN__	__EPS__
e	e
y	i
n	n

__BEGIN__	__EPS__
d	d
i	i
n	n
u	u
m	m
e	e
r	r
a	a
u	v
e	e
r	r
u	u
n	n
t	t

__BEGIN__	__EPS__
d	d
o	a

__BEGIN__	__EPS__
i	j
e	e
g	g
l	l
i	i
c	c
h	h
e	e
r	r

__BEGIN__	__EPS__
t	__EPS__
z	z
e	er
p	b
r	r
e	e
c	c
h	h
e	e
n	n

__BEGIN__	__EPS__
m	me
i	i
n	n
e	e
s	s

__BEGIN__	__EPS__
s	s
a	e
t	t
z	z
t	t

__BEGIN__	__EPS__
d	d
e	e
m	m

__BEGIN__	__EPS__
v	u
n	n
d	d

__BEGIN__	__EPS__
t	t
o	o
t	t

__BEGIN__	__EPS__
m	m
i	i
r	r

__BEGIN__	__EPS__
s	s
p	p
r	r
a	a
c	c
h	h

__BEGIN__	__EPS__
v	v
a	a
t	t
e	e
r	r
l	l
a	a
n	n
d	d
e	__EPS__

__BEGIN__	__EPS__
v	u
n	n
d	d

__BEGIN__	__EPS__
s	s
e	e
i	i
n	n

__BEGIN__	__EPS__
v	v
i	ie
l	l

__BEGIN__	__EPS__
s	s
i	i
c	e
h	h

__BEGIN__	__EPS__
v	u
n	n
d	d

__BEGIN__	__EPS__
e	e
r	r

__BEGIN__	__EPS__
k	k
e	e
i	i
n	n

__BEGIN__	__EPS__
k	k
u	o
n	nn
d	t
e	e

__BEGIN__	__EPS__
m	m
e	eh
r	r

__BEGIN__	__EPS__
d	d
e	e
r	r

__BEGIN__	__EPS__
d	d
e	e
m	m

__BEGIN__	__EPS__
s	s
a	a
g	g
e	e

__BEGIN__	__EPS__
h	e
e	r

__BEGIN__	__EPS__
n	n
a	a
c	c
h	h
t	t

__BEGIN__	__EPS__
m	m
i	i
t	t

__BEGIN__	__EPS__
s	s
c	c
h	h
e	e
i	i
n	n

__BEGIN__	__EPS__
d	d
o	a

__BEGIN__	__EPS__
n	n
i	i
e	ch
t	t

__BEGIN__	__EPS__
a	a
l	l
s	s
o	o

__BEGIN__	__EPS__
i	ih
m	m

__BEGIN__	__EPS__
d	d
a	eh
n	n
t	t
e	e
n	n

__BEGIN__	__EPS__
a	a
l	l
l	l
e	e
n	n

__BEGIN__	__EPS__
g	g
e	e
m	m
a	e
y	i
n	n

__BEGIN__	__EPS__
d	d
e	e
r	r

__BEGIN__	__EPS__
s	s
i	ie

__BEGIN__	__EPS__
a	a
l	l
l	l
e	e
s	s

__BEGIN__	__EPS__
d	d
a	a

__BEGIN__	__EPS__
d	d
e	e
m	m

__BEGIN__	__EPS__
i	ih
n	n

__BEGIN__	__EPS__
w	w
o	ol
l	l
t	t

__BEGIN__	__EPS__
a	a
l	l
s	s
o	o

__BEGIN__	__EPS__
d	d
e	e
r	r

__BEGIN__	__EPS__
v	u
n	n
d	d

__BEGIN__	__EPS__
e	e
r	r
s	s
c	c
h	h
r	r
a	a
c	__EPS__
k	k

__BEGIN__	__EPS__
s	s
o	o

__BEGIN__	__EPS__
d	d
e	e
i	i
n	n
e	e

__BEGIN__	__EPS__
d	d
y	ie

__BEGIN__	__EPS__
d	d
i	i
e	e

__BEGIN__	__EPS__
t	t
o	o
t	t
e	__EPS__

__BEGIN__	__EPS__
d	d
e	e
n	n

__BEGIN__	__EPS__
c	__EPS__
z	z
a	e
i	i
g	g
e	e
n	n

__BEGIN__	__EPS__
f	f
a	a
l	l
l	l
e	e
n	__EPS__
t	t

__BEGIN__	__EPS__
m	m
a	a
n	n

__BEGIN__	__EPS__
s	s
o	o
b	b
a	a
l	l
d	d

__BEGIN__	__EPS__
b	b
e	ei
d	de

__BEGIN__	__EPS__
n	n
e	eh
m	m
e	e
n	n

__BEGIN__	__EPS__
m	m
o	o
c	c
h	h
t	te

__BEGIN__	__EPS__
w	w
a	a
n	n
n	n
e	__EPS__

__BEGIN__	__EPS__
l	l
e	ä
s	ss
t	t

__BEGIN__	__EPS__
k	k
i	i
n	n
d	d

__BEGIN__	__EPS__
d	d
e	e
s	s

__BEGIN__	__EPS__
h	h
e	e
r	r
t	__EPS__
z	z
e	__EPS__
n	__EPS__
l	l
e	__EPS__
i	i
c	c
h	h
e	e
m	m

__BEGIN__	__EPS__
g	g
r	r
o	o
s	ss

__BEGIN__	__EPS__
h	h
a	a
e	__EPS__
t	t

__BEGIN__	__EPS__
a	a
n	n
g	g
e	e
s	s
e	ehe
n	n

__BEGIN__	__EPS__
w	w
e	e
r	r
d	d
e	e

__BEGIN__	__EPS__
a	a
l	l
s	s

__BEGIN__	__EPS__
w	w
o	o
r	r
t	t

__BEGIN__	__EPS__
b	b
a	e
i	i
n	n

__BEGIN__	__EPS__
i	i
n	n

__BEGIN__	__EPS__
s	sc
h	h
a	ä
c	c
h	h
e	e
r	r
n	n

__BEGIN__	__EPS__
e	e
i	i
n	n

__BEGIN__	__EPS__
g	g
r	r
o	o
s	s
s	s
e	e
r	r

__BEGIN__	__EPS__
w	w
i	i
r	r

__BEGIN__	__EPS__
w	w
a	a
r	r
t	d

__BEGIN__	__EPS__
d	d
i	i
c	c
h	h

__BEGIN__	__EPS__
k	k
e	e
y	i
n	n

__BEGIN__	__EPS__
s	se
i	i
n	n
e	e
m	m

__BEGIN__	__EPS__
v	v
o	o
n	n

__BEGIN__	__EPS__
i	i
c	c
h	h

__BEGIN__	__EPS__
v	v
e	e
r	r
k	k
e	eh
r	r
e	e
r	r

__BEGIN__	__EPS__
g	g
e	e
s	s
c	c
h	h
i	i
c	c
k	k
t	t

__BEGIN__	__EPS__
v	ü
b	b
e	e
r	r

__BEGIN__	__EPS__
v	u
n	n
d	d

__BEGIN__	__EPS__
a	a
l	l
l	l
e	e
r	r

__BEGIN__	__EPS__
w	n
e	i
n	c
g	k
t	t
e	e
n	n

__BEGIN__	__EPS__
s	s
p	p
r	r
a	a
c	c
h	h
e	e
n	n
d	__EPS__

__BEGIN__	__EPS__
i	i
s	s
t	t

__BEGIN__	__EPS__
o	o
w	w
e	eh

__BEGIN__	__EPS__
m	m
e	e
y	i
n	n
e	e
r	r

__BEGIN__	__EPS__
v	f
o	o
r	r
t	t

__BEGIN__	__EPS__
w	w
o	a
r	r
p	f
e	e
n	n

__BEGIN__	__EPS__
s	s
p	p
r	r
a	a
c	c
h	h

__BEGIN__	__EPS__
d	d
e	e
i	i
n	n

__BEGIN__	__EPS__
t	t
a	a
g	g

__BEGIN__	__EPS__
m	m
a	a
r	r
t	t
e	e
r	r

__BEGIN__	__EPS__
b	b
e	__EPS__
l	l
e	e
y	i
b	b
e	e
n	n

__BEGIN__	__EPS__
d	d
u	o
r	r
n	n
e	e
i	__EPS__
n	n

__BEGIN__	__EPS__
m	m
e	e
n	n
s	s
c	c
h	h
e	e
n	n

__BEGIN__	__EPS__
a	a
l	l
l	l
e	e
n	n

__BEGIN__	__EPS__
d	d
y	i
e	e

__BEGIN__	__EPS__
d	d
a	a
s	s
z	s

__BEGIN__	__EPS__
d	d
a	a
s	ss

__BEGIN__	__EPS__
v	b
n	i
t	__EPS__
z	s

__BEGIN__	__EPS__
i	i
s	s
t	t

__BEGIN__	__EPS__
w	w
c	as

__BEGIN__	__EPS__
v	u
n	n
d	d

__BEGIN__	__EPS__
v	v
i	ie
l	l

__BEGIN__	__EPS__
d	d
e	e
r	r

__BEGIN__	__EPS__
d	d
o	a

__BEGIN__	__EPS__
e	e
r	r

__BEGIN__	__EPS__
w	w
o	oh
l	l

__BEGIN__	__EPS__
g	g
a	a
l	l
g	g
e	e
n	n

__BEGIN__	__EPS__
s	s
i	i
e	e

__BEGIN__	__EPS__
b	b
e	e
d	d
e	e
c	c
k	k
e	e
n	n
d	d

__BEGIN__	__EPS__
p	b
r	r
u	u
d	d
e	e
r	r

__BEGIN__	__EPS__
l	l
i	i
e	e
b	b
i	e

__BEGIN__	__EPS__
s	s
o	o

__BEGIN__	__EPS__
v	u
n	n
d	d

__BEGIN__	er
p	b
a	a
r	r
m	m
u	e
n	n
g	__EPS__

__BEGIN__	__EPS__
a	a
n	n
t	t
l	l
u	i
c	t
z	z

__BEGIN__	__EPS__
w	w
i	i
l	ll

__BEGIN__	__EPS__
s	s
p	p
i	i
e	e
l	l
t	t
e	e
n	n

__BEGIN__	__EPS__
i	i
n	n

__BEGIN__	__EPS__
v	u
n	n
d	d

__BEGIN__	__EPS__
t	t
a	a
e	__EPS__
t	t
t	__EPS__

__BEGIN__	__EPS__
i	u
n	n
d	d

__BEGIN__	__EPS__
d	de
y	i
n	n

__BEGIN__	__EPS__
d	d
e	e
r	r

__BEGIN__	__EPS__
v	u
n	n
d	d

__BEGIN__	__EPS__
s	s
p	p
r	r
a	a
c	c
h	h

__BEGIN__	__EPS__
n	n
u	u
n	n

__BEGIN__	__EPS__
d	d
e	e
r	r

__BEGIN__	__EPS__
d	__EPS__
u	o
c	__EPS__
k	f
e	t

__BEGIN__	__EPS__
v	u
n	n
d	d

__BEGIN__	__EPS__
k	k
u	on
n	n
d	t
e	e
n	n

__BEGIN__	__EPS__
a	a
u	u
c	c
h	h

__BEGIN__	__EPS__
a	a
m	n
p	b
l	l
i	i
c	c
h	k

__BEGIN__	__EPS__
d	d
ü	ü
r	r
r	r
e	e

__BEGIN__	__EPS__
z	z
e	u

__BEGIN__	__EPS__
s	s
e	i
c	e
h	h

__BEGIN__	__EPS__
o	o
f	b
f	__EPS__

__BEGIN__	__EPS__
r	r
i	i
e	e
f	__EPS__
f	f
e	e
n	n

__BEGIN__	__EPS__
d	d
i	i
e	e

__BEGIN__	__EPS__
u	u
n	n
d	d

__BEGIN__	__EPS__
w	w
e	ah
r	r
l	l
e	__EPS__
i	i
c	c
h	h

__BEGIN__	__EPS__
v	u
n	n
t	t
e	e
r	r
t	t
a	ä
e	__EPS__
n	nt
i	i
g	g

__BEGIN__	__EPS__
v	u
r	r
k	k
u	u
n	n
d	d
e	e

__BEGIN__	__EPS__
w	w
o	o
l	ll
t	t

__BEGIN__	__EPS__
l	l
o	o
b	b
t	t

__BEGIN__	__EPS__
a	o
d	d
d	__EPS__
e	e
r	r

__BEGIN__	__EPS__
n	n
i	i
e	ch
t	t

__BEGIN__	__EPS__
i	j
e	e
r	r
u	u
s	s
a	a
l	l
e	e
m	m

__BEGIN__	__EPS__
d	d
a	a
s	ss

__BEGIN__	__EPS__
w	w
o	o
l	ll
t	t
e	e
n	n
d	__EPS__

__BEGIN__	__EPS__
g	g
r	rä
u	u
l	l
i	i
c	c
h	h
i	e
n	n

__BEGIN__	__EPS__
m	m
o	ö
g	g
i	__EPS__
t	t

__BEGIN__	__EPS__
d	d
o	a

__BEGIN__	__EPS__
g	g
o	o
t	tt

__BEGIN__	__EPS__
a	oh
n	ne

__BEGIN__	__EPS__
k	k
i	i
n	n
t	d

__BEGIN__	__EPS__
s	se
y	i
n	n

__BEGIN__	__EPS__
i	i
c	c
h	h

__BEGIN__	__EPS__
d	da
z	ss

__BEGIN__	__EPS__
d	d
o	a

__BEGIN__	__EPS__
s	s
c	ch
a	a
d	d
e	e
n	n

__BEGIN__	__EPS__
i	i
c	c
h	h

__BEGIN__	__EPS__
d	d
o	a

__BEGIN__	__EPS__
w	w
a	a
z	r

__BEGIN__	__EPS__
d	d
o	a

__BEGIN__	__EPS__
s	s
e	e
i	i
n	n
e	e
s	s

__BEGIN__	__EPS__
m	m
i	i
e	__EPS__
r	r

__BEGIN__	__EPS__
l	l
e	e
y	i
d	d
e	e
r	r

__BEGIN__	__EPS__
d	d
a	a

__BEGIN__	__EPS__
s	s
p	p
r	r
a	a
c	c
h	h

__BEGIN__	__EPS__
w	w
i	i
l	ll

__BEGIN__	__EPS__
h	h
a	a
t	tt
e	e

__BEGIN__	__EPS__
m	m
e	e
i	i
n	n

__BEGIN__	__EPS__
w	w
e	a
s	s

__BEGIN__	__EPS__
y	ih
m	m

__BEGIN__	__EPS__
s	s
e	e
l	l
b	b
e	e
n	n

__BEGIN__	__EPS__
s	s
e	eh
r	r

__BEGIN__	__EPS__
g	g
e	e
w	z
i	e
z	__EPS__
i	ig
t	t

__BEGIN__	__EPS__
m	m
i	i
e	__EPS__
r	r

__BEGIN__	__EPS__
h	h
e	ä
n	n
d	d
e	e
n	n

__BEGIN__	__EPS__
e	e
r	r
f	f
ü	ü
l	ll
t	t

__BEGIN__	__EPS__
d	d
i	i
e	e

__BEGIN__	__EPS__
w	w
o	o
l	ll
t	t
e	e
n	n

__BEGIN__	__EPS__
g	g
a	eh
e	e
n	n

__BEGIN__	__EPS__
d	d
i	ie
t	s

__BEGIN__	__EPS__
g	g
i	i
e	__EPS__
n	n
g	g

__BEGIN__	__EPS__
d	d
y	ie

__BEGIN__	__EPS__
d	d
a	a
n	n
c	__EPS__
k	k
e	e

__BEGIN__	__EPS__
d	d
e	e
r	r

__BEGIN__	__EPS__
v	v
o	e
r	r
k	k
e	eh
r	r
e	e
r	r
r	__EPS__

__BEGIN__	__EPS__
d	d
e	e
m	m

__BEGIN__	__EPS__
g	g
r	r
a	a
b	b

__BEGIN__	__EPS__
s	s
e	e
i	i
n	n
e	e
m	m

__BEGIN__	__EPS__
m	m
i	i
t	t

__BEGIN__	__EPS__
w	wä
r	r
e	e

__BEGIN__	__EPS__
i	ih
m	m

__BEGIN__	__EPS__
s	s
p	p
r	r
i	i
h	c
e	h
t	t

__BEGIN__	__EPS__
b	b
i	i
t	t
t	t
e	e
r	r
l	l
i	i
c	c
h	h
e	e
m	m

__BEGIN__	__EPS__
g	g
e	e
s	s
c	c
h	h
a	a
c	__EPS__
h	h

__BEGIN__	__EPS__
f	f
r	r
a	a
w	u

__BEGIN__	__EPS__
w	w
e	e
y	i
n	n
t	t
e	e
n	n

__BEGIN__	__EPS__
d	d
i	i
e	e

__BEGIN__	__EPS__
i	i
s	s
t	t

__BEGIN__	__EPS__
n	n
i	i
c	c
h	h
t	t

__BEGIN__	__EPS__
s	s
c	c
h	h
r	r
y	i
r	__EPS__
e	e
n	n

__BEGIN__	__EPS__
y	ih
n	n

__BEGIN__	__EPS__
s	l
u	i
e	e
s	__EPS__
z	__EPS__
i	b
c	__EPS__
l	l
i	i
c	c
h	h
e	__EPS__
n	__EPS__

__BEGIN__	__EPS__
m	m
o	o
c	c
h	h
t	te

__BEGIN__	__EPS__
w	w
a	a
n	n
n	n
e	__EPS__

__BEGIN__	__EPS__
w	w
a	a
t	s

__BEGIN__	__EPS__
i	j
u	u
d	d
e	e
n	n

__BEGIN__	__EPS__
e	i
m	h
e	m

__BEGIN__	__EPS__
h	e
e	r

__BEGIN__	__EPS__
l	l
e	e
i	i
c	c
h	h
t	t

__BEGIN__	__EPS__
w	w
a	a
s	r
z	__EPS__

__BEGIN__	__EPS__
m	m
i	i
r	r

__BEGIN__	__EPS__
a	a
l	l
s	s
o	o

__BEGIN__	__EPS__
s	s
c	c
h	h
r	r
i	i
r	__EPS__
e	e
n	n

__BEGIN__	__EPS__
d	d
o	a

__BEGIN__	__EPS__
g	g
e	e
g	g
e	e
b	b
e	e
n	n

__BEGIN__	__EPS__
v	u
n	n
d	d

__BEGIN__	__EPS__
w	w
i	i
l	l
l	l
e	e
n	n

__BEGIN__	__EPS__
v	v
o	o
n	n

__BEGIN__	__EPS__
i	i
c	c
h	h

__BEGIN__	__EPS__
m	m
i	i
c	c
h	h

__BEGIN__	__EPS__
e	e
r	r
g	g
a	ehe
n	n

__BEGIN__	__EPS__
c	k
o	o
l	l
u	u
n	m
p	__EPS__
n	n
e	e

__BEGIN__	__EPS__
s	s
p	p
r	r
a	a
c	c
h	h

__BEGIN__	__EPS__
p	p
e	e
t	t
r	r
u	u
s	s

__BEGIN__	__EPS__
s	s
i	e
j	i
n	n

__BEGIN__	__EPS__
s	s
v	u
c	c
h	h
t	t
i	e

__BEGIN__	__EPS__
g	g
a	a
r	r

__BEGIN__	__EPS__
s	s
o	oh
n	n

__BEGIN__	__EPS__
v	v
o	o
r	r

__BEGIN__	__EPS__
d	d
a	a
s	s

__BEGIN__	__EPS__
e	e
r	r

__BEGIN__	__EPS__
m	m
y	i
t	t

__BEGIN__	__EPS__
a	a
n	n
s	s
h	__EPS__
e	e
l	l
m	m
e	__EPS__

__BEGIN__	__EPS__
h	i
a	h
e	__EPS__
r	r

__BEGIN__	__EPS__
w	w
a	a
z	r

__BEGIN__	__EPS__
d	d
e	e
r	r

__BEGIN__	__EPS__
s	s
o	o
l	l
d	lt
e	e

__BEGIN__	__EPS__
y	ih
n	n

__BEGIN__	__EPS__
d	d
a	a
r	r

__BEGIN__	__EPS__
e	e
s	s

__BEGIN__	__EPS__
v	u
n	n
d	d

__BEGIN__	__EPS__
s	s
c	c
h	h
r	r
e	e
y	i
b	b
e	e
r	r

__BEGIN__	__EPS__
d	d
i	i
r	r

__BEGIN__	__EPS__
k	k
o	o
s	s
t	t
e	e

__BEGIN__	__EPS__
w	w
o	oh
l	l

__BEGIN__	__EPS__
c	k
a	a
s	s
t	t
e	e
l	ll

__BEGIN__	__EPS__
d	d
i	i
e	e
n	n
e	e
r	r
i	i
n	n
e	__EPS__

__BEGIN__	__EPS__
w	w
a	a
t	s

__BEGIN__	__EPS__
s	s
p	p
r	r
a	a
c	c
h	h

__BEGIN__	__EPS__
l	l
i	i
e	e
u	b
e	e

__BEGIN__	__EPS__
d	d
e	e
r	r

__BEGIN__	__EPS__
n	n
v	un

__BEGIN__	__EPS__
v	a
f	u
f	f
r	r
i	i
c	c
h	h
t	t
e	e
n	n

__BEGIN__	__EPS__
h	h
e	e
r	r
a	a
w	u
s	s

__BEGIN__	__EPS__
t	t
e	e
m	m
p	p
e	e
l	l

__BEGIN__	__EPS__
h	h
e	e
r	r
c	__EPS__
z	z
e	__EPS__
n	__EPS__
l	l
e	__EPS__
i	i
c	c
h	h
e	e
m	m

__BEGIN__	__EPS__
s	s
a	a
l	l
b	b
t	t
e	e
n	n

__BEGIN__	__EPS__
d	d
i	i
c	c
h	h

__BEGIN__	__EPS__
m	m
a	a
n	n

__BEGIN__	__EPS__
m	m
i	i
t	t

__BEGIN__	__EPS__
i	i
n	n

__BEGIN__	__EPS__
d	de
i	i
n	n

__BEGIN__	__EPS__
k	k
i	i
n	n
t	d

__BEGIN__	__EPS__
i	ih
m	m

__BEGIN__	__EPS__
m	m
e	e
i	i
n	n

__BEGIN__	__EPS__
h	h
e	a
t	t

__BEGIN__	__EPS__
v	u
n	n
d	d

__BEGIN__	__EPS__
v	f
i	i
e	e
l	l

__BEGIN__	__EPS__
t	t
o	o
d	d

__BEGIN__	__EPS__
g	g
i	i
e	__EPS__
n	n
g	g

__BEGIN__	g
l	li
e	e
d	d
e	e
n	r

__BEGIN__	__EPS__
g	g
u	u
d	t
e	e
n	n

__BEGIN__	__EPS__
w	w
e	eh

__BEGIN__	__EPS__
d	d
o	a

__BEGIN__	__EPS__
d	d
a	a

__BEGIN__	__EPS__
v	u
n	n
d	d

__BEGIN__	__EPS__
b	b
e	e
r	r
u	üh
r	r
t	t
e	e

__BEGIN__	__EPS__
c	c
e	e
n	n
t	t
u	u
i	__EPS__
r	r
i	i
o	o

__BEGIN__	__EPS__
i	ih
r	r

__BEGIN__	__EPS__
s	s
a	a
g	g
e	e

__BEGIN__	__EPS__
a	a
m	m

__BEGIN__	__EPS__
s	s
i	i
m	m
e	e
o	o
n	n
i	__EPS__
s	s

__BEGIN__	__EPS__
d	d
i	i
e	e

__BEGIN__	__EPS__
n	n
o	ö
t	t
e	e
n	n

__BEGIN__	__EPS__
e	e
r	r
s	sch
l	l
a	a
h	g
e	e
n	n

__BEGIN__	__EPS__
l	l
a	a
s	s
z	s

__BEGIN__	__EPS__
g	g
o	o
t	tte
z	s

__BEGIN__	__EPS__
v	u
n	n
d	d
e	__EPS__

__BEGIN__	__EPS__
w	w
i	i
e	e

__BEGIN__	__EPS__
d	d
i	i
n	n
u	u
m	m
e	e
r	r
a	a
u	u
e	e
r	r
u	u
n	n
t	t

__BEGIN__	__EPS__
e	e
r	r

__BEGIN__	__EPS__
s	s
y	ie

__BEGIN__	__EPS__
d	d
e	e
r	r

__BEGIN__	__EPS__
k	k
i	i
n	n
t	d

__BEGIN__	__EPS__
w	w
e	e
i	i
s	s
s	s
a	a
g	g
e	e
n	r

__BEGIN__	__EPS__
e	e
r	r

__BEGIN__	__EPS__
m	m
i	i
c	c
h	h

__BEGIN__	__EPS__
d	d
e	e
r	r

__BEGIN__	__EPS__
v	u
n	n
d	d

__BEGIN__	__EPS__
s	s
a	e
y	i
l	l
e	e
r	__EPS__

__BEGIN__	__EPS__
p	b
i	i
s	s
t	t

__BEGIN__	__EPS__
s	s
o	o

__BEGIN__	__EPS__
s	s
y	ie

__BEGIN__	__EPS__
v	u
n	n
d	d

__BEGIN__	__EPS__
d	d
e	e
s	s

__BEGIN__	__EPS__
k	k
i	i
n	n
d	d
e	__EPS__

__BEGIN__	__EPS__
w	w
a	a
s	r

__BEGIN__	__EPS__
e	e
r	r

__BEGIN__	__EPS__
d	d
a	a
t	s

__BEGIN__	__EPS__
t	z
w	w
u	a
n	n
g	g
e	e
n	n

__BEGIN__	__EPS__
a	a
l	l
l	l

__BEGIN__	__EPS__
w	w
u	ol
l	l
d	t
e	e

__BEGIN__	i
e	h
n	n

__BEGIN__	__EPS__
g	g
e	e
h	h
a	a
n	n
g	g
e	e
n	n

__BEGIN__	__EPS__
s	s
a	ol
l	l
t	t

__BEGIN__	__EPS__
x	x
x	x
x	x

__BEGIN__	__EPS__
k	k
y	i
n	n
t	d

__BEGIN__	__EPS__
v	v
i	ie
l	l

__BEGIN__	__EPS__
s	s
p	p
r	r
a	a
c	c
h	h

__BEGIN__	__EPS__
i	j
h	__EPS__
e	e
s	s
u	u
s	s
z	__EPS__

__BEGIN__	__EPS__
v	f
i	i
n	n
d	d
e	e

__BEGIN__	__EPS__
m	m
o	ö
e	c
h	h
t	t
e	e
s	s
t	t

__BEGIN__	__EPS__
a	a
n	n
s	s
h	__EPS__
e	e
l	l
m	m
u	__EPS__
s	__EPS__

__BEGIN__	__EPS__
m	m
i	i
c	c
h	h

__BEGIN__	__EPS__
v	u
n	n
s	s
e	e
r	r

__BEGIN__	__EPS__
w	w
o	oh
l	l

__BEGIN__	sc
h	hm
e	e
r	r
t	__EPS__
z	z
e	__EPS__
n	__EPS__
l	__EPS__
a	__EPS__
i	__EPS__
d	__EPS__

__BEGIN__	__EPS__
g	g
e	e
b	b
e	e
i	i
n	n

__BEGIN__	__EPS__
w	w
a	a
i	h
r	r
h	h
e	e
i	i
t	t

__BEGIN__	__EPS__
d	d
i	i
e	e

__BEGIN__	__EPS__
s	s
o	o

__BEGIN__	__EPS__
s	s
t	t
a	e
i	i
n	n

__BEGIN__	__EPS__
s	s
e	e
y	i
n	n
e	e

__BEGIN__	__EPS__
z	z
u	u

__BEGIN__	__EPS__
s	s
t	t
a	ä
t	tte

__BEGIN__	__EPS__
m	m
o	ö
g	g
e	e
n	n

__BEGIN__	__EPS__
m	m
i	i
t	t

__BEGIN__	__EPS__
h	h
e	a
t	t

__BEGIN__	__EPS__
m	m
o	ö
r	r
d	d
e	e
r	r

__BEGIN__	__EPS__
v	u
n	n
d	d

__BEGIN__	__EPS__
c	c
e	e
t	t
e	e
r	r
a	a

__BEGIN__	__EPS__
v	u
n	n
d	d

__BEGIN__	__EPS__
a	a
l	l
s	s

__BEGIN__	__EPS__
m	m
a	a
g	g

__BEGIN__	__EPS__
d	d
a	a
t	ss

__BEGIN__	__EPS__
w	w
i	i
e	e

__BEGIN__	__EPS__
v	v
o	o
n	n

__BEGIN__	__EPS__
e	e
i	i
n	n

__BEGIN__	__EPS__
n	n
i	ich
t	t

__BEGIN__	__EPS__
g	g
e	e
t	t
r	r
u	u
n	n
c	__EPS__
h	k
e	e
n	n

__BEGIN__	__EPS__
d	d
e	e
z	s

__BEGIN__	__EPS__
s	s
o	oh
n	n

__BEGIN__	__EPS__
d	d
a	a
s	s

__BEGIN__	d
u	u

__BEGIN__	__EPS__
c	__EPS__
z	z
u	u
k	k
u	ü
n	n
f	f
t	t
i	i
k	g

__BEGIN__	__EPS__
m	me
i	i
n	n

__BEGIN__	__EPS__
l	l
a	a
s	s
z	s

__BEGIN__	__EPS__
d	d
v	i
i	e

__BEGIN__	__EPS__
d	d
i	i
s	e
s	s
e	e
s	s

__BEGIN__	__EPS__
m	m
u	u
t	tt
e	e
r	r

__BEGIN__	__EPS__
d	d
i	ie
s	s
e	e
m	m

__BEGIN__	__EPS__
n	n
e	e
i	i
n	n

__BEGIN__	__EPS__
a	a
b	b
l	l
o	ö
s	s
e	__EPS__
t	te

__BEGIN__	__EPS__
n	n
u	ah
m	m
e	e
n	n

__BEGIN__	__EPS__
s	s
c	c
h	h
l	l
e	ä
c	__EPS__
h	g
t	t

__BEGIN__	__EPS__
m	m
e	e
i	i
n	n
e	e

__BEGIN__	__EPS__
l	l
i	i
e	e
b	b
e	e
r	r

__BEGIN__	__EPS__
w	w
i	i
e	e

__BEGIN__	__EPS__
s	s
a	a
c	__EPS__
h	h

__BEGIN__	__EPS__
e	e
y	i
m	n
e	em

__BEGIN__	__EPS__
a	a
n	n

__BEGIN__	__EPS__
e	e
r	r

__BEGIN__	__EPS__
v	u
n	n
n	d

__BEGIN__	__EPS__
d	d
a	a
z	s

__BEGIN__	__EPS__
m	me
i	i
n	n

__BEGIN__	__EPS__
c	k
r	r
u	e
c	u
z	z
e	i
g	g
e	e
n	n

__BEGIN__	__EPS__
o	o
s	s
t	t
e	e
r	r
t	t
a	a
g	g

__BEGIN__	__EPS__
b	b
e	e
y	i
c	c
h	h
t	t
e	e

__BEGIN__	__EPS__
p	b
l	l
e	e
i	i
b	b
e	e
n	n

__BEGIN__	__EPS__
n	n
a	a
c	c
h	h
t	t

__BEGIN__	d
u	u

__BEGIN__	__EPS__
a	a
n	n
d	d
e	e
r	re

__BEGIN__	__EPS__
d	d
o	a

__BEGIN__	__EPS__
g	g
a	a
r	r

__BEGIN__	__EPS__
d	d
e	e
m	m

__BEGIN__	__EPS__
h	h
a	a
s	s
t	t

__BEGIN__	__EPS__
s	s
p	p
r	r
a	a
c	c
h	h

__BEGIN__	__EPS__
m	m
a	a
r	r
i	i
r	__EPS__
a	a

__BEGIN__	__EPS__
s	s
e	e
i	i
n	n
e	e
m	m

__BEGIN__	__EPS__
s	s
a	a
l	l
b	b
e	e
n	n

__BEGIN__	__EPS__
a	a
n	n

__BEGIN__	__EPS__
m	me
y	i
n	n

__BEGIN__	__EPS__
s	s
c	c
h	h
a	ä
c	c
h	h
e	e
r	r

__BEGIN__	__EPS__
g	g
e	e
s	s
u	ü
n	n
d	d
e	ig
t	t

__BEGIN__	__EPS__
e	e
r	r

__BEGIN__	__EPS__
a	a
b	b
e	e
r	r

__BEGIN__	__EPS__
d	d
a	a

__BEGIN__	__EPS__
d	d
a	a

__BEGIN__	__EPS__
h	h
e	e
r	r
o	o
d	d
e	es

__BEGIN__	__EPS__
d	d
a	a
z	ss

__BEGIN__	__EPS__
s	s
e	eh
r	r

__BEGIN__	__EPS__
l	l
i	i
e	e
b	b
e	e
n	n

__BEGIN__	__EPS__
a	a
l	l
z	s

__BEGIN__	__EPS__
e	e
r	r
d	d
e	e
n	n

__BEGIN__	__EPS__
d	d
o	a

__BEGIN__	__EPS__
t	t
h	__EPS__
e	a
t	t

__BEGIN__	__EPS__
k	k
l	l
e	e
i	i
n	n
e	e
n	n

__BEGIN__	__EPS__
z	s
o	o
h	gl
a	e
n	i
t	c
z	h

__BEGIN__	__EPS__
a	a
l	l
l	l

__BEGIN__	__EPS__
v	u
n	n
d	d

__BEGIN__	__EPS__
a	a
l	l
c	l
z	z
e	e
i	i
t	t
t	__EPS__

__BEGIN__	__EPS__
d	d
o	a

__BEGIN__	__EPS__
m	m
e	e
i	i
n	n

__BEGIN__	__EPS__
d	t
a	a
g	g
h	__EPS__
e	e

__BEGIN__	__EPS__
s	s
a	a
c	__EPS__
h	h

__BEGIN__	__EPS__
p	b
a	a
n	n
t	d

__BEGIN__	__EPS__
d	d
e	e
n	n

__BEGIN__	__EPS__
g	g
e	e
s	s
c	c
h	h
r	r
i	ie
b	b
e	e
n	n

__BEGIN__	__EPS__
v	u
n	n
d	d

__BEGIN__	__EPS__
d	d
o	a

__BEGIN__	__EPS__
d	d
e	e
s	s

__BEGIN__	__EPS__
s	s
i	e
e	i
n	n

__BEGIN__	__EPS__
s	s
p	p
r	r
a	a
c	c
h	h

__BEGIN__	__EPS__
v	u
n	n
d	d

__BEGIN__	__EPS__
n	n
i	i
e	ch
t	t

__BEGIN__	__EPS__
a	a
n	n
t	t
w	w
o	o
r	r
t	t
e	e
n	n

__BEGIN__	__EPS__
w	w
y	i
e	e

__BEGIN__	__EPS__
s	s
i	i
c	c
h	h

__BEGIN__	__EPS__
z	z
a	ä
r	r
t	t
t	__EPS__
l	l
i	i
c	c
h	h

__BEGIN__	__EPS__
h	h
o	a
e	u
p	p
t	t

__BEGIN__	__EPS__
a	a
n	n
d	de
r	r
e	e

__BEGIN__	__EPS__
d	d
i	i
e	e
n	n
e	e
n	n

__BEGIN__	__EPS__
d	d
a	a
t	s

__BEGIN__	__EPS__
z	z
e	ä
r	r
t	t
e	__EPS__
l	l
i	i
c	c
h	h
e	e
n	n

__BEGIN__	__EPS__
e	e
r	r
s	s
t	t
ü	ü
n	n
d	d
e	e

__BEGIN__	__EPS__
a	a
l	l
l	l

__BEGIN__	__EPS__
h	h
a	a
b	b
e	e
n	n

__BEGIN__	__EPS__
y	j
e	e

__BEGIN__	__EPS__
b	b
y	i
s	s

__BEGIN__	__EPS__
g	g
e	e
h	h
o	ö
e	__EPS__
r	r
i	i
g	g

__BEGIN__	__EPS__
m	m
u	us
s	s
t	t
e	e
n	n

__BEGIN__	__EPS__
b	b
a	a
t	t
e	e
n	n

__BEGIN__	__EPS__
d	d
i	i
e	e

__BEGIN__	__EPS__
a	a
l	l
l	l
e	e
i	i
n	n
e	e

__BEGIN__	__EPS__
w	w
a	a
z	s

__BEGIN__	__EPS__
r	r
e	e
d	d
e	e

__BEGIN__	__EPS__
w	w
i	i
r	r
t	d

__BEGIN__	__EPS__
t	d
r	r
u	ü
e	__EPS__
c	c
k	k
t	t

__BEGIN__	__EPS__
m	m
e	e
i	i
n	n

__BEGIN__	__EPS__
v	u
n	n
d	d

__BEGIN__	__EPS__
d	d
e	e
s	s

__BEGIN__	__EPS__
v	v
e	e
r	r
s	sch
w	w
u	u
n	n
d	d
e	e
n	n

__BEGIN__	__EPS__
g	g
e	e
b	b
o	o
t	t
h	__EPS__

__BEGIN__	__EPS__
a	a
n	n

__BEGIN__	__EPS__
y	ih
n	n

__BEGIN__	__EPS__
s	s
o	o
n	h
e	n

__BEGIN__	__EPS__
i	i
n	n

__BEGIN__	__EPS__
d	t
o	ö
e	__EPS__
d	t
e	e
n	n

__BEGIN__	__EPS__
g	__EPS__
e	__EPS__
h	h
e	e
l	l
f	f
e	e
n	n

__BEGIN__	__EPS__
n	n
o	o
e	__EPS__
t	t

__BEGIN__	__EPS__
m	m
e	e
i	i
n	n

__BEGIN__	__EPS__
i	i
s	s
t	t

__BEGIN__	__EPS__
v	u
n	n
d	d

__BEGIN__	__EPS__
h	h
y	i
e	er

__BEGIN__	__EPS__
g	g
o	o
t	tt

__BEGIN__	__EPS__
w	w
e	e
r	r
d	d
e	e
n	n

__BEGIN__	__EPS__
d	d
e	e
m	m

__BEGIN__	__EPS__
v	v
o	o
n	n

__BEGIN__	__EPS__
o	o
b	b

__BEGIN__	__EPS__
s	s
a	a
g	g
e	__EPS__
t	t
e	e
n	n

__BEGIN__	__EPS__
r	r
e	e
c	c
h	h
t	t
e	e
n	n

__BEGIN__	__EPS__
h	h
e	a
t	t

__BEGIN__	__EPS__
v	u
n	n
d	d

__BEGIN__	__EPS__
v	u
n	n
n	d

__BEGIN__	__EPS__
m	m
i	i
c	c
h	h

__BEGIN__	__EPS__
l	l
e	e
b	b
e	e
n	n

__BEGIN__	__EPS__
v	u
n	n
d	d

__BEGIN__	__EPS__
z	z
u	u

__BEGIN__	__EPS__
a	a
b	b

__BEGIN__	__EPS__
e	e
z	s

__BEGIN__	__EPS__
c	k
r	r
v	e
c	u
e	z

__BEGIN__	__EPS__
s	s
e	e
t	t
z	z
e	e
n	n

__BEGIN__	__EPS__
v	f
r	r
o	a
u	u
w	__EPS__
e	__EPS__

__BEGIN__	__EPS__
d	d
a	a
s	ss

__BEGIN__	__EPS__
s	s
p	p
r	r
a	a
c	c
h	h

__BEGIN__	__EPS__
d	d
e	e
m	m

__BEGIN__	__EPS__
d	d
i	i
c	c
h	h

__BEGIN__	__EPS__
y	ih
n	n

__BEGIN__	__EPS__
n	n
a	a
e	h
m	m

__BEGIN__	__EPS__
s	s
y	ie

__BEGIN__	__EPS__
d	d
i	i
c	c
h	h

__BEGIN__	__EPS__
d	da
z	s

__BEGIN__	__EPS__
a	a
l	l
l	l
e	e
n	n

__BEGIN__	__EPS__
a	a
l	l
l	l
e	e
n	n
n	__EPS__

__BEGIN__	__EPS__
l	le
i	i
c	c
h	h
n	n
a	a
m	m

__BEGIN__	__EPS__
v	u
n	n
d	d

__BEGIN__	__EPS__
m	m
a	a
n	n

__BEGIN__	__EPS__
l	l
e	ä
n	n
g	g
e	e

__BEGIN__	__EPS__
a	a
l	l
s	s
o	o

__BEGIN__	__EPS__
g	__EPS__
e	__EPS__
s	sch
m	m
a	ec
g	k
t	t
e	e

__BEGIN__	__EPS__
d	d
a	a
r	r
ü	a
f	u
f	f

__BEGIN__	__EPS__
w	w
e	oh
l	l

__BEGIN__	__EPS__
d	__EPS__
u	__EPS__
r	__EPS__
c	__EPS__
h	__EPS__
l	l
e	e
u	u
c	c
h	h
t	te
i	n
g	d

__BEGIN__	__EPS__
s	s
c	c
h	h
l	l
u	a
g	g
e	e

__BEGIN__	__EPS__
d	d
a	a
r	__EPS__
n	n
a	a
c	c
h	h

__BEGIN__	__EPS__
f	f
v	ü
e	s
z	s
e	e

__BEGIN__	__EPS__
d	d
e	e
r	r

__BEGIN__	__EPS__
t	t
r	r
v	u
o	__EPS__
g	g
e	e
n	n
t	__EPS__

__BEGIN__	__EPS__
i	i
c	c
h	h

__BEGIN__	__EPS__
w	w
a	a
s	r

__BEGIN__	__EPS__
d	d
o	a

__BEGIN__	__EPS__
h	h
e	e
i	i
l	l
i	i
g	g
e	e
n	n

__BEGIN__	__EPS__
v	v
o	o
n	n

__BEGIN__	__EPS__
t	t
e	e
m	m
p	p
e	e
l	l

__BEGIN__	__EPS__
d	d
o	a

__BEGIN__	__EPS__
d	d
a	a
z	ss

__BEGIN__	__EPS__
i	i
n	n
n	__EPS__
e	__EPS__
w	w
e	e
n	n
d	d
i	i
k	g

__BEGIN__	__EPS__
d	da
z	ss

__BEGIN__	__EPS__
s	s
a	a
c	g
h	e

__BEGIN__	__EPS__
e	e
r	r

__BEGIN__	__EPS__
s	s
p	p
r	r
a	a
c	c
h	h
e	e
n	n

__BEGIN__	__EPS__
i	i
c	c
h	h

__BEGIN__	__EPS__
v	u
n	n
d	d

__BEGIN__	__EPS__
w	w
o	o
r	r
d	d
e	e
n	n

__BEGIN__	__EPS__
p	p
y	i
l	l
a	a
t	t
u	u
s	s

__BEGIN__	__EPS__
w	w
a	a
t	s

__BEGIN__	__EPS__
c	k
r	r
ü	e
c	u
z	z
e	e

__BEGIN__	__EPS__
s	s
a	a
g	g
e	e

__BEGIN__	__EPS__
c	k
h	__EPS__
a	an
n	n

__BEGIN__	__EPS__
m	m
i	i
c	c
h	h

__BEGIN__	__EPS__
s	s
o	o
u	l
l	l
d	t
e	e

__BEGIN__	__EPS__
q	k
u	__EPS__
a	a
m	m
e	e
n	n

__BEGIN__	__EPS__
r	r
e	e
g	g
e	e
l	lmäss
i	i
c	g
h	__EPS__

__BEGIN__	__EPS__
a	e
i	i
n	n
e	e
n	n

__BEGIN__	__EPS__
v	u
n	n
d	d

__BEGIN__	__EPS__
w	w
o	o
r	r
d	d
e	e
n	n

__BEGIN__	__EPS__
v	u
n	n
d	d

__BEGIN__	__EPS__
s	s
w	oh
n	n

__BEGIN__	__EPS__
w	w
e	ä
r	r
e	e

__BEGIN__	__EPS__
l	l
y	ie
b	b
e	e
s	s

__BEGIN__	__EPS__
a	a
l	l
l	l
e	e

__BEGIN__	__EPS__
g	g
a	a
n	n
c	__EPS__
z	z
e	e

__BEGIN__	__EPS__
k	k
i	i
n	n
t	d

__BEGIN__	__EPS__
a	a
u	u
c	c
h	h

__BEGIN__	__EPS__
g	g
e	e
i	i
s	s
t	t

__BEGIN__	__EPS__
n	n
o	o
c	c
h	h

__BEGIN__	__EPS__
d	d
e	e
m	m

__BEGIN__	__EPS__
v	u
n	n
d	d

__BEGIN__	__EPS__
i	i
n	n

__BEGIN__	__EPS__
m	m
a	a
n	n

__BEGIN__	__EPS__
a	a
n	n

__BEGIN__	__EPS__
m	m
i	i
c	c
h	h

__BEGIN__	__EPS__
m	m
e	e
i	i
n	n

__BEGIN__	__EPS__
w	w
e	e
r	r

__BEGIN__	__EPS__
c	__EPS__
z	z
e	e
i	i
c	c
h	h
e	e
n	n

__BEGIN__	__EPS__
i	ih
n	n

__BEGIN__	__EPS__
d	d
a	a
s	ss

__BEGIN__	__EPS__
c	ch
r	r
i	i
s	s
t	t
u	u
s	s

__BEGIN__	__EPS__
m	m
a	a
n	n

__BEGIN__	__EPS__
z	z
u	u

__BEGIN__	__EPS__
w	w
a	a
s	r

__BEGIN__	__EPS__
v	v
o	o
r	r

__BEGIN__	__EPS__
s	s
p	p
r	r
a	a
c	c
h	h

__BEGIN__	__EPS__
a	a
r	r
m	m
u	u
e	__EPS__
t	t

__BEGIN__	__EPS__
v	u
n	n
d	d

__BEGIN__	__EPS__
m	me
y	i
n	n
e	e
s	s

__BEGIN__	__EPS__
i	j
u	u
d	d
e	e
n	n

__BEGIN__	__EPS__
o	o
f	b
f	__EPS__

__BEGIN__	__EPS__
g	g
a	a
l	l
i	i
l	l
e	e
a	a

__BEGIN__	__EPS__
w	w
i	i
r	r

__BEGIN__	__EPS__
a	a
n	n
g	g
r	r
i	i
f	f
f	f
e	e
n	n

__BEGIN__	__EPS__
o	o
b	b

__BEGIN__	__EPS__
a	e
i	i
n	n
e	e
s	s

__BEGIN__	__EPS__
m	m
i	i
c	c
h	h

__BEGIN__	__EPS__
v	v
e	e
r	r
s	s
c	c
h	h
m	m
e	ä
c	__EPS__
h	h
u	u
n	n
g	g

__BEGIN__	__EPS__
m	me
y	i
n	n

__BEGIN__	__EPS__
v	u
n	n
s	s
e	e
r	r

__BEGIN__	__EPS__
o	o
f	b
f	__EPS__

__BEGIN__	__EPS__
i	i
c	c
h	h

__BEGIN__	__EPS__
w	w
a	a
z	r

__BEGIN__	__EPS__
v	v
o	o
n	n

__BEGIN__	__EPS__
e	e
i	i
n	n

__BEGIN__	__EPS__
s	s
y	ie

__BEGIN__	__EPS__
s	s
p	p
r	r
a	a
c	c
h	h

__BEGIN__	__EPS__
n	n
i	i
e	e

__BEGIN__	__EPS__
v	u
n	n
d	d

__BEGIN__	__EPS__
i	i
s	st

__BEGIN__	__EPS__
s	s
p	p
r	r
a	a
c	c
h	h

__BEGIN__	__EPS__
v	v
a	o
n	n

__BEGIN__	__EPS__
s	s
t	t
u	a
n	n
d	d

__BEGIN__	__EPS__
e	e
r	r

__BEGIN__	__EPS__
e	e
s	s

__BEGIN__	__EPS__
f	f
u	ü
e	s
s	s
z	e

__BEGIN__	__EPS__
s	s
e	e
r	h
e	__EPS__
r	r

__BEGIN__	__EPS__
d	d
a	a
r	__EPS__
n	n
a	a
c	c
h	h

__BEGIN__	__EPS__
r	r
e	e
d	d
e	e

__BEGIN__	__EPS__
s	s
c	c
h	h
o	ö
n	n

__BEGIN__	__EPS__
g	g
l	l
e	a
ü	u
b	b
e	e
n	n
t	d

__BEGIN__	__EPS__
e	e
r	r
s	s
c	c
h	h
r	r
a	a
c	__EPS__
k	k
e	e
n	n

__BEGIN__	__EPS__
v	u
n	n
d	d

__BEGIN__	__EPS__
b	b
i	i
n	n

__BEGIN__	__EPS__
m	m
i	i
t	t

__BEGIN__	__EPS__
i	j
h	__EPS__
e	e
s	s
u	u
s	s

__BEGIN__	__EPS__
b	b
e	e
v	f
e	e
h	h
e	__EPS__
l	l
e	e

__BEGIN__	__EPS__
v	v
o	o
n	n

__BEGIN__	__EPS__
d	d
i	i
e	e

__BEGIN__	__EPS__
m	m
i	i
t	t

__BEGIN__	__EPS__
w	w
a	a
s	s

__BEGIN__	__EPS__
s	s
y	ie

__BEGIN__	__EPS__
d	d
i	i
e	e

__BEGIN__	__EPS__
d	d
i	i
e	e

__BEGIN__	__EPS__
e	e
w	w
i	i
g	g
e	e

__BEGIN__	__EPS__
d	d
e	e
m	m

__BEGIN__	__EPS__
n	n
a	a
e	h
m	m

__BEGIN__	__EPS__
v	v
o	o
r	r

__BEGIN__	__EPS__
s	s
p	p
r	r
e	e
c	c
h	h
e	e
n	n

__BEGIN__	__EPS__
d	t
o	o
d	t
e	e
n	n

__BEGIN__	__EPS__
e	e
i	i
n	n

__BEGIN__	__EPS__
m	m
a	a
k	c
e	h
t	t

__BEGIN__	__EPS__
d	d
i	i
e	e

__BEGIN__	__EPS__
g	g
e	e
w	w
a	a
n	n
t	d

__BEGIN__	d
u	u

__BEGIN__	__EPS__
i	i
s	s
t	t

__BEGIN__	__EPS__
d	d
e	e
m	m

__BEGIN__	__EPS__
d	d
e	e
m	m

__BEGIN__	__EPS__
v	u
n	n
d	d

__BEGIN__	__EPS__
m	m
u	u
e	t
t	t
e	e
r	r

__BEGIN__	__EPS__
d	d
e	e
r	r

__BEGIN__	__EPS__
g	g
a	a
l	l
e	i
l	l
e	e
l	__EPS__
a	a

__BEGIN__	__EPS__
n	n
o	o
c	c
h	h

__BEGIN__	__EPS__
d	d
o	a

__BEGIN__	__EPS__
y	ih
n	n

__BEGIN__	__EPS__
d	d
y	i
z	e
s	s
e	e

__BEGIN__	__EPS__
p	p
i	i
l	l
a	a
t	t
u	u
s	s

__BEGIN__	__EPS__
g	g
r	r
o	o
s	s
z	s

__BEGIN__	__EPS__
r	r
e	e
i	i
n	n
e	e

__BEGIN__	__EPS__
g	g
e	__EPS__
l	l
a	a
u	u
b	be

__BEGIN__	__EPS__
d	t
o	o
d	t
e	e
n	n

__BEGIN__	__EPS__
v	ü
b	b
e	e
r	r

__BEGIN__	__EPS__
m	m
i	i
t	t

__BEGIN__	__EPS__
i	i
m	h
e	m

__BEGIN__	__EPS__
s	s
t	t
r	r
a	a
f	f
f	__EPS__
t	t

__BEGIN__	__EPS__
g	g
r	r
a	a
b	b

__BEGIN__	__EPS__
w	w
y	i
e	e

__BEGIN__	__EPS__
d	d
i	i
e	e

__BEGIN__	__EPS__
w	w
i	i
l	ll
s	st

__BEGIN__	__EPS__
d	d
o	a

__BEGIN__	__EPS__
y	j
e	etz
t	t

__BEGIN__	__EPS__
e	e
r	r

__BEGIN__	__EPS__
s	s
a	a
g	g
e	e

__BEGIN__	__EPS__
f	f
r	r
o	a
w	u

__BEGIN__	__EPS__
g	g
r	r
o	o
s	s
s	s
i	e

__BEGIN__	__EPS__
p	p
y	i
l	l
a	a
t	t
u	u
s	s

__BEGIN__	__EPS__
a	a
b	b
e	__EPS__

__BEGIN__	__EPS__
c	k
r	r
e	e
u	u
c	__EPS__
z	z
e	__EPS__

__BEGIN__	__EPS__
v	b
n	i
c	__EPS__
z	s

__BEGIN__	__EPS__
e	e
i	i
n	n

__BEGIN__	__EPS__
h	h
a	a
i	__EPS__
t	t

__BEGIN__	__EPS__
s	s
e	e
y	i
n	n

__BEGIN__	__EPS__
s	s
t	t
a	ad
t	t

__BEGIN__	__EPS__
n	n
a	a
g	ge
l	l
-	__EPS__

__BEGIN__	__EPS__
w	w
a	a
z	r

__BEGIN__	__EPS__
h	h
a	a
b	be

__BEGIN__	__EPS__
a	a
n	n

__BEGIN__	__EPS__
e	e
y	i
n	n
e	e
n	n

__BEGIN__	__EPS__
s	s
i	i
j	e

__BEGIN__	__EPS__
l	l
e	e
i	i
d	d
e	e
n	n
t	d

__BEGIN__	__EPS__
w	w
a	a
s	r

__BEGIN__	__EPS__
a	a
n	n

__BEGIN__	__EPS__
d	d
e	e
i	i
n	n

__BEGIN__	__EPS__
a	a
l	l
l	l
e	e
r	r
s	sc
h	h
o	ö
e	__EPS__
n	n
e	__EPS__
s	s
t	t
e	e

__BEGIN__	__EPS__
v	v
o	o
l	l
c	__EPS__
k	k

__BEGIN__	__EPS__
a	a
b	b
e	e
r	r

__BEGIN__	__EPS__
d	d
o	a
e	__EPS__

__BEGIN__	__EPS__
a	a
l	l
l	l
e	e
r	r

__BEGIN__	__EPS__
g	g
r	r
o	o
z	s
z	s
e	e
n	n

__BEGIN__	__EPS__
h	h
e	e
r	r
t	__EPS__
z	z

__BEGIN__	__EPS__
s	s
t	t
r	r
a	a
f	f
f	__EPS__
e	e
n	n

__BEGIN__	__EPS__
a	a
u	u
f	f

__BEGIN__	__EPS__
z	z
a	ä
r	r
t	t
l	l
i	i
c	c
h	h

__BEGIN__	__EPS__
l	l
a	a
n	n
g	g
e	e

__BEGIN__	__EPS__
g	g
e	e
m	m
e	e
y	i
n	n
e	e

__BEGIN__	__EPS__
v	u
n	n
d	d

__BEGIN__	__EPS__
d	d
e	e
n	n

__BEGIN__	__EPS__
c	__EPS__
h	k
l	l
a	a
g	g
e	e
t	t

__BEGIN__	__EPS__
h	h
e	ä
n	n
d	d
e	e

__BEGIN__	__EPS__
v	u
n	n
d	d

__BEGIN__	__EPS__
v	f
i	i
e	e
l	l

__BEGIN__	__EPS__
s	s
i	ie

__BEGIN__	__EPS__
z	z
v	o
g	g
e	e
n	n

__BEGIN__	__EPS__
a	a
l	l
l	l
e	e
r	r
l	l
i	i
e	e
b	b
s	s
t	t
e	e

__BEGIN__	__EPS__
w	d
a	e
n	n
t	n

__BEGIN__	__EPS__
a	a
l	l
s	le
z	s

__BEGIN__	__EPS__
r	r
e	e
c	c
h	h
t	t
e	e
n	n

__BEGIN__	__EPS__
r	r
e	e
i	i
c	c
h	h

__BEGIN__	__EPS__
v	f
r	re
u	u
n	n
t	d

__BEGIN__	__EPS__
i	i
n	n

__BEGIN__	__EPS__
o	a
u	u
g	g
e	e
n	n

__BEGIN__	a
v	u
f	f
s	s
a	e
t	tz
t	t
e	e

__BEGIN__	__EPS__
i	i
n	n

__BEGIN__	__EPS__
g	g
e	e
b	b
e	e
n	n

__BEGIN__	__EPS__
c	k
h	__EPS__
i	i
n	n
t	d

__BEGIN__	__EPS__
i	ih
n	n

__BEGIN__	__EPS__
d	d
a	as
z	s

__BEGIN__	__EPS__
s	s
a	a
c	c
h	h
e	e
n	n
t	__EPS__

__BEGIN__	__EPS__
m	m
a	a
r	r
i	i
a	a

__BEGIN__	__EPS__
d	d
e	e
r	r

