__BEGIN__	__EPS__
s	se
y	i
n	n

__BEGIN__	__EPS__
v	v
e	e
r	r
g	g
e	e
s	s
s	s
e	e
n	n

__BEGIN__	__EPS__
n	n
u	u

__BEGIN__	__EPS__
d	d
o	a

__BEGIN__	__EPS__
u	v
o	o
n	n

__BEGIN__	__EPS__
w	w
e	ä
r	re

__BEGIN__	__EPS__
h	__EPS__
u	b
n	i
c	__EPS__
z	s

__BEGIN__	__EPS__
k	k
e	e
i	i
n	n

__BEGIN__	__EPS__
c	k
h	__EPS__
i	i
n	n
d	d

__BEGIN__	__EPS__
v	u
n	n
s	s
e	e
r	r

__BEGIN__	__EPS__
d	d
a	a
s	ss

__BEGIN__	__EPS__
m	me
i	i
n	n

__BEGIN__	__EPS__
i	ih
m	m

__BEGIN__	__EPS__
s	s
c	c
h	h
r	r
e	e
i	i
b	b
e	e
n	n

__BEGIN__	__EPS__
m	m
a	a
g	g
d	d
a	a
l	l
e	e
n	n
a	a

__BEGIN__	__EPS__
s	s
e	e
i	i
n	n
e	e
n	m

__BEGIN__	__EPS__
h	h
e	ä
n	n
d	d
e	e

__BEGIN__	__EPS__
i	e
v	u
w	__EPS__
e	e
r	r

__BEGIN__	__EPS__
a	a
l	l
s	s
o	o

__BEGIN__	__EPS__
w	w
a	e
y	i
n	n
e	e
n	n

__BEGIN__	__EPS__
c	__EPS__
h	k
o	a
m	m

__BEGIN__	__EPS__
n	n
y	i
m	mm

__BEGIN__	__EPS__
m	me
y	i
n	n

__BEGIN__	__EPS__
u	u
n	n
d	d

__BEGIN__	__EPS__
i	i
n	n

__BEGIN__	__EPS__
l	l
e	e
b	b
e	e
n	n
s	s

__BEGIN__	__EPS__
k	k
i	i
n	n
t	d

__BEGIN__	__EPS__
d	d
a	a
s	ss

__BEGIN__	__EPS__
g	g
e	e
h	h
o	o
l	l
f	f
f	__EPS__
e	e
n	n

__BEGIN__	__EPS__
v	u
n	n
d	d

__BEGIN__	__EPS__
d	d
e	e
i	i
n	n

__BEGIN__	__EPS__
s	se
i	i
n	n

__BEGIN__	__EPS__
i	ih
m	m

__BEGIN__	__EPS__
s	s
p	p
r	r
a	a
c	c
h	h

__BEGIN__	__EPS__
m	m
i	i
c	c
h	h

__BEGIN__	__EPS__
s	s
e	e
i	i
n	n

__BEGIN__	__EPS__
e	e
r	r
f	f
u	ül
l	l
t	t

__BEGIN__	__EPS__
v	u
n	n
d	d

__BEGIN__	__EPS__
d	d
u	u

__BEGIN__	__EPS__
d	d
i	i
e	e

__BEGIN__	__EPS__
i	i
n	n

__BEGIN__	__EPS__
i	ih
m	m

__BEGIN__	__EPS__
i	ih
n	n

__BEGIN__	__EPS__
s	s
y	ie

__BEGIN__	__EPS__
m	m
e	a
n	n

__BEGIN__	__EPS__
e	e
r	r

__BEGIN__	__EPS__
w	w
o	o
u	ll
d	t
e	e

__BEGIN__	__EPS__
w	v
o	o
l	l
k	k

__BEGIN__	__EPS__
v	u
n	n
d	d

__BEGIN__	__EPS__
s	s
t	t
u	a
n	n
d	d
e	e
n	n

__BEGIN__	__EPS__
v	u
n	n
d	d

__BEGIN__	__EPS__
i	i
c	c
h	h

__BEGIN__	__EPS__
m	m
o	u
e	t
d	t
e	e
r	r

__BEGIN__	__EPS__
l	l
i	ie
b	b
i	e
z	s

__BEGIN__	__EPS__
d	d
a	a
s	ss

__BEGIN__	__EPS__
f	f
r	r
e	e
u	u
d	d
e	e

__BEGIN__	__EPS__
s	s
t	t
a	ad
t	t

__BEGIN__	__EPS__
g	g
e	e
t	t
a	a
n	n

__BEGIN__	__EPS__
s	s
e	e
l	l
i	i
g	g

__BEGIN__	__EPS__
h	h
e	e
r	rr

__BEGIN__	__EPS__
e	e
y	i
n	n

__BEGIN__	__EPS__
z	z
u	u

__BEGIN__	__EPS__
n	n
e	eh
m	m
t	t

__BEGIN__	__EPS__
m	me
i	i
n	n
e	e
m	m

__BEGIN__	__EPS__
v	u
n	n
d	d

__BEGIN__	__EPS__
g	g
o	o
t	t
t	t
e	e
s	s

__BEGIN__	__EPS__
g	g
e	e
l	l
e	i
d	tt
e	e
n	n

__BEGIN__	__EPS__
c	__EPS__
z	z
e	e
i	i
t	t

__BEGIN__	__EPS__
p	p
y	i
l	l
a	a
t	t
u	u
s	s

__BEGIN__	__EPS__
d	d
e	e
m	m

__BEGIN__	__EPS__
w	w
e	i
y	e
s	s
t	__EPS__

__BEGIN__	__EPS__
a	a
l	l
s	s
o	o

__BEGIN__	__EPS__
v	u
r	r
t	t
e	e
i	i
l	l
d	__EPS__
e	__EPS__

__BEGIN__	__EPS__
k	k
u	ö
n	n
i	i
g	g

__BEGIN__	__EPS__
g	v
e	er
w	w
u	u
n	nde
t	t

__BEGIN__	__EPS__
s	s
e	e
i	i
n	n

__BEGIN__	__EPS__
d	d
i	i
e	e

__BEGIN__	__EPS__
d	d
a	a
z	ss

__BEGIN__	__EPS__
i	ih
m	m

__BEGIN__	__EPS__
d	d
i	i
e	e

__BEGIN__	__EPS__
p	p
a	e
i	i
n	n

__BEGIN__	__EPS__
w	w
a	a
n	nn

__BEGIN__	__EPS__
m	m
y	i
c	c
h	h

__BEGIN__	__EPS__
v	u
n	n
d	d

__BEGIN__	__EPS__
d	d
u	u

__BEGIN__	__EPS__
v	u
n	n
d	d

__BEGIN__	__EPS__
d	d
e	e
s	s

__BEGIN__	__EPS__
m	m
i	i
c	c
h	h

__BEGIN__	__EPS__
n	n
i	i
e	ch
t	t

__BEGIN__	__EPS__
m	m
e	e
i	i
n	n

__BEGIN__	__EPS__
y	ih
r	r
e	e
m	m

__BEGIN__	__EPS__
w	w
a	a
s	s

__BEGIN__	__EPS__
e	e
m	m
p	p
h	f
a	in
c	d
h	e

__BEGIN__	__EPS__
d	d
a	a
s	ss

__BEGIN__	__EPS__
s	s
i	i
c	c
h	h

__BEGIN__	__EPS__
s	s
e	e
i	i
n	n

__BEGIN__	__EPS__
o	o
d	d
e	e
r	r

__BEGIN__	__EPS__
d	d
i	i
e	e

__BEGIN__	__EPS__
a	a
u	u
f	f
f	__EPS__

__BEGIN__	__EPS__
d	d
a	a
z	ss

__BEGIN__	__EPS__
s	se
y	i
n	n
e	e
n	n

__BEGIN__	__EPS__
a	a
n	n

__BEGIN__	__EPS__
d	d
a	a
s	s
z	__EPS__

__BEGIN__	__EPS__
r	r
ü	u
f	f
f	__EPS__
t	t

__BEGIN__	__EPS__
k	k
o	o
n	nn
d	t
e	e

__BEGIN__	__EPS__
d	d
e	e
r	r

__BEGIN__	__EPS__
g	g
a	a
r	r

__BEGIN__	__EPS__
k	k
i	i
n	n
t	d

__BEGIN__	__EPS__
u	u
n	n
d	d

__BEGIN__	__EPS__
v	u
n	n
d	d

__BEGIN__	__EPS__
d	t
o	u
i	__EPS__
c	c
h	h

__BEGIN__	__EPS__
a	e
i	i
n	n
e	e
n	n

__BEGIN__	__EPS__
d	d
y	i
r	r

__BEGIN__	__EPS__
n	n
a	ah
m	m

__BEGIN__	__EPS__
e	e
r	r

__BEGIN__	__EPS__
m	m
e	e
i	i
n	n

__BEGIN__	__EPS__
k	k
i	i
n	n
t	d

__BEGIN__	__EPS__
z	z
a	e
i	i
c	c
h	h
e	e
n	n

__BEGIN__	__EPS__
m	m
e	e
i	i
n	n

__BEGIN__	__EPS__
k	k
i	i
n	n
t	d

__BEGIN__	d
u	u

__BEGIN__	__EPS__
w	w
e	ä
r	r
e	e
n	n

__BEGIN__	__EPS__
s	s
c	c
h	h
e	e
i	i
n	n

__BEGIN__	__EPS__
h	h
e	e
r	r
c	__EPS__
z	z

__BEGIN__	__EPS__
d	d
a	as
s	s

__BEGIN__	__EPS__
m	m
e	e
i	i
n	n

__BEGIN__	__EPS__
v	u
n	n
d	d

__BEGIN__	__EPS__
z	z
a	ä
r	r
t	t
l	l
i	i
c	c
h	h

__BEGIN__	__EPS__
e	e
r	r
d	de

__BEGIN__	__EPS__
s	s
i	i
e	e

__BEGIN__	__EPS__
n	n
i	ic
h	h
t	t

__BEGIN__	__EPS__
h	h
a	e
i	i
s	s
s	s
z	__EPS__

__BEGIN__	__EPS__
l	l
y	ie
b	b
e	e

__BEGIN__	__EPS__
s	s
p	p
r	r
a	a
c	c
h	h

__BEGIN__	__EPS__
n	n
u	un

__BEGIN__	__EPS__
m	m
a	a
r	r
t	t
e	e
r	r

__BEGIN__	__EPS__
d	d
o	a

__BEGIN__	f
x	ün
v	fzehn

__BEGIN__	__EPS__
a	a
b	b
e	e
r	r

__BEGIN__	__EPS__
v	u
n	n
d	d

__BEGIN__	i
e	h
m	m

__BEGIN__	__EPS__
s	s
a	a
c	__EPS__
h	h

__BEGIN__	__EPS__
m	m
v	u
t	tt
e	e
r	r

__BEGIN__	__EPS__
d	d
y	ie

__BEGIN__	__EPS__
w	w
o	u
n	nd
e	e
c	r
l	v
i	o
c	l
h	l
e	e
s	s

__BEGIN__	__EPS__
m	m
u	u
e	t
t	t
e	e
r	r

__BEGIN__	__EPS__
h	h
e	e
r	r
t	__EPS__
z	z
l	l
i	i
e	c
b	h
e	e
r	r

__BEGIN__	__EPS__
d	d
a	a
s	s

__BEGIN__	__EPS__
d	d
a	as
s	s

__BEGIN__	__EPS__
i	j
u	u
d	d
e	e
n	n

__BEGIN__	__EPS__
d	d
e	e
r	r

__BEGIN__	__EPS__
a	e
i	i
n	n
e	e
r	r

__BEGIN__	__EPS__
w	w
e	e
l	l
t	t

__BEGIN__	__EPS__
s	s
i	i
n	n
d	d

__BEGIN__	__EPS__
s	s
a	a
g	g
t	t

__BEGIN__	__EPS__
b	be
i	i

__BEGIN__	__EPS__
a	e
i	i
n	n
e	e
n	n

__BEGIN__	__EPS__
v	u
n	n
d	d

__BEGIN__	__EPS__
s	s
a	a
c	__EPS__
h	h

__BEGIN__	__EPS__
w	w
a	a
r	r
d	d

__BEGIN__	__EPS__
l	l
o	o
c	c
h	h
e	__EPS__

__BEGIN__	__EPS__
m	m
o	ö
r	r
d	d
e	e
r	r

__BEGIN__	__EPS__
m	m
i	i
t	t

__BEGIN__	__EPS__
a	a
n	n
t	t
l	l
i	i
c	t
z	z

__BEGIN__	__EPS__
g	__EPS__
e	__EPS__
z	z
e	e
u	u
g	ge

__BEGIN__	__EPS__
m	me
i	i
n	n
e	e
n	n

__BEGIN__	__EPS__
v	v
e	e
r	r
l	l
a	a
s	s
s	s
e	e
n	n

__BEGIN__	__EPS__
r	r
e	e
c	c
h	h
t	t
e	e
r	r

__BEGIN__	__EPS__
v	v
o	o
n	n

__BEGIN__	__EPS__
a	a
l	l
r	l
e	er
l	l
i	i
e	e
f	b
s	s
t	t
e	e

__BEGIN__	__EPS__
s	s
p	p
r	r
e	e
c	c
h	h
t	t

__BEGIN__	__EPS__
i	ih
r	r

__BEGIN__	__EPS__
v	u
n	n
d	d

__BEGIN__	__EPS__
g	g
e	e
s	s
c	c
h	h
a	a
c	__EPS__
h	h

__BEGIN__	__EPS__
g	g
e	e
b	b
e	e
n	n

__BEGIN__	__EPS__
n	n
e	e
i	i
n	n

__BEGIN__	__EPS__
k	k
i	i
n	n
t	d

__BEGIN__	__EPS__
d	d
o	u
e	rc
r	h
g	g
a	e
e	h
t	t

__BEGIN__	__EPS__
g	__EPS__
e	__EPS__
s	s
e	e
c	__EPS__
h	h
e	e
n	n

__BEGIN__	__EPS__
s	s
i	e
e	i
n	n
e	e
r	r

__BEGIN__	__EPS__
d	de
y	i
m	n
e	em

__BEGIN__	__EPS__
s	s
t	t
a	a
n	n
t	d

__BEGIN__	__EPS__
d	d
a	a
t	s

__BEGIN__	__EPS__
s	sch
w	w
a	e
y	i
g	ge

__BEGIN__	__EPS__
d	da
z	s

__BEGIN__	__EPS__
g	g
a	a
r	r
t	t
i	e
n	n

__BEGIN__	__EPS__
w	w
y	i
r	r
c	__EPS__
k	k
e	e
n	n

__BEGIN__	__EPS__
d	d
a	a
z	ss

__BEGIN__	__EPS__
d	d
e	e
n	n

__BEGIN__	__EPS__
s	se
i	i
n	n

__BEGIN__	__EPS__
a	a
u	u
f	f

__BEGIN__	__EPS__
k	k
u	o
m	m
i	m
t	t

__BEGIN__	__EPS__
i	ih
m	m

__BEGIN__	__EPS__
w	w
i	e
j	i
f	b
f	__EPS__

__BEGIN__	__EPS__
m	me
i	i
n	n
e	e
m	m

__BEGIN__	__EPS__
d	d
e	e
n	m

__BEGIN__	__EPS__
w	w
i	i
l	l
l	l

__BEGIN__	__EPS__
d	d
o	a

__BEGIN__	__EPS__
h	h
i	i
n	n

__BEGIN__	__EPS__
d	d
i	i
c	c
h	h

__BEGIN__	__EPS__
a	a
l	l
s	s

__BEGIN__	__EPS__
w	w
o	o
l	ll
t	t

__BEGIN__	__EPS__
d	d
e	e
n	n
c	__EPS__
k	k
e	e

__BEGIN__	__EPS__
y	j
e	ä
m	mm
e	e
r	r
l	l
i	i
c	c
h	h

__BEGIN__	__EPS__
m	m
u	u
t	tt
e	e
r	r

__BEGIN__	__EPS__
d	d
u	u
r	r
c	c
h	h

__BEGIN__	__EPS__
v	v
o	o
n	n

__BEGIN__	__EPS__
m	m
a	a
r	r
i	i
a	a

__BEGIN__	__EPS__
v	u
n	n
d	d
e	__EPS__

__BEGIN__	__EPS__
k	k
i	i
n	n
d	d

__BEGIN__	__EPS__
y	i
m	h
e	m

__BEGIN__	__EPS__
s	s
o	o

__BEGIN__	__EPS__
h	h
e	i
y	m
m	m
l	l
i	i
s	s
c	c
h	h
e	e

__BEGIN__	a
v	u
f	f

__BEGIN__	__EPS__
i	j
u	ü
n	n
g	g
s	s
t	t
e	e
n	n

__BEGIN__	__EPS__
g	g
e	e
s	s
t	t
a	a
l	l
t	t

__BEGIN__	__EPS__
d	d
e	e
r	r

__BEGIN__	__EPS__
v	u
n	n
d	d

__BEGIN__	__EPS__
s	s
a	a
c	__EPS__
h	h

__BEGIN__	__EPS__
k	k
i	i
n	n
d	d
e	__EPS__

__BEGIN__	__EPS__
v	v
e	e
r	r
l	l
o	o
r	re
n	n

__BEGIN__	__EPS__
w	w
e	eh

__BEGIN__	__EPS__
w	w
o	oh
l	l

__BEGIN__	__EPS__
v	u
n	n
g	g
e	e
t	t
r	r
o	ö
e	__EPS__
s	s
t	tet

__BEGIN__	__EPS__
s	s
a	ä
e	__EPS__
c	__EPS__
h	h
e	e

__BEGIN__	__EPS__
s	s
e	o

__BEGIN__	__EPS__
s	s
a	a
n	n
d	kt

__BEGIN__	__EPS__
v	u
n	n
d	d

__BEGIN__	__EPS__
d	d
e	e
r	r

__BEGIN__	__EPS__
d	d
i	i
e	e

__BEGIN__	__EPS__
w	w
e	e
m	m
e	__EPS__

__BEGIN__	__EPS__
y	ih
m	m

__BEGIN__	__EPS__
s	s
u	ü
e	__EPS__
s	s
s	s
e	e

__BEGIN__	__EPS__
g	g
a	a
r	r

__BEGIN__	__EPS__
a	a
n	n
d	d
e	e
r	r
s	s

__BEGIN__	__EPS__
z	z
u	u

__BEGIN__	__EPS__
n	n
u	un

__BEGIN__	__EPS__
s	s
e	i
y	e

__BEGIN__	__EPS__
v	u
n	n
d	d

__BEGIN__	__EPS__
o	o
b	b

__BEGIN__	__EPS__
e	e
r	r
f	f
r	r
a	e
u	u
w	__EPS__
e	__EPS__
t	t
e	e

__BEGIN__	__EPS__
c	k
r	r
a	a
f	f
f	__EPS__
t	t

__BEGIN__	__EPS__
n	n
a	ah
m	m

__BEGIN__	__EPS__
i	u
n	n
d	d

__BEGIN__	__EPS__
g	g
e	e
s	s
c	c
h	h
a	a
c	__EPS__
h	h

__BEGIN__	__EPS__
m	m
i	i
t	t

__BEGIN__	a
v	u
f	f

__BEGIN__	__EPS__
i	ih
n	n

__BEGIN__	__EPS__
s	s
y	ie

__BEGIN__	__EPS__
n	n
o	ah
m	m
e	e
n	n

__BEGIN__	__EPS__
s	s
c	c
h	h
e	e
i	i
n	n

__BEGIN__	__EPS__
i	i
c	c
h	h

__BEGIN__	__EPS__
g	g
r	r
a	a
b	b

__BEGIN__	__EPS__
w	w
a	a
i	h
r	r

__BEGIN__	__EPS__
m	me
i	i
n	n

__BEGIN__	__EPS__
h	h
i	i
e	e
s	ss

__BEGIN__	__EPS__
l	l
u	ie
f	f
e	e
n	n

__BEGIN__	__EPS__
d	d
o	a

__BEGIN__	__EPS__
v	v
o	o
r	r

__BEGIN__	__EPS__
d	d
o	a

__BEGIN__	__EPS__
v	u
n	n
g	s
e	e
l	l
i	i
g	g

__BEGIN__	__EPS__
f	f
u	ü
l	l
l	l
t	t
e	e

__BEGIN__	__EPS__
a	a
l	l
s	s
o	o

__BEGIN__	__EPS__
v	u
n	n
s	s
e	ä
g	g
l	l
i	i
c	c
h	h
e	e
n	n

__BEGIN__	__EPS__
a	a
n	n

__BEGIN__	__EPS__
d	d
i	ie
s	s

__BEGIN__	__EPS__
d	d
i	i
e	e

__BEGIN__	__EPS__
g	g
a	a
s	s
s	s
e	e
n	n

__BEGIN__	__EPS__
d	d
i	i
c	c
h	h

__BEGIN__	__EPS__
o	au
c	c
h	h

__BEGIN__	__EPS__
k	k
i	i
n	n
t	d

__BEGIN__	__EPS__
w	w
a	a
z	r

__BEGIN__	__EPS__
w	w
u	ü
e	__EPS__
r	r
d	de

__BEGIN__	__EPS__
d	d
e	e
r	r

__BEGIN__	__EPS__
v	u
n	n
d	d

__BEGIN__	__EPS__
y	ih
m	m

__BEGIN__	__EPS__
w	w
a	a
t	s

__BEGIN__	__EPS__
h	h
e	a
t	t

__BEGIN__	__EPS__
c	ch
r	r
i	i
s	s
t	t
u	u
n	s

__BEGIN__	__EPS__
s	s
a	a
c	__EPS__
h	h

__BEGIN__	__EPS__
d	d
e	e
n	n

__BEGIN__	__EPS__
v	u
n	n
v	v
o	e
r	r
s	s
e	eh
r	r
t	t
h	__EPS__

__BEGIN__	__EPS__
g	g
o	o
t	tt
i	e
s	s

__BEGIN__	__EPS__
e	e
r	r
t	t
o	ö
e	__EPS__
t	t
e	e
t	t

__BEGIN__	__EPS__
l	l
a	e
i	i
t	d

__BEGIN__	__EPS__
i	u
n	n
d	d

__BEGIN__	__EPS__
m	m
i	i
r	r

__BEGIN__	__EPS__
b	b
e	e
y	i

__BEGIN__	__EPS__
i	ih
n	n

__BEGIN__	__EPS__
d	d
a	a
z	ss

__BEGIN__	__EPS__
c	__EPS__
z	z
w	w
e	ö
l	l
f	f

__BEGIN__	__EPS__
m	m
u	u
t	tt
e	e
r	r

__BEGIN__	__EPS__
d	d
e	e
r	r

__BEGIN__	__EPS__
d	d
a	a

__BEGIN__	__EPS__
a	a
n	n
t	t
w	w
o	o
r	r
t	t

__BEGIN__	__EPS__
s	s
o	o

__BEGIN__	__EPS__
m	m
o	u
e	t
d	t
e	e
r	r

__BEGIN__	__EPS__
m	m
y	e
n	n
s	s
c	c
h	hh
e	e
i	i
t	t

__BEGIN__	__EPS__
d	d
i	i
e	e

__BEGIN__	__EPS__
u	v
e	e
s	s
p	p
e	a
r	__EPS__
s	s
i	i
a	a
n	n
u	__EPS__
s	__EPS__

__BEGIN__	__EPS__
m	m
i	i
c	c
h	h

__BEGIN__	__EPS__
e	e
w	w
i	i
g	g
e	e
r	r

__BEGIN__	__EPS__
d	d
i	i
c	c
h	h

__BEGIN__	__EPS__
d	d
o	a

__BEGIN__	__EPS__
d	d
a	a

__BEGIN__	__EPS__
g	g
e	__EPS__
l	l
e	e
i	i
c	c
h	h

__BEGIN__	__EPS__
d	d
o	a

__BEGIN__	__EPS__
e	e
i	i
n	n

__BEGIN__	__EPS__
i	i
c	c
h	h

__BEGIN__	__EPS__
o	a
u	u
c	c
h	h

__BEGIN__	__EPS__
i	j
o	o
h	h
a	a
n	n
n	n
e	e
s	s
z	__EPS__

__BEGIN__	__EPS__
g	g
e	e
s	s
a	a
n	nd
t	t

__BEGIN__	__EPS__
y	ih
m	m

__BEGIN__	__EPS__
v	v
o	o
n	n

__BEGIN__	__EPS__
s	s
t	t
a	a
r	r
c	__EPS__
k	k
e	e

__BEGIN__	__EPS__
d	d
i	i
e	e

__BEGIN__	__EPS__
g	g
a	a
s	s
s	s
e	e
n	n

__BEGIN__	__EPS__
d	d
a	a
m	m
i	i
t	t

__BEGIN__	__EPS__
s	se
y	i
n	n
e	e
n	n

__BEGIN__	__EPS__
h	h
e	a
t	t
t	t
e	e
n	n

__BEGIN__	__EPS__
v	v
o	o
n	n

__BEGIN__	__EPS__
d	d
o	a

__BEGIN__	__EPS__
s	s
p	p
r	r
a	a
c	c
h	h

__BEGIN__	__EPS__
v	u
n	n
d	d

__BEGIN__	__EPS__
a	a
n	n
d	d
e	ä
c	c
h	h
t	t
i	i
g	g
e	e

__BEGIN__	__EPS__
e	e
r	r

__BEGIN__	__EPS__
t	t
h	__EPS__
e	a
t	t

__BEGIN__	__EPS__
e	e
i	i
n	n

__BEGIN__	__EPS__
g	__EPS__
e	__EPS__
s	s
e	e
h	h
e	e
n	n
d	d
e	__EPS__

__BEGIN__	__EPS__
s	s
o	o

__BEGIN__	__EPS__
d	d
o	a

__BEGIN__	__EPS__
a	a
l	l
s	s
o	o

__BEGIN__	__EPS__
y	i
n	n

__BEGIN__	__EPS__
r	r
i	ic
h	h
t	t
e	e
r	r

__BEGIN__	__EPS__
g	g
r	r
a	a
b	b
e	__EPS__

__BEGIN__	__EPS__
m	m
e	e
i	i
n	n

__BEGIN__	__EPS__
d	d
i	i
e	e

__BEGIN__	__EPS__
i	ih
m	m

__BEGIN__	__EPS__
a	a
l	l
s	s
o	o

__BEGIN__	__EPS__
p	p
a	a
t	t
e	e
r	r

__BEGIN__	__EPS__
o	a
u	u
f	f
g	__EPS__
e	__EPS__
s	s
e	e
t	t
z	z
e	e
n	n

__BEGIN__	__EPS__
s	s
o	o

__BEGIN__	__EPS__
w	w
o	oh
l	l

__BEGIN__	__EPS__
e	e
u	u
c	c
h	h

__BEGIN__	__EPS__
d	d
a	a
r	__EPS__
n	n
a	a
c	c
h	h

__BEGIN__	__EPS__
v	u
n	n
d	d

__BEGIN__	__EPS__
g	g
r	r
o	o
s	s
s	s
e	e
r	r

__BEGIN__	__EPS__
s	s
p	p
r	r
a	a
c	c
h	h

__BEGIN__	__EPS__
d	d
i	i
e	e

__BEGIN__	__EPS__
i	ih
m	m

__BEGIN__	__EPS__
d	d
e	e
n	nn

__BEGIN__	__EPS__
m	m
i	i
c	c
h	h

__BEGIN__	__EPS__
e	e
s	s

__BEGIN__	__EPS__
s	s
i	ie

__BEGIN__	__EPS__
t	t
o	o
d	t
e	e
n	n

__BEGIN__	__EPS__
m	m
a	a
n	n

__BEGIN__	__EPS__
g	g
e	e
i	i
s	s
l	s
e	el
n	n

__BEGIN__	__EPS__
v	u
n	n
d	d

__BEGIN__	__EPS__
h	h
a	a
t	t
t	t
e	e

__BEGIN__	__EPS__
v	u
n	n
n	d

__BEGIN__	__EPS__
h	h
a	a
b	b
e	__EPS__
t	te

__BEGIN__	__EPS__
v	u
n	n
d	d

__BEGIN__	__EPS__
s	s
y	ie

__BEGIN__	__EPS__
g	g
e	__EPS__
l	l
i	ie
d	d
e	e
r	r

__BEGIN__	__EPS__
o	a
u	u
g	g
i	e
n	n

__BEGIN__	__EPS__
w	w
i	i
z	s
z	s
e	e
n	n

__BEGIN__	__EPS__
g	g
e	e
b	b
e	e

__BEGIN__	__EPS__
d	t
o	ö
e	__EPS__
d	t
e	e
n	n
!	__EPS__

__BEGIN__	__EPS__
a	a
l	l
s	s
o	o

__BEGIN__	__EPS__
i	ih
m	m

__BEGIN__	__EPS__
h	h
a	e
i	i
l	l
i	i
g	g
e	e
n	n

__BEGIN__	__EPS__
a	a
m	m
e	e
n	n

__BEGIN__	__EPS__
l	l
a	a
s	s
s	s
e	e
n	n

__BEGIN__	__EPS__
g	g
a	a
r	r

__BEGIN__	__EPS__
v	u
n	n
d	d

__BEGIN__	__EPS__
s	s
p	p
r	r
a	a
c	c
h	h

__BEGIN__	__EPS__
g	g
e	e
t	t
r	r
u	u
n	n
k	k
c	__EPS__
h	__EPS__
e	e
n	n

__BEGIN__	__EPS__
s	s
a	a
b	bb
o	a
t	t
h	__EPS__

__BEGIN__	__EPS__
n	n
o	o
c	c
h	h

__BEGIN__	__EPS__
w	w
a	a
s	r

__BEGIN__	__EPS__
s	s
e	ä
i	u
l	le

__BEGIN__	__EPS__
l	l
a	a
t	te
i	i
n	n
e	__EPS__

__BEGIN__	__EPS__
i	j
u	u
d	d
e	e
n	n

__BEGIN__	__EPS__
s	s
p	p
r	r
a	a
c	c
h	h

__BEGIN__	__EPS__
d	d
e	e
r	r

__BEGIN__	__EPS__
f	f
r	r
a	a
w	ue
n	n

__BEGIN__	__EPS__
c	__EPS__
z	z
u	u

__BEGIN__	__EPS__
v	u
n	n
d	d

__BEGIN__	__EPS__
h	h
a	a
u	u
p	pt

__BEGIN__	__EPS__
b	b
l	l
v	u
t	t
i	i
g	g
e	e
n	n

__BEGIN__	__EPS__
d	d
e	e
m	m

__BEGIN__	__EPS__
s	s
c	c
h	h
r	r
ü	__EPS__
w	i
e	e
n	n

__BEGIN__	__EPS__
m	m
u	u
n	n
d	d

__BEGIN__	__EPS__
v	u
n	n
s	s

__BEGIN__	__EPS__
m	m
e	e
i	i
n	n

__BEGIN__	__EPS__
e	e
i	i
n	n

__BEGIN__	__EPS__
k	k
i	i
n	n
t	d

__BEGIN__	__EPS__
n	n
a	a
g	g
e	e
l	l

__BEGIN__	__EPS__
d	d
o	a

__BEGIN__	__EPS__
s	s
a	a
n	nk
t	t

__BEGIN__	__EPS__
v	u
n	n
d	d

__BEGIN__	__EPS__
s	s
i	i
e	e

__BEGIN__	__EPS__
c	__EPS__
z	z
u	u

__BEGIN__	__EPS__
s	s
p	p
r	r
a	a
c	c
h	h

__BEGIN__	__EPS__
k	k
i	i
n	n
t	d

__BEGIN__	__EPS__
g	g
e	e
w	w
a	a
l	l
t	t

__BEGIN__	__EPS__
v	u
n	n
d	d

__BEGIN__	__EPS__
s	s
e	e
i	i
n	n
e	e

__BEGIN__	__EPS__
h	h
y	ier

__BEGIN__	__EPS__
n	n
o	o
c	c
h	h

__BEGIN__	__EPS__
h	h
e	a
u	b
e	__EPS__
t	t

__BEGIN__	__EPS__
s	s
e	e
i	i
n	n

__BEGIN__	__EPS__
m	m
i	i
c	c
h	h

__BEGIN__	__EPS__
h	h
a	a
n	be
d	n

__BEGIN__	__EPS__
n	n
u	un

__BEGIN__	__EPS__
m	m
a	a
r	r
i	i
a	a

__BEGIN__	__EPS__
p	p
i	i
l	l
a	a
t	t
u	u
s	s

__BEGIN__	__EPS__
v	u
n	n
d	d

__BEGIN__	__EPS__
o	o
b	b

__BEGIN__	__EPS__
v	f
e	__EPS__
r	r
v	e
n	i
s	s
c	p
h	__EPS__
u	r
l	e
d	__EPS__
i	c
g	h
e	e
n	n

__BEGIN__	__EPS__
z	z
u	o
g	g
e	e
n	n

__BEGIN__	__EPS__
d	d
o	a

__BEGIN__	__EPS__
n	n
a	ah
m	m

__BEGIN__	__EPS__
s	s
i	e
j	i
n	n

__BEGIN__	__EPS__
u	f
a	a
d	d
e	e
n	n

__BEGIN__	__EPS__
m	m
e	e
i	i
n	n
e	e
n	m

__BEGIN__	__EPS__
s	s
t	t
u	a
n	n
d	d
e	e
n	n

__BEGIN__	__EPS__
c	k
l	l
a	a
g	g
e	e
n	n

__BEGIN__	__EPS__
i	i
n	n

__BEGIN__	__EPS__
d	d
i	i
e	e

__BEGIN__	__EPS__
i	i
c	c
h	h

__BEGIN__	__EPS__
e	e
r	r

__BEGIN__	__EPS__
t	d
e	e
n	n

__BEGIN__	__EPS__
l	l
e	e
b	b
t	t

__BEGIN__	__EPS__
v	u
n	n
d	d

__BEGIN__	__EPS__
t	t
o	o
t	t
e	e
n	n

__BEGIN__	__EPS__
d	d
o	a

__BEGIN__	__EPS__
v	v
e	e
r	r
l	l
a	e
u	u
g	g
n	n
e	e
t	t

__BEGIN__	__EPS__
d	d
a	a
s	s

__BEGIN__	__EPS__
i	i
n	n

__BEGIN__	__EPS__
d	d
a	a
z	s

__BEGIN__	__EPS__
w	w
a	a
r	r
d	d

__BEGIN__	__EPS__
g	g
o	ot
t	t

__BEGIN__	__EPS__
i	i
c	c
h	h

__BEGIN__	__EPS__
d	d
e	e
r	r

__BEGIN__	__EPS__
i	i
c	c
h	h

__BEGIN__	__EPS__
d	d
a	a
s	s

__BEGIN__	__EPS__
g	g
e	e
s	s
c	c
h	h
u	i
y	eh
t	t

__BEGIN__	__EPS__
v	u
n	n
d	d

__BEGIN__	__EPS__
w	w
a	a
s	r

__BEGIN__	__EPS__
d	d
e	e
n	m

__BEGIN__	__EPS__
i	ih
m	m

__BEGIN__	__EPS__
v	u
n	n
d	d

__BEGIN__	__EPS__
o	o
b	b

__BEGIN__	__EPS__
h	h
e	a
s	s
t	t

__BEGIN__	__EPS__
a	a
l	l
s	s

__BEGIN__	__EPS__
v	u
n	n
d	d

__BEGIN__	__EPS__
l	l
i	ie
s	s
z	s

__BEGIN__	__EPS__
i	j
u	u
d	d
a	a
s	s

__BEGIN__	__EPS__
b	b
a	a
r	rr
a	a
b	b
a	a
m	s

__BEGIN__	__EPS__
m	m
e	e
i	i
n	n

__BEGIN__	__EPS__
s	s
e	e
i	i
n	n

__BEGIN__	__EPS__
h	h
a	a
b	b
e	e

__BEGIN__	__EPS__
v	u
n	n
d	d

__BEGIN__	__EPS__
e	e
i	i
n	n

__BEGIN__	__EPS__
d	d
o	a

__BEGIN__	__EPS__
f	f
r	r
e	e
w	u
d	d
e	e
n	n

__BEGIN__	__EPS__
m	m
i	i
c	c
h	h

__BEGIN__	__EPS__
e	e
r	r

__BEGIN__	__EPS__
e	e
i	i
n	n

__BEGIN__	__EPS__
s	s
i	i
c	c
h	h

__BEGIN__	__EPS__
s	s
e	e
y	i

__BEGIN__	__EPS__
g	g
e	e
n	n
i	i
e	e
s	s
s	s
e	e
n	n

__BEGIN__	__EPS__
p	b
i	i
s	s
c	c
h	h
o	o
f	f

__BEGIN__	__EPS__
e	e
r	r
b	b
a	a
r	__EPS__
m	m
e	en

__BEGIN__	__EPS__
n	n
u	un

__BEGIN__	__EPS__
v	u
n	n
d	d

__BEGIN__	__EPS__
h	h
e	ä
t	t
t	t
e	e

__BEGIN__	__EPS__
p	p
h	__EPS__
e	u
l	r
l	p
o	u
r	r

__BEGIN__	__EPS__
d	d
v	u
r	rch

__BEGIN__	__EPS__
d	d
o	a

__BEGIN__	__EPS__
h	e
e	r

__BEGIN__	__EPS__
w	w
o	o
r	r
d	d
e	e
n	n

__BEGIN__	__EPS__
e	e
r	r

__BEGIN__	__EPS__
l	l
a	e
y	i
d	d

__BEGIN__	__EPS__
w	w
o	o
l	ll
d	t
e	e

__BEGIN__	__EPS__
g	g
e	e
n	n
u	ü
o	__EPS__
g	g
t	t
e	e

__BEGIN__	__EPS__
i	j
u	u
d	d
e	e
n	n

__BEGIN__	__EPS__
h	h
e	e
l	__EPS__
y	il
a	an
m	d

__BEGIN__	__EPS__
s	s
a	a
l	l
b	b
e	__EPS__
t	t
e	e
n	n

__BEGIN__	__EPS__
g	g
e	e
b	b
o	o
r	re
n	n

__BEGIN__	__EPS__
e	e
r	r

__BEGIN__	__EPS__
v	v
o	o
n	n

__BEGIN__	__EPS__
i	j
o	o
h	h
a	a
n	n
n	n
y	es

__BEGIN__	__EPS__
g	g
e	e
z	z
i	e
j	i
d	t
e	e
n	n

__BEGIN__	__EPS__
h	h
a	a
s	s
t	t

__BEGIN__	__EPS__
p	b
i	i
n	n

__BEGIN__	__EPS__
l	l
i	i
e	e
f	b
f	__EPS__

__BEGIN__	__EPS__
h	h
e	e
r	r
a	a
b	b

__BEGIN__	__EPS__
n	n
ü	un

__BEGIN__	bekü
m	m
u	m
e	er
t	te

__BEGIN__	__EPS__
m	m
y	i
r	r

__BEGIN__	__EPS__
e	e
r	r
l	l
e	e
i	i
d	d
e	e
n	n

__BEGIN__	__EPS__
b	be
y	i

__BEGIN__	__EPS__
e	eh
e	e

__BEGIN__	__EPS__
s	s
e	e
l	l
b	b
s	st

__BEGIN__	__EPS__
w	w
i	i
l	l
l	l
e	e

__BEGIN__	__EPS__
d	d
a	a

__BEGIN__	__EPS__
k	k
i	i
n	n
t	d
h	__EPS__

__BEGIN__	__EPS__
r	r
a	a
t	t
h	h
a	a
u	u
s	s
z	__EPS__

__BEGIN__	__EPS__
a	a
n	n

__BEGIN__	__EPS__
a	a
u	u
s	s
e	e
i	i
n	n
a	a
n	n
d	d
e	e
r	r

__BEGIN__	__EPS__
f	f
u	ü
o	h
r	r
t	t
e	e
n	n
d	__EPS__

__BEGIN__	__EPS__
v	v
o	o
n	n

__BEGIN__	__EPS__
n	n
a	e
y	i
g	g
t	t

__BEGIN__	__EPS__
e	e
n	m
p	p
h	f
i	i
e	__EPS__
n	n
g	g
e	e

__BEGIN__	__EPS__
s	s
e	e
i	i
n	n

__BEGIN__	__EPS__
h	e
e	r

__BEGIN__	__EPS__
v	u
n	n
d	d

__BEGIN__	__EPS__
a	a
n	n

__BEGIN__	__EPS__
w	w
a	a
s	s

__BEGIN__	__EPS__
s	s
p	p
e	e
y	i
s	s
e	__EPS__
t	t

__BEGIN__	__EPS__
s	s
c	c
h	h
r	r
y	i
e	e
n	n

__BEGIN__	__EPS__
m	m
a	a
r	r
t	t
i	e
r	r

__BEGIN__	__EPS__
k	k
r	r
u	__EPS__
e	e
c	u
z	z

__BEGIN__	__EPS__
k	k
i	i
n	n
d	d

__BEGIN__	__EPS__
k	k
i	i
n	n
d	d

__BEGIN__	__EPS__
d	d
o	a

__BEGIN__	__EPS__
v	u
n	n
d	d

__BEGIN__	__EPS__
d	d
i	i
e	e

__BEGIN__	__EPS__
v	v
o	o
n	n

__BEGIN__	__EPS__
p	p
y	i
l	l
a	a
t	t
u	u
n	s

__BEGIN__	__EPS__
l	l
e	e
i	i
b	b

__BEGIN__	__EPS__
m	m
i	i
c	c
h	h

__BEGIN__	__EPS__
v	u
n	n
d	d

__BEGIN__	__EPS__
m	m
i	i
t	t

__BEGIN__	__EPS__
h	h
e	e
r	r
c	__EPS__
z	z
e	e
n	n
l	l
a	e
i	i
d	d

__BEGIN__	__EPS__
a	a
u	u
f	f
s	s
e	e
c	t
z	z
e	e
n	n

__BEGIN__	__EPS__
v	u
n	n
d	d

__BEGIN__	__EPS__
e	e
n	n
d	d
e	e
n	n

__BEGIN__	__EPS__
d	d
a	a
r	__EPS__
n	n
a	a
c	c
h	h

__BEGIN__	__EPS__
w	w
o	o
l	ll
t	t
e	e
n	n

__BEGIN__	__EPS__
g	g
e	e
r	r
e	e
c	c
h	h
t	t

__BEGIN__	__EPS__
h	h
a	a
d	t
d	t
e	e

__BEGIN__	__EPS__
e	e
r	r

__BEGIN__	__EPS__
v	u
n	n
d	d

__BEGIN__	__EPS__
w	w
o	o
l	ll
t	t
e	e
n	n

__BEGIN__	__EPS__
v	u
n	n
d	d

__BEGIN__	__EPS__
y	ih
n	n

__BEGIN__	__EPS__
d	d
e	e
r	r

__BEGIN__	__EPS__
e	e
r	r

__BEGIN__	__EPS__
d	d
e	e
s	s

__BEGIN__	a
v	u
f	f

__BEGIN__	__EPS__
d	d
e	e
n	n

__BEGIN__	__EPS__
m	m
e	e
i	i
n	n
e	e
r	r

__BEGIN__	__EPS__
y	ih
n	n

__BEGIN__	__EPS__
v	f
r	r
o	a
g	g
e	__EPS__
t	t
e	e

__BEGIN__	__EPS__
i	i
c	c
h	h

__BEGIN__	__EPS__
a	a
l	l
l	l
e	e
r	r

__BEGIN__	__EPS__
a	a
n	n
t	t
w	w
u	o
e	__EPS__
r	r
t	tet

__BEGIN__	__EPS__
b	b
l	l
e	e
i	i
p	be

__BEGIN__	__EPS__
c	__EPS__
h	k
r	r
a	a
n	n
k	k
c	__EPS__
h	h
a	e
i	i
d	t

__BEGIN__	__EPS__
d	d
a	a
z	s

__BEGIN__	__EPS__
b	b
l	l
ü	u
d	t

__BEGIN__	__EPS__
v	ü
i	__EPS__
b	b
e	e
l	l

__BEGIN__	__EPS__
a	a
n	n
g	g
e	e
s	s
i	i
c	c
h	h
t	t
e	__EPS__

__BEGIN__	__EPS__
f	g
r	r
e	a
i	u
s	s
z	__EPS__
l	a
i	m
k	k
e	e
i	i
t	t

__BEGIN__	__EPS__
s	s
p	p
r	r
a	a
c	c
h	h

__BEGIN__	__EPS__
a	a
u	u
f	f

__BEGIN__	__EPS__
s	s
c	c
h	h
r	r
u	i
w	__EPS__
e	e
n	n
t	__EPS__

__BEGIN__	__EPS__
n	n
i	i
c	c
h	h
t	t

__BEGIN__	__EPS__
n	n
u	un

__BEGIN__	__EPS__
d	d
i	i
e	e

__BEGIN__	__EPS__
a	a
n	n
t	t
w	w
o	o
e	__EPS__
r	r
d	t
e	e

__BEGIN__	__EPS__
d	d
e	e
r	r

__BEGIN__	__EPS__
v	v
e	e
r	r
s	s
e	eh
r	r
t	t
e	e
n	n

__BEGIN__	__EPS__
d	d
e	e
r	r

__BEGIN__	__EPS__
g	g
e	e
p	b
a	e
i	i
n	ne

__BEGIN__	__EPS__
h	h
i	i
n	n

__BEGIN__	__EPS__
d	t
o	o
d	d
e	e
s	s

__BEGIN__	__EPS__
a	a
u	u
s	s

__BEGIN__	__EPS__
g	g
i	i
n	n
g	g
e	e
n	n

__BEGIN__	__EPS__
d	d
i	i
e	e

__BEGIN__	__EPS__
e	e
r	r

__BEGIN__	__EPS__
d	d
r	r
u	ü
c	c
h	k
t	t
e	e
n	n

__BEGIN__	__EPS__
v	v
o	o
r	r

__BEGIN__	__EPS__
v	f
i	i
e	e
l	l

__BEGIN__	__EPS__
b	be
y	i

__BEGIN__	__EPS__
c	k
r	r
e	e
u	u
c	__EPS__
z	z

__BEGIN__	__EPS__
h	h
e	e
r	r
r	r
e	e
n	n

__BEGIN__	__EPS__
s	se
i	i
n	n

__BEGIN__	__EPS__
c	__EPS__
z	z
u	u

__BEGIN__	__EPS__
d	d
o	a

__BEGIN__	__EPS__
s	s
o	o
e	h
n	n

__BEGIN__	__EPS__
i	ih
n	n

__BEGIN__	__EPS__
s	s
a	a
b	bb
a	a
t	tt
u	a
n	g

__BEGIN__	__EPS__
d	d
i	i
e	e

__BEGIN__	__EPS__
d	d
e	e
m	m

__BEGIN__	__EPS__
l	l
i	i
e	e
n	b
e	e
n	n

__BEGIN__	__EPS__
m	m
a	a
n	n

__BEGIN__	__EPS__
v	u
n	n
d	d

__BEGIN__	__EPS__
i	ih
n	n

__BEGIN__	__EPS__
a	a
u	u
c	c
h	h

__BEGIN__	__EPS__
m	m
e	e
i	i
n	n

__BEGIN__	__EPS__
h	h
e	e
r	r
t	__EPS__
z	z

__BEGIN__	__EPS__
b	b
i	i
s	s
t	t
d	__EPS__
u	__EPS__

__BEGIN__	__EPS__
d	d
e	e
r	r

__BEGIN__	__EPS__
m	m
i	i
r	r

__BEGIN__	__EPS__
a	a
l	l
l	l
e	e

__BEGIN__	__EPS__
d	d
a	a
t	ss

__BEGIN__	__EPS__
d	d
o	a

__BEGIN__	__EPS__
w	w
u	u
n	n
d	d

__BEGIN__	__EPS__
v	v
e	e
r	r
g	g
i	i
b	b

__BEGIN__	__EPS__
h	h
e	ä
n	n
g	g
i	e
n	n

__BEGIN__	__EPS__
w	w
e	e
r	r

__BEGIN__	__EPS__
s	s
a	a
h	h
e	e
n	n

__BEGIN__	__EPS__
g	g
i	i
n	n
g	g

__BEGIN__	__EPS__
v	u
n	n
d	d

__BEGIN__	__EPS__
n	n
i	i
c	c
h	h
t	t

__BEGIN__	__EPS__
v	v
a	a
d	t
e	e
r	r

__BEGIN__	__EPS__
e	i
m	h
e	m

__BEGIN__	__EPS__
v	u
n	n
s	s

__BEGIN__	__EPS__
d	d
a	a
r	__EPS__
n	n
a	a
c	c
h	h

__BEGIN__	__EPS__
f	f
v	e
i	u
r	r
i	i
n	g
e	e
r	r

__BEGIN__	__EPS__
d	d
u	u

__BEGIN__	__EPS__
k	k
i	i
n	n
t	d

__BEGIN__	__EPS__
a	a
n	n
s	sch
l	l
e	ä
c	__EPS__
h	g
t	t

__BEGIN__	__EPS__
m	m
e	e
y	i
n	n
e	e

__BEGIN__	__EPS__
s	s
a	o
l	l
l	l

__BEGIN__	__EPS__
m	me
y	i
n	n

__BEGIN__	__EPS__
v	v
e	e
r	r
o	u
i	__EPS__
r	r
d	t
e	ei
l	l
d	t
e	e
n	n

__BEGIN__	__EPS__
a	a
l	l
l	l
e	e
r	r
l	l
i	i
e	e
b	b
s	s
t	t
e	e
s	s

__BEGIN__	__EPS__
f	f
r	r
o	a
w	u
e	e
n	n

__BEGIN__	__EPS__
e	e
r	r

__BEGIN__	__EPS__
s	s
p	p
r	r
e	e
c	c
h	h
e	e
n	n

__BEGIN__	__EPS__
h	h
e	ä
n	n
d	d
e	e
n	n

__BEGIN__	__EPS__
f	f
r	r
a	a
g	g
t	t

__BEGIN__	__EPS__
b	b
o	au
m	m
e	__EPS__

__BEGIN__	__EPS__
z	z
e	e
r	r
s	s
t	t
o	ö
e	__EPS__
r	r
t	t
e	e
n	n

__BEGIN__	__EPS__
g	g
e	e
d	d
o	a
c	c
h	h
t	t
e	e
n	n

__BEGIN__	__EPS__
g	__EPS__
e	__EPS__
s	s
t	t
i	i
l	l
l	l
e	e
n	n

__BEGIN__	__EPS__
m	m
i	i
r	r

__BEGIN__	__EPS__
d	d
a	a
z	ss

__BEGIN__	__EPS__
m	m
a	a
n	nn

__BEGIN__	__EPS__
k	g
e	e
g	g
e	e
n	n

__BEGIN__	__EPS__
d	d
o	a

__BEGIN__	__EPS__
s	s
o	o

__BEGIN__	__EPS__
s	s
y	ie

__BEGIN__	__EPS__
y	ih
m	m

__BEGIN__	__EPS__
a	a
l	l
l	l
e	e
r	r

__BEGIN__	__EPS__
h	h
y	i
n	n
n	n
e	en

__BEGIN__	__EPS__
m	m
i	i
c	c
h	h

__BEGIN__	__EPS__
l	l
a	a
s	s
t	t
e	e
r	r

__BEGIN__	__EPS__
l	l
a	a
s	ss

__BEGIN__	__EPS__
s	s
c	c
h	h
i	i
e	e
t	d

__BEGIN__	__EPS__
g	g
l	le
i	i
c	c
h	h

__BEGIN__	__EPS__
w	w
a	a
r	r
t	d

__BEGIN__	__EPS__
g	g
r	r
o	o
s	s
z	s
e	e
n	n

__BEGIN__	__EPS__
d	d
a	a
r	__EPS__
s	s
z	__EPS__

__BEGIN__	__EPS__
h	h
e	e
r	r
e	r

__BEGIN__	__EPS__
r	r
y	i
e	e
f	f
f	__EPS__
e	e
n	n

__BEGIN__	__EPS__
e	e
n	n
d	d
e	e
s	s

__BEGIN__	__EPS__
s	s
p	p
r	r
a	a
c	c
h	h

__BEGIN__	__EPS__
v	u
n	n
s	s

__BEGIN__	__EPS__
g	g
e	e
s	s
e	a
i	g
t	t

__BEGIN__	__EPS__
d	d
e	e
r	r

__BEGIN__	__EPS__
p	p
y	i
l	l
a	a
t	t
u	u
s	s

__BEGIN__	__EPS__
w	w
a	a
r	r
e	e
n	n

__BEGIN__	__EPS__
s	s
t	t
o	a
n	n
t	d

__BEGIN__	__EPS__
s	s
i	i
c	c
h	h

__BEGIN__	__EPS__
d	d
y	ie

__BEGIN__	__EPS__
d	d
i	i
v	e

__BEGIN__	__EPS__
n	n
a	a
g	g
e	e
l	l

__BEGIN__	__EPS__
s	s
t	t
e	e
y	i
n	n

__BEGIN__	__EPS__
d	d
o	a

__BEGIN__	__EPS__
n	n
a	a
c	c
h	h

__BEGIN__	__EPS__
n	n
o	o
i	__EPS__
t	t

__BEGIN__	__EPS__
v	v
e	e
r	r
k	k
e	eh
r	r
e	e
r	r

__BEGIN__	__EPS__
l	l
e	e
i	i
b	b
e	__EPS__

__BEGIN__	__EPS__
s	s
v	oh
n	n

__BEGIN__	__EPS__
s	s
e	e
i	i
n	n
e	e

__BEGIN__	__EPS__
i	j
e	e

__BEGIN__	__EPS__
d	d
e	e
n	n

__BEGIN__	__EPS__
v	v
e	e
r	r
l	l
a	e
u	u
g	g
e	__EPS__
n	ne
t	t

__BEGIN__	__EPS__
i	i
c	c
h	h

__BEGIN__	__EPS__
i	j
a	a
m	mm
e	e
r	r

__BEGIN__	__EPS__
a	a
l	l
l	l
e	e
n	n

__BEGIN__	__EPS__
l	l
a	a
u	u
t	t
e	e
r	r

__BEGIN__	__EPS__
d	d
e	e
m	m

__BEGIN__	__EPS__
g	__EPS__
e	__EPS__
s	s
e	i
i	e
g	g
e	__EPS__
t	t
e	e
n	n

__BEGIN__	__EPS__
n	n
e	eh
m	m
e	e
n	n

__BEGIN__	__EPS__
i	i
s	s
t	t

__BEGIN__	__EPS__
g	g
e	e
s	s
c	c
h	h
r	r
a	e
i	i

__BEGIN__	__EPS__
e	e
r	r
s	s
t	t
e	e

__BEGIN__	__EPS__
m	me
y	i
n	n

__BEGIN__	__EPS__
d	d
a	a
t	s

__BEGIN__	__EPS__
v	u
n	n
d	d

__BEGIN__	__EPS__
v	u
n	n
d	d

__BEGIN__	__EPS__
s	s
c	c
h	h
r	re
i	i
b	b
t	t

__BEGIN__	__EPS__
v	u
n	n
n	d

__BEGIN__	__EPS__
g	__EPS__
e	__EPS__
s	s
e	e
c	t
z	z
e	e
n	n

__BEGIN__	__EPS__
w	w
o	o
u	l
l	l
d	t
e	e

__BEGIN__	__EPS__
r	r
o	ö
m	m
i	i
s	s
c	c
h	h

__BEGIN__	__EPS__
d	d
u	u

__BEGIN__	__EPS__
d	d
o	a

__BEGIN__	__EPS__
d	d
a	a
z	ss

__BEGIN__	__EPS__
i	i
c	c
h	h

__BEGIN__	__EPS__
v	u
n	n
d	d

__BEGIN__	__EPS__
s	s
p	p
r	r
a	a
c	c
h	h

__BEGIN__	__EPS__
a	o
b	b

__BEGIN__	__EPS__
t	t
o	o
l	l
l	l
i	i
t	t
e	e

__BEGIN__	__EPS__
h	h
e	e
r	r
r	r
e	e
n	n

__BEGIN__	__EPS__
m	m
i	i
r	r

__BEGIN__	__EPS__
w	w
e	eis
s	s
t	t

__BEGIN__	__EPS__
h	h
e	e
e	__EPS__
r	r
e	r

__BEGIN__	__EPS__
b	b
l	l
i	i
n	n
d	d
e	e
n	n

__BEGIN__	__EPS__
i	ih
n	n

__BEGIN__	__EPS__
w	w
u	u
r	r
d	d
e	e

__BEGIN__	__EPS__
l	l
a	ä
s	s
t	t
e	e
r	r
l	l
i	i
c	c
h	h
e	e
n	n

__BEGIN__	__EPS__
s	s
o	o
e	h
n	ne
s	s

__BEGIN__	__EPS__
e	nich
n	t

__BEGIN__	__EPS__
t	zu

__BEGIN__	__EPS__
d	d
i	i
e	e

__BEGIN__	__EPS__
m	m
y	i
r	r

__BEGIN__	__EPS__
v	u
n	n
d	d

__BEGIN__	__EPS__
i	j
e	ä
m	mm
e	e
r	r
l	l
i	i
c	c
h	h
e	e
n	n

__BEGIN__	__EPS__
a	a
l	l
z	s

__BEGIN__	__EPS__
n	n
u	ü
c	t
z	z
l	l
i	i
g	ch

__BEGIN__	__EPS__
s	s
t	t
a	a
c	c
h	h

__BEGIN__	__EPS__
s	s
o	o

__BEGIN__	__EPS__
n	n
i	i
e	ch
t	t

__BEGIN__	__EPS__
h	l
i	i
e	e
s	s
c	s
h	__EPS__

__BEGIN__	__EPS__
s	s
i	i
e	e

__BEGIN__	__EPS__
h	h
a	a
i	be
n	n

__BEGIN__	__EPS__
e	e
i	i
n	n

__BEGIN__	__EPS__
v	v
o	o
n	n

__BEGIN__	__EPS__
s	sch
l	l
u	u
g	g
e	e
n	n

__BEGIN__	__EPS__
s	s
c	c
h	h
a	a
r	r
f	f

__BEGIN__	__EPS__
h	h
e	e
r	r
c	__EPS__
z	z
e	e
n	n

__BEGIN__	__EPS__
r	r
e	e
c	c
h	h
t	t
e	e
n	n

__BEGIN__	__EPS__
d	d
a	as
s	s

__BEGIN__	__EPS__
m	m
e	eh
r	r

__BEGIN__	__EPS__
f	v
v	o
r	r

__BEGIN__	__EPS__
d	d
o	a

__BEGIN__	__EPS__
o	o
f	b
f	__EPS__

__BEGIN__	__EPS__
w	w
o	a
r	r
f	f
f	__EPS__
e	e
n	n

__BEGIN__	__EPS__
h	h
a	a
n	n
t	d

__BEGIN__	__EPS__
m	me
y	i
n	n
e	e
n	n

__BEGIN__	__EPS__
d	d
a	a
z	ss

__BEGIN__	__EPS__
d	d
y	i
e	e

__BEGIN__	__EPS__
s	se
y	i
d	t
e	e
n	n

__BEGIN__	__EPS__
w	w
a	a
n	n
n	n

__BEGIN__	__EPS__
g	g
o	o
z	ss

__BEGIN__	__EPS__
m	m
e	e
i	i
n	n

__BEGIN__	__EPS__
n	n
o	o
c	c
h	h

__BEGIN__	__EPS__
l	le
i	i
b	b

__BEGIN__	__EPS__
t	t
o	ö
t	t
e	e
n	n

__BEGIN__	__EPS__
i	i
c	c
h	h

__BEGIN__	__EPS__
v	u
n	n
d	d

__BEGIN__	__EPS__
t	__EPS__
z	z
w	w
e	e
y	i
e	e
n	n

__BEGIN__	__EPS__
n	n
a	ah
m	m

__BEGIN__	__EPS__
s	s
e	e
l	l
b	b
e	e
n	n

__BEGIN__	__EPS__
m	m
e	e
i	i
n	n
e	e
n	n

__BEGIN__	__EPS__
k	k
i	i
n	n
d	de
z	s

__BEGIN__	__EPS__
c	k
r	r
e	e
u	u
c	__EPS__
z	z
e	__EPS__

__BEGIN__	__EPS__
d	t
a	a
g	g
e	e

__BEGIN__	__EPS__
p	p
l	l
o	o
r	r
a	a
u	u
y	i

__BEGIN__	__EPS__
d	d
y	i
r	r

__BEGIN__	__EPS__
s	s
c	c
h	h
l	l
u	u
g	g
e	e
n	n

__BEGIN__	__EPS__
h	h
e	e
r	r
c	__EPS__
z	z
e	e
n	__EPS__
l	l
a	e
y	i
d	d
t	__EPS__

__BEGIN__	__EPS__
d	t
o	o
i	__EPS__
t	t

__BEGIN__	__EPS__
d	d
i	ie
t	s

__BEGIN__	__EPS__
g	g
r	r
o	o
s	s
s	s
e	e
n	n

__BEGIN__	__EPS__
m	m
a	a
g	g
t	d

__BEGIN__	__EPS__
n	n
ü	u
n	n

__BEGIN__	__EPS__
g	g
e	e
d	t
r	r
e	ä
n	n
c	__EPS__
k	k
e	__EPS__
t	t

__BEGIN__	__EPS__
w	w
e	e
g	g
e	e
n	n

__BEGIN__	__EPS__
h	h
a	a
b	be

__BEGIN__	__EPS__
i	ih
r	r
e	e

__BEGIN__	__EPS__
g	g
i	i
e	__EPS__
n	n
g	g
e	e

__BEGIN__	__EPS__
i	j
u	u
d	d
e	e
n	n

__BEGIN__	__EPS__
h	h
a	a
s	s
t	t

__BEGIN__	__EPS__
d	d
o	a

__BEGIN__	__EPS__
v	u
n	n
d	d

__BEGIN__	__EPS__
i	u
n	n
d	d

__BEGIN__	__EPS__
h	h
e	a
t	t
t	te

__BEGIN__	__EPS__
e	e
s	s

__BEGIN__	__EPS__
v	u
m	m
b	__EPS__

__BEGIN__	__EPS__
v	u
n	n
d	d

__BEGIN__	__EPS__
v	u
n	n
d	d

__BEGIN__	__EPS__
n	n
i	i
e	ch
t	t

__BEGIN__	__EPS__
s	s
i	i
c	c
h	h

__BEGIN__	__EPS__
t	t
a	a
g	g
i	__EPS__
z	s

__BEGIN__	__EPS__
g	g
e	e
w	w
a	a
l	l
t	t

__BEGIN__	__EPS__
d	d
e	e
r	r

__BEGIN__	__EPS__
v	u
n	n
d	d

__BEGIN__	__EPS__
d	d
a	a
s	s

__BEGIN__	__EPS__
i	j
o	o
h	h
a	a
n	n
n	n
e	e
s	s

__BEGIN__	__EPS__
d	d
i	i
e	e

__BEGIN__	__EPS__
v	u
n	n
d	d

__BEGIN__	__EPS__
i	ih
n	n

__BEGIN__	__EPS__
l	l
a	a
u	v
a	a
t	t

__BEGIN__	__EPS__
d	d
o	a

__BEGIN__	__EPS__
k	c
i	h
r	ri
s	s
t	t
e	e
n	n
d	t
u	u
m	m

__BEGIN__	__EPS__
m	m
e	ä
r	r
e	__EPS__

__BEGIN__	__EPS__
k	k
i	i
n	n
t	d
h	__EPS__

__BEGIN__	__EPS__
d	d
a	a
t	s

__BEGIN__	__EPS__
e	e
i	i
n	n

__BEGIN__	__EPS__
s	s
p	p
r	r
a	a
c	c
h	h
e	e
n	n

__BEGIN__	__EPS__
h	h
e	e
i	i
l	l
i	i
g	g
e	e
n	n

__BEGIN__	__EPS__
s	s
p	p
r	r
e	e
c	c
h	h
t	t

__BEGIN__	__EPS__
z	z
ü	o
g	g
e	e
n	n

__BEGIN__	__EPS__
p	b
e	e
y	i

__BEGIN__	__EPS__
s	s
o	o

__BEGIN__	__EPS__
s	s
t	t
i	i
l	l
l	l
e	e

__BEGIN__	__EPS__
w	w
a	a
s	__EPS__
z	r

__BEGIN__	__EPS__
w	w
e	e
i	i
s	s
z	s

__BEGIN__	__EPS__
t	__EPS__
z	z
i	e
j	i
t	t

__BEGIN__	__EPS__
d	d
a	a
s	s

__BEGIN__	__EPS__
i	i
c	c
h	h

__BEGIN__	__EPS__
i	i
c	c
h	h

__BEGIN__	__EPS__
i	ih
n	n

__BEGIN__	__EPS__
h	h
a	e
i	i
s	s
s	s
e	e
n	n

__BEGIN__	__EPS__
s	s
p	p
r	r
a	ac
h	h
e	e
n	n

__BEGIN__	__EPS__
d	d
e	e
r	r

__BEGIN__	__EPS__
v	u
n	n
d	d

__BEGIN__	__EPS__
l	l
u	e
i	u
t	t
t	e

__BEGIN__	__EPS__
g	g
e	e
n	n

__BEGIN__	__EPS__
m	m
i	i
t	t

__BEGIN__	__EPS__
e	e
r	r
s	s
a	a
c	__EPS__
h	h

__BEGIN__	__EPS__
e	e
r	r

__BEGIN__	__EPS__
d	d
a	a

__BEGIN__	__EPS__
a	a
n	n

__BEGIN__	__EPS__
d	d
o	a

__BEGIN__	__EPS__
e	e
r	r

__BEGIN__	__EPS__
w	w
i	il
l	l

__BEGIN__	__EPS__
e	e
r	r
s	s
t	te

__BEGIN__	__EPS__
i	i
c	c
h	h

__BEGIN__	__EPS__
p	b
e	e
i	i

__BEGIN__	__EPS__
d	d
u	u
r	r
c	c
h	h

__BEGIN__	__EPS__
m	m
i	i
t	t

__BEGIN__	__EPS__
l	l
o	o
b	b
t	t

__BEGIN__	__EPS__
d	d
o	a

__BEGIN__	__EPS__
t	t
o	o
d	d

__BEGIN__	__EPS__
d	t
o	u
e	__EPS__
t	t

__BEGIN__	__EPS__
s	s
p	p
r	r
a	a
c	c
h	h

__BEGIN__	__EPS__
v	u
n	n
d	d

__BEGIN__	__EPS__
i	i
n	n

__BEGIN__	__EPS__
d	d
i	i
e	e

__BEGIN__	__EPS__
i	als
o	o

__BEGIN__	__EPS__
v	u
n	n
d	d

__BEGIN__	__EPS__
d	d
e	e
m	m

__BEGIN__	__EPS__
d	d
i	ie
t	s

__BEGIN__	__EPS__
s	sch
w	w
e	e
r	r
t	t

__BEGIN__	__EPS__
n	n
ü	un

__BEGIN__	__EPS__
i	j
u	u
d	d
e	e
n	n

__BEGIN__	__EPS__
v	u
n	n
d	d

__BEGIN__	__EPS__
a	a
l	l
t	t

__BEGIN__	__EPS__
n	n
u	un

__BEGIN__	__EPS__
n	n
i	e
e	i
n	n

__BEGIN__	__EPS__
v	a
f	u
f	f

__BEGIN__	__EPS__
z	z
u	u

__BEGIN__	__EPS__
r	r
u	üc
k	k
l	l
i	i
n	n
g	g
e	s

__BEGIN__	__EPS__
v	u
n	n
d	d

__BEGIN__	__EPS__
g	__EPS__
e	__EPS__
h	h
e	e
l	l
f	f
f	__EPS__
e	e
n	n

__BEGIN__	__EPS__
a	a
l	l
l	l
e	e
s	s

__BEGIN__	__EPS__
m	m
u	us
s	s
t	te

__BEGIN__	__EPS__
w	w
i	i
e	e

__BEGIN__	__EPS__
d	d
o	a

__BEGIN__	__EPS__
m	m
i	i
r	r

__BEGIN__	__EPS__
b	b
e	e
g	g
i	i
e	__EPS__
n	n
g	g

__BEGIN__	__EPS__
d	d
i	i
e	e

__BEGIN__	__EPS__
z	z
v	u
o	__EPS__

__BEGIN__	__EPS__
d	d
i	i
e	e

__BEGIN__	__EPS__
c	k
r	r
v	e
c	u
e	z

__BEGIN__	__EPS__
v	f
r	r
o	a
w	u
e	__EPS__

__BEGIN__	__EPS__
d	d
a	a
s	ss

__BEGIN__	__EPS__
w	w
o	oh
l	l

__BEGIN__	__EPS__
s	s
i	i
c	c
h	h

__BEGIN__	__EPS__
v	u
n	n
d	d

__BEGIN__	__EPS__
s	s
p	p
r	r
a	a
c	c
h	h

__BEGIN__	__EPS__
i	i
s	s
t	t

__BEGIN__	__EPS__
k	k
i	i
n	n
d	d
e	__EPS__

__BEGIN__	__EPS__
v	u
n	n
d	d

__BEGIN__	__EPS__
e	e
r	r
l	l
o	ö
s	s
t	t

__BEGIN__	__EPS__
o	a
b	b
e	e
r	r

__BEGIN__	__EPS__
v	v
o	o
r	r

__BEGIN__	__EPS__
e	e
r	r

__BEGIN__	__EPS__
l	l
a	a
n	n
g	g

__BEGIN__	__EPS__
d	d
o	a

__BEGIN__	__EPS__
d	d
r	r
u	ü
k	__EPS__
c	c
h	k
t	t
e	e
n	n

__BEGIN__	__EPS__
d	d
e	e
r	r

__BEGIN__	__EPS__
v	u
n	n
d	d

__BEGIN__	__EPS__
v	v
i	ie
l	l

__BEGIN__	__EPS__
h	h
e	e
r	r
t	__EPS__
z	z
e	__EPS__

__BEGIN__	__EPS__
s	s
i	i
c	e
h	h

__BEGIN__	__EPS__
w	w
u	u
n	n
d	d
e	e
r	r
t	t

__BEGIN__	__EPS__
m	m
e	e
i	i
n	n

__BEGIN__	__EPS__
m	m
i	i
c	c
h	h

__BEGIN__	__EPS__
m	m
i	i
t	t

__BEGIN__	__EPS__
g	g
l	le
i	i
c	c
h	h

__BEGIN__	__EPS__
d	d
a	a
z	s

__BEGIN__	__EPS__
n	n
a	a
c	c
h	h

__BEGIN__	__EPS__
d	d
i	i
c	c
h	h

__BEGIN__	__EPS__
d	t
o	o
i	__EPS__
t	d

__BEGIN__	__EPS__
a	a
l	l
s	s
o	o

__BEGIN__	__EPS__
v	v
o	o
n	n

__BEGIN__	__EPS__
s	s
p	p
o	o
t	t
t	t
e	e
t	t

__BEGIN__	__EPS__
g	g
a	a
r	r

__BEGIN__	__EPS__
e	e
t	t
w	w
a	a
z	s

__BEGIN__	__EPS__
s	s
i	i
c	c
h	h

__BEGIN__	__EPS__
s	s
p	p
r	r
a	a
c	c
h	h

__BEGIN__	__EPS__
m	me
i	i
n	n

__BEGIN__	__EPS__
g	g
e	eh
t	t

__BEGIN__	__EPS__
n	n
o	ö
e	__EPS__
t	t
t	__EPS__
e	e
n	n

__BEGIN__	__EPS__
m	m
i	i
t	t
e	e
i	i
n	n
a	a
n	n
d	d
e	e
r	r

__BEGIN__	__EPS__
a	a
n	n

__BEGIN__	__EPS__
d	d
a	a
s	ss

__BEGIN__	__EPS__
d	d
a	a
z	ss

__BEGIN__	__EPS__
v	f
i	i
e	e
l	l

__BEGIN__	__EPS__
s	s
p	p
o	o
t	tt

__BEGIN__	__EPS__
d	d
a	a
t	ss

__BEGIN__	__EPS__
m	m
i	i
c	c
h	h

__BEGIN__	__EPS__
g	g
e	e
s	s
e	e
g	g
e	__EPS__
n	ne
t	t

__BEGIN__	__EPS__
s	s
i	e
e	i

__BEGIN__	__EPS__
f	v
u	o
r	r

__BEGIN__	__EPS__
w	w
a	a
n	n
n	n

__BEGIN__	__EPS__
d	d
o	a

__BEGIN__	__EPS__
w	p
e	r
i	o
s	p
s	h
a	e
g	t

__BEGIN__	__EPS__
w	w
a	ah
r	r
h	h
e	e
i	i
t	t

__BEGIN__	__EPS__
d	d
a	a
z	s

__BEGIN__	__EPS__
d	d
e	e
n	n

__BEGIN__	__EPS__
d	d
e	e
r	r

__BEGIN__	__EPS__
s	s
y	i
m	m
e	e
o	o
n	n
i	__EPS__
s	s

__BEGIN__	__EPS__
k	g
e	e
g	g
e	e
n	n

__BEGIN__	__EPS__
w	w
i	ie
d	d
e	e
r	r

__BEGIN__	__EPS__
m	m
y	i
r	r

__BEGIN__	__EPS__
d	d
i	i
c	c
h	h

__BEGIN__	__EPS__
i	ih
m	m

__BEGIN__	__EPS__
e	e
r	r

__BEGIN__	__EPS__
v	u
n	n
d	d

__BEGIN__	__EPS__
n	n
i	ich
t	t

__BEGIN__	__EPS__
d	d
a	a
s	s
z	s

__BEGIN__	__EPS__
l	l
e	e
m	m
a	a
s	s
a	a
b	b
a	a
t	t
h	h
o	o
n	n
i	i

__BEGIN__	__EPS__
d	d
a	a
s	s

__BEGIN__	__EPS__
n	n
a	a
c	c
h	h
t	t
r	r
a	a
g	g
e	e
n	n

__BEGIN__	__EPS__
s	s
u	o
n	n
d	d
e	e
r	rn

__BEGIN__	__EPS__
d	d
i	i
c	c
h	h

__BEGIN__	__EPS__
w	w
e	e
r	r
d	d
e	e
n	n

__BEGIN__	__EPS__
w	w
o	oh
l	l

__BEGIN__	d
u	u

__BEGIN__	__EPS__
m	me
y	i
n	n

__BEGIN__	__EPS__
i	i
c	c
h	h

__BEGIN__	__EPS__
d	d
i	i
e	e

__BEGIN__	__EPS__
e	e
r	r

__BEGIN__	__EPS__
s	s
a	o
l	ll
s	st

__BEGIN__	__EPS__
d	d
i	i
e	e

__BEGIN__	__EPS__
t	t
e	e
y	i
l	l
e	e
n	n

__BEGIN__	__EPS__
c	k
r	r
e	e
u	u
c	__EPS__
z	z
e	__EPS__

__BEGIN__	__EPS__
d	d
i	ie

__BEGIN__	__EPS__
m	m
i	i
c	c
h	h

__BEGIN__	__EPS__
i	ih
r	r

__BEGIN__	__EPS__
z	z
v	u

__BEGIN__	__EPS__
s	s
o	o

__BEGIN__	__EPS__
a	a
d	d
a	a
m	m

__BEGIN__	__EPS__
e	e
i	i
n	n

__BEGIN__	p
s	s
a	a
e	__EPS__
l	l
t	__EPS__
e	__EPS__
r	m

__BEGIN__	__EPS__
d	d
e	e
n	n

__BEGIN__	__EPS__
t	t
e	e
ü	u
f	f
e	e
l	l

__BEGIN__	__EPS__
h	h
o	ö
r	r
t	t

__BEGIN__	__EPS__
e	e
t	s

__BEGIN__	__EPS__
y	ih
n	n

__BEGIN__	__EPS__
g	g
e	e
h	h
a	a
b	b
t	t

__BEGIN__	__EPS__
w	w
i	ie
d	d
e	e
r	r

__BEGIN__	__EPS__
d	de
i	i
n	n

__BEGIN__	__EPS__
d	d
a	a
r	r
v	u
m	m
b	__EPS__

__BEGIN__	__EPS__
w	w
a	a
n	n
t	de

__BEGIN__	__EPS__
d	d
o	a

__BEGIN__	__EPS__
d	d
e	e
r	r

__BEGIN__	__EPS__
f	f
r	r
v	e
i	u
n	n
t	d

__BEGIN__	__EPS__
v	v
o	o
n	n

__BEGIN__	__EPS__
v	u
n	n
d	d

__BEGIN__	__EPS__
m	m
e	e
i	i
n	n

__BEGIN__	__EPS__
t	t
o	o
t	d

__BEGIN__	__EPS__
a	a
n	n

__BEGIN__	__EPS__
g	g
i	i
e	ng

__BEGIN__	__EPS__
t	t
o	u
n	n
d	__EPS__

__BEGIN__	__EPS__
d	d
a	a
s	s

__BEGIN__	__EPS__
a	a
n	n
s	s
e	e
l	l
m	m
e	__EPS__

__BEGIN__	__EPS__
k	k
i	i
n	n
t	d
h	__EPS__

__BEGIN__	__EPS__
g	g
e	es
l	c
o	h
d	r
e	e
m	i
e	__EPS__

__BEGIN__	__EPS__
s	sch
l	l
e	a
g	g

__BEGIN__	__EPS__
v	v
o	on

__BEGIN__	__EPS__
m	m
i	ich

__BEGIN__	__EPS__
h	h
e	e
r	r
o	a
u	u
z	s

__BEGIN__	__EPS__
y	i
m	h
e	m

__BEGIN__	__EPS__
i	ih
n	n

__BEGIN__	__EPS__
g	g
r	r
o	o
s	s
z	s

__BEGIN__	__EPS__
d	d
a	a
z	s

__BEGIN__	__EPS__
u	u
n	n
d	d

