__BEGIN__	__EPS__
m	m
i	i
c	c
h	h

__BEGIN__	__EPS__
d	d
w	u

__BEGIN__	__EPS__
d	d
o	a

__BEGIN__	__EPS__
s	s
i	i
e	e

__BEGIN__	__EPS__
d	t
e	ä
d	t
e	e

__BEGIN__	__EPS__
h	h
e	e
r	r

__BEGIN__	__EPS__
y	ih
r	r

__BEGIN__	__EPS__
d	d
i	i
e	e

__BEGIN__	__EPS__
m	m
e	e
r	e
r	r
d	d
o	o
r	r
n	n
e	e
n	n

__BEGIN__	__EPS__
h	__EPS__
e	e
r	r

__BEGIN__	__EPS__
w	w
i	i
l	lls
t	t

__BEGIN__	__EPS__
i	j
a	ah
r	r

__BEGIN__	__EPS__
m	m
i	i
r	r

__BEGIN__	__EPS__
o	ü
b	b
b	__EPS__
e	e
l	l

__BEGIN__	__EPS__
e	e
r	r
d	d
i	e
n	n

__BEGIN__	__EPS__
v	v
o	o
r	r

__BEGIN__	__EPS__
w	w
u	u
n	n
d	d
e	e
n	n

__BEGIN__	__EPS__
v	u
n	n
d	d

__BEGIN__	__EPS__
i	ih
n	n

__BEGIN__	__EPS__
d	d
e	e
s	s

__BEGIN__	__EPS__
e	e
r	r
l	l
o	a
b	u
e	b
s	s
t	t

__BEGIN__	__EPS__
a	e
i	i
n	n
e	e
r	r

__BEGIN__	__EPS__
a	a
l	l
z	s

__BEGIN__	__EPS__
k	k
a	a
m	m

__BEGIN__	__EPS__
d	d
i	i
e	e

__BEGIN__	__EPS__
p	p
y	i
l	l
a	a
t	t
u	u
s	s

__BEGIN__	__EPS__
o	o
m	m
d	d
a	a
t	t

__BEGIN__	__EPS__
h	i
e	h
m	m

__BEGIN__	__EPS__
g	g
e	ehe
n	n

__BEGIN__	__EPS__
d	d
e	e
n	n

__BEGIN__	__EPS__
a	a
b	b
e	e
r	r

__BEGIN__	__EPS__
a	a
u	u
f	f
f	__EPS__
g	g
e	e
s	s
t	t
a	a
n	n
d	d
e	e
n	n

__BEGIN__	__EPS__
a	a
l	l
l	l
e	e
s	s

__BEGIN__	__EPS__
v	v
o	o
n	n

__BEGIN__	__EPS__
v	v
i	ie
l	l

__BEGIN__	__EPS__
c	k
r	r
e	e
u	u
t	__EPS__
z	z
i	i
g	g
e	e
n	n

__BEGIN__	__EPS__
v	v
i	i
e	e
r	r
t	t
e	e
n	n

__BEGIN__	__EPS__
d	d
e	e
r	r

__BEGIN__	__EPS__
d	d
a	a
t	s

__BEGIN__	__EPS__
z	z
u	u

__BEGIN__	__EPS__
v	v
a	a
t	t
e	e
r	r

__BEGIN__	__EPS__
w	w
a	a
r	r
t	t
e	e
n	__EPS__
t	t

__BEGIN__	__EPS__
d	d
u	ü
r	r
s	s
t	t
e	e
t	t

__BEGIN__	__EPS__
e	e
z	s

__BEGIN__	__EPS__
r	r
w	u
e	h
t	t

__BEGIN__	__EPS__
t	t
o	o
d	d

__BEGIN__	__EPS__
w	w
e	eh

__BEGIN__	__EPS__
l	l
e	ö
w	w
i	i
n	__EPS__
n	n
e	__EPS__

__BEGIN__	__EPS__
v	f
r	r
o	a
u	u
w	__EPS__
e	__EPS__

__BEGIN__	__EPS__
c	__EPS__
z	z
u	u

__BEGIN__	__EPS__
d	d
a	__EPS__
r	r
t	e
i	i
c	ssi
h	g

__BEGIN__	__EPS__
i	i
n	n

__BEGIN__	__EPS__
k	k
i	i
n	n
t	d

__BEGIN__	__EPS__
s	s
y	i
n	n
t	d

__BEGIN__	__EPS__
v	u
n	n
d	d
e	__EPS__

__BEGIN__	__EPS__
i	j
o	o
h	h
-	ann
e	e
m	s

__BEGIN__	__EPS__
d	d
i	ie

__BEGIN__	__EPS__
l	l
i	i
e	e
b	be

__BEGIN__	__EPS__
d	d
e	e
r	r

__BEGIN__	__EPS__
d	d
o	a

__BEGIN__	__EPS__
o	u
n	n
d	t
e	e
r	r
d	t
a	ä
n	n
i	i
c	g
h	__EPS__

__BEGIN__	__EPS__
k	k
a	e
i	i
n	n

__BEGIN__	__EPS__
h	h
o	aus

__BEGIN__	__EPS__
s	s
e	e
r	h
e	r

__BEGIN__	__EPS__
s	s
y	i
m	m
e	e
o	o
n	n
i	__EPS__
s	s

__BEGIN__	__EPS__
g	g
o	o
t	tte
z	s

__BEGIN__	__EPS__
u	a
f	u
f	f

__BEGIN__	__EPS__
b	b
l	li
e	e
u	b
e	e
n	n

__BEGIN__	__EPS__
n	n
a	ah
m	m
s	s
t	t

__BEGIN__	__EPS__
k	k
u	ö
n	n
c	i
k	g

__BEGIN__	__EPS__
i	i
n	n

__BEGIN__	__EPS__
s	s
c	c
h	h
w	w
e	e
s	s
t	t
e	e
r	r

__BEGIN__	__EPS__
g	g
e	e
i	i
s	s
t	t

__BEGIN__	__EPS__
a	a
n	n

__BEGIN__	__EPS__
s	s
p	p
o	o
t	t
t	t
e	e

__BEGIN__	__EPS__
d	d
e	e
m	m

__BEGIN__	__EPS__
i	ih
n	n

__BEGIN__	__EPS__
v	v
o	o
n	n

__BEGIN__	__EPS__
d	d
o	a

__BEGIN__	__EPS__
h	h
e	ä
t	t
t	t
e	e

__BEGIN__	__EPS__
m	m
i	i
t	t

__BEGIN__	__EPS__
y	ih
n	n

__BEGIN__	__EPS__
p	b
i	i
n	n

__BEGIN__	__EPS__
d	d
o	a

__BEGIN__	__EPS__
d	d
e	e
r	r

__BEGIN__	__EPS__
f	f
r	r
a	a
ü	u
w	__EPS__
e	__EPS__

__BEGIN__	__EPS__
d	d
a	a
t	ss

__BEGIN__	__EPS__
i	i
e	h
r	r

__BEGIN__	__EPS__
v	u
n	n
d	d

__BEGIN__	__EPS__
c	k
h	__EPS__
l	l
a	a
g	ge

__BEGIN__	__EPS__
o	o
c	__EPS__
h	h

__BEGIN__	__EPS__
r	r
e	e
c	c
h	h
t	t

__BEGIN__	__EPS__
n	n
i	i
c	c
h	h
t	t

__BEGIN__	__EPS__
r	r
o	oc
k	k

__BEGIN__	__EPS__
f	f
r	r
a	a
n	n
c	__EPS__
k	k
e	__EPS__
r	re
i	i
c	c
h	h
e	__EPS__

__BEGIN__	__EPS__
t	t
u	u
n	n

__BEGIN__	__EPS__
s	se
y	i
n	n
i	e
r	r

__BEGIN__	__EPS__
w	w
a	a
s	r
z	__EPS__

__BEGIN__	__EPS__
n	n
i	i
c	c
h	h
t	t

__BEGIN__	__EPS__
e	e
y	i
n	n
i	i
c	g
h	__EPS__

__BEGIN__	__EPS__
r	r
i	i
t	t
t	t
e	e
r	r

__BEGIN__	__EPS__
v	u
n	n
d	d

__BEGIN__	__EPS__
d	__EPS__
a	als

__BEGIN__	__EPS__
v	v
i	ie
l	l

__BEGIN__	__EPS__
f	v
v	o
r	r

__BEGIN__	__EPS__
d	d
y	i
r	r

__BEGIN__	__EPS__
m	m
e	e
i	i
n	n

__BEGIN__	__EPS__
e	e
r	r
s	s
t	t
u	a
e	__EPS__
n	n
d	d

__BEGIN__	__EPS__
k	k
r	r
e	e
u	u
c	__EPS__
z	z

__BEGIN__	__EPS__
m	m
a	a
r	r
i	i
a	a

__BEGIN__	__EPS__
d	d
e	e
m	m

__BEGIN__	__EPS__
t	t
o	o
e	__EPS__
d	d

__BEGIN__	__EPS__
w	w
y	i
r	r

__BEGIN__	__EPS__
d	d
o	a

__BEGIN__	__EPS__
v	u
n	n
d	d

__BEGIN__	__EPS__
e	e
y	i
n	n
i	i
g	g
e	e

__BEGIN__	__EPS__
d	d
i	i
e	e

__BEGIN__	__EPS__
l	le
i	i
b	b

__BEGIN__	__EPS__
n	n
i	i
t	ch
t	t

__BEGIN__	__EPS__
g	g
i	in
e	g

__BEGIN__	__EPS__
d	d
ü	u

__BEGIN__	__EPS__
b	b
a	a
c	c
k	k
e	e
n	n

__BEGIN__	__EPS__
d	d
o	a

__BEGIN__	__EPS__
d	d
i	ie
t	s

__BEGIN__	__EPS__
i	j
o	o
s	s
e	e
p	p
h	h

__BEGIN__	__EPS__
h	h
e	a
t	t
t	t
e	e
n	n

__BEGIN__	__EPS__
h	h
a	a
u	u
p	p
t	t

__BEGIN__	__EPS__
a	a
v	u
f	f

__BEGIN__	__EPS__
s	s
t	t
a	a
c	c
h	h

__BEGIN__	__EPS__
m	m
o	o
i	__EPS__
c	c
h	h
t	t
e	e

__BEGIN__	__EPS__
d	d
a	a
s	ss

__BEGIN__	__EPS__
z	z
o	u

__BEGIN__	__EPS__
n	n
u	u
n	n

__BEGIN__	__EPS__
i	j
u	u
d	d
e	e
n	n

__BEGIN__	__EPS__
d	d
e	e
s	s

__BEGIN__	__EPS__
d	d
a	a
n	nn

__BEGIN__	__EPS__
n	g
e	e
h	s
t	t
e	ern

__BEGIN__	__EPS__
v	u
n	n
d	d

__BEGIN__	__EPS__
d	de
y	i
n	n

__BEGIN__	__EPS__
d	d
o	a

__BEGIN__	__EPS__
d	d
e	e
s	s

__BEGIN__	__EPS__
d	d
a	a
z	ss

__BEGIN__	__EPS__
d	d
a	a
t	s

__BEGIN__	__EPS__
p	b
i	i
n	n

__BEGIN__	__EPS__
s	s
e	e
y	i
n	n
e	e
n	n

__BEGIN__	__EPS__
f	f
r	r
o	a
g	g
t	t

__BEGIN__	__EPS__
s	s
o	o

__BEGIN__	__EPS__
w	w
e	e
r	r
f	f
f	__EPS__
e	e
n	n
t	d

__BEGIN__	__EPS__
m	m
e	e
y	i
n	n

__BEGIN__	__EPS__
o	o
f	f
f	f
e	e
n	n
b	b
a	a
i	__EPS__
r	r

__BEGIN__	__EPS__
d	d
i	i
a	e

__BEGIN__	__EPS__
v	v
u	o
r	r

__BEGIN__	__EPS__
v	u
n	n
s	s
e	e
r	r

__BEGIN__	__EPS__
e	e
r	r

__BEGIN__	__EPS__
d	d
o	u
e	rc
r	h

__BEGIN__	__EPS__
w	w
a	a
s	r

__BEGIN__	__EPS__
i	i
c	c
h	h

__BEGIN__	__EPS__
s	s
t	t
a	a
c	c
h	h

__BEGIN__	__EPS__
v	u
n	n
s	s
e	ä
g	g
l	l
e	__EPS__
i	i
c	c
h	h

__BEGIN__	__EPS__
v	u
n	n
d	d

__BEGIN__	__EPS__
d	d
a	a
s	s

__BEGIN__	__EPS__
z	z
w	u

__BEGIN__	__EPS__
t	t
a	a
g	g

__BEGIN__	__EPS__
r	r
i	e
j	i
c	c
h	h

__BEGIN__	__EPS__
c	k
r	r
u	e
i	u
c	__EPS__
z	z

__BEGIN__	__EPS__
h	h
i	im
m	m
e	e
l	l
s	s

__BEGIN__	__EPS__
d	d
a	a
s	s

__BEGIN__	__EPS__
v	u
n	n
d	d

__BEGIN__	__EPS__
q	k
u	__EPS__
a	a
m	m
e	e
n	n

__BEGIN__	__EPS__
d	d
e	e
m	m

__BEGIN__	__EPS__
z	z
ü	u

__BEGIN__	__EPS__
k	k
i	i
n	n
t	d

__BEGIN__	__EPS__
s	s
o	o

__BEGIN__	__EPS__
d	d
a	a

__BEGIN__	__EPS__
i	i
s	s
t	t

__BEGIN__	__EPS__
d	d
a	a

__BEGIN__	__EPS__
d	de
y	i
n	n

__BEGIN__	__EPS__
h	h
e	ä
t	t
t	t
e	e

__BEGIN__	__EPS__
p	p
y	i
l	l
a	a
t	t
u	u
s	s

__BEGIN__	__EPS__
g	g
e	e
s	s
c	c
h	h
a	a
c	__EPS__
h	h

__BEGIN__	__EPS__
w	w
o	o
l	ll
t	t
e	e
n	n

__BEGIN__	__EPS__
v	u
n	n
d	d

__BEGIN__	__EPS__
f	f
r	r
a	a
n	n
c	__EPS__
k	k
r	r
e	e
i	i
c	c
h	h

__BEGIN__	__EPS__
a	a
b	b
e	e
r	r

__BEGIN__	__EPS__
g	g
e	e
w	w
e	e
s	s
e	e
n	n

__BEGIN__	__EPS__
w	w
i	il
l	l

__BEGIN__	__EPS__
s	s
u	ü
s	ss
i	ig
k	k
e	e
i	i
t	t
h	__EPS__

__BEGIN__	__EPS__
m	m
i	eh
r	r

__BEGIN__	__EPS__
g	g
i	i
n	n
g	g
e	e
n	n

__BEGIN__	__EPS__
s	se
y	i
n	n
e	e
n	n

__BEGIN__	__EPS__
i	i
n	n

__BEGIN__	__EPS__
h	e
e	r

__BEGIN__	__EPS__
s	s
e	e
i	i
n	n
e	e
n	m

__BEGIN__	__EPS__
g	g
o	o
t	tt

__BEGIN__	__EPS__
a	a
l	l
s	s
o	o

__BEGIN__	__EPS__
i	ih
r	r

__BEGIN__	__EPS__
m	me
y	i
n	n
e	e
n	n

__BEGIN__	__EPS__
y	ih
m	m

__BEGIN__	__EPS__
b	b
a	a
r	__EPS__
t	t

__BEGIN__	__EPS__
c	__EPS__
z	z
u	o
g	g
e	e
n	n
n	__EPS__

__BEGIN__	__EPS__
s	__EPS__
u	a
n	l
d	l
e	e
r	in

__BEGIN__	__EPS__
m	m
i	i
r	r

__BEGIN__	__EPS__
v	u
n	n
n	d

__BEGIN__	__EPS__
m	me
y	i
n	n

__BEGIN__	__EPS__
l	l
e	e
b	b
e	e
n	n
d	d

__BEGIN__	__EPS__
h	__EPS__
e	e
r	r

__BEGIN__	__EPS__
k	k
r	r
o	o
v	__EPS__
n	ne

__BEGIN__	__EPS__
d	d
a	a

__BEGIN__	__EPS__
l	l
e	eh
r	re

__BEGIN__	__EPS__
h	h
a	a
i	be
n	n

__BEGIN__	__EPS__
d	d
a	a
t	s
t	s

__BEGIN__	__EPS__
s	s
p	p
r	r
a	a
c	c
h	h

__BEGIN__	__EPS__
d	d
o	o
c	c
h	h

__BEGIN__	__EPS__
s	s
y	ie

__BEGIN__	__EPS__
a	a
v	u
f	f

__BEGIN__	__EPS__
e	e
u	u
c	c
h	h

__BEGIN__	__EPS__
w	w
e	e
r	__EPS__
l	l
t	t

__BEGIN__	__EPS__
n	n
u	u
n	n

__BEGIN__	__EPS__
d	d
e	e
r	r

__BEGIN__	__EPS__
a	a
u	u
s	s
s	s
e	ä
t	t
z	z
i	i
g	g
e	e
n	n

__BEGIN__	__EPS__
f	f
l	l
u	o
c	c
h	h
t	t
e	e
n	n

__BEGIN__	__EPS__
d	d
a	a
z	ss

__BEGIN__	__EPS__
e	e
n	n
d	d
e	e

__BEGIN__	__EPS__
n	n
i	e
e	i
n	n

__BEGIN__	__EPS__
g	g
a	a
r	r

__BEGIN__	__EPS__
i	ih
m	m

__BEGIN__	__EPS__
e	e
s	s
s	s
i	i
g	g

__BEGIN__	__EPS__
v	u
n	n
d	d

__BEGIN__	__EPS__
d	d
a	a
s	s

__BEGIN__	__EPS__
d	d
i	i
e	e

__BEGIN__	__EPS__
h	h
e	a
s	s
t	t

__BEGIN__	__EPS__
v	v
a	a
t	t
e	e
r	r

__BEGIN__	__EPS__
s	s
e	ä
v	u
l	le

__BEGIN__	__EPS__
s	s
t	t
a	ad
t	t

__BEGIN__	__EPS__
v	u
n	n
s	s
c	c
h	h
u	u
l	l
d	d
i	i
g	g

__BEGIN__	m
n	itt
o	ags
n	z
e	eit

__BEGIN__	__EPS__
n	n
i	i
c	c
h	h
t	t

__BEGIN__	__EPS__
v	u
n	n
s	s

__BEGIN__	__EPS__
s	s
i	i
e	e

__BEGIN__	__EPS__
e	e
s	s
t	t

__BEGIN__	__EPS__
w	w
a	a
n	nn

__BEGIN__	__EPS__
z	z
u	u
s	s
a	a
m	mm
e	e
n	n

__BEGIN__	__EPS__
p	p
y	i
l	l
a	a
t	t
u	u
s	s

__BEGIN__	__EPS__
a	a
n	n

__BEGIN__	__EPS__
r	r
e	e
i	i
c	c
h	h

__BEGIN__	__EPS__
k	k
e	e
r	h
e	r
s	s
t	t

__BEGIN__	__EPS__
v	u
n	n
d	d

__BEGIN__	__EPS__
g	g
o	o
t	tt

__BEGIN__	__EPS__
f	f
u	ü
e	h
r	r
e	e
n	n

__BEGIN__	__EPS__
w	w
a	a
s	r

__BEGIN__	__EPS__
w	w
a	a
r	r
e	e
n	n

__BEGIN__	__EPS__
l	l
e	e
u	b
e	e
n	n

__BEGIN__	__EPS__
g	g
e	e
l	l
o	o
b	b
t	t

__BEGIN__	__EPS__
a	a
u	u
d	d
i	i

__BEGIN__	p
s	s
o	a
l	l
t	t
e	e
r	r

__BEGIN__	__EPS__
c	k
h	__EPS__
r	r
e	e
u	u
t	__EPS__
z	z

__BEGIN__	__EPS__
d	d
i	i
e	e

__BEGIN__	__EPS__
m	m
e	e
i	i
n	n

__BEGIN__	__EPS__
w	w
a	a
t	s

__BEGIN__	__EPS__
i	i
s	st

__BEGIN__	__EPS__
h	h
y	i
e	e
s	ss

__BEGIN__	__EPS__
v	v
i	ie
l	l

__BEGIN__	__EPS__
v	u
n	n
d	d

__BEGIN__	__EPS__
l	l
a	a
g	g

__BEGIN__	__EPS__
w	w
i	i
e	e

__BEGIN__	__EPS__
w	w
e	e
r	r

__BEGIN__	__EPS__
d	d
o	a

__BEGIN__	__EPS__
h	h
y	i
m	mm
e	e
l	l
s	s

__BEGIN__	__EPS__
t	__EPS__
z	z
o	u

__BEGIN__	__EPS__
h	h
a	a
b	b
e	e
n	n

__BEGIN__	__EPS__
v	a
f	u
f	f

__BEGIN__	__EPS__
q	k
u	__EPS__
a	a
m	m
e	e
n	n

__BEGIN__	__EPS__
s	s
e	e
i	i
n	n

__BEGIN__	__EPS__
i	j
h	es
-	u
m	s

__BEGIN__	__EPS__
n	n
a	a
c	c
h	h

__BEGIN__	__EPS__
w	w
i	i
l	l
l	l
e	e
n	n

__BEGIN__	__EPS__
e	e
r	r
u	f
o	ü
l	l
l	l
e	__EPS__
t	t

__BEGIN__	__EPS__
d	d
a	a
s	ss

__BEGIN__	__EPS__
s	s
y	ie

__BEGIN__	__EPS__
e	e
r	r
b	b
a	a
r	r
m	m
e	e
n	n
t	__EPS__

__BEGIN__	__EPS__
m	m
o	o
c	c
h	h
t	te

__BEGIN__	__EPS__
t	t
a	a
g	g

__BEGIN__	__EPS__
s	s
e	e
l	l
b	b
e	e
r	r

__BEGIN__	__EPS__
a	a
b	b
i	e
r	r

__BEGIN__	__EPS__
v	a
f	u
f	f

__BEGIN__	__EPS__
v	v
i	ie
l	l

__BEGIN__	__EPS__
g	g
u	u
t	t
e	e
s	s

__BEGIN__	__EPS__
a	a
n	n
s	s
e	e
l	l
m	m
u	__EPS__
s	__EPS__

__BEGIN__	__EPS__
a	a
b	b

__BEGIN__	__EPS__
d	d
y	ie

__BEGIN__	__EPS__
m	m
a	a
n	n

__BEGIN__	__EPS__
b	b
u	a
n	n
d	d
e	e
n	n

__BEGIN__	__EPS__
s	s
t	t
o	ö
z	s
z	s
e	e

__BEGIN__	__EPS__
d	d
e	e
r	r

__BEGIN__	__EPS__
v	a
s	u
s	s
g	g
e	e
f	f
u	ü
e	h
r	r
t	t

__BEGIN__	__EPS__
g	g
e	e
s	s
c	c
h	h
a	a
c	__EPS__
h	h

__BEGIN__	__EPS__
h	ha
u	u
s	s

__BEGIN__	__EPS__
a	a
l	l
s	s
o	o

__BEGIN__	__EPS__
s	s
e	e
i	i
n	n

__BEGIN__	__EPS__
c	__EPS__
h	k
l	l
a	e
y	i
d	d

__BEGIN__	__EPS__
i	ih
n	n

__BEGIN__	__EPS__
g	g
e	e
h	h
o	o
r	r
s	s
a	a
m	m
i	__EPS__

__BEGIN__	__EPS__
v	u
n	n
d	d

__BEGIN__	__EPS__
c	k
h	__EPS__
o	o
e	m
m	m

__BEGIN__	__EPS__
f	f
r	r
a	a
w	u
e	e
n	n

__BEGIN__	__EPS__
b	b
e	e
r	r
i	i
c	c
h	h
t	te

__BEGIN__	__EPS__
d	d
e	e
r	r

__BEGIN__	__EPS__
m	m
i	i
t	t

__BEGIN__	__EPS__
l	l
i	ie
b	b
e	e
n	n

__BEGIN__	__EPS__
i	i
c	c
h	h

__BEGIN__	__EPS__
s	s
y	ie

__BEGIN__	__EPS__
m	m
a	a
c	c
h	h
t	t

__BEGIN__	__EPS__
h	h
o	ö
r	r
t	t

__BEGIN__	__EPS__
m	m
e	e
y	i
n	n
i	e
s	s

__BEGIN__	__EPS__
v	f
r	r
a	a
e	__EPS__
g	g
e	e
n	n

__BEGIN__	__EPS__
s	s
c	c
h	h
r	r
e	e
y	i

__BEGIN__	__EPS__
k	k
i	i
n	n
t	d
h	__EPS__

__BEGIN__	__EPS__
w	w
a	a
z	s

__BEGIN__	__EPS__
a	a
n	n
d	d
e	e
r	r
s	s

__BEGIN__	__EPS__
g	g
a	ä
e	__EPS__
b	be

__BEGIN__	__EPS__
l	le
y	i
d	d
e	e
n	n

__BEGIN__	__EPS__
m	m
e	e
i	i
n	n
e	e
e	__EPS__
t	m

__BEGIN__	__EPS__
s	s
t	t
i	i
e	e
z	s
z	s

__BEGIN__	__EPS__
i	ih
m	m

__BEGIN__	__EPS__
e	e
r	r

__BEGIN__	__EPS__
d	d
i	i
c	c
h	h

__BEGIN__	__EPS__
d	d
a	a
s	ss

__BEGIN__	__EPS__
m	m
a	a
n	n

__BEGIN__	__EPS__
d	d
a	as
z	s

__BEGIN__	__EPS__
c	k
l	l
a	a
g	ge

__BEGIN__	__EPS__
d	d
e	e
s	s

__BEGIN__	__EPS__
d	d
u	u

__BEGIN__	__EPS__
s	s
p	p
r	r
a	a
c	c
h	h
e	__EPS__

__BEGIN__	__EPS__
v	u
m	m
b	__EPS__
f	f
a	an
h	g
e	e
n	n

__BEGIN__	__EPS__
a	a
n	n

__BEGIN__	__EPS__
m	m
i	i
r	r

__BEGIN__	__EPS__
u	a
f	u
f	f

__BEGIN__	__EPS__
m	m
i	i
t	t

__BEGIN__	__EPS__
b	b
i	i
n	n

__BEGIN__	__EPS__
i	u
n	n
d	d

__BEGIN__	__EPS__
d	d
i	i
e	e

__BEGIN__	__EPS__
a	a
r	r
m	m
e	e
n	n

__BEGIN__	__EPS__
b	b
e	e
d	d
e	e
c	c
k	k
e	__EPS__
n	t
d	__EPS__

__BEGIN__	__EPS__
d	d
e	e
r	r

__BEGIN__	__EPS__
k	k
o	o
m	mm
e	e
n	n
d	d
e	e

__BEGIN__	__EPS__
h	h
e	e
r	r
o	o
d	d
a	e
s	s

__BEGIN__	__EPS__
d	d
a	a
m	m
i	i
t	t

__BEGIN__	__EPS__
a	a
ü	u
c	c
h	h

__BEGIN__	__EPS__
m	m
i	i
r	r

__BEGIN__	__EPS__
i	i
n	n

__BEGIN__	__EPS__
s	s
y	ie

__BEGIN__	__EPS__
v	u
n	n
s	s

__BEGIN__	__EPS__
s	s
p	p
r	r
a	a
c	c
h	h

__BEGIN__	__EPS__
v	ü
b	b
e	e
r	r

__BEGIN__	__EPS__
d	d
o	a

__BEGIN__	__EPS__
s	s
c	c
h	h
a	a
f	f
f	__EPS__
t	t

__BEGIN__	__EPS__
l	l
e	e
i	i
n	n
e	e
i	__EPS__
n	n

__BEGIN__	__EPS__
m	m
a	a
n	nn

__BEGIN__	__EPS__
w	w
i	i
l	ll

__BEGIN__	__EPS__
d	d
e	e
s	s

__BEGIN__	__EPS__
v	u
n	n
g	g
e	__EPS__
l	l
i	e
j	i
c	c
h	h

__BEGIN__	__EPS__
h	e
e	r

__BEGIN__	__EPS__
m	me
y	i
m	n
e	em

__BEGIN__	__EPS__
s	se
y	i
n	n
e	e

__BEGIN__	__EPS__
h	h
e	e
r	r
c	__EPS__
z	z
e	e
n	__EPS__
l	l
a	e
i	i
d	d

__BEGIN__	__EPS__
d	d
i	i
c	c
h	h

__BEGIN__	__EPS__
m	m
u	u
n	n
t	d

__BEGIN__	__EPS__
g	g
r	r
a	a
b	b

__BEGIN__	__EPS__
c	k
l	l
a	a
g	g
e	e
n	n

__BEGIN__	__EPS__
s	se
i	i
n	n
e	e
r	r

__BEGIN__	__EPS__
w	w
a	a
n	n
n	n

__BEGIN__	__EPS__
v	u
n	n
d	d

__BEGIN__	__EPS__
k	k
i	i
n	n
t	d

__BEGIN__	__EPS__
e	e
r	r
l	l
i	it
d	t
e	e
n	n

__BEGIN__	__EPS__
d	d
a	a
z	s

__BEGIN__	__EPS__
i	i
c	c
h	h

__BEGIN__	__EPS__
s	s
p	p
r	r
a	a
c	c
h	h

__BEGIN__	__EPS__
g	g
e	e
h	h
o	ö
i	__EPS__
r	r
t	t

__BEGIN__	__EPS__
l	le
i	i
b	b

__BEGIN__	__EPS__
s	s
c	c
h	h
r	r
u	i
w	__EPS__
e	e
n	n
t	__EPS__

__BEGIN__	__EPS__
k	k
i	i
n	n
d	d
e	__EPS__

__BEGIN__	__EPS__
m	me
y	i
n	n

__BEGIN__	__EPS__
v	u
n	n
d	d

__BEGIN__	__EPS__
k	k
o	o
n	nn
t	te

__BEGIN__	__EPS__
v	u
n	n
d	d

__BEGIN__	__EPS__
z	z
u	u

__BEGIN__	__EPS__
w	w
o	ah
r	r

__BEGIN__	__EPS__
k	k
y	i
r	r
c	c
h	h
e	e
n	n

__BEGIN__	__EPS__
m	me
y	i
n	n
e	e
n	n

__BEGIN__	__EPS__
h	h
a	ä
n	n
g	g
e	e
n	n

__BEGIN__	__EPS__
a	a
u	u
f	f
f	__EPS__

__BEGIN__	__EPS__
c	__EPS__
z	z
a	e
r	rr
t	t
e	e

__BEGIN__	__EPS__
w	w
o	o
l	ll
t	t

__BEGIN__	__EPS__
a	a
n	n
t	t
l	l
u	i
c	t
z	z

__BEGIN__	__EPS__
s	s
a	a
c	__EPS__
h	h

__BEGIN__	__EPS__
l	l
e	e
i	i
p	b

__BEGIN__	__EPS__
i	i
c	c
h	h

__BEGIN__	__EPS__
d	d
y	ie

__BEGIN__	__EPS__
p	f
e	__EPS__
r	r
h	u
a	c
f	h
t	tb
i	a
g	r

__BEGIN__	__EPS__
h	h
e	e
r	r
z	z
i	__EPS__
c	__EPS__
l	l
i	i
c	c
h	h
e	__EPS__
n	__EPS__

__BEGIN__	__EPS__
z	z
e	u

__BEGIN__	__EPS__
k	k
l	l
a	a
g	ge

__BEGIN__	__EPS__
i	ih
n	n

__BEGIN__	__EPS__
h	h
e	e
r	r

__BEGIN__	__EPS__
m	m
i	i
t	t

__BEGIN__	__EPS__
m	m
e	e
i	i
n	n
e	e
m	m

__BEGIN__	__EPS__
d	d
e	e
i	i
n	n

__BEGIN__	__EPS__
h	h
o	ö
e	__EPS__
r	r
e	e

__BEGIN__	__EPS__
d	d
e	e
r	r

__BEGIN__	__EPS__
d	d
a	a
s	s

__BEGIN__	__EPS__
m	m
e	e
n	n
s	s
c	c
h	h
l	l
e	__EPS__
i	i
c	c
h	he
s	s

__BEGIN__	__EPS__
k	k
i	i
n	n
t	d

__BEGIN__	__EPS__
s	s
c	c
h	hr
i	i
r	__EPS__
e	e
n	n

__BEGIN__	__EPS__
m	m
e	e
i	i
n	n

__BEGIN__	__EPS__
o	a
u	u
c	c
h	h

__BEGIN__	__EPS__
e	e
r	r

__BEGIN__	__EPS__
w	w
e	e
m	m
e	__EPS__

__BEGIN__	__EPS__
d	d
a	a

__BEGIN__	__EPS__
s	s
u	u
c	c
h	h
t	t
e	e

__BEGIN__	__EPS__
d	d
e	e
r	r

__BEGIN__	__EPS__
d	d
e	e
n	n

__BEGIN__	__EPS__
s	se
y	i
n	n

__BEGIN__	__EPS__
w	w
e	e
r	r

__BEGIN__	__EPS__
c	k
l	l
e	e
y	i
d	d
e	e
r	r

__BEGIN__	__EPS__
s	s
y	ie

__BEGIN__	__EPS__
d	d
a	a
f	v
u	o
r	r
e	__EPS__

__BEGIN__	__EPS__
e	e
y	i
n	n

__BEGIN__	__EPS__
v	u
n	n
t	t
e	e
r	r

__BEGIN__	__EPS__
v	u
n	n
d	d
e	__EPS__

__BEGIN__	__EPS__
s	s
p	p
r	r
a	a
c	c
h	h

__BEGIN__	__EPS__
t	t
e	a
t	t
e	e
n	n

__BEGIN__	__EPS__
e	e
r	r

__BEGIN__	__EPS__
m	m
y	i
r	r

__BEGIN__	__EPS__
v	u
n	n
d	d

__BEGIN__	__EPS__
a	a
u	u
c	c
h	h

__BEGIN__	__EPS__
m	m
a	a
r	r
i	i
a	a

__BEGIN__	__EPS__
v	u
n	nd

__BEGIN__	__EPS__
a	a
l	l
s	s

__BEGIN__	__EPS__
v	u
n	n
d	d

__BEGIN__	__EPS__
d	d
o	a

__BEGIN__	__EPS__
z	z
u	u

__BEGIN__	__EPS__
u	u
n	n
d	d

__BEGIN__	__EPS__
s	s
o	o
l	ll
t	t

__BEGIN__	__EPS__
s	s
a	a
c	__EPS__
h	h

__BEGIN__	__EPS__
d	d
e	e
r	r

__BEGIN__	__EPS__
b	b
l	l
i	i
e	e
b	b
e	e
n	n

__BEGIN__	__EPS__
d	d
e	e
m	m

__BEGIN__	__EPS__
a	a
n	n

__BEGIN__	__EPS__
h	h
o	ö
e	__EPS__
r	r
e	e
n	n

__BEGIN__	__EPS__
p	b
i	i
s	s
t	t

__BEGIN__	__EPS__
m	m
e	e
n	n
s	s
c	c
h	h
e	e
n	n

__BEGIN__	__EPS__
a	a
l	l
l	l
e	e

__BEGIN__	__EPS__
e	e
s	s
t	t

__BEGIN__	__EPS__
i	ih
n	n

__BEGIN__	__EPS__
w	w
a	a
s	r

__BEGIN__	__EPS__
h	h
e	a
t	tt
e	e
n	n

__BEGIN__	__EPS__
l	l
e	e
u	u
i	__EPS__
t	t
e	e

__BEGIN__	__EPS__
v	u
n	n
d	d

__BEGIN__	__EPS__
m	me
i	i
n	n
e	e
n	m

__BEGIN__	__EPS__
y	ih
r	r
e	e
n	n

__BEGIN__	__EPS__
i	i
c	c
h	h

__BEGIN__	__EPS__
v	u
n	n
d	d

__BEGIN__	__EPS__
d	d
o	a

__BEGIN__	__EPS__
i	i
n	n

__BEGIN__	__EPS__
v	v
y	ie
l	l

__BEGIN__	__EPS__
i	i
n	n

__BEGIN__	__EPS__
b	b
e	e
s	s
t	t
a	a
i	__EPS__
t	t

__BEGIN__	__EPS__
s	s
a	e
y	i
l	l

__BEGIN__	__EPS__
v	v
e	e
r	r
s	s
t	t
o	o
c	c
k	k
t	t
e	e
n	n

__BEGIN__	__EPS__
m	m
e	e
i	i

__BEGIN__	__EPS__
m	m
a	a
l	l

__BEGIN__	__EPS__
a	a
n	n
s	s
e	e
c	__EPS__
h	he

__BEGIN__	__EPS__
a	a
l	l
l	l
e	e
r	r
l	l
i	i
e	e
b	b
s	s
t	t
e	e

__BEGIN__	__EPS__
k	k
i	i
n	n
d	d
e	e
r	r

__BEGIN__	__EPS__
a	a
l	l
l	l
e	e
r	r

__BEGIN__	__EPS__
s	s
i	i
t	t
z	z
e	e
n	n

__BEGIN__	__EPS__
d	d
u	ü
r	r
f	__EPS__
f	f
e	e

__BEGIN__	__EPS__
h	h
e	a
t	t

__BEGIN__	__EPS__
w	w
i	i
e	e

__BEGIN__	__EPS__
e	e
r	r

__BEGIN__	__EPS__
e	e
l	l
y	y
a	a
m	m

__BEGIN__	__EPS__
g	g
a	a
n	n
c	__EPS__
z	z
e	e
s	s

__BEGIN__	__EPS__
e	e
i	i
n	n

__BEGIN__	__EPS__
s	s
c	ch
a	a
r	r
p	f
e	e
r	r

__BEGIN__	__EPS__
v	u
n	n
d	d

__BEGIN__	__EPS__
g	g
o	ö
e	__EPS__
t	t
t	t
l	l
i	i
c	c
h	h
e	e
n	n

__BEGIN__	__EPS__
d	d
e	e
m	m

__BEGIN__	__EPS__
s	se
i	i
n	n

__BEGIN__	__EPS__
a	__EPS__
e	e
r	r
d	d
e	e

__BEGIN__	__EPS__
i	ih
m	m

__BEGIN__	__EPS__
d	d
a	a

__BEGIN__	__EPS__
v	u
n	n
d	d

__BEGIN__	__EPS__
e	e
s	s

__BEGIN__	__EPS__
a	a
l	l
s	s
o	o

__BEGIN__	__EPS__
w	w
i	i
e	e

__BEGIN__	__EPS__
t	d
u	u

__BEGIN__	__EPS__
d	d
a	a
i	__EPS__
r	r
u	u
m	m
b	__EPS__

__BEGIN__	__EPS__
e	e
r	r

__BEGIN__	__EPS__
w	w
u	o
r	r
d	d
e	e
n	n

__BEGIN__	__EPS__
w	w
a	a
z	s

__BEGIN__	__EPS__
a	a
b	b
e	e
r	r

__BEGIN__	__EPS__
l	l
e	e
n	n
d	d
t	en

__BEGIN__	__EPS__
a	a
n	n

__BEGIN__	__EPS__
g	g
r	r
o	o
z	ss

__BEGIN__	__EPS__
g	g
e	e
l	l
e	e
i	g
t	t

__BEGIN__	__EPS__
d	d
e	e
n	n

__BEGIN__	__EPS__
c	k
h	__EPS__
r	r
o	o
e	__EPS__
n	ne

__BEGIN__	__EPS__
g	g
r	r
o	o
z	s
z	s
e	e
m	m

__BEGIN__	__EPS__
d	d
i	i
e	e

__BEGIN__	__EPS__
t	t
o	o
t	d
e	e
s	s

__BEGIN__	ge
g	g
a	a
n	n
g	g
e	e
n	n

__BEGIN__	__EPS__
s	s
e	e
i	i
n	n

__BEGIN__	__EPS__
d	d
o	a

__BEGIN__	__EPS__
d	d
o	a

__BEGIN__	__EPS__
g	g
e	e
n	n
u	ü
g	g
t	t
e	e

__BEGIN__	__EPS__
d	d
r	re
y	i
h	h
u	u
n	n
d	d
e	e
r	r
t	t

__BEGIN__	__EPS__
d	d
e	e
m	m

__BEGIN__	__EPS__
w	w
e	ä
r	r
e	e

__BEGIN__	__EPS__
a	a
l	l
s	s

__BEGIN__	__EPS__
d	t
o	o
e	__EPS__
d	t
e	e

__BEGIN__	__EPS__
w	w
e	ah
r	r
l	l
i	i
c	c
h	h

__BEGIN__	__EPS__
c	k
h	ü
u	s
s	s
t	t

__BEGIN__	__EPS__
d	d
a	a
t	s
t	s

__BEGIN__	__EPS__
d	d
a	a
t	s

__BEGIN__	__EPS__
s	s
o	ol
l	l
t	te

__BEGIN__	__EPS__
i	i
c	c
h	h

__BEGIN__	__EPS__
d	d
i	i
e	e

__BEGIN__	__EPS__
g	g
e	e
w	w
a	a
l	l
t	t

__BEGIN__	__EPS__
f	f
u	u
o	h
r	r

__BEGIN__	__EPS__
v	u
n	n
d	d

__BEGIN__	__EPS__
t	t
y	i
t	t
u	u
s	s

__BEGIN__	__EPS__
v	u
n	n
d	d

__BEGIN__	__EPS__
s	s
o	o

__BEGIN__	__EPS__
g	g
a	a
l	l
l	l
v	e
n	n

__BEGIN__	__EPS__
m	m
e	a
n	nn
i	i
c	g
h	__EPS__
u	f
o	a
u	l
d	t
i	i
g	g
h	__EPS__
e	e

__BEGIN__	__EPS__
d	d
o	a

__BEGIN__	__EPS__
n	n
i	i
c	c
h	h
t	t

__BEGIN__	__EPS__
m	m
i	i
r	r

__BEGIN__	__EPS__
d	d
e	e
r	r

__BEGIN__	__EPS__
n	n
a	ah
m	m

__BEGIN__	__EPS__
i	j
e	e
r	r
u	u
s	s
a	a
l	l
e	e
e	m
t	__EPS__

__BEGIN__	__EPS__
s	s
e	e
i	i
s	s
t	t

__BEGIN__	__EPS__
a	a
u	u
s	s
z	__EPS__

__BEGIN__	__EPS__
h	h
o	ö
r	r
e	e

__BEGIN__	__EPS__
v	v
i	ie
l	l

__BEGIN__	__EPS__
s	s
c	o
h	l
o	__EPS__
l	l

__BEGIN__	__EPS__
g	g
e	e
s	s
e	eh
y	e
n	n

__BEGIN__	__EPS__
k	k
r	r
e	e
u	u
c	__EPS__
z	z

__BEGIN__	__EPS__
t	z
z	e
o	r
b	b
r	r
e	e
c	c
h	h
e	e
n	n

__BEGIN__	__EPS__
d	d
a	a

__BEGIN__	__EPS__
i	ih
n	n

__BEGIN__	__EPS__
h	h
a	a
u	u
s	s

__BEGIN__	__EPS__
h	h
e	e
r	r
t	__EPS__
z	z
e	__EPS__

__BEGIN__	__EPS__
d	d
o	a

__BEGIN__	__EPS__
j	j
e	e
r	r
u	u
s	s
a	a
l	l
e	e
m	m

__BEGIN__	__EPS__
j	j
e	ä
m	mm
e	e
r	r
l	l
i	i
c	c
h	h
e	e
n	n

__BEGIN__	__EPS__
d	d
o	a

__BEGIN__	__EPS__
i	ih
m	m

__BEGIN__	__EPS__
w	w
u	u
r	r
d	d
e	e

__BEGIN__	__EPS__
v	v
o	o
n	n

__BEGIN__	__EPS__
v	u
n	n
g	g
l	l
e	e
i	i
c	c
h	h

__BEGIN__	__EPS__
n	n
i	ich
t	t

__BEGIN__	__EPS__
d	d
e	e
r	r

__BEGIN__	__EPS__
h	h
o	ö
e	__EPS__
r	r
e	e

__BEGIN__	__EPS__
p	p
i	i
l	l
a	a
t	t
v	u
s	s

__BEGIN__	__EPS__
d	d
e	e
m	m

__BEGIN__	__EPS__
v	u
n	n
d	d

__BEGIN__	__EPS__
l	l
a	a
z	z
a	a
r	r
u	u
s	s

__BEGIN__	__EPS__
s	s
o	ol
l	l

__BEGIN__	__EPS__
d	d
i	i
e	e

__BEGIN__	__EPS__
s	s
p	p
r	r
a	a
c	c
h	h

__BEGIN__	__EPS__
c	__EPS__
z	z
u	u

__BEGIN__	__EPS__
m	m
i	i
t	t

__BEGIN__	__EPS__
i	j
o	o
s	s
e	e
p	f

__BEGIN__	__EPS__
m	m
a	a
r	r
i	i
a	a

__BEGIN__	__EPS__
g	g
r	r
o	o
s	s
z	s

__BEGIN__	__EPS__
s	s
p	p
r	r
a	a
c	c
h	h

__BEGIN__	__EPS__
o	o
b	b

__BEGIN__	__EPS__
d	d
e	e
m	m

__BEGIN__	__EPS__
d	d
i	i
s	e
s	s
e	e

__BEGIN__	__EPS__
f	f
r	r
o	e
e	u
d	de

__BEGIN__	__EPS__
d	d
e	e
m	m

__BEGIN__	__EPS__
g	g
o	o
t	tt

__BEGIN__	__EPS__
s	s
c	c
h	h
o	__EPS__
u	u
l	l
t	d

__BEGIN__	__EPS__
d	d
i	i
e	e

__BEGIN__	__EPS__
a	e
i	i
n	n

__BEGIN__	__EPS__
m	m
a	a
n	n

__BEGIN__	__EPS__
a	a
l	l
s	s
o	o

__BEGIN__	__EPS__
s	s
t	t
u	u
n	n
d	d
e	e

__BEGIN__	__EPS__
y	ih
m	m

__BEGIN__	__EPS__
w	w
a	ah
r	r
h	h
a	e
y	i
t	t

__BEGIN__	__EPS__
f	f
u	ü
o	l
l	l
t	t

__BEGIN__	__EPS__
s	s
t	t
a	at
t	t

__BEGIN__	__EPS__
g	g
a	a
n	n
c	__EPS__
z	z
e	e
r	r

__BEGIN__	__EPS__
s	s
i	ie

__BEGIN__	__EPS__
d	d
a	a
z	ss

__BEGIN__	__EPS__
m	m
i	i
e	__EPS__
r	r

__BEGIN__	__EPS__
d	d
i	i
e	e

__BEGIN__	__EPS__
v	u
n	n
d	d

__BEGIN__	__EPS__
g	g
a	eh
i	e
n	n

__BEGIN__	__EPS__
c	k
r	r
e	e
u	u
c	__EPS__
z	z

__BEGIN__	__EPS__
v	u
n	n
d	d

__BEGIN__	__EPS__
w	w
u	u
r	r
d	de

__BEGIN__	__EPS__
i	ih
m	m

__BEGIN__	__EPS__
d	d
a	a

__BEGIN__	__EPS__
h	h
i	i
e	e
z	s
z	s

__BEGIN__	__EPS__
m	m
i	i
t	t

__BEGIN__	__EPS__
h	h
e	a
t	t
t	t
e	e
n	n

__BEGIN__	__EPS__
v	u
n	n
d	d

__BEGIN__	__EPS__
c	k
o	o
n	nn
d	t
e	e
n	n

__BEGIN__	__EPS__
d	d
i	i
e	e

__BEGIN__	__EPS__
v	f
r	r
o	a
w	u
e	e
n	n

__BEGIN__	__EPS__
e	e
r	r

__BEGIN__	__EPS__
g	g
e	e
m	m
e	e
y	i
n	n
e	e

__BEGIN__	__EPS__
d	d
a	a

__BEGIN__	__EPS__
m	me
y	i
n	n

__BEGIN__	__EPS__
k	k
a	e
i	i
n	n
e	e
n	n

__BEGIN__	__EPS__
i	j
u	u
n	n
c	__EPS__
k	g
f	f
r	r
a	a
w	u

__BEGIN__	__EPS__
a	a
l	l
l	l
e	e

__BEGIN__	__EPS__
a	e
i	i
n	n
e	e
n	n

__BEGIN__	__EPS__
v	u
n	n
d	d

__BEGIN__	__EPS__
v	v
o	o
n	n

__BEGIN__	__EPS__
b	b
l	l
ü	u
t	t

__BEGIN__	__EPS__
a	a
l	l
l	l
e	e

__BEGIN__	__EPS__
d	d
a	a
e	n
r	a
n	c
a	h

__BEGIN__	__EPS__
w	w
o	o
r	r
t	t

__BEGIN__	__EPS__
i	i
c	c
h	h

__BEGIN__	__EPS__
a	a
r	r
m	m

__BEGIN__	__EPS__
h	h
e	ä
t	tte

__BEGIN__	__EPS__
z	z
u	u

__BEGIN__	__EPS__
v	v
i	i
l	e
l	l

__BEGIN__	__EPS__
d	d
e	e
m	m

__BEGIN__	__EPS__
i	j
a	am
m	m
e	e
r	r

__BEGIN__	__EPS__
i	i
c	c
h	h

__BEGIN__	__EPS__
a	a
n	n

__BEGIN__	__EPS__
e	e
i	i
n	n
e	e
n	n

__BEGIN__	__EPS__
s	s
p	p
r	r
a	a
c	c
h	h

__BEGIN__	__EPS__
e	e
r	r
s	s
c	c
h	h
r	r
a	e
c	c
h	k
t	t
e	e
n	n

__BEGIN__	__EPS__
m	m
a	a
n	n

__BEGIN__	__EPS__
f	f
u	ü
r	r
s	s
t	t
e	e
n	n

__BEGIN__	__EPS__
v	a
f	u
f	f

__BEGIN__	__EPS__
y	je
g	g
l	l
i	i
c	c
h	h
e	e
r	r

__BEGIN__	__EPS__
v	v
e	e
r	r
s	s
u	u
e	__EPS__
c	c
h	h
t	t

__BEGIN__	__EPS__
s	m
c	__EPS__
h	ö
a	r
c	__EPS__
h	d
e	e
r	r

__BEGIN__	__EPS__
m	m
a	a
r	__EPS__
r	r
i	i
a	a

__BEGIN__	__EPS__
i	j
o	o
h	h
a	a
n	n
n	n
e	e
m	s

__BEGIN__	__EPS__
l	l
o	o
c	c
u	u
s	s

__BEGIN__	__EPS__
d	d
e	e
r	r

__BEGIN__	__EPS__
g	g
o	o
t	t
t	t
e	e
s	s

__BEGIN__	__EPS__
t	d
u	u

__BEGIN__	__EPS__
m	m
u	u
o	s
s	s

__BEGIN__	__EPS__
v	u
n	n
d	d

__BEGIN__	__EPS__
d	d
e	e
m	m

__BEGIN__	__EPS__
s	r
c	__EPS__
h	__EPS__
a	ä
c	u
h	b
e	e
r	r
n	n

__BEGIN__	__EPS__
k	k
i	i
n	n
d	d

__BEGIN__	__EPS__
n	n
i	i
e	e

__BEGIN__	__EPS__
h	h
e	e
r	r
r	r
e	__EPS__

__BEGIN__	__EPS__
f	f
r	r
e	e
w	u
n	n
t	d

__BEGIN__	__EPS__
s	s
y	ie

__BEGIN__	__EPS__
s	s
e	e
i	i
n	n

__BEGIN__	__EPS__
v	v
o	o
n	n

__BEGIN__	__EPS__
v	f
a	a
l	l
s	sc
h	h
e	e
r	__EPS__

__BEGIN__	__EPS__
n	n
i	i
c	c
h	h
t	t

__BEGIN__	__EPS__
n	n
i	ich
t	t

__BEGIN__	__EPS__
s	s
o	o

__BEGIN__	__EPS__
b	b
l	l
i	i
j	__EPS__
n	n
t	d

__BEGIN__	__EPS__
f	f
r	r
o	a
w	u

__BEGIN__	__EPS__
s	s
i	i
j	e

__BEGIN__	__EPS__
k	k
r	r
o	o
n	ne

__BEGIN__	__EPS__
s	s
p	p
r	r
i	i
c	c
h	h
t	t

__BEGIN__	__EPS__
m	m
e	e
n	n
s	s
c	c
h	h
e	__EPS__

__BEGIN__	__EPS__
d	d
a	a
n	n
n	n

__BEGIN__	__EPS__
a	a
n	n

__BEGIN__	__EPS__
l	l
a	a
n	n
g	g
e	e
r	r

__BEGIN__	__EPS__
a	a
n	n

__BEGIN__	__EPS__
g	g
e	e
m	m
e	e
y	i
n	n

__BEGIN__	__EPS__
w	w
o	oh
l	l

__BEGIN__	__EPS__
e	e
i	i
n	n

__BEGIN__	__EPS__
f	f
u	üh
r	r
t	t
e	e
n	n

__BEGIN__	__EPS__
k	k
i	i
n	n
t	d

__BEGIN__	__EPS__
l	l
i	ie
b	b

__BEGIN__	__EPS__
d	d
e	e
s	s

__BEGIN__	__EPS__
d	d
r	r
e	e
y	i
e	e
r	r
l	l
a	e
y	i

__BEGIN__	__EPS__
a	a
l	l
l	l
e	e
n	n
t	t
h	h
a	a
l	l
b	b
e	e
n	n

__BEGIN__	__EPS__
z	z
c	__EPS__
u	u

__BEGIN__	__EPS__
d	d
e	e
r	r

__BEGIN__	__EPS__
a	a
l	l
l	l
e	e

__BEGIN__	__EPS__
v	u
n	n
u	v
e	e
r	r
s	s
e	eh
r	r
e	__EPS__
t	t

__BEGIN__	__EPS__
e	e
s	s

__BEGIN__	__EPS__
a	a
r	r
m	m

__BEGIN__	__EPS__
v	v
o	o
n	n

__BEGIN__	__EPS__
b	b
i	i
s	s

__BEGIN__	__EPS__
z	z
u	u

__BEGIN__	__EPS__
s	s
a	a
c	__EPS__
h	h
e	e
n	n

__BEGIN__	__EPS__
e	e
r	r

__BEGIN__	__EPS__
d	d
o	a

__BEGIN__	__EPS__
j	j
u	ü
n	n
g	g
e	e
r	r
e	__EPS__
n	n

__BEGIN__	__EPS__
v	v
a	o
n	n

__BEGIN__	__EPS__
a	a
p	b
g	g
r	r
ü	ü
n	n
d	d
e	e

__BEGIN__	__EPS__
s	s
v	ü
i	__EPS__
n	n
d	d
e	e

__BEGIN__	__EPS__
s	s
e	e
i	i
n	n

__BEGIN__	__EPS__
n	n
e	e
i	i
g	g
e	__EPS__
d	t
e	e

__BEGIN__	__EPS__
i	i
c	c
h	h

__BEGIN__	__EPS__
m	m
e	e
i	i
n	n
e	e
n	n

__BEGIN__	__EPS__
d	d
e	e
m	m

__BEGIN__	__EPS__
w	w
a	a
s	r

__BEGIN__	__EPS__
a	a
l	l
l	l

__BEGIN__	__EPS__
s	sch
w	w
e	e
i	i
c	g
h	e

__BEGIN__	__EPS__
v	v
o	o
l	ll

__BEGIN__	__EPS__
l	l
a	e
w	u
t	te

__BEGIN__	__EPS__
h	h
e	ä
t	t
t	t
e	e

__BEGIN__	__EPS__
a	a
n	n
s	s
e	eh
y	e
n	n

__BEGIN__	__EPS__
s	s
o	o
l	ll

__BEGIN__	__EPS__
d	d
e	e
s	s

__BEGIN__	__EPS__
m	z
i	ä
n	r
n	t
e	__EPS__
n	__EPS__
c	__EPS__
l	l
i	i
c	c
h	h

__BEGIN__	__EPS__
a	a
l	l
l	l
e	e
s	s

__BEGIN__	__EPS__
k	k
e	e
i	i
n	n
e	e
r	r

__BEGIN__	__EPS__
b	b
i	i
s	s

__BEGIN__	__EPS__
i	ih
r	r

__BEGIN__	__EPS__
e	e
r	r

__BEGIN__	__EPS__
d	d
e	e
r	r

__BEGIN__	__EPS__
a	a
n	n
g	g
e	e
s	s
e	e
h	h
e	e
n	n

__BEGIN__	__EPS__
m	m
y	i
r	r

__BEGIN__	__EPS__
s	s
o	o
e	h
n	n

__BEGIN__	__EPS__
u	u
n	n
s	s
e	e
r	r
n	n

__BEGIN__	__EPS__
l	l
a	e
i	i
d	d

__BEGIN__	__EPS__
d	d
y	ie

__BEGIN__	__EPS__
n	n
i	ich
t	t

__BEGIN__	__EPS__
w	w
i	i
e	e
d	d
e	e
r	r

__BEGIN__	__EPS__
c	k
r	r
e	e
ü	u
c	__EPS__
z	z
e	__EPS__

__BEGIN__	__EPS__
s	s
a	a
l	l
b	b
e	e
n	n

__BEGIN__	__EPS__
m	m
u	ü
s	s
s	s
e	e
n	n

__BEGIN__	__EPS__
v	u
n	n
d	d

__BEGIN__	__EPS__
d	d
e	e
n	n

__BEGIN__	__EPS__
m	m
e	e
i	i
n	n

__BEGIN__	__EPS__
a	a
l	l
s	s

__BEGIN__	__EPS__
g	g
e	e
c	k
r	r
e	ä
g	h
e	__EPS__
t	t

__BEGIN__	__EPS__
m	m
i	i
t	t

__BEGIN__	__EPS__
b	b
e	e
r	r
e	e
i	i
t	t
e	e
n	n

__BEGIN__	__EPS__
v	f
a	a
l	l
s	s
c	c
h	h
e	e

__BEGIN__	__EPS__
d	d
a	a
z	ss

__BEGIN__	__EPS__
d	d
e	e
r	r

__BEGIN__	__EPS__
t	t
o	o
t	d

__BEGIN__	__EPS__
i	j
o	o
h	h
a	a
n	n
n	n
e	e
s	s
z	__EPS__

__BEGIN__	__EPS__
e	ehe
r	r

__BEGIN__	__EPS__
d	d
a	e
n	n
n	n
o	o
c	c
h	h

__BEGIN__	__EPS__
i	i
c	c
h	h

__BEGIN__	__EPS__
p	b
i	i
s	s
t	t

__BEGIN__	__EPS__
e	e
i	i
n	n
e	e
m	m

__BEGIN__	__EPS__
e	e
x	x

__BEGIN__	__EPS__
g	g
e	e
z	z
e	äh
l	l
t	t

__BEGIN__	__EPS__
l	la
ü	u
t	t
e	e
r	r

__BEGIN__	__EPS__
v	u
n	n
d	d

__BEGIN__	__EPS__
i	i
c	c
h	h

__BEGIN__	__EPS__
h	h
a	a
i	__EPS__
t	t

__BEGIN__	__EPS__
i	e
r	r
m	m
a	ah
n	n
e	__EPS__
t	t

__BEGIN__	__EPS__
k	k
a	e
i	i
n	n

__BEGIN__	__EPS__
d	d
e	e
i	i
n	n
e	e
r	r

__BEGIN__	__EPS__
m	m
a	a
n	n

__BEGIN__	__EPS__
s	s
a	a
n	nk
t	t

__BEGIN__	__EPS__
v	v
o	o
n	n

__BEGIN__	__EPS__
r	r
e	e
c	c
h	h
t	t
e	e
r	r

__BEGIN__	__EPS__
v	u
n	n
d	d

__BEGIN__	__EPS__
a	a
n	n

__BEGIN__	__EPS__
m	m
i	i
r	r

__BEGIN__	__EPS__
s	sch
w	w
e	e
s	s
t	t
e	e
r	r

__BEGIN__	__EPS__
n	n
a	a
c	c
h	h

__BEGIN__	__EPS__
f	f
v	ü
i	__EPS__
r	r

__BEGIN__	__EPS__
b	b
e	e
h	h
u	ü
o	__EPS__
t	t
e	e
n	n

__BEGIN__	__EPS__
v	v
e	e
r	r
s	s
e	eh
r	r
t	t
e	e
n	n

__BEGIN__	__EPS__
g	g
e	e
s	s
a	a
n	nd
t	t

__BEGIN__	__EPS__
b	b
e	e
g	g
r	r
u	ü
e	__EPS__
b	be

__BEGIN__	__EPS__
m	m
i	i
t	t

__BEGIN__	__EPS__
v	u
m	m
b	__EPS__
h	h
a	a
n	n
c	__EPS__
k	g

__BEGIN__	__EPS__
w	w
a	a
s	r

__BEGIN__	__EPS__
d	di
e	e
s	s
e	e
n	n

__BEGIN__	__EPS__
g	g
a	a
l	l
g	g
e	en

__BEGIN__	__EPS__
z	z
a	a
r	r
t	t
e	e
r	r

__BEGIN__	__EPS__
v	u
i	__EPS__
n	n
s	s
e	e
r	re
s	s

__BEGIN__	__EPS__
g	g
i	i
e	__EPS__
n	n
g	g

__BEGIN__	__EPS__
f	f
r	r
e	e
w	u
n	n
t	d

__BEGIN__	__EPS__
t	zu

__BEGIN__	__EPS__
s	s
p	p
r	r
a	a
c	c
h	h

__BEGIN__	__EPS__
d	d
i	i
r	r

__BEGIN__	__EPS__
d	d
a	a

__BEGIN__	__EPS__
m	m
o	o
c	c
h	h
t	te

__BEGIN__	__EPS__
k	k
i	i
n	n
d	d
e	__EPS__

__BEGIN__	__EPS__
s	s
c	c
h	h
r	r
u	i
w	__EPS__
e	e
n	n
t	__EPS__

__BEGIN__	__EPS__
d	d
a	a
z	s

__BEGIN__	__EPS__
s	s
t	t
a	e
i	i
n	n

__BEGIN__	__EPS__
n	n
e	eh
m	m
i	__EPS__
t	t

__BEGIN__	__EPS__
m	m
e	e
i	i
n	n

__BEGIN__	__EPS__
w	w
y	i
r	r

__BEGIN__	__EPS__
i	i
c	c
h	h

__BEGIN__	__EPS__
d	d
e	e
r	r

__BEGIN__	__EPS__
v	v
o	o
n	n

__BEGIN__	__EPS__
s	s
o	ol
l	l

__BEGIN__	__EPS__
s	s
i	e
j	i
n	n

__BEGIN__	__EPS__
p	b
r	r
o	a
c	c
h	h
t	te

__BEGIN__	__EPS__
v	f
o	ü
e	__EPS__
r	r
w	w
a	a
e	h
r	r

__BEGIN__	__EPS__
e	e
i	i
n	n

__BEGIN__	__EPS__
e	e
r	r

__BEGIN__	__EPS__
m	me
i	i
n	n
e	e
s	s

__BEGIN__	__EPS__
c	k
h	__EPS__
r	r
e	e
w	u
c	z
z	e

__BEGIN__	__EPS__
a	a
n	n

__BEGIN__	__EPS__
d	d
i	i
e	e

__BEGIN__	__EPS__
g	g
r	r
o	o
s	s
z	s

__BEGIN__	__EPS__
s	s
t	t
i	i
l	l
l	l
e	e

__BEGIN__	__EPS__
c	__EPS__
h	k
o	o
m	mme

__BEGIN__	__EPS__
d	d
o	a

__BEGIN__	__EPS__
a	a
n	n
t	t
l	l
v	__EPS__
i	i
t	t
e	z

__BEGIN__	__EPS__
v	u
n	n
d	d

__BEGIN__	__EPS__
s	s
i	ie

__BEGIN__	__EPS__
c	__EPS__
z	z
u	u

__BEGIN__	__EPS__
v	u
n	n
d	d

__BEGIN__	__EPS__
v	v
e	e
r	r
n	n
o	o
m	mm
e	e
n	n

__BEGIN__	__EPS__
v	u
n	n
d	d

__BEGIN__	__EPS__
e	e
r	r
h	h
i	i
n	n
g	g

__BEGIN__	__EPS__
s	s
e	e
i	i
n	n
e	e
m	m

__BEGIN__	__EPS__
a	a
l	l
l	l
e	e
r	r

__BEGIN__	__EPS__
p	b
a	a
t	t

__BEGIN__	__EPS__
z	z
e	ur

__BEGIN__	__EPS__
n	n
i	ic
e	h
t	t

__BEGIN__	__EPS__
v	u
n	n
d	d

__BEGIN__	__EPS__
k	k
i	i
n	n
t	d

__BEGIN__	__EPS__
d	d
e	e
r	r

__BEGIN__	__EPS__
d	d
a	a
s	s

__BEGIN__	__EPS__
a	a
l	l
l	l
e	e
r	r

__BEGIN__	__EPS__
v	v
o	o
n	n

__BEGIN__	__EPS__
w	w
e	e
r	__EPS__
l	l
t	t

__BEGIN__	d
u	u

__BEGIN__	__EPS__
v	u
n	n
d	d

__BEGIN__	__EPS__
d	d
i	i
e	e

__BEGIN__	__EPS__
w	w
o	o
l	ll
t	te

__BEGIN__	__EPS__
g	g
r	r
a	a
b	b

__BEGIN__	__EPS__
d	d
e	e
n	n

__BEGIN__	__EPS__
o	o
d	d
e	e
r	r

__BEGIN__	__EPS__
d	d
a	a
z	ss

__BEGIN__	__EPS__
g	g
e	e
r	r
i	ic
h	h
t	t
e	e
t	t

__BEGIN__	__EPS__
f	f
u	ü
e	__EPS__
z	s
z	s
e	e

__BEGIN__	__EPS__
w	w
e	e
r	__EPS__
l	l
t	t

__BEGIN__	__EPS__
n	n
a	ah
m	m
e	e
n	n

__BEGIN__	__EPS__
s	s
y	ie

__BEGIN__	__EPS__
i	j
u	u
d	d
e	e
n	n

__BEGIN__	__EPS__
s	s
t	t
i	i
m	mme

__BEGIN__	__EPS__
k	k
r	r
e	e
a	a
t	t
u	u
r	r

__BEGIN__	__EPS__
l	l
e	e
i	i
b	b

__BEGIN__	__EPS__
d	d
o	a

__BEGIN__	__EPS__
n	n
i	i
c	c
h	h
t	t

__BEGIN__	__EPS__
s	s
y	i
m	m
o	o
n	n

__BEGIN__	__EPS__
h	h
e	a
t	t
t	te

__BEGIN__	__EPS__
d	d
i	ie

__BEGIN__	__EPS__
v	v
a	a
t	t
e	e
r	r

__BEGIN__	__EPS__
l	l
i	i
e	e
p	be

__BEGIN__	__EPS__
s	s
p	p
r	r
a	a
c	c
h	h

__BEGIN__	__EPS__
d	d
y	ie

__BEGIN__	__EPS__
s	s
y	ie

__BEGIN__	__EPS__
i	i
c	c
h	h

__BEGIN__	__EPS__
c	__EPS__
z	z
w	u

__BEGIN__	__EPS__
s	s
p	p
r	r
e	e
c	c
h	h
e	e
n	n

__BEGIN__	__EPS__
i	i
c	c
h	h

__BEGIN__	__EPS__
a	a
l	l
l	l
e	e
y	i
n	n
e	__EPS__

__BEGIN__	__EPS__
d	d
a	a
t	ss

__BEGIN__	__EPS__
v	u
n	n
d	d

__BEGIN__	__EPS__
m	m
u	u
t	tt
e	e
r	r

__BEGIN__	__EPS__
w	w
i	i
l	l
l	l
e	e

__BEGIN__	d
u	u

__BEGIN__	__EPS__
z	z
e	u

__BEGIN__	__EPS__
k	k
a	a
m	m

__BEGIN__	__EPS__
i	i
n	ch

__BEGIN__	__EPS__
i	ih
m	m

__BEGIN__	__EPS__
d	d
o	a

__BEGIN__	__EPS__
d	d
i	i
e	e

__BEGIN__	__EPS__
d	d
a	a
s	s

__BEGIN__	__EPS__
d	d
e	e
r	r

__BEGIN__	__EPS__
s	se
i	i
n	n

__BEGIN__	__EPS__
c	k
h	__EPS__
i	i
n	n
t	d

__BEGIN__	__EPS__
k	k
u	ö
n	n
i	i
g	g

__BEGIN__	__EPS__
v	v
e	e
r	r
l	l
o	e
g	u
e	g
n	ne
t	t

__BEGIN__	__EPS__
v	u
n	n
d	d

__BEGIN__	__EPS__
m	me
y	i
n	n

__BEGIN__	__EPS__
y	ih
n	n

__BEGIN__	__EPS__
w	w
a	a
s	r

__BEGIN__	__EPS__
s	s
o	o

__BEGIN__	__EPS__
i	ih
n	n

__BEGIN__	__EPS__
l	l
a	ass

__BEGIN__	__EPS__
i	ih
n	n

__BEGIN__	__EPS__
v	u
n	n
d	d

__BEGIN__	__EPS__
d	d
y	i
e	e

__BEGIN__	__EPS__
z	z
u	u

__BEGIN__	__EPS__
m	m
i	i
t	t

__BEGIN__	__EPS__
v	u
n	n
d	d

__BEGIN__	__EPS__
a	a
n	n

__BEGIN__	__EPS__
a	a
b	b

__BEGIN__	__EPS__
h	h
e	e
r	r

__BEGIN__	__EPS__
c	__EPS__
z	z
e	e
c	__EPS__
h	h
e	__EPS__
n	n

__BEGIN__	__EPS__
e	e
r	r

__BEGIN__	__EPS__
d	d
a	a

__BEGIN__	__EPS__
v	f
i	i
n	n
d	d
e	e

__BEGIN__	__EPS__
h	h
i	i
e	e
z	s
z	s

__BEGIN__	__EPS__
w	w
a	a
z	r

__BEGIN__	__EPS__
ü	a
s	u
z	s
g	__EPS__
e	__EPS__
f	f
l	l
i	i
e	e
s	s
z	s
e	e
n	n

__BEGIN__	__EPS__
w	w
i	i
e	e

__BEGIN__	__EPS__
s	s
i	i
c	c
h	h

__BEGIN__	__EPS__
n	n
ü	un

__BEGIN__	__EPS__
a	e
i	i
n	n

__BEGIN__	__EPS__
c	k
h	__EPS__
l	l
a	a
g	g
t	t
e	e
n	n

__BEGIN__	__EPS__
a	a
l	l
l	l
e	e
m	m

__BEGIN__	__EPS__
v	v
a	a
d	t
e	e
r	r

__BEGIN__	__EPS__
y	ih
m	m

__BEGIN__	__EPS__
g	g
o	o
t	tt

__BEGIN__	__EPS__
d	d
a	as
z	s

__BEGIN__	__EPS__
o	au
g	g
e	e
n	n
b	b
l	l
i	ic
k	k
e	__EPS__

__BEGIN__	__EPS__
w	w
u	u
r	r
d	de

__BEGIN__	__EPS__
s	s
c	c
h	h
l	l
e	ä
g	ge

__BEGIN__	__EPS__
e	e
t	t
w	w
a	a
z	s

__BEGIN__	__EPS__
s	s
y	ie

__BEGIN__	__EPS__
h	h
e	e
r	r
c	__EPS__
z	z
e	e
n	n

__BEGIN__	__EPS__
a	a
n	n

__BEGIN__	__EPS__
t	t
a	a
t	t
t	__EPS__
e	e
n	n
d	__EPS__

__BEGIN__	__EPS__
v	u
m	m
b	__EPS__

__BEGIN__	__EPS__
i	ih
n	n

__BEGIN__	__EPS__
l	l
a	a
g	g

__BEGIN__	__EPS__
h	h
e	e
r	r
e	r
n	n

__BEGIN__	__EPS__
v	b
n	i
c	__EPS__
z	s

__BEGIN__	__EPS__
y	ih
m	m

__BEGIN__	__EPS__
s	s
e	e
l	l
b	b
e	e
n	n

__BEGIN__	__EPS__
s	s
p	p
r	r
a	a
c	c
h	h

__BEGIN__	__EPS__
s	s
a	a
g	g
e	e

__BEGIN__	__EPS__
l	le
u	u
d	t
e	e

__BEGIN__	__EPS__
e	e
i	i
n	n

__BEGIN__	__EPS__
e	e
i	i
n	n

__BEGIN__	__EPS__
e	e
r	r
f	f
u	ü
e	l
l	l
t	t

__BEGIN__	__EPS__
v	u
n	n
d	d

__BEGIN__	__EPS__
b	b
y	i
n	n

__BEGIN__	__EPS__
d	d
y	ie

__BEGIN__	__EPS__
a	a
l	l
l	l
e	e
s	s

__BEGIN__	__EPS__
n	n
u	u
e	n

__BEGIN__	__EPS__
w	w
a	a
n	n
n	n

__BEGIN__	__EPS__
g	__EPS__
e	__EPS__
k	k
r	re
u	u
c	__EPS__
z	z
i	i
g	g
t	t
e	e
n	n

__BEGIN__	__EPS__
a	a
c	c
h	h

__BEGIN__	__EPS__
d	d
e	e
m	m

__BEGIN__	__EPS__
m	me
y	i
n	n
e	e
n	n

__BEGIN__	__EPS__
i	i
n	n

__BEGIN__	__EPS__
g	g
a	a
l	l
i	i
l	l
e	e
a	a

__BEGIN__	__EPS__
m	m
e	e
n	n
i	__EPS__
c	g
h	__EPS__
t	__EPS__
e	e

__BEGIN__	__EPS__
n	n
a	e
y	i
g	g
t	t

__BEGIN__	__EPS__
d	d
e	e
m	m

__BEGIN__	__EPS__
k	k
i	i
n	n
d	d
e	__EPS__

__BEGIN__	__EPS__
a	a
l	l
l	l

__BEGIN__	__EPS__
a	e
i	i
n	n
e	e
r	r

__BEGIN__	__EPS__
s	s
y	ie

__BEGIN__	__EPS__
z	z
a	a
r	r
t	t
e	e
s	s

__BEGIN__	__EPS__
i	ih
n	n

__BEGIN__	__EPS__
a	a
n	n
s	s
e	e
l	l
m	m
e	__EPS__

__BEGIN__	__EPS__
v	u
n	n
d	d

__BEGIN__	__EPS__
g	g
e	__EPS__
l	l
a	a
w	u
b	b
e	e
n	n

__BEGIN__	__EPS__
b	b
e	e
u	f
e	eh
l	l
e	e

__BEGIN__	__EPS__
d	d
o	a

__BEGIN__	__EPS__
m	m
a	a
r	r
t	t
e	e
r	r

__BEGIN__	__EPS__
m	m
i	i
t	t

__BEGIN__	__EPS__
r	r
e	e
c	c
h	h
t	t
e	e
n	n

__BEGIN__	__EPS__
d	d
y	ie

__BEGIN__	__EPS__
d	d
i	i
e	e

__BEGIN__	__EPS__
w	w
a	o
i	h
l	l
l	__EPS__

__BEGIN__	__EPS__
s	s
p	p
r	r
a	a
c	c
h	h

__BEGIN__	__EPS__
w	w
a	a
s	r

__BEGIN__	__EPS__
s	se
i	i
n	n
e	e
m	m

__BEGIN__	__EPS__
d	d
e	e
n	n

__BEGIN__	__EPS__
d	d
e	e
r	r

__BEGIN__	__EPS__
v	u
n	n
d	d

__BEGIN__	__EPS__
y	ih
m	m

__BEGIN__	__EPS__
d	d
e	e
m	m

__BEGIN__	__EPS__
i	u
n	n
d	d

__BEGIN__	__EPS__
v	u
n	n
d	d

__BEGIN__	__EPS__
s	se
y	i
n	n

__BEGIN__	__EPS__
e	e
i	i
n	n

__BEGIN__	__EPS__
n	n
o	e
e	n
m	n
e	e
n	n

__BEGIN__	__EPS__
m	m
o	o
c	c
h	h
t	t
e	e
n	n

__BEGIN__	__EPS__
n	n
y	i
e	e

__BEGIN__	__EPS__
f	f
u	u
o	h
r	r

__BEGIN__	__EPS__
o	o
w	w
e	eh

__BEGIN__	__EPS__
c	c
e	e
n	n
t	t
ü	u
r	r
i	i
o	o

__BEGIN__	__EPS__
o	o
w	w
e	eh

__BEGIN__	__EPS__
w	w
u	u
n	n
d	d
e	e

__BEGIN__	__EPS__
r	r
i	a
c	__EPS__
h	__EPS__
t	t
h	ha
u	u
s	s
z	__EPS__

__BEGIN__	__EPS__
s	s
i	i
c	c
h	h

__BEGIN__	__EPS__
w	p
i	r
s	o
s	ph
a	e
g	t

__BEGIN__	__EPS__
o	o
b	b

__BEGIN__	__EPS__
f	f
r	r
o	a
w	u
e	e
n	n

__BEGIN__	__EPS__
a	a
l	l
s	s
o	o

__BEGIN__	__EPS__
h	h
a	a
w	u
b	p
t	t

__BEGIN__	__EPS__
l	l
e	e
i	i
d	de

__BEGIN__	__EPS__
s	s
t	t
i	i
m	mme

__BEGIN__	__EPS__
d	d
i	i
e	e

__BEGIN__	__EPS__
e	e
w	v
a	a
n	n
g	ge
l	l
i	i
s	s
t	t
a	__EPS__

__BEGIN__	__EPS__
h	h
a	abe
n	n

__BEGIN__	__EPS__
i	i
c	c
h	h

__BEGIN__	__EPS__
g	e
e	rk
a	e
h	n
t	n
o	e
n	n

__BEGIN__	__EPS__
g	g
r	r
e	e
i	i
f	f
f	__EPS__
i	__EPS__
t	t

