__BEGIN__	__EPS__
s	s
c	ch
a	ä
n	n
d	d
e	__EPS__
l	l
i	i
k	ch
e	e
r	r

__BEGIN__	__EPS__
d	d
y	ie

__BEGIN__	__EPS__
c	__EPS__
z	z
w	u

__BEGIN__	__EPS__
h	h
e	__EPS__
b	a
b	b
e	e
n	n

__BEGIN__	__EPS__
b	b
l	l
v	u
o	__EPS__
t	t

__BEGIN__	__EPS__
c	__EPS__
z	z
ü	u

__BEGIN__	__EPS__
s	s
p	p
r	r
a	a
c	c
h	h

__BEGIN__	__EPS__
l	l
i	i
e	e
u	b
e	e

__BEGIN__	__EPS__
w	w
i	i
r	r

__BEGIN__	__EPS__
r	r
e	e
c	c
h	h
t	t

__BEGIN__	__EPS__
s	s
v	i
i	e

__BEGIN__	__EPS__
i	i
c	c
h	h

__BEGIN__	__EPS__
a	a
l	ll

__BEGIN__	__EPS__
d	d
a	a
r	__EPS__
n	n
a	a
c	c
h	h

__BEGIN__	__EPS__
m	m
a	a
g	g

__BEGIN__	__EPS__
d	d
i	i
e	e

__BEGIN__	__EPS__
e	e
r	r

__BEGIN__	__EPS__
g	g
e	e
g	g
e	e
b	b
e	e
n	n

__BEGIN__	__EPS__
g	g
a	a
r	r

__BEGIN__	__EPS__
y	ih
m	m

__BEGIN__	__EPS__
k	k
r	r
a	a
n	n
c	k
h	__EPS__
e	e
n	n

__BEGIN__	__EPS__
d	d
e	e
n	n
n	n
o	o
c	c
h	h

__BEGIN__	__EPS__
e	e
n	n
g	g
e	e
l	l

__BEGIN__	__EPS__
g	g
r	r
a	a
u	b
e	e
n	n

__BEGIN__	__EPS__
h	h
e	a
t	tte

__BEGIN__	__EPS__
s	sch
l	l
o	o
s	s
s	s
e	e
n	n

__BEGIN__	__EPS__
y	i
m	h
e	m

__BEGIN__	__EPS__
d	d
a	a
s	s

__BEGIN__	__EPS__
k	k
i	i
n	n
d	d

__BEGIN__	__EPS__
s	s
e	e
i	i
n	n

__BEGIN__	__EPS__
i	i
m	h
e	m

__BEGIN__	__EPS__
g	g
e	e
s	s
c	c
h	h
a	a
c	__EPS__
h	h

__BEGIN__	__EPS__
g	g
a	a
n	n
c	__EPS__
z	z
e	e
s	s

__BEGIN__	__EPS__
g	g
e	e
b	b
o	o
r	r
e	e
n	n

__BEGIN__	__EPS__
w	w
a	a
r	r
t	d

__BEGIN__	__EPS__
g	g
a	a
l	l
e	i
l	le
a	a

__BEGIN__	__EPS__
a	a
l	l
l	l
e	e

__BEGIN__	__EPS__
e	e
r	r

__BEGIN__	__EPS__
i	i
c	c
h	h

__BEGIN__	__EPS__
g	g
r	r
o	o
i	__EPS__
s	s
s	s
e	e
n	n

__BEGIN__	__EPS__
h	h
e	a
t	t

__BEGIN__	__EPS__
g	__EPS__
e	__EPS__
h	h
e	e
l	l
f	f
f	__EPS__
e	e
n	n

__BEGIN__	__EPS__
d	d
e	e
r	r

__BEGIN__	__EPS__
d	d
a	a
s	ss

__BEGIN__	__EPS__
e	e
i	i
n	n

__BEGIN__	__EPS__
a	e
i	i
n	n

__BEGIN__	__EPS__
c	k
o	o
l	l
u	u
n	m
p	__EPS__
n	n
e	e

__BEGIN__	__EPS__
d	d
a	a

__BEGIN__	__EPS__
m	m
a	a
r	r
i	i
a	a

__BEGIN__	__EPS__
h	h
a	a
s	s
t	t

__BEGIN__	__EPS__
w	w
o	ol
l	l
d	t
e	e

__BEGIN__	__EPS__
v	v
o	o
n	n

__BEGIN__	__EPS__
l	l
i	ie
b	b
e	e
r	r

__BEGIN__	__EPS__
v	u
n	n
d	d

__BEGIN__	__EPS__
v	u
n	n
d	d

__BEGIN__	__EPS__
g	g
e	e
l	lb

__BEGIN__	__EPS__
a	a
n	n
s	s
h	__EPS__
e	e
l	l
m	m

__BEGIN__	__EPS__
s	s
t	t
r	r
i	i
g	c
k	k

__BEGIN__	__EPS__
f	f
u	u
s	s
z	s

__BEGIN__	__EPS__
n	n
u	un

__BEGIN__	__EPS__
m	m
e	e
i	i
n	n
e	e
n	n

__BEGIN__	__EPS__
k	k
i	i
n	n
d	d

__BEGIN__	__EPS__
g	g
e	e
k	k
u	ü
e	s
s	s
t	t

__BEGIN__	__EPS__
s	se
i	i
n	n
e	e

__BEGIN__	__EPS__
i	i
c	c
h	h

__BEGIN__	__EPS__
v	u
n	n
d	d

__BEGIN__	__EPS__
v	u
n	n
s	s
c	c
h	h
u	u
l	l
d	d
i	i
g	g
i	e
n	n

__BEGIN__	__EPS__
w	w
a	ä
r	re

__BEGIN__	__EPS__
n	n
o	o
t	t

__BEGIN__	__EPS__
d	d
i	i
e	e

__BEGIN__	__EPS__
b	b
u	a
n	n
d	d
e	e
n	n

__BEGIN__	__EPS__
v	v
o	o
n	n

__BEGIN__	__EPS__
b	b
e	e
r	r
g	g
e	e
n	n

__BEGIN__	__EPS__
h	h
e	ä
t	t
t	t
e	e
n	n

__BEGIN__	__EPS__
v	v
a	o
n	n

__BEGIN__	__EPS__
o	o
s	s
t	t
e	e
r	r
t	t
a	a
g	g

__BEGIN__	__EPS__
s	s
y	ie

__BEGIN__	__EPS__
s	s
e	e
i	i
n	n
e	e
n	n

__BEGIN__	__EPS__
d	d
a	a
z	ss

__BEGIN__	__EPS__
n	n
y	i
m	mm

__BEGIN__	__EPS__
d	d
w	u

__BEGIN__	__EPS__
k	k
i	i
n	n
t	d

__BEGIN__	__EPS__
i	i
c	c
h	h

__BEGIN__	__EPS__
w	w
a	a
s	r

__BEGIN__	__EPS__
s	s
o	o
n	h
e	n

__BEGIN__	__EPS__
n	n
ü	u
n	n

__BEGIN__	__EPS__
d	d
a	a

__BEGIN__	__EPS__
d	d
i	i
e	e

__BEGIN__	__EPS__
s	s
p	p
r	r
a	a
c	c
h	h

__BEGIN__	__EPS__
a	a
n	n

__BEGIN__	__EPS__
m	m
a	a
r	r
i	i
a	a

__BEGIN__	__EPS__
k	k
r	r
a	a
n	n
g	__EPS__
k	k
h	h
e	e
i	i
t	t

__BEGIN__	__EPS__
c	k
h	__EPS__
i	i
n	n
d	d
e	e
s	s

__BEGIN__	__EPS__
e	e
r	r

__BEGIN__	__EPS__
g	g
o	ot
t	t

__BEGIN__	__EPS__
h	h
e	a
t	t

__BEGIN__	__EPS__
w	w
o	ol
l	l
t	t

__BEGIN__	__EPS__
d	d
e	e
n	n

__BEGIN__	__EPS__
b	b
e	l
l	e
i	i
b	b
e	e
n	n

__BEGIN__	__EPS__
v	u
n	n
d	d

__BEGIN__	__EPS__
l	l
i	i
e	e
b	b
i	e

__BEGIN__	__EPS__
l	l
e	e
i	i
t	d

__BEGIN__	__EPS__
i	e
d	__EPS__
t	s

__BEGIN__	__EPS__
l	l
e	e
i	i
b	b
e	__EPS__

__BEGIN__	__EPS__
l	l
e	e
y	i
b	b

__BEGIN__	__EPS__
d	d
e	e
n	n

__BEGIN__	__EPS__
g	g
u	ö
n	nn
t	t

__BEGIN__	__EPS__
s	s
p	p
r	r
a	a
c	c
h	h

__BEGIN__	__EPS__
s	s
o	o

__BEGIN__	__EPS__
s	s
p	p
r	r
a	a
c	c
h	h
e	e
n	n
t	__EPS__

__BEGIN__	__EPS__
w	w
y	i
r	r

__BEGIN__	__EPS__
a	e
i	i
n	n

__BEGIN__	__EPS__
w	w
i	i
e	e

__BEGIN__	__EPS__
i	j
e	äm
m	m
e	e
r	r
l	l
e	__EPS__
i	i
c	c
h	h
e	e
n	n

__BEGIN__	__EPS__
y	i
m	m
m	m
e	e
r	r

__BEGIN__	__EPS__
s	s
a	a
c	__EPS__
h	h

__BEGIN__	__EPS__
d	d
e	e
m	m

__BEGIN__	__EPS__
w	w
a	a
s	s
s	s
e	e
r	r

__BEGIN__	__EPS__
e	u
n	nd

__BEGIN__	__EPS__
b	b
r	r
i	i
e	e
f	f
f	__EPS__

__BEGIN__	__EPS__
d	d
o	a

__BEGIN__	__EPS__
v	v
e	e
r	r
l	l
o	o
r	re
n	n

__BEGIN__	__EPS__
v	f
i	ie
l	l

__BEGIN__	__EPS__
b	b
e	e
s	s
c	c
h	h
l	l
o	o
z	ss
e	e
n	n

__BEGIN__	__EPS__
v	u
n	n
d	d
e	__EPS__

__BEGIN__	__EPS__
a	a
l	l
s	s
o	o

__BEGIN__	__EPS__
m	me
i	i
n	n

__BEGIN__	__EPS__
s	sch
w	w
e	e
s	s
t	t
e	e
r	r

__BEGIN__	__EPS__
g	g
i	i
e	__EPS__
n	n
c	__EPS__
h	g

__BEGIN__	__EPS__
m	m
a	a
n	n

__BEGIN__	__EPS__
d	de
i	i
n	n

__BEGIN__	__EPS__
v	v
e	e
r	r
r	r
a	a
t	t
e	e
n	n

__BEGIN__	__EPS__
c	__EPS__
z	z
u	u

__BEGIN__	__EPS__
l	l
a	a
s	s
s	s
e	__EPS__
s	__EPS__
t	t

__BEGIN__	__EPS__
d	d
a	a
r	__EPS__
n	n
a	a
c	c
h	h

__BEGIN__	__EPS__
i	ih
m	m

__BEGIN__	__EPS__
i	j
o	o
h	h
a	a
n	n
n	n
e	e
s	s
z	__EPS__

__BEGIN__	__EPS__
o	o
w	w
e	eh

__BEGIN__	__EPS__
n	n
i	i
c	c
h	h
t	t

__BEGIN__	__EPS__
d	d
a	a

__BEGIN__	__EPS__
g	__EPS__
e	__EPS__
c	__EPS__
z	z
e	e
w	u
g	ge

__BEGIN__	__EPS__
s	se
y	i
n	n
e	e
n	n

__BEGIN__	__EPS__
n	n
a	ah
n	m

__BEGIN__	__EPS__
w	w
i	u
r	r
d	d
e	e
n	n

__BEGIN__	__EPS__
s	s
a	a
c	__EPS__
h	h

__BEGIN__	__EPS__
w	w
a	a
s	r

__BEGIN__	__EPS__
m	m
v	ü
o	s
z	s
i	e
n	n

__BEGIN__	__EPS__
d	d
a	a
s	ss

__BEGIN__	__EPS__
z	z
u	u

__BEGIN__	__EPS__
b	be
y	i

__BEGIN__	__EPS__
v	a
f	u
f	f
g	g
e	e
r	r
i	i
c	c
h	h
t	tet

__BEGIN__	__EPS__
h	h
o	a
b	u
e	p
t	t

__BEGIN__	__EPS__
d	d
u	u

__BEGIN__	__EPS__
i	ih
m	m

__BEGIN__	__EPS__
e	e
r	r

__BEGIN__	__EPS__
g	__EPS__
e	__EPS__
w	__EPS__
a	__EPS__
e	__EPS__
r	s
l	__EPS__
i	i
c	c
h	h
e	e
n	r

__BEGIN__	__EPS__
s	s
p	p
r	r
a	a
c	c
h	h

__BEGIN__	__EPS__
l	l
e	ö
w	w
y	i
n	n
n	n
e	e
n	n

__BEGIN__	__EPS__
k	k
i	i
n	n
d	d

__BEGIN__	__EPS__
s	se
y	i
n	n
e	e
r	r

__BEGIN__	__EPS__
p	p
y	i
l	l
a	a
t	t
ü	u
s	s

__BEGIN__	__EPS__
m	m
u	us
s	s
t	t

__BEGIN__	__EPS__
c	k
h	__EPS__
u	ö
n	n
i	i
c	__EPS__
h	g

__BEGIN__	__EPS__
l	l
u	__EPS__
i	i
f	e
f	f

__BEGIN__	__EPS__
m	me
y	i
n	n

__BEGIN__	__EPS__
g	g
e	e
c	__EPS__
h	k
r	r
o	ö
e	__EPS__
n	n
t	t

__BEGIN__	__EPS__
d	d
r	r
i	e
s	i
t	m
u	__EPS__
n	a
d	l

__BEGIN__	__EPS__
e	e
r	r

__BEGIN__	__EPS__
m	m
a	a
n	n

__BEGIN__	__EPS__
s	s
p	p
r	r
a	a
c	c
h	h

__BEGIN__	__EPS__
s	s
t	t
a	a
t	t
t	t
e	e
n	n

__BEGIN__	__EPS__
i	i
c	c
h	h

__BEGIN__	__EPS__
s	s
i	i
c	c
h	h

__BEGIN__	__EPS__
s	s
a	a
c	__EPS__
h	h

__BEGIN__	__EPS__
t	t
a	a
t	t
i	e
n	n

__BEGIN__	__EPS__
d	d
i	i
e	e

__BEGIN__	__EPS__
h	h
a	a
u	u
s	s

__BEGIN__	__EPS__
d	d
o	a

__BEGIN__	__EPS__
v	v
o	o
r	r

__BEGIN__	__EPS__
n	n
i	ich
t	t

__BEGIN__	__EPS__
s	se
i	i
n	n

__BEGIN__	__EPS__
r	r
i	i
e	e
f	f
f	__EPS__

__BEGIN__	__EPS__
l	l
e	e
i	i
b	b

__BEGIN__	__EPS__
z	z
e	e
i	i
t	t

__BEGIN__	__EPS__
p	p
y	i
l	l
a	a
t	t
u	u
s	s

__BEGIN__	__EPS__
h	h
e	e
r	r
e	r

__BEGIN__	__EPS__
e	e
r	r

__BEGIN__	__EPS__
v	u
n	n
c	__EPS__
z	ze

__BEGIN__	__EPS__
h	h
a	a
t	t
t	t
e	e
n	n
t	__EPS__

__BEGIN__	__EPS__
w	w
i	i
e	e

__BEGIN__	__EPS__
z	z
u	u
o	__EPS__

__BEGIN__	__EPS__
t	t
r	r
e	e
w	u
e	e

__BEGIN__	__EPS__
a	o
v	h
n	ne

__BEGIN__	__EPS__
s	s
o	o

__BEGIN__	__EPS__
d	d
a	a
z	s

__BEGIN__	__EPS__
v	ü
e	__EPS__
b	b
e	e
l	l
d	t
e	ä
t	__EPS__
t	t
e	e
r	r

__BEGIN__	__EPS__
i	ih
n	n

__BEGIN__	__EPS__
a	a
n	n
s	se
h	lm

__BEGIN__	__EPS__
e	e
i	i
n	n
n	__EPS__
i	i
g	g
e	e
n	n

__BEGIN__	__EPS__
g	g
e	e
f	f
r	r
o	e
v	u
w	__EPS__
e	__EPS__
t	t

__BEGIN__	__EPS__
s	s
i	ie

__BEGIN__	__EPS__
v	u
n	n
s	s
z	__EPS__

__BEGIN__	__EPS__
e	e
r	r

__BEGIN__	__EPS__
z	z
e	ur

__BEGIN__	__EPS__
e	e
y	i
n	n

__BEGIN__	__EPS__
w	w
a	a
s	r

__BEGIN__	__EPS__
v	u
n	n
d	d

__BEGIN__	__EPS__
g	g
e	e
s	s
e	e
h	h
e	e
n	n

__BEGIN__	__EPS__
v	u
n	n
d	d

__BEGIN__	__EPS__
e	e
r	r
d	d
e	e
n	n
k	k
e	e
n	n

__BEGIN__	__EPS__
i	i
s	s
t	t

__BEGIN__	__EPS__
m	m
i	i
t	t
e	e
i	i
n	n
a	a
n	n
d	d
e	e
r	r

__BEGIN__	__EPS__
b	b
e	ei
d	d
e	e

__BEGIN__	__EPS__
i	j
u	ü
n	n
g	g
e	e
r	r
e	__EPS__
n	__EPS__

__BEGIN__	__EPS__
h	h
e	e
r	r
o	o
d	d
e	e
s	s

__BEGIN__	__EPS__
d	d
v	u

__BEGIN__	__EPS__
v	v
o	o
n	n

__BEGIN__	__EPS__
i	i
c	c
h	h

__BEGIN__	__EPS__
b	b
e	eg
n	n
u	ü
n	__EPS__
g	g
e	e
n	n

__BEGIN__	__EPS__
d	d
e	e
m	m

__BEGIN__	__EPS__
v	u
n	n
d	d

__BEGIN__	__EPS__
w	w
e	e
r	r
d	de

__BEGIN__	__EPS__
m	m
e	e
n	n
s	s
h	c
e	h
l	l
i	i
c	c
h	h

__BEGIN__	__EPS__
f	f
r	r
o	e
u	u
d	d
e	e
n	n

__BEGIN__	__EPS__
d	d
i	i
r	r
z	s

__BEGIN__	__EPS__
s	w
u	u
n	n
d	d
e	e
r	r
l	s
e	a
y	m
c	__EPS__
h	__EPS__

__BEGIN__	__EPS__
i	i
n	n

__BEGIN__	__EPS__
l	l
i	i
e	e
b	b
e	e
s	s

__BEGIN__	__EPS__
m	me
i	i
n	n

__BEGIN__	__EPS__
s	s
p	p
r	r
a	a
c	c
h	h

__BEGIN__	__EPS__
d	d
i	i
e	e

__BEGIN__	__EPS__
h	h
a	a
d	t

__BEGIN__	__EPS__
k	k
r	r
a	a
n	n
k	k
h	h
e	e
i	i
t	t

__BEGIN__	__EPS__
l	l
e	e
i	i
b	be
s	s

__BEGIN__	__EPS__
d	d
a	a
z	ss

__BEGIN__	__EPS__
v	v
e	e
r	r
s	s
a	a
g	g
e	e
n	n

__BEGIN__	__EPS__
d	d
o	a

__BEGIN__	__EPS__
l	l
y	ie
b	b
e	e
s	s

__BEGIN__	__EPS__
d	d
a	as
z	s

__BEGIN__	__EPS__
d	d
o	a

__BEGIN__	__EPS__
d	d
a	a
s	s

__BEGIN__	__EPS__
i	i
c	c
h	h

__BEGIN__	__EPS__
y	ih
n	n

__BEGIN__	__EPS__
h	h
a	a
b	b
e	e
n	n

__BEGIN__	__EPS__
a	a
u	u
f	f

__BEGIN__	__EPS__
v	u
n	n
d	d
e	__EPS__

__BEGIN__	__EPS__
i	u
n	n
d	d

__BEGIN__	__EPS__
y	je

__BEGIN__	__EPS__
n	n
i	i
c	c
h	h
t	t

__BEGIN__	__EPS__
k	k
i	i
n	n
d	d
t	__EPS__

__BEGIN__	__EPS__
v	u
m	m
b	__EPS__
h	h
a	a
n	n
g	g

__BEGIN__	__EPS__
p	b
l	l
u	u
e	__EPS__
t	t
t	__EPS__
e	e
n	n

__BEGIN__	__EPS__
d	d
a	a
s	ss

__BEGIN__	__EPS__
s	s
o	o

__BEGIN__	a
v	u
s	s
s	s
e	ä
r	t
z	z
i	i
g	g
e	e
n	n

__BEGIN__	__EPS__
s	s
a	a
c	__EPS__
h	h

__BEGIN__	__EPS__
g	g
r	r
u	ü
n	n
e	e
n	n

__BEGIN__	__EPS__
m	m
i	i
t	t

__BEGIN__	__EPS__
g	g
h	__EPS__
e	e
u	f
o	o
l	l
g	g
h	__EPS__
e	__EPS__
t	t

__BEGIN__	__EPS__
v	u
n	n
d	d
e	__EPS__

__BEGIN__	__EPS__
w	w
a	a
s	s
s	s
i	e
r	r

__BEGIN__	__EPS__
b	b
e	e
g	g
a	a
n	n
g	g
e	e
n	n

__BEGIN__	__EPS__
d	d
o	a

__BEGIN__	__EPS__
v	u
n	n
d	d

__BEGIN__	__EPS__
v	u
n	n
d	d

__BEGIN__	__EPS__
a	a
u	u
c	c
h	h

__BEGIN__	__EPS__
a	a
u	u
c	c
h	h

__BEGIN__	__EPS__
w	w
i	i
e	e

__BEGIN__	__EPS__
z	z
u	u
o	__EPS__

__BEGIN__	__EPS__
d	d
a	a
z	ss

__BEGIN__	__EPS__
d	d
a	a

__BEGIN__	__EPS__
s	s
o	o

__BEGIN__	__EPS__
d	d
e	e
z	s

__BEGIN__	__EPS__
c	k
r	r
e	e
u	u
c	__EPS__
z	z

__BEGIN__	__EPS__
i	i
c	c
h	h

__BEGIN__	__EPS__
t	t
o	o
l	l
l	l
e	e

__BEGIN__	__EPS__
s	s
o	o

__BEGIN__	__EPS__
d	d
e	e
m	m

__BEGIN__	__EPS__
e	e
n	n
n	t
s	s
c	c
h	h
u	u
l	l
d	d
i	i
g	g
e	e
n	n

__BEGIN__	__EPS__
d	t
r	r
i	i
e	e
f	b
f	__EPS__

__BEGIN__	__EPS__
i	j
o	o
h	h
a	a
n	nn
e	e
s	s

__BEGIN__	__EPS__
a	a
l	l
l	l
e	e
n	n

__BEGIN__	__EPS__
d	d
e	e
n	n

__BEGIN__	__EPS__
b	be
y	i

__BEGIN__	__EPS__
i	j
o	u
e	__EPS__
d	d
e	e
n	n

__BEGIN__	__EPS__
d	d
a	a
z	s

__BEGIN__	__EPS__
i	i
s	s
t	t

__BEGIN__	__EPS__
h	h
e	e
l	l
f	f
e	e

__BEGIN__	__EPS__
l	l
i	i
e	e
u	b
e	e
n	n

__BEGIN__	__EPS__
v	__EPS__
e	e
r	rsch
l	l
u	u
g	g
e	e
n	n

__BEGIN__	__EPS__
e	ih
n	n

__BEGIN__	__EPS__
w	w
o	u
n	n
d	d
e	e
n	n

__BEGIN__	__EPS__
d	d
i	ie
z	s

__BEGIN__	__EPS__
g	g
a	a
r	r

__BEGIN__	__EPS__
a	o
w	w
e	eh

__BEGIN__	__EPS__
m	m
i	i
r	r

__BEGIN__	__EPS__
m	m
u	u
t	tt
e	e
r	r

__BEGIN__	__EPS__
i	i
n	n

__BEGIN__	__EPS__
i	j
h	__EPS__
e	e
r	r
u	u
s	s
a	a
l	l
e	e
n	m

__BEGIN__	__EPS__
l	l
i	i
e	e
u	b
e	e

__BEGIN__	__EPS__
w	w
z	ar

__BEGIN__	__EPS__
h	h
v	ü
l	l
f	f
i	e
n	n

__BEGIN__	__EPS__
b	b
o	o
i	__EPS__
d	t

__BEGIN__	__EPS__
d	d
e	e
n	n

__BEGIN__	__EPS__
v	u
n	n
s	s
e	e
r	r

__BEGIN__	__EPS__
i	i
c	c
h	h

__BEGIN__	__EPS__
h	h
a	a
i	be
n	n

__BEGIN__	__EPS__
e	e
r	r

__BEGIN__	__EPS__
o	o
b	b

__BEGIN__	__EPS__
v	u
n	n
d	d

__BEGIN__	__EPS__
d	d
i	i
e	e

__BEGIN__	__EPS__
g	g
e	e
t	t
a	a
n	n

__BEGIN__	__EPS__
p	p
s	s
a	a
l	l
t	t
e	e
r	r

__BEGIN__	__EPS__
v	u
n	n
d	d

__BEGIN__	__EPS__
d	ge
i	r
n	i
c	ch
k	t
h	s
h	h
a	a
u	u
s	s

__BEGIN__	__EPS__
s	s
y	ie

__BEGIN__	__EPS__
i	ih
m	m

__BEGIN__	__EPS__
i	ih
m	m

__BEGIN__	__EPS__
k	k
i	i
n	n
d	de
s	s

__BEGIN__	__EPS__
n	n
a	a
c	c
h	h

__BEGIN__	__EPS__
m	m
a	a
n	n

__BEGIN__	__EPS__
s	s
p	p
r	r
a	a
c	c
h	h
e	e
n	n

__BEGIN__	__EPS__
s	sch
n	n
e	e
i	i
d	d
e	e
n	n

__BEGIN__	__EPS__
e	e
i	i
n	n

__BEGIN__	__EPS__
p	p
y	i
l	l
a	a
t	t
u	u
s	s

__BEGIN__	__EPS__
f	f
r	r
a	a
u	u
w	__EPS__
e	__EPS__

__BEGIN__	__EPS__
n	n
o	o
c	c
h	h

__BEGIN__	__EPS__
v	u
m	m
b	__EPS__

__BEGIN__	__EPS__
p	p
i	i
l	l
a	a
t	t
u	u
s	s

__BEGIN__	__EPS__
v	v
i	ie
l	l

__BEGIN__	__EPS__
l	l
e	e
u	u
t	te

__BEGIN__	__EPS__
v	v
e	e
r	r
g	g
e	e
s	s
s	s
e	e
n	n

__BEGIN__	__EPS__
s	s
a	e
t	t
t	__EPS__
z	z
t	t
e	e
n	n

__BEGIN__	__EPS__
h	h
e	e
r	r
t	__EPS__
z	z
e	e
n	n

__BEGIN__	__EPS__
w	w
o	a
r	r
f	f
f	__EPS__
e	e
n	n

__BEGIN__	__EPS__
i	ih
m	m

__BEGIN__	__EPS__
z	z
e	er
p	b
r	r
i	i
c	c
h	h
e	__EPS__
t	t

__BEGIN__	__EPS__
g	g
i	i
e	__EPS__
n	n
g	g
e	e
n	n

__BEGIN__	__EPS__
c	k
r	r
u	e
c	u
z	z
i	e
s	s

__BEGIN__	__EPS__
d	d
e	e
m	m

__BEGIN__	__EPS__
m	m
e	e
i	i
n	n

__BEGIN__	__EPS__
m	m
a	a
r	r
i	i
a	a

__BEGIN__	__EPS__
w	w
i	il
l	l

__BEGIN__	__EPS__
m	me
i	i
n	n
e	e
m	m

__BEGIN__	__EPS__
d	d
e	e
r	r

__BEGIN__	__EPS__
d	d
a	a
s	s

__BEGIN__	__EPS__
a	a
l	l
l	l
e	e
m	m

__BEGIN__	__EPS__
d	d
a	a
s	s

__BEGIN__	__EPS__
k	k
u	o
m	m
b	m
s	s
t	t

__BEGIN__	__EPS__
z	z
u	o
g	g
e	e
n	n

__BEGIN__	__EPS__
k	k
u	o
m	mm
e	e
n	n

__BEGIN__	__EPS__
i	i
c	c
h	h

__BEGIN__	__EPS__
e	e
m	m
p	p
h	f
a	a
n	n
g	g
e	e
n	n

__BEGIN__	__EPS__
d	d
r	re
i	i
j	e
n	n

__BEGIN__	__EPS__
s	s
e	ee
l	le

__BEGIN__	__EPS__
e	ih
n	n

__BEGIN__	__EPS__
l	l
i	i
e	e
s	s
s	s
e	e
n	n
t	__EPS__

__BEGIN__	__EPS__
u	u
n	n
d	d

__BEGIN__	e
s	s

__BEGIN__	__EPS__
o	o
m	m
d	d
a	a
t	t

__BEGIN__	__EPS__
z	z
a	a
r	r
t	t

__BEGIN__	__EPS__
p	p
r	r
o	o
p	p
h	h
e	e
e	__EPS__
t	t

__BEGIN__	__EPS__
h	h
y	ier

__BEGIN__	__EPS__
f	f
u	ü
r	r
s	s
p	p
r	r
e	e
c	c
h	her

__BEGIN__	__EPS__
d	d
e	e
n	n

__BEGIN__	__EPS__
r	r
u	u
e	__EPS__
f	f
f	__EPS__
e	__EPS__
t	t

__BEGIN__	__EPS__
d	d
a	a
t	ss

__BEGIN__	__EPS__
h	h
i	ä
e	t
t	te

__BEGIN__	__EPS__
y	ih
m	m

__BEGIN__	__EPS__
k	k
i	i
n	n
d	d
e	e
r	r

__BEGIN__	__EPS__
d	d
a	a
s	s

__BEGIN__	__EPS__
e	e
r	r
h	h
o	ö
e	__EPS__
r	r
t	t

__BEGIN__	__EPS__
h	ha
v	u
s	s

__BEGIN__	__EPS__
s	s
t	t
a	ad
t	t

__BEGIN__	__EPS__
g	g
e	e
h	h
o	ö
i	__EPS__
r	r
t	t

__BEGIN__	__EPS__
w	w
a	a
n	nn

__BEGIN__	__EPS__
s	s
t	t
ü	ü
r	r
b	b
e	e

__BEGIN__	__EPS__
s	s
e	e
i	i
t	__EPS__
t	t
e	e
n	n

__BEGIN__	__EPS__
i	i
n	n

__BEGIN__	__EPS__
m	m
i	i
r	r

__BEGIN__	__EPS__
p	p
l	l
o	o
r	r
a	a
n	n
t	__EPS__
z	s

__BEGIN__	__EPS__
d	d
a	a

__BEGIN__	__EPS__
w	w
e	e
m	m

__BEGIN__	__EPS__
g	g
i	i
n	n
g	g

__BEGIN__	__EPS__
d	d
i	i
e	e

__BEGIN__	__EPS__
n	n
i	i
c	c
h	h
t	t

__BEGIN__	__EPS__
m	m
i	i
t	t

__BEGIN__	__EPS__
v	u
n	n
d	d

__BEGIN__	__EPS__
d	d
o	o
c	c
h	h

__BEGIN__	__EPS__
h	h
e	e
i	i
l	l
i	i
g	g
e	e
s	s

__BEGIN__	__EPS__
g	g
o	o
t	tt
i	e
s	s

__BEGIN__	__EPS__
v	u
n	n
d	d

__BEGIN__	__EPS__
v	u
n	n
d	d

__BEGIN__	__EPS__
v	u
n	n
d	d

__BEGIN__	__EPS__
e	e
i	i
n	n

__BEGIN__	__EPS__
i	i
s	s
t	t

__BEGIN__	__EPS__
k	k
i	i
n	n
t	d

__BEGIN__	__EPS__
b	b
e	e
n	n
i	im
m	m

__BEGIN__	__EPS__
t	t
u	u
e	e
n	n
t	d

__BEGIN__	__EPS__
m	m
e	eh
r	r

__BEGIN__	__EPS__
g	g
a	a
b	b
e	e
n	n

__BEGIN__	__EPS__
d	d
a	a
s	s

__BEGIN__	__EPS__
d	d
a	a
n	n
c	__EPS__
k	ke

__BEGIN__	__EPS__
i	j
u	u
n	n
c	g
f	f
r	r
a	a
u	u
w	__EPS__

__BEGIN__	__EPS__
w	w
o	o
l	ll
d	t

__BEGIN__	__EPS__
g	g
r	r
a	a
b	b

__BEGIN__	__EPS__
s	s
e	eh
r	r

__BEGIN__	__EPS__
i	e
r	r
s	s
t	t
e	ehe
n	n

__BEGIN__	__EPS__
p	b
l	l
e	e
i	i
b	b

__BEGIN__	__EPS__
e	e
s	s
z	__EPS__

__BEGIN__	__EPS__
h	h
o	ö
r	r

__BEGIN__	__EPS__
m	m
e	e
y	i
n	n

__BEGIN__	__EPS__
w	w
a	a
s	r

__BEGIN__	__EPS__
v	u
m	m

__BEGIN__	__EPS__
s	s
p	p
r	r
a	a
c	c
h	h
e	e
n	n

__BEGIN__	__EPS__
s	s
o	o
e	__EPS__

__BEGIN__	__EPS__
e	e
r	r
t	d
r	re
i	i
c	c
h	h

__BEGIN__	__EPS__
v	v
a	o
n	n

__BEGIN__	__EPS__
w	w
a	a
r	r
e	e
n	n

__BEGIN__	__EPS__
h	h
e	e
r	r
t	__EPS__
z	z
e	__EPS__
n	__EPS__
l	l
i	i
c	c
h	h

__BEGIN__	__EPS__
i	i
c	c
h	h

__BEGIN__	__EPS__
d	d
i	i
e	e

__BEGIN__	__EPS__
d	d
e	e
r	r

__BEGIN__	__EPS__
h	h
i	i
e	er

__BEGIN__	__EPS__
i	ih
n	n

__BEGIN__	__EPS__
d	d
i	ie
n	n
s	s
t	t
a	a
g	g
e	e

__BEGIN__	__EPS__
t	t
r	r
o	o
s	s
t	t

__BEGIN__	__EPS__
a	a
n	n
g	g
a	eh
t	t

__BEGIN__	__EPS__
k	k
i	i
n	n
t	d

__BEGIN__	__EPS__
m	m
a	a
n	n

__BEGIN__	__EPS__
c	__EPS__
z	z
a	a
r	r
t	t
t	__EPS__
e	e
n	n

__BEGIN__	__EPS__
i	ih
n	n

__BEGIN__	__EPS__
g	g
e	e
n	n
i	i
e	e
z	ss
e	e
n	n

__BEGIN__	__EPS__
s	s
o	o

__BEGIN__	__EPS__
d	d
o	a

__BEGIN__	__EPS__
g	g
o	o
t	tt
e	e
s	s

__BEGIN__	__EPS__
k	k
a	a
m	m

__BEGIN__	__EPS__
m	m
i	i
t	t

__BEGIN__	__EPS__
d	d
o	a

__BEGIN__	__EPS__
l	l
e	e
y	i
b	b

__BEGIN__	__EPS__
v	u
n	n
d	d

__BEGIN__	__EPS__
i	ih
n	n

__BEGIN__	__EPS__
l	l
y	ie
b	b
e	e
n	n

__BEGIN__	__EPS__
s	s
y	ie

__BEGIN__	__EPS__
v	u
n	n
d	d

__BEGIN__	__EPS__
d	d
e	e
s	s

__BEGIN__	__EPS__
n	n
i	i
c	c
h	h
t	t

__BEGIN__	__EPS__
e	e
s	s

__BEGIN__	__EPS__
a	a
l	l
l	l
e	e
s	s
z	__EPS__

__BEGIN__	__EPS__
o	a
u	u
c	c
h	h

__BEGIN__	__EPS__
i	e
z	s

__BEGIN__	__EPS__
n	n
i	i
e	e

__BEGIN__	__EPS__
m	m
e	e
i	i
n	n
e	e
n	n

__BEGIN__	__EPS__
m	m
e	e
i	i
n	n

__BEGIN__	__EPS__
d	d
e	e
r	r

__BEGIN__	__EPS__
d	d
e	e
m	m

__BEGIN__	__EPS__
v	u
n	n
d	d

__BEGIN__	__EPS__
v	u
n	n
s	s

__BEGIN__	__EPS__
c	k
h	__EPS__
r	r
v	e
t	u
z	ze
n	n

__BEGIN__	__EPS__
d	d
y	i
e	e

__BEGIN__	__EPS__
n	n
y	ie

__BEGIN__	__EPS__
d	d
e	e
s	s

__BEGIN__	__EPS__
d	d
a	a
s	s
z	s

__BEGIN__	__EPS__
s	s
p	p
o	o
t	t
t	t
e	e
n	n

__BEGIN__	__EPS__
v	v
i	ie
l	l

__BEGIN__	__EPS__
w	w
a	a
s	r

__BEGIN__	__EPS__
v	u
n	n
d	d

__BEGIN__	__EPS__
r	r
i	i
c	c
h	h
t	t
e	e
r	r

__BEGIN__	__EPS__
w	w
e	o
l	l
l	l
e	e
n	n

__BEGIN__	__EPS__
z	z
u	u

__BEGIN__	__EPS__
t	t
a	a
g	g
e	e

__BEGIN__	__EPS__
d	d
y	i
n	n
g	g

__BEGIN__	n
e	ich
n	t

__BEGIN__	__EPS__
v	u
n	n
d	d

__BEGIN__	__EPS__
d	d
a	a

__BEGIN__	__EPS__
d	d
a	a
n	nn

__BEGIN__	__EPS__
t	t
e	a
t	t
e	e
n	n

__BEGIN__	__EPS__
e	e
r	r

__BEGIN__	__EPS__
v	u
n	n
d	d

__BEGIN__	__EPS__
u	u
n	n
d	d

__BEGIN__	__EPS__
v	u
n	n
g	g
e	e
s	s
t	t
ü	ü
m	m
k	__EPS__
l	__EPS__
i	__EPS__
c	__EPS__
h	__EPS__
e	__EPS__
n	__EPS__

__BEGIN__	__EPS__
i	i
c	c
h	h

__BEGIN__	__EPS__
s	s
c	c
h	h
i	ne
r	ll
e	e
r	r

__BEGIN__	__EPS__
i	ih
m	m

__BEGIN__	__EPS__
w	w
a	a
s	r

__BEGIN__	__EPS__
v	v
a	o
n	n

__BEGIN__	__EPS__
v	u
n	n
d	d
e	__EPS__

__BEGIN__	__EPS__
m	m
i	i
c	c
h	h

__BEGIN__	__EPS__
m	me
y	i
n	n

__BEGIN__	__EPS__
s	s
o	o

__BEGIN__	__EPS__
s	s
y	ie

__BEGIN__	__EPS__
s	s
i	ie

__BEGIN__	__EPS__
g	k
h	e
e	i
n	n
e	e

__BEGIN__	__EPS__
s	s
u	üs
z	s
e	e
r	r

__BEGIN__	__EPS__
d	d
i	i
e	e

__BEGIN__	__EPS__
w	w
o	ah
r	r

__BEGIN__	__EPS__
r	r
e	e
t	de
t	te

__BEGIN__	__EPS__
v	u
m	m
b	__EPS__
l	l
o	a
u	u
f	f
f	__EPS__
e	e
n	n

__BEGIN__	__EPS__
r	r
i	i
e	e
m	m
e	e
n	n

__BEGIN__	__EPS__
d	d
r	r
e	e
y	i
e	e
n	n

__BEGIN__	__EPS__
k	k
o	o
v	m
m	m
e	e
n	n

__BEGIN__	__EPS__
v	v
o	o
n	n

__BEGIN__	__EPS__
s	s
c	c
h	h
r	r
e	e
i	i
b	be

__BEGIN__	__EPS__
l	l
e	e
g	g
t	t
e	e
n	n

__BEGIN__	__EPS__
i	i
s	s
t	t

__BEGIN__	__EPS__
m	m
e	e
i	i
n	n

__BEGIN__	__EPS__
t	t
a	a
g	g
e	e
s	s

__BEGIN__	__EPS__
h	h
a	a
i	be
n	n

__BEGIN__	__EPS__
d	d
o	a

__BEGIN__	__EPS__
d	d
i	i
e	e

__BEGIN__	__EPS__
s	s
p	p
r	r
e	e
c	c
h	h
e	e
n	n

__BEGIN__	__EPS__
a	a
n	n
s	s
e	e
l	l
m	m
e	__EPS__

__BEGIN__	__EPS__
z	z
u	u

__BEGIN__	__EPS__
w	we
i	i
l	l
e	e

__BEGIN__	__EPS__
n	n
u	u
n	n

__BEGIN__	__EPS__
v	u
n	n
d	d

__BEGIN__	__EPS__
m	m
y	i
r	r

__BEGIN__	__EPS__
s	sch
w	w
e	e
s	s
t	t
e	e
r	r

__BEGIN__	__EPS__
d	d
e	e
s	s

__BEGIN__	__EPS__
g	g
a	a
l	l
g	g
e	e
n	n

__BEGIN__	__EPS__
d	d
e	e
r	r

__BEGIN__	__EPS__
w	w
o	o
l	h
l	l

__BEGIN__	__EPS__
d	d
i	e
j	i
n	n

__BEGIN__	__EPS__
v	v
o	o
n	n

__BEGIN__	__EPS__
d	d
e	e
s	s
z	__EPS__

__BEGIN__	__EPS__
d	d
o	a

__BEGIN__	__EPS__
v	v
o	o
r	r

__BEGIN__	__EPS__
d	d
v	u

__BEGIN__	__EPS__
d	d
i	i
r	r

__BEGIN__	__EPS__
a	a
u	u
c	c
h	h

__BEGIN__	__EPS__
m	me
y	i
n	n

__BEGIN__	__EPS__
i	j
u	u
d	d
e	e
n	n

__BEGIN__	__EPS__
h	h
e	a
t	t

__BEGIN__	__EPS__
v	u
n	n
d	d

__BEGIN__	__EPS__
s	s
e	e
n	n
d	d
e	e
t	t
e	e

__BEGIN__	__EPS__
e	e
t	t

__BEGIN__	__EPS__
s	s
y	ie

__BEGIN__	__EPS__
t	t
a	a
g	g

__BEGIN__	__EPS__
w	w
e	e
i	i
s	ss
t	t

__BEGIN__	__EPS__
v	u
n	n
d	d

__BEGIN__	__EPS__
a	a
b	b
e	e
r	r

__BEGIN__	__EPS__
g	g
e	e
l	l
i	i
t	tt
e	e
n	n

__BEGIN__	__EPS__
d	d
y	ie

__BEGIN__	__EPS__
i	j
a	am
m	m
e	e
r	r

__BEGIN__	__EPS__
d	d
e	e
m	m

__BEGIN__	__EPS__
g	__EPS__
e	__EPS__
h	h
o	o
i	__EPS__
f	f
f	__EPS__

__BEGIN__	__EPS__
e	e
n	nt
p	b
l	l
o	ö
e	s
s	s
t	t
e	e
n	n

__BEGIN__	__EPS__
z	z
o	u

__BEGIN__	__EPS__
g	g
e	e
f	f
a	a
n	n
g	g
e	e
n	n

__BEGIN__	__EPS__
h	h
o	ö
i	__EPS__
r	r
t	t
e	e

__BEGIN__	__EPS__
g	g
e	e
s	s
a	a
n	n
d	dt

__BEGIN__	__EPS__
c	k
l	l
a	a
g	g
t	t

__BEGIN__	__EPS__
s	s
u	o
e	__EPS__
l	l
l	l
e	e
n	n

__BEGIN__	__EPS__
d	d
i	i
r	r

__BEGIN__	__EPS__
e	e
r	r

__BEGIN__	__EPS__
h	h
u	a
s	u
z	s

__BEGIN__	__EPS__
c	k
l	l
e	ä
g	g
l	l
i	i
c	c
h	h

__BEGIN__	__EPS__
d	d
a	a
s	s

__BEGIN__	__EPS__
d	d
o	a

__BEGIN__	__EPS__
u	u
n	n
d	d

__BEGIN__	__EPS__
h	h
e	e
r	r
c	__EPS__
z	z
e	e
n	n

__BEGIN__	__EPS__
d	d
e	e
n	n

__BEGIN__	__EPS__
s	s
v	i
i	e

__BEGIN__	__EPS__
n	n
i	ich
t	t

__BEGIN__	__EPS__
t	z
o	u
t	__EPS__

__BEGIN__	__EPS__
l	l
i	i
e	e
p	b
l	l
e	__EPS__
i	i
c	c
h	h

__BEGIN__	__EPS__
d	d
i	e
e	i
n	n

__BEGIN__	__EPS__
m	m
o	o
c	c
h	h
t	t
e	e
n	n

__BEGIN__	__EPS__
d	d
a	a
r	__EPS__
n	n
a	a
c	c
h	h

__BEGIN__	__EPS__
d	d
e	e
r	r

__BEGIN__	__EPS__
a	a
l	l
l	l
e	e
s	s

__BEGIN__	__EPS__
d	d
a	a
s	s

__BEGIN__	__EPS__
o	a
e	u
c	ch

__BEGIN__	__EPS__
d	d
e	e
r	r

__BEGIN__	__EPS__
a	a
n	n

__BEGIN__	__EPS__
h	h
e	e
r	r
e	r

__BEGIN__	__EPS__
e	e
r	r
s	s
c	c
h	h
v	ü
t	tter
t	t

__BEGIN__	__EPS__
d	d
a	a

__BEGIN__	__EPS__
j	j
e	ä
m	mm
e	e
r	r
l	l
i	i
c	c
h	h
e	e
r	r

__BEGIN__	__EPS__
g	g
e	eh
e	e
n	n

__BEGIN__	__EPS__
m	m
i	i
r	r

__BEGIN__	__EPS__
v	u
n	n
d	d

__BEGIN__	__EPS__
h	h
i	i
m	mm
e	e
l	l

__BEGIN__	__EPS__
s	s
t	t
e	ä
d	tt
e	e

__BEGIN__	__EPS__
g	g
e	e
s	s
t	t
e	e
r	r
n	n

__BEGIN__	__EPS__
m	m
e	e
i	i
n	n

__BEGIN__	__EPS__
i	ih
m	m

__BEGIN__	__EPS__
a	a
n	n

__BEGIN__	__EPS__
w	w
a	o
r	r
t	t

__BEGIN__	__EPS__
g	g
e	e
i	i
s	s
t	t

__BEGIN__	__EPS__
w	w
e	e
i	i
z	ss

__BEGIN__	__EPS__
e	u
n	nd

__BEGIN__	__EPS__
s	s
e	e
h	h
t	t

__BEGIN__	__EPS__
y	j
o	o
h	h
a	a
n	n
n	n
e	e
s	s

__BEGIN__	__EPS__
i	ih
n	n

__BEGIN__	__EPS__
g	g
e	e
h	h
a	ab
t	t

__BEGIN__	__EPS__
g	g
e	e
g	g
a	a
n	n
g	g
e	e
n	n

__BEGIN__	__EPS__
m	m
i	i
t	t

__BEGIN__	__EPS__
s	s
e	a
y	g
t	t
e	e

__BEGIN__	__EPS__
a	a
l	l
l	l
e	e
r	r
l	l
i	i
e	e
b	b
s	s
t	t
e	e

__BEGIN__	__EPS__
w	w
o	o
u	l
l	l
d	t
e	e

__BEGIN__	__EPS__
d	d
e	e
z	s

__BEGIN__	__EPS__
m	m
i	ir

__BEGIN__	__EPS__
v	v
e	e
r	r
l	l
o	o
r	re
n	n
e	e
n	n

__BEGIN__	__EPS__
b	b
a	a
n	n
t	d

__BEGIN__	__EPS__
m	me
y	i
n	n
e	e
n	n

__BEGIN__	__EPS__
v	v
o	o
n	n

__BEGIN__	__EPS__
s	s
a	e
i	i
l	l

__BEGIN__	__EPS__
m	m
i	i
c	c
h	h

__BEGIN__	__EPS__
m	m
a	a
s	s
s	s
e	e
n	n

__BEGIN__	d
u	u

__BEGIN__	__EPS__
d	d
e	e
s	s

__BEGIN__	__EPS__
d	d
i	ie
s	s
e	e
r	r

__BEGIN__	__EPS__
p	p
y	i
l	l
a	a
t	t
u	u
s	s

__BEGIN__	__EPS__
i	ih
m	m

__BEGIN__	__EPS__
g	g
r	r
a	a
b	b

__BEGIN__	__EPS__
i	i
n	n

__BEGIN__	__EPS__
m	m
e	e
i	i
n	n

__BEGIN__	__EPS__
v	u
n	n
d	d

__BEGIN__	__EPS__
r	r
i	i
t	t
t	t
e	e
r	r

__BEGIN__	__EPS__
w	w
a	a
r	r
t	d

__BEGIN__	__EPS__
s	s
i	i

__BEGIN__	__EPS__
s	s
c	c
h	h
r	r
i	i
e	e
n	n

__BEGIN__	__EPS__
r	r
i	i
c	c
h	h
t	t
e	e
n	n

__BEGIN__	__EPS__
h	h
a	ä
n	n
k	g
t	te

__BEGIN__	__EPS__
e	e
r	r

__BEGIN__	__EPS__
d	de
n	n

__BEGIN__	__EPS__
v	u
n	n
d	d

__BEGIN__	__EPS__
g	g
e	e
s	s
p	p
a	a
n	n
e	__EPS__
n	nt

__BEGIN__	__EPS__
k	k
l	l
a	a
r	r
h	h
e	e
i	i
t	t

__BEGIN__	__EPS__
d	d
e	e
s	s

__BEGIN__	__EPS__
d	d
c	ass

__BEGIN__	__EPS__
h	h
y	i
e	e
s	ss

__BEGIN__	__EPS__
t	t
o	o
d	t

__BEGIN__	__EPS__
l	l
i	i
e	e
b	b
e	e
s	s

__BEGIN__	__EPS__
m	m
i	i
c	c
h	h

__BEGIN__	__EPS__
e	e
e	i
n	n

__BEGIN__	__EPS__
i	i
n	n

__BEGIN__	__EPS__
s	s
e	e
i	i
n	n

__BEGIN__	__EPS__
v	a
s	u
s	s
i	e
r	r
w	w
e	äh
l	l
t	t
e	e
n	n

__BEGIN__	__EPS__
m	me
y	i
n	n
e	e
s	s

__BEGIN__	__EPS__
d	d
a	a

__BEGIN__	__EPS__
d	d
e	e
s	s

__BEGIN__	__EPS__
w	w
u	u
r	r
d	d
e	e
n	n

__BEGIN__	__EPS__
m	m
o	o
c	c
h	h
t	te

__BEGIN__	__EPS__
h	h
a	a
d	tte
s	s
t	t

__BEGIN__	__EPS__
g	g
a	a
n	n
c	__EPS__
z	z

__BEGIN__	__EPS__
d	d
o	a

__BEGIN__	__EPS__
d	d
a	a
z	s

__BEGIN__	__EPS__
d	d
e	e
r	r

__BEGIN__	__EPS__
v	v
o	o
n	n

__BEGIN__	__EPS__
v	u
n	n
s	s

__BEGIN__	__EPS__
i	ih
m	m

__BEGIN__	__EPS__
s	s
a	a
n	n
d	kt

__BEGIN__	__EPS__
d	d
i	i
c	e
z	s

__BEGIN__	__EPS__
l	l
i	i
e	e
b	be

__BEGIN__	__EPS__
n	n
i	i
c	c
h	h
t	t

__BEGIN__	__EPS__
a	a
l	l
s	s
o	o

__BEGIN__	__EPS__
d	d
o	a

__BEGIN__	__EPS__
k	k
i	i
n	n
t	d

__BEGIN__	__EPS__
d	d
a	a
s	s

__BEGIN__	__EPS__
g	g
e	e
b	b
a	e
i	i
n	n

__BEGIN__	__EPS__
s	s
e	e
i	i
n	n

__BEGIN__	__EPS__
k	k
v	ö
n	ni
c	g

__BEGIN__	__EPS__
v	u
n	n
d	d

__BEGIN__	__EPS__
w	w
a	a
s	r

__BEGIN__	__EPS__
d	d
a	a
s	ss

__BEGIN__	__EPS__
s	s
i	i
c	c
h	h

__BEGIN__	__EPS__
h	h
i	i
e	e
z	s
z	s

__BEGIN__	__EPS__
p	wa
i	r
t	t
e	e
n	te

__BEGIN__	__EPS__
s	s
i	i
e	e

__BEGIN__	__EPS__
v	u
n	n
d	d

__BEGIN__	__EPS__
g	g
r	r
o	o
s	ss

__BEGIN__	__EPS__
t	t
o	o
t	t
e	e
n	n

__BEGIN__	__EPS__
s	s
y	ie

__BEGIN__	__EPS__
b	b
i	i
d	t
d	t
e	e

__BEGIN__	__EPS__
l	l
e	e
y	i
d	d
e	e

__BEGIN__	__EPS__
d	d
e	e
n	n

__BEGIN__	__EPS__
a	e
i	i
n	n
e	e
r	r

__BEGIN__	__EPS__
v	u
m	m
b	__EPS__
e	__EPS__
v	f
a	an
h	g
e	e

__BEGIN__	__EPS__
w	w
y	i
d	e
d	d
e	e
r	r

__BEGIN__	__EPS__
n	n
u	i
i	ch
t	t

__BEGIN__	__EPS__
a	a
n	n

__BEGIN__	__EPS__
z	z
v	u
o	__EPS__

__BEGIN__	__EPS__
h	e
e	r

__BEGIN__	__EPS__
i	j
u	u
d	d
e	e
n	n

__BEGIN__	__EPS__
d	d
i	ir

__BEGIN__	__EPS__
t	__EPS__
z	z
o	u

__BEGIN__	__EPS__
h	h
e	e
r	r
c	__EPS__
z	z
e	__EPS__

__BEGIN__	__EPS__
n	n
i	i
c	c
h	h
t	t

__BEGIN__	__EPS__
v	v
o	o
n	n

__BEGIN__	__EPS__
u	u
n	n
d	d

__BEGIN__	__EPS__
d	d
e	e
t	s

__BEGIN__	__EPS__
s	s
p	p
i	i
e	e
l	l
t	t

__BEGIN__	__EPS__
v	v
o	o
n	n

__BEGIN__	__EPS__
e	e
r	r
l	l
e	e
d	d
i	i
g	g
t	t

__BEGIN__	__EPS__
n	n
a	ah
m	m

__BEGIN__	__EPS__
h	h
i	i
m	mm
e	e
l	l
s	s

__BEGIN__	__EPS__
s	s
o	o

__BEGIN__	__EPS__
k	kl
.	arhe
.	it

__BEGIN__	__EPS__
i	j
u	u
d	d
e	e
n	n

__BEGIN__	__EPS__
n	n
u	un

__BEGIN__	__EPS__
s	s
p	p
r	r
a	a
c	c
h	h

__BEGIN__	__EPS__
g	g
e	e
n	n
a	a
n	nn
t	t
h	__EPS__

__BEGIN__	__EPS__
s	s
p	p
r	r
a	a
c	c
h	h

__BEGIN__	__EPS__
t	t
r	r
e	e
d	t
e	e
n	n

__BEGIN__	__EPS__
w	w
e	e
i	i
s	s
s	s
a	a
g	g
e	u
n	ng

__BEGIN__	__EPS__
w	d
a	e
n	n
t	n

__BEGIN__	__EPS__
n	n
a	ah
m	m
e	e
n	n

__BEGIN__	__EPS__
d	d
i	i
e	e

__BEGIN__	__EPS__
z	z
v	u

__BEGIN__	__EPS__
v	u
n	n
d	d

__BEGIN__	__EPS__
g	g
e	e
s	s
a	a
n	nd
t	t

__BEGIN__	__EPS__
n	n
i	ich
t	t

__BEGIN__	__EPS__
n	n
i	i
e	e

__BEGIN__	__EPS__
k	k
i	i
n	n
d	d
e	__EPS__

__BEGIN__	__EPS__
h	h
o	ö
r	r
e	e

__BEGIN__	__EPS__
s	s
a	a
n	n
c	k
t	t

__BEGIN__	__EPS__
i	i
c	c
h	h

__BEGIN__	__EPS__
i	j
v	ü
n	n
g	g
e	__EPS__
s	s
t	t
e	e
n	n

__BEGIN__	__EPS__
d	d
i	i
c	c
h	h

__BEGIN__	__EPS__
g	g
e	e
s	s
c	c
h	hi
e	e
i	h
t	t

__BEGIN__	__EPS__
a	a
l	l
s	s

__BEGIN__	__EPS__
s	s
a	a
g	g
t	t

__BEGIN__	__EPS__
m	m
i	i
t	t
a	e
i	i
n	n
a	a
n	n
d	d
e	e
r	r

__BEGIN__	__EPS__
c	__EPS__
z	z
u	u

__BEGIN__	__EPS__
i	i
n	n

__BEGIN__	__EPS__
d	d
u	u
r	r
c	c
h	h
s	s
t	t
a	a
c	c
h	h

__BEGIN__	__EPS__
v	v
o	o
n	n

__BEGIN__	__EPS__
d	d
i	i
e	e

__BEGIN__	__EPS__
d	d
e	e
r	r

__BEGIN__	__EPS__
w	w
e	ä
r	r
e	e

__BEGIN__	__EPS__
h	h
a	a
t	t
t	t
e	e
n	n

__BEGIN__	__EPS__
i	i
c	c
h	h

__BEGIN__	__EPS__
i	j
o	o
h	h
a	a
n	nne
s	s

__BEGIN__	__EPS__
g	g
e	e
s	s
c	c
h	heh
e	e
n	n

__BEGIN__	__EPS__
d	de
i	i
n	n
e	e
m	m

__BEGIN__	__EPS__
g	g
e	e
s	s
e	eh
i	e
n	n

__BEGIN__	__EPS__
e	e
r	r

__BEGIN__	__EPS__
a	a
l	l
l	l
e	e

__BEGIN__	__EPS__
d	d
a	a
z	s

__BEGIN__	__EPS__
s	s
c	c
h	h
a	a
w	u
e	e
n	n

__BEGIN__	__EPS__
a	a
l	l
l	l
e	e
r	r
l	l
i	i
e	e
b	b
s	st
e	e

__BEGIN__	__EPS__
d	d
e	e
n	n

__BEGIN__	__EPS__
v	v
i	i
l	e
l	l

__BEGIN__	__EPS__
z	z
a	a
r	r
t	t
e	e
s	s

__BEGIN__	__EPS__
v	u
n	n
d	d

__BEGIN__	__EPS__
h	h
a	a
b	be

__BEGIN__	__EPS__
s	s
e	e
l	l
i	i
g	g

__BEGIN__	__EPS__
v	u
n	n
d	d

__BEGIN__	__EPS__
w	d
a	e
n	n
t	n

__BEGIN__	__EPS__
k	gesch
u	l
e	e
n	ch
e	t

__BEGIN__	__EPS__
d	d
u	u

__BEGIN__	__EPS__
e	e
r	r

__BEGIN__	__EPS__
d	d
e	e
m	m

__BEGIN__	__EPS__
d	d
o	a

__BEGIN__	__EPS__
i	i
n	n

__BEGIN__	__EPS__
d	d
u	u

__BEGIN__	__EPS__
o	om
n	n
i	i
a	a

__BEGIN__	__EPS__
b	b
e	e
y	i

__BEGIN__	__EPS__
u	u
n	n
d	d

__BEGIN__	__EPS__
i	ih
n	n

__BEGIN__	__EPS__
h	h
e	at
t	t
e	e
n	n

__BEGIN__	__EPS__
n	n
i	ie
d	d
e	e
r	r

__BEGIN__	__EPS__
m	me
y	i
n	n

__BEGIN__	__EPS__
d	d
o	a

__BEGIN__	__EPS__
d	d
a	a

__BEGIN__	__EPS__
s	se
i	i
n	n

__BEGIN__	__EPS__
m	m
o	o
r	r
d	d
e	e
s	s

__BEGIN__	__EPS__
h	h
a	a
i	be
n	n

__BEGIN__	__EPS__
p	b
a	a
l	l
d	d

__BEGIN__	__EPS__
z	z
w	w
e	e
n	i

__BEGIN__	__EPS__
a	a
u	u
f	f
f	__EPS__

__BEGIN__	__EPS__
d	d
a	a
z	ss

__BEGIN__	__EPS__
m	me
i	i
n	n

__BEGIN__	__EPS__
e	e
r	r
s	s
c	c
h	h
u	ü
t	t
t	tert
e	e

__BEGIN__	__EPS__
w	w
i	i
d	e
d	d
e	e
r	r
v	u
m	m
b	__EPS__
e	__EPS__

__BEGIN__	__EPS__
d	d
a	a

__BEGIN__	__EPS__
p	b
v	a
n	n
t	d
e	e
n	n

__BEGIN__	__EPS__
c	__EPS__
h	k
w	ö
n	n
i	i
g	g

__BEGIN__	__EPS__
w	w
a	a
s	r

__BEGIN__	__EPS__
w	w
i	e
j	i
s	s
s	s

__BEGIN__	__EPS__
s	sch
l	l
e	a
g	g

__BEGIN__	__EPS__
c	k
r	r
e	ä
g	h
i	__EPS__
t	t

__BEGIN__	__EPS__
d	d
i	i
e	e

__BEGIN__	__EPS__
v	v
o	o
r	r

__BEGIN__	__EPS__
g	g
o	o
t	tt

__BEGIN__	__EPS__
i	i
s	s
t	t

__BEGIN__	__EPS__
s	s
t	t
v	u
i	__EPS__
n	n
d	d

__BEGIN__	__EPS__
i	ih
n	n

__BEGIN__	__EPS__
m	m
a	a
n	n

__BEGIN__	__EPS__
d	d
e	e
r	r

__BEGIN__	__EPS__
w	w
i	i
r	r

__BEGIN__	__EPS__
d	d
o	a
e	__EPS__

__BEGIN__	__EPS__
s	s
c	c
h	h
w	w
e	e
r	r
l	l
i	i
c	c
h	h
e	e
r	r

__BEGIN__	__EPS__
d	d
e	e
r	r

__BEGIN__	__EPS__
d	d
e	e
m	m

__BEGIN__	__EPS__
f	f
u	ü
n	n
c	f
z	z
e	e
c	__EPS__
h	h
e	__EPS__
n	n

__BEGIN__	__EPS__
w	d
a	e
n	n
t	n

__BEGIN__	__EPS__
d	d
i	i
e	e

__BEGIN__	__EPS__
d	d
o	a

__BEGIN__	__EPS__
v	v
i	i
e	e
r	r
d	t
e	e

__BEGIN__	__EPS__
d	d
e	e
r	r

__BEGIN__	__EPS__
s	s
e	e
i	i
n	n

__BEGIN__	__EPS__
a	a
n	n

__BEGIN__	__EPS__
r	r
a	e
i	i
n	n
e	e

__BEGIN__	__EPS__
l	l
i	i
e	e
b	b
i	e

__BEGIN__	__EPS__
c	k
r	r
e	e
u	u
c	__EPS__
z	z

__BEGIN__	__EPS__
d	d
a	a
e	__EPS__
r	__EPS__

__BEGIN__	__EPS__
d	d
e	e
n	n

__BEGIN__	a
v	u
f	f

__BEGIN__	__EPS__
w	w
a	a
s	s

__BEGIN__	__EPS__
p	b
a	a
t	t
e	e
n	n

__BEGIN__	__EPS__
h	h
e	a
n	n
n	__EPS__
d	d

__BEGIN__	__EPS__
g	g
r	r
a	a
b	b

__BEGIN__	__EPS__
e	i
m	h
e	m

__BEGIN__	__EPS__
d	d
i	i
e	e

__BEGIN__	__EPS__
e	e
r	r

__BEGIN__	__EPS__
v	u
n	n
d	d

__BEGIN__	__EPS__
i	j
a	äm
m	m
e	e
r	r
l	l
i	i
c	c
h	h

__BEGIN__	__EPS__
d	d
i	i
r	r

__BEGIN__	__EPS__
g	g
r	r
o	o
s	s
s	s
e	e
n	n

__BEGIN__	__EPS__
s	s
p	p
r	r
a	a
c	c
h	h

__BEGIN__	__EPS__
h	h
o	ö
e	__EPS__
r	r
e	e
n	n

__BEGIN__	__EPS__
c	__EPS__
z	z
u	u

__BEGIN__	__EPS__
v	v
u	o
r	r

__BEGIN__	__EPS__
c	k
l	l
a	a
g	g
e	e

__BEGIN__	__EPS__
h	h
e	a
t	t
t	__EPS__

__BEGIN__	__EPS__
e	e
r	r
h	h
o	ö
e	__EPS__
r	r
t	t

__BEGIN__	__EPS__
m	m
u	u
n	n
t	d
h	__EPS__

__BEGIN__	__EPS__
g	g
e	e
l	l
a	a
v	u
f	f
f	__EPS__
e	e
n	n

__BEGIN__	__EPS__
b	b
e	e
d	t
r	r
e	e
i	i
f	b
f	e

__BEGIN__	__EPS__
g	g
e	e
n	n
o	o
m	mm
e	e
n	n

__BEGIN__	__EPS__
k	k
r	r
o	o
n	ne

__BEGIN__	__EPS__
h	__EPS__
e	e
r	r

__BEGIN__	__EPS__
d	d
a	as
s	s

__BEGIN__	__EPS__
n	n
i	ic
h	h
t	t

__BEGIN__	__EPS__
i	i
c	c
h	h

__BEGIN__	__EPS__
d	d
o	a

__BEGIN__	__EPS__
s	s
a	a
n	nk
t	t

__BEGIN__	__EPS__
v	u
n	n
d	d

__BEGIN__	__EPS__
s	s
a	a
h	h
e	e
n	n

__BEGIN__	__EPS__
w	w
a	ah
r	r
h	h
e	e
i	i
t	t

__BEGIN__	__EPS__
c	k
h	o
u	n
n	n
d	t
e	e
n	n

__BEGIN__	__EPS__
v	u
n	n
n	d

__BEGIN__	__EPS__
m	m
e	e
i	i
n	n
e	e
r	r

__BEGIN__	__EPS__
l	le
i	i
b	b
e	e
s	s

__BEGIN__	__EPS__
o	o
f	b
f	__EPS__

__BEGIN__	__EPS__
l	l
a	a
c	c
h	h
t	t
e	e

__BEGIN__	__EPS__
v	u
n	n
d	d

__BEGIN__	__EPS__
t	__EPS__
z	ze
o	r
r	r
i	i
s	s
s	s
e	e
n	n

__BEGIN__	__EPS__
m	m
a	a
g	g
d	d
a	a
l	l
e	e
n	n
a	a

__BEGIN__	__EPS__
m	m
e	e
i	i
n	n

__BEGIN__	__EPS__
m	m
i	i
r	r

__BEGIN__	__EPS__
h	h
o	ö
r	r
e	__EPS__
t	t

__BEGIN__	__EPS__
h	h
a	a
i	be
n	n

__BEGIN__	__EPS__
n	n
i	ic
h	h
t	t

__BEGIN__	__EPS__
s	s
p	p
r	r
a	a
c	c
h	h

__BEGIN__	__EPS__
a	a
l	l
s	s

__BEGIN__	__EPS__
s	s
i	i
j	e

__BEGIN__	__EPS__
s	sc
h	h
o	a
w	u
o	e
n	n

__BEGIN__	__EPS__
p	b
l	l
u	u
t	t

__BEGIN__	__EPS__
a	a
l	l
s	s
e	__EPS__

__BEGIN__	__EPS__
r	r
i	e
e	i
c	c
h	h
e	e

__BEGIN__	__EPS__
d	d
u	u

__BEGIN__	__EPS__
d	d
o	a

__BEGIN__	__EPS__
d	d
e	e
r	r

__BEGIN__	__EPS__
g	g
a	a
n	n
t	__EPS__
z	z

__BEGIN__	__EPS__
h	h
e	e
r	r
r	r
e	__EPS__

__BEGIN__	__EPS__
s	s
i	i
c	c
h	h

__BEGIN__	__EPS__
e	e
r	r

__BEGIN__	__EPS__
a	a
n	n

__BEGIN__	__EPS__
c	k
h	__EPS__
l	l
a	e
i	i
d	d
e	e
r	r

__BEGIN__	__EPS__
v	u
m	m
b	__EPS__

__BEGIN__	__EPS__
h	h
e	e
r	r
o	o
d	de
z	s

__BEGIN__	__EPS__
v	v
i	ie
l	l

__BEGIN__	__EPS__
u	u
n	n
d	d

__BEGIN__	__EPS__
v	v
e	e
r	r
l	l
o	o
r	re
n	n

__BEGIN__	__EPS__
e	e
s	s
s	s
i	i
g	g

__BEGIN__	__EPS__
n	n
y	i
e	e

__BEGIN__	__EPS__
s	s
p	p
r	r
a	a
c	c
h	h

__BEGIN__	__EPS__
z	z
e	e
r	r
b	b
r	r
a	a
c	c
h	h

__BEGIN__	__EPS__
s	s
t	t
a	ad
t	t

__BEGIN__	__EPS__
w	w
i	i
r	r

__BEGIN__	__EPS__
i	ih
m	m

__BEGIN__	__EPS__
w	w
e	e
n	nn

__BEGIN__	__EPS__
g	g
e	e
n	n

__BEGIN__	__EPS__
s	s
i	i
e	e

__BEGIN__	__EPS__
a	a
u	u
f	f
f	__EPS__

__BEGIN__	__EPS__
b	b
e	e
g	g
o	a
n	n
d	n

__BEGIN__	__EPS__
v	u
n	n
d	d

__BEGIN__	__EPS__
i	i
c	c
h	h

__BEGIN__	__EPS__
e	e
i	i
n	n

__BEGIN__	__EPS__
m	m
i	i
c	c
h	h

__BEGIN__	__EPS__
h	h
e	e
r	r
o	o
d	d
e	e
s	s

__BEGIN__	__EPS__
w	w
a	a
r	r
d	d

__BEGIN__	__EPS__
o	o
s	s
t	t
e	e
r	r
t	t
a	a
g	g

__BEGIN__	__EPS__
t	t
a	a
g	g
e	__EPS__

__BEGIN__	__EPS__
d	d
o	a

__BEGIN__	__EPS__
d	d
e	e
r	r

__BEGIN__	__EPS__
s	s
p	p
r	r
a	a
c	c
h	h

__BEGIN__	__EPS__
i	ih
n	n

__BEGIN__	__EPS__
v	u
n	n
s	s
e	ä
g	g
l	l
e	__EPS__
i	i
c	c
h	h
e	e
r	r

__BEGIN__	__EPS__
w	w
u	ü
i	__EPS__
r	r
d	de

__BEGIN__	__EPS__
s	s
t	t
a	ad
t	t

__BEGIN__	__EPS__
v	u
n	n
d	d

__BEGIN__	__EPS__
s	s
c	c
h	h
r	r
e	e
i	i
b	be

__BEGIN__	__EPS__
v	v
e	e
r	r
s	sch
m	m
e	ä
c	__EPS__
h	h
t	t

__BEGIN__	__EPS__
d	d
e	e
r	r

__BEGIN__	__EPS__
d	d
e	e
r	r

__BEGIN__	__EPS__
v	u
n	n
d	d

__BEGIN__	__EPS__
h	h
e	e
l	l
l	l
e	e
n	__EPS__
d	__EPS__

__BEGIN__	__EPS__
t	t
r	r
u	oc
k	k
n	n
e	e
t	te

__BEGIN__	__EPS__
a	a
b	b
e	e
r	r

__BEGIN__	__EPS__
n	n
i	i
m	m
m	m
e	e
r	r

__BEGIN__	__EPS__
i	ih
m	m

__BEGIN__	__EPS__
v	u
n	n
g	g
e	__EPS__
l	le
i	i
c	c
h	h

__BEGIN__	__EPS__
w	w
e	e
r	r

__BEGIN__	__EPS__
s	se
y	i
n	n

__BEGIN__	__EPS__
i	j
u	ü
n	n
g	g
e	e
r	r

__BEGIN__	__EPS__
v	u
n	n
d	d

__BEGIN__	__EPS__
s	s
u	o
n	n
d	d
e	e
r	rn

__BEGIN__	__EPS__
a	a
n	n
g	g
e	e
s	s
i	i
c	c
h	h
t	t
e	__EPS__

__BEGIN__	__EPS__
d	__EPS__
i	e
r	r
h	h
e	e
b	b
i	e
n	n

__BEGIN__	__EPS__
e	e
r	r
f	f
u	ü
l	l
l	l
e	e
n	n

__BEGIN__	__EPS__
e	e
o	o

__BEGIN__	__EPS__
d	d
o	a

__BEGIN__	__EPS__
s	s
y	ie

__BEGIN__	__EPS__
g	g
e	e
w	w
a	a
n	n
t	d

__BEGIN__	__EPS__
r	r
e	e
c	c
h	h
t	t
i	e
n	n

__BEGIN__	__EPS__
e	e
r	r

__BEGIN__	__EPS__
d	d
a	a
i	__EPS__
r	__EPS__
z	z
o	u

__BEGIN__	__EPS__
i	ih
m	m

__BEGIN__	__EPS__
i	j
o	o
h	h
a	a
n	n
n	n
e	e
s	s

__BEGIN__	a
v	u
s	s

__BEGIN__	__EPS__
d	d
e	e
s	s

__BEGIN__	__EPS__
s	s
e	e
i	i
n	n

__BEGIN__	__EPS__
h	h
e	e
r	r
e	r

__BEGIN__	__EPS__
m	me
y	i
n	n

__BEGIN__	__EPS__
v	v
o	o
l	l
l	l
e	__EPS__
n	__EPS__
b	b
r	r
a	a
c	c
h	h
t	t

__BEGIN__	__EPS__
d	d
e	e
i	i
n	n

__BEGIN__	__EPS__
e	e
r	r
f	f
u	ül
l	l
t	t

__BEGIN__	__EPS__
c	c
r	r
u	u
c	c
i	i
f	f
i	i
g	g
e	e

__BEGIN__	__EPS__
a	a
n	n

__BEGIN__	__EPS__
d	d
a	a
s	s

__BEGIN__	__EPS__
d	d
o	a

__BEGIN__	__EPS__
i	i
n	n

__BEGIN__	__EPS__
i	i
e	h
r	re
n	n

__BEGIN__	__EPS__
b	b
e	e
k	k
a	a
m	m

__BEGIN__	__EPS__
i	i
s	s
t	t

__BEGIN__	__EPS__
e	e
i	i
n	n

__BEGIN__	__EPS__
d	d
a	a
i	__EPS__
r	__EPS__

__BEGIN__	__EPS__
s	se
y	i
n	n

__BEGIN__	__EPS__
g	g
e	e
b	b
o	o
r	re
n	n

__BEGIN__	__EPS__
v	u
n	n
d	d

__BEGIN__	__EPS__
i	e
u	u
r	r
i	__EPS__
u	e

__BEGIN__	__EPS__
d	d
u	u

__BEGIN__	__EPS__
w	w
a	a
r	r
t	d

__BEGIN__	__EPS__
h	h
a	am
m	m
e	e
r	r
s	sch
l	l
e	ä
g	g
e	e

__BEGIN__	__EPS__
k	k
i	i
n	n
d	d

__BEGIN__	__EPS__
h	h
a	a
n	n
t	d

__BEGIN__	__EPS__
w	w
a	a
t	s

__BEGIN__	__EPS__
y	ih
r	r

__BEGIN__	__EPS__
i	j
h	__EPS__
e	e
s	s
u	u
s	s

__BEGIN__	__EPS__
v	u
n	n
d	d

__BEGIN__	__EPS__
s	s
i	i
j	e

__BEGIN__	__EPS__
v	f
r	r
a	a
g	g
e	e
n	n

__BEGIN__	__EPS__
i	je
c	t
z	z
t	t

__BEGIN__	__EPS__
v	u
r	r
t	t
e	e
i	i
l	l

__BEGIN__	a
v	ufe
r	r
s	s
t	t
e	ehu
n	n
d	g

__BEGIN__	__EPS__
v	u
n	n
s	s
c	c
h	h
u	u
l	l
d	d
i	i
g	g

__BEGIN__	__EPS__
e	e
y	i
n	n
e	e
m	m

__BEGIN__	__EPS__
m	m
a	a
c	c
h	h
t	t

__BEGIN__	__EPS__
m	m
a	a
c	c
h	h
o	__EPS__
t	te

__BEGIN__	__EPS__
v	v
o	o
r	r

__BEGIN__	__EPS__
a	a
n	n
s	s
h	__EPS__
e	e
l	l
m	m
e	__EPS__

__BEGIN__	__EPS__
s	sch
w	w
e	e
y	i
k	ge

__BEGIN__	__EPS__
s	s
t	t
a	ad
t	t

__BEGIN__	__EPS__
w	w
a	a
r	r
d	d

__BEGIN__	__EPS__
g	g
e	e
s	s
c	c
h	h
r	r
i	ie
b	b
e	e
n	n

__BEGIN__	__EPS__
i	j
u	u
d	d
e	e
n	n

__BEGIN__	__EPS__
r	r
e	ä
c	c
h	h
e	e
n	n

__BEGIN__	__EPS__
i	i
c	c
h	h

__BEGIN__	__EPS__
k	k
y	i
n	n
t	d

__BEGIN__	__EPS__
y	ih
m	m

__BEGIN__	__EPS__
d	d
i	i
e	e

__BEGIN__	__EPS__
w	w
a	a
r	r
t	d

__BEGIN__	__EPS__
d	d
e	e
r	r

__BEGIN__	__EPS__
w	w
e	a
r	r
t	d

__BEGIN__	__EPS__
i	j
u	u
d	d
e	e
n	n

__BEGIN__	__EPS__
m	m
i	i
c	c
h	h

__BEGIN__	__EPS__
s	s
e	i
d	tt
e	e
n	n

__BEGIN__	__EPS__
d	d
v	u

__BEGIN__	__EPS__
e	e
r	r

__BEGIN__	__EPS__
p	p
e	r
n	e
d	d
e	i
g	g
e	__EPS__
t	t
e	e

__BEGIN__	__EPS__
v	v
u	e
r	r
g	g
e	e
b	b
u	u
n	n
g	g
e	__EPS__

__BEGIN__	__EPS__
u	a
f	u
f	f

__BEGIN__	__EPS__
n	n
o	o
i	__EPS__
t	t

__BEGIN__	__EPS__
a	a
l	l
l	l
e	e
s	s

__BEGIN__	__EPS__
v	v
i	i
e	e
r	r
c	__EPS__
z	z
i	i
g	g

