__BEGIN__	__EPS__
f	f
u	ü
e	s
z	s
z	e

__BEGIN__	__EPS__
s	s
t	t
u	a
n	n
d	d

__BEGIN__	__EPS__
g	g
r	r
o	o
s	s
s	s
e	e
r	r

__BEGIN__	__EPS__
t	t
e	e
n	m
p	p
e	e
l	l

__BEGIN__	__EPS__
d	d
e	e
r	r

__BEGIN__	__EPS__
m	m
i	i
r	r

__BEGIN__	__EPS__
g	g
r	r
e	ä
b	b
e	e
r	r

__BEGIN__	__EPS__
a	a
l	l
l	l
e	e
n	n

__BEGIN__	__EPS__
d	d
i	i
e	e

__BEGIN__	__EPS__
f	f
u	ü
n	n
f	f
t	t
h	a
u	u
s	s
i	e
n	n
t	d
h	__EPS__

__BEGIN__	__EPS__
d	d
e	e
i	i
n	n

__BEGIN__	__EPS__
d	d
i	i
e	e

__BEGIN__	__EPS__
d	d
a	a
i	__EPS__
r	__EPS__

__BEGIN__	__EPS__
m	m
a	a
r	r
i	i
l	l
l	l
y	i
s	s

__BEGIN__	__EPS__
s	sch
w	w
e	e
s	s
t	t
e	e
r	r

__BEGIN__	__EPS__
d	d
o	a

__BEGIN__	__EPS__
e	e
r	r

__BEGIN__	__EPS__
v	u
n	n
d	d

__BEGIN__	__EPS__
i	i
c	c
h	h

__BEGIN__	__EPS__
d	d
e	e
r	r

__BEGIN__	__EPS__
d	d
a	a
z	s

__BEGIN__	__EPS__
t	h
v	e
r	rrl
e	ich

__BEGIN__	__EPS__
s	s
o	o
u	l
l	l
d	t
e	e

__BEGIN__	__EPS__
g	g
r	r
o	o
s	s
z	s

__BEGIN__	__EPS__
l	l
e	eh
r	re

__BEGIN__	__EPS__
b	b
l	l
o	u
d	t
e	__EPS__

__BEGIN__	__EPS__
e	e
r	r

__BEGIN__	__EPS__
k	k
i	i
n	n
t	d

__BEGIN__	__EPS__
n	n
e	ä
g	g
e	e
l	l
e	__EPS__

__BEGIN__	__EPS__
w	w
i	ie
d	d
e	e
r	r

__BEGIN__	__EPS__
t	t
h	h
r	r
o	o
i	__EPS__
n	n

__BEGIN__	__EPS__
d	d
a	a
z	ss

__BEGIN__	__EPS__
c	__EPS__
z	z
u	u

__BEGIN__	__EPS__
e	e
s	s

__BEGIN__	__EPS__
m	m
e	e
i	i
n	n

__BEGIN__	__EPS__
a	a
n	n

__BEGIN__	__EPS__
g	g
a	a
s	s
s	s
v	e
n	n

__BEGIN__	__EPS__
d	d
o	a

__BEGIN__	__EPS__
s	s
e	e
l	l
b	b
e	e
r	r

__BEGIN__	__EPS__
a	a
l	l
l	l
e	e

__BEGIN__	__EPS__
i	i
n	n

__BEGIN__	__EPS__
m	m
o	o
r	r
g	g
e	e
n	n

__BEGIN__	__EPS__
v	u
r	r
t	t
e	ei
l	l

__BEGIN__	__EPS__
d	d
o	a

__BEGIN__	__EPS__
d	d
a	a
z	ss

__BEGIN__	__EPS__
g	g
e	e
a	a
n	n
t	t
w	w
i	o
r	r
t	t
e	e
t	t

__BEGIN__	__EPS__
s	s
a	e
t	t
z	z
t	t
e	e
n	n
d	__EPS__

__BEGIN__	__EPS__
d	d
o	o
r	r
n	n
e	e
n	n

__BEGIN__	__EPS__
s	s
o	o
l	ll
d	t
e	e

__BEGIN__	__EPS__
k	k
o	o
m	mm
e	e
n	n
t	__EPS__

__BEGIN__	__EPS__
w	w
o	o
l	ll
t	t
e	e
n	n

__BEGIN__	__EPS__
a	a
n	n

__BEGIN__	a
v	u
f	f

__BEGIN__	__EPS__
p	p
i	i
l	l
a	a
t	t
u	u
s	s
z	__EPS__

__BEGIN__	__EPS__
w	w
a	a
z	r

__BEGIN__	__EPS__
m	m
i	i
c	c
h	h

__BEGIN__	__EPS__
w	w
u	u
r	r
d	d
e	e

__BEGIN__	__EPS__
s	s
c	c
h	h
l	l
e	ä
c	__EPS__
h	g
t	t

__BEGIN__	__EPS__
d	d
a	a
t	s

__BEGIN__	__EPS__
s	s
p	p
r	r
a	a
c	c
h	h
e	e
n	n

__BEGIN__	__EPS__
a	a
n	n
t	t
l	l
u	i
e	__EPS__
t	t
z	z

__BEGIN__	__EPS__
g	g
e	e
s	sch
l	l
a	a
g	g
e	e
n	n

__BEGIN__	i
e	h
r	r

__BEGIN__	__EPS__
v	ü
b	b
e	e
r	r

__BEGIN__	__EPS__
a	a
r	r
m	m
e	e

__BEGIN__	__EPS__
o	o
w	w
e	eh

__BEGIN__	__EPS__
d	d
o	a

__BEGIN__	__EPS__
h	h
a	a
w	u
b	p
t	t

__BEGIN__	__EPS__
a	e
i	i
n	n

__BEGIN__	__EPS__
v	u
n	n
d	d

__BEGIN__	__EPS__
v	u
n	n
d	d

__BEGIN__	__EPS__
l	l
a	e
i	__EPS__
c	__EPS__
h	g
t	t
e	e

__BEGIN__	__EPS__
e	e
r	r
b	b
e	a
r	r
m	m
d	e
e	n

__BEGIN__	__EPS__
e	e
r	r

__BEGIN__	__EPS__
m	me
y	i
n	n
r	e
e	r

__BEGIN__	__EPS__
d	d
e	e
m	m

__BEGIN__	__EPS__
k	k
r	r
o	o
n	ne

__BEGIN__	__EPS__
e	e
y	i
n	n
i	i
g	g
e	e

__BEGIN__	__EPS__
d	d
u	u

__BEGIN__	__EPS__
m	m
e	e
n	n
s	s
h	c
e	h

__BEGIN__	__EPS__
w	w
u	u
n	n
t	d
e	e
n	n

__BEGIN__	__EPS__
w	w
o	oh
l	l

__BEGIN__	__EPS__
g	g
e	eh
t	t

__BEGIN__	__EPS__
e	e
i	i
n	n

__BEGIN__	__EPS__
g	g
e	e
l	l
e	i
d	tt
e	e
n	n

__BEGIN__	__EPS__
m	m
i	i
t	t

__BEGIN__	__EPS__
a	a
l	l
l	l
e	e
r	r

__BEGIN__	__EPS__
v	u
n	n
d	d

__BEGIN__	__EPS__
t	t
e	e
m	m
p	p
e	e
l	l
s	s

__BEGIN__	__EPS__
m	m
e	e
i	i
n	n

__BEGIN__	__EPS__
d	d
i	i
r	r

__BEGIN__	__EPS__
v	f
r	r
o	a
w	u
e	__EPS__

__BEGIN__	__EPS__
w	w
a	a
n	nn

__BEGIN__	__EPS__
s	s
e	e
l	l
b	b
e	e
n	n

__BEGIN__	__EPS__
c	k
r	r
e	e
a	a
t	t
v	u
r	r
e	__EPS__

__BEGIN__	__EPS__
v	o
i	__EPS__
b	b

__BEGIN__	__EPS__
h	h
a	e
i	i
l	l
i	i
g	g
e	e
n	n

__BEGIN__	__EPS__
d	d
e	e
r	r

__BEGIN__	__EPS__
d	d
i	i
n	n
g	g
s	e

__BEGIN__	__EPS__
i	i
c	c
h	h

__BEGIN__	__EPS__
e	e
r	r
l	l
e	ö
d	__EPS__
i	__EPS__
g	__EPS__
e	s
t	t

__BEGIN__	__EPS__
v	u
n	n
d	d

__BEGIN__	__EPS__
s	s
o	o

__BEGIN__	__EPS__
j	j
e	ä
m	mm
e	e
r	r
l	l
i	i
c	c
h	h
e	e
r	r

__BEGIN__	__EPS__
p	w
e	a
i	r
t	t
e	e
n	n

__BEGIN__	__EPS__
i	i
c	c
h	h

__BEGIN__	__EPS__
d	d
e	e
r	r

__BEGIN__	__EPS__
b	b
e	e
r	r
e	e
i	i
t	t

__BEGIN__	__EPS__
e	e
i	i
n	n
e	e
m	m

__BEGIN__	__EPS__
h	h
o	ö
e	__EPS__
r	re

__BEGIN__	__EPS__
h	h
a	a
s	s
t	t

__BEGIN__	__EPS__
v	v
o	o
r	r

__BEGIN__	__EPS__
w	w
e	e
n	nn

__BEGIN__	__EPS__
v	u
n	n
d	d

__BEGIN__	__EPS__
d	d
a	a
s	ss

__BEGIN__	__EPS__
c	k
l	l
a	a
g	g
e	e
n	n

__BEGIN__	__EPS__
y	i
r	h
r	r
e	er

__BEGIN__	__EPS__
s	s
i	i
e	e

__BEGIN__	__EPS__
m	m
e	e
i	i
n	n

__BEGIN__	__EPS__
e	u
n	nd

__BEGIN__	__EPS__
h	h
e	a
t	t
t	t
e	e
n	n
d	__EPS__

__BEGIN__	__EPS__
v	u
n	n
d	d

__BEGIN__	__EPS__
r	r
e	e
d	d
e	e
n	n

__BEGIN__	__EPS__
v	v
o	o
n	n

__BEGIN__	__EPS__
l	le
i	i
c	c
h	h
n	n
a	a
m	m

__BEGIN__	__EPS__
m	m
e	e
i	i
n	n

__BEGIN__	__EPS__
v	a
s	u
z	s

__BEGIN__	__EPS__
d	d
a	a
z	ss

__BEGIN__	__EPS__
t	t
e	e
m	m
p	p
e	e
l	l

__BEGIN__	__EPS__
v	u
n	n
d	d

__BEGIN__	__EPS__
a	e
i	i
n	n

__BEGIN__	__EPS__
d	d
o	a

__BEGIN__	__EPS__
g	g
a	a
t	t
e	e
n	n

__BEGIN__	__EPS__
v	f
r	r
a	a
e	__EPS__
g	g
e	e
n	n

__BEGIN__	__EPS__
y	ih
n	n

__BEGIN__	__EPS__
u	u
n	n
d	d

__BEGIN__	__EPS__
s	s
p	p
r	r
a	a
c	c
h	h
e	e
n	n

__BEGIN__	__EPS__
s	se
i	i
n	n

__BEGIN__	__EPS__
m	m
e	e
i	i
n	n
e	e
s	s

__BEGIN__	__EPS__
a	a
l	l
l	l
e	e

__BEGIN__	__EPS__
c	k
l	l
e	ä
g	g
l	l
i	i
c	c
h	h
e	e

__BEGIN__	__EPS__
e	i
m	h
e	m

__BEGIN__	__EPS__
b	b
o	o
t	t
t	__EPS__
e	e
n	n

__BEGIN__	__EPS__
v	u
n	n
s	s
e	ä
g	g
l	l
i	i
c	c
h	h
e	e

__BEGIN__	__EPS__
s	se
y	i
m	n
e	em

__BEGIN__	__EPS__
b	b
e	e
t	t
t	__EPS__
e	e

__BEGIN__	__EPS__
g	g
e	e
b	b
o	o
r	re
n	n

__BEGIN__	__EPS__
f	f
u	üh
r	r
e	e

__BEGIN__	__EPS__
s	s
v	ü
i	__EPS__
n	n
d	de

__BEGIN__	__EPS__
s	s
y	ie

__BEGIN__	__EPS__
p	b
a	e
i	i
n	n

__BEGIN__	__EPS__
i	ih
m	m

__BEGIN__	__EPS__
i	i
c	c
h	h

__BEGIN__	__EPS__
s	s
p	p
r	r
a	a
c	c
h	h

__BEGIN__	__EPS__
r	r
i	e
j	i
c	c
h	h
e	e

__BEGIN__	__EPS__
o	o

__BEGIN__	__EPS__
d	d
e	e
m	m

__BEGIN__	__EPS__
v	u
n	n
d	d

__BEGIN__	__EPS__
h	h
a	a
s	s
z	s

__BEGIN__	__EPS__
r	r
y	ie
f	f

__BEGIN__	__EPS__
w	w
a	a
s	r

__BEGIN__	__EPS__
k	k
l	l
a	a
g	ge

__BEGIN__	__EPS__
f	f
r	r
a	a
u	u
w	__EPS__
e	__EPS__

__BEGIN__	__EPS__
l	l
i	ie
b	b
s	s
t	t
e	e

__BEGIN__	__EPS__
t	t
a	a
g	g

__BEGIN__	__EPS__
g	g
e	e
i	i
s	s
t	t

__BEGIN__	__EPS__
l	l
e	e
b	b
e	e
n	n
d	d
e	__EPS__

__BEGIN__	__EPS__
w	w
u	u
r	r
d	d
e	e
n	n

__BEGIN__	__EPS__
s	s
c	c
h	h
l	l
e	ä
g	ge

__BEGIN__	__EPS__
s	sc
h	h
a	at
z	z

__BEGIN__	__EPS__
d	d
a	a
r	__EPS__
n	n
a	a
c	c
h	h

__BEGIN__	__EPS__
k	k
r	r
e	e
u	u
c	__EPS__
z	z

__BEGIN__	__EPS__
h	h
a	a
t	t

__BEGIN__	__EPS__
g	g
e	e
s	s
u	u
n	n
t	d
e	__EPS__

__BEGIN__	__EPS__
s	s
e	e
i	i
n	n

__BEGIN__	__EPS__
i	ih
n	n

__BEGIN__	__EPS__
l	le
v	u
t	t
e	e
n	n

__BEGIN__	__EPS__
m	m
e	e
i	i
n	n
e	e
m	m

__BEGIN__	__EPS__
s	s
i	i
e	e

__BEGIN__	__EPS__
v	u
n	n
d	d

__BEGIN__	__EPS__
b	b
i	i
l	l
l	l
i	i
c	__EPS__
h	g

__BEGIN__	__EPS__
h	h
y	i
m	mm
i	e
l	l
r	re
i	i
e	__EPS__
c	c
h	h

__BEGIN__	__EPS__
s	s
o	o
e	__EPS__

__BEGIN__	__EPS__
g	g
i	i
e	__EPS__
n	n
g	g

__BEGIN__	__EPS__
c	k
r	r
u	e
c	u
e	z

__BEGIN__	__EPS__
d	d
r	r
i	i
t	t
t	t
e	e
n	n

__BEGIN__	__EPS__
v	v
o	o
n	n

__BEGIN__	__EPS__
d	d
o	a

__BEGIN__	__EPS__
i	i
c	c
h	h

__BEGIN__	__EPS__
g	g
e	e
b	b
o	o
t	t
e	e

__BEGIN__	__EPS__
s	s
i	i
e	e

__BEGIN__	__EPS__
d	d
u	u
r	r
c	c
h	h

__BEGIN__	__EPS__
d	d
i	i
c	c
h	h

__BEGIN__	__EPS__
v	u
n	n
d	d

__BEGIN__	__EPS__
g	g
e	e
w	w
a	a
n	n
t	d

__BEGIN__	__EPS__
d	d
e	e
r	r

__BEGIN__	__EPS__
d	d
i	i
e	e

__BEGIN__	__EPS__
m	m
i	i
t	t

__BEGIN__	__EPS__
h	e
e	r

__BEGIN__	__EPS__
s	s
e	e
i	i
n	n

__BEGIN__	__EPS__
d	d
r	re
y	i
e	e
n	n

__BEGIN__	__EPS__
s	s
i	i
e	e

__BEGIN__	__EPS__
m	m
i	i
t	t

__BEGIN__	__EPS__
f	f
r	r
a	a
g	g
t	t

__BEGIN__	__EPS__
i	i
n	n

__BEGIN__	__EPS__
k	k
v	__EPS__
i	ö
n	n
i	i
c	g
h	__EPS__

__BEGIN__	__EPS__
s	s
p	p
r	r
a	a
c	c
h	h

__BEGIN__	__EPS__
v	u
n	n
d	d

__BEGIN__	__EPS__
m	m
a	a
r	r
t	t
e	e
r	r

__BEGIN__	__EPS__
r	r
i	i
e	e
f	f
f	__EPS__
e	e
n	n

__BEGIN__	__EPS__
v	u
n	n
d	d

__BEGIN__	__EPS__
d	d
o	a

__BEGIN__	__EPS__
v	v
o	o
n	n

__BEGIN__	__EPS__
e	e
r	r
s	s
t	t
e	e
n	n

__BEGIN__	__EPS__
u	v
o	o
r	r

__BEGIN__	__EPS__
s	s
o	o

__BEGIN__	__EPS__
b	b
y	i
n	n
n	n
e	e
n	n

__BEGIN__	__EPS__
w	w
a	a
n	n
e	n

__BEGIN__	__EPS__
m	l
i	ie
n	b
e	e
c	v
l	o
i	l
c	__EPS__
h	l
e	__EPS__
n	__EPS__

__BEGIN__	__EPS__
v	v
e	e
r	r
g	g
i	i
b	b

__BEGIN__	__EPS__
v	u
n	n
d	d

__BEGIN__	__EPS__
a	a
l	l
s	s

__BEGIN__	__EPS__
d	d
o	a

__BEGIN__	__EPS__
h	h
e	e
i	i
l	l
i	i
g	g
e	e
n	n

__BEGIN__	__EPS__
v	v
o	o
n	n

__BEGIN__	__EPS__
m	m
i	i
t	t

__BEGIN__	__EPS__
s	s
p	p
r	r
a	a
c	c
h	h

__BEGIN__	__EPS__
s	s
y	i
m	m
e	e
o	o
n	n
i	__EPS__
s	s

__BEGIN__	__EPS__
s	s
y	ieh

__BEGIN__	__EPS__
s	s
e	eh
r	r

__BEGIN__	__EPS__
d	d
a	a
n	nn

__BEGIN__	__EPS__
l	l
i	i
e	e
s	s
s	s
e	e
n	n
t	__EPS__

__BEGIN__	__EPS__
g	g
e	e
m	m
a	a
r	r
t	t
e	e
r	r
t	t

__BEGIN__	__EPS__
a	a
b	b
e	e
r	r

__BEGIN__	__EPS__
d	t
r	r
u	o
c	c
h	__EPS__
k	k
e	__EPS__
n	ne
t	t
e	e

__BEGIN__	a
v	u
f	f

__BEGIN__	__EPS__
d	d
e	e
r	r

__BEGIN__	__EPS__
w	w
i	i
l	l
l	l
e	e
n	n

__BEGIN__	__EPS__
i	i
c	c
h	h

__BEGIN__	__EPS__
d	d
i	i
e	e

__BEGIN__	__EPS__
i	j
a	a
m	mm
e	e
r	r

__BEGIN__	__EPS__
v	u
n	n
d	d

__BEGIN__	__EPS__
t	t
o	o
d	d
e	e
s	s

__BEGIN__	__EPS__
i	u
n	n
d	d

__BEGIN__	__EPS__
s	s
p	p
e	e
e	e
r	r

__BEGIN__	__EPS__
d	d
o	a

__BEGIN__	__EPS__
k	k
i	i
n	n
d	d

__BEGIN__	__EPS__
e	e
r	r

__BEGIN__	__EPS__
g	g
o	o
t	t
t	t
e	e
s	s

__BEGIN__	__EPS__
e	e
r	r

__BEGIN__	__EPS__
d	d
o	a

__BEGIN__	__EPS__
s	s
y	ie

__BEGIN__	__EPS__
v	u
n	n
d	d

__BEGIN__	__EPS__
m	m
e	e
i	i
n	n

__BEGIN__	__EPS__
a	a
l	l
t	t
e	e
r	r

__BEGIN__	__EPS__
v	u
n	n
d	d
e	__EPS__

__BEGIN__	__EPS__
p	p
e	e
t	t
r	r
e	us

__BEGIN__	__EPS__
l	l
e	e
i	i
p	b

__BEGIN__	__EPS__
w	w
e	e
r	r
d	d
e	e
n	n
t	__EPS__

__BEGIN__	__EPS__
o	a
u	u
c	c
h	h

__BEGIN__	__EPS__
k	k
u	o
n	nn
d	t
e	e

__BEGIN__	__EPS__
g	g
i	i
n	n
g	g
e	e
n	n
t	__EPS__

__BEGIN__	__EPS__
h	h
a	a
w	u
b	p
t	t

__BEGIN__	__EPS__
a	a
l	l
s	s
o	o

__BEGIN__	__EPS__
a	a
l	l
l	l
e	e

__BEGIN__	__EPS__
s	s
p	p
o	o
t	tt
e	e
s	s

__BEGIN__	__EPS__
w	w
a	a
z	r

__BEGIN__	__EPS__
m	m
a	a
c	c
h	he

__BEGIN__	__EPS__
z	z
u	u

__BEGIN__	__EPS__
d	d
e	e
m	m

__BEGIN__	__EPS__
d	d
a	a
m	m
i	i
t	t

__BEGIN__	__EPS__
y	ih
n	n

__BEGIN__	__EPS__
m	m
a	a
r	r
i	i
a	a

__BEGIN__	__EPS__
v	u
n	n
d	d

__BEGIN__	__EPS__
s	s
e	e
e	e
l	le

__BEGIN__	__EPS__
i	i
c	c
h	h

__BEGIN__	__EPS__
w	w
a	a
s	s

__BEGIN__	__EPS__
s	s
o	o

__BEGIN__	__EPS__
e	e
r	r

__BEGIN__	__EPS__
v	u
n	n
d	d

__BEGIN__	__EPS__
i	j
v	u
d	d
e	e
n	n

__BEGIN__	__EPS__
n	n
a	a
c	c
h	h

__BEGIN__	__EPS__
h	h
i	i
n	n
a	a
b	b

__BEGIN__	__EPS__
p	b
e	e
y	i

__BEGIN__	__EPS__
d	d
a	as
z	s

__BEGIN__	__EPS__
f	f
u	ü
e	__EPS__
r	r

__BEGIN__	__EPS__
p	pe
y	i
n	n

__BEGIN__	__EPS__
w	w
a	a
n	n
g	g
e	e
n	n

__BEGIN__	__EPS__
s	s
p	p
r	r
a	a
c	c
h	h
e	e
n	n

__BEGIN__	__EPS__
w	w
e	e
e	h

__BEGIN__	__EPS__
v	v
o	o
n	n

__BEGIN__	__EPS__
u	a
f	u
f	f
g	g
e	e
r	r
i	i
c	c
h	h
t	tet

__BEGIN__	__EPS__
s	s
e	e
i	i
n	n
e	e
m	m

__BEGIN__	__EPS__
s	s
u	ü
z	s
z	s
e	e

__BEGIN__	__EPS__
r	r
i	i
t	t
t	t
e	e
r	r

__BEGIN__	__EPS__
d	d
o	a

__BEGIN__	__EPS__
h	__EPS__
e	e
r	r

__BEGIN__	__EPS__
d	d
a	a
z	ss

__BEGIN__	__EPS__
v	v
e	e
r	r
s	s
t	t
a	eh
i	e
n	n

__BEGIN__	__EPS__
d	d
a	a
n	nn

__BEGIN__	__EPS__
w	w
a	a
t	s

__BEGIN__	__EPS__
d	d
o	a

__BEGIN__	__EPS__
m	me
y	i
m	n
e	em

__BEGIN__	__EPS__
i	ih
m	m

__BEGIN__	__EPS__
z	z
e	u

__BEGIN__	__EPS__
v	u
n	n
d	d

__BEGIN__	__EPS__
f	f
v	ü
i	__EPS__
r	r

__BEGIN__	__EPS__
g	g
l	l
o	au
b	b
e	e
n	n
t	__EPS__

__BEGIN__	__EPS__
k	k
i	i
n	n
t	d

__BEGIN__	__EPS__
s	se
y	i
n	n
e	e
n	n

__BEGIN__	__EPS__
k	k
o	o
m	mm
e	e
n	n

__BEGIN__	__EPS__
d	d
i	i
e	e

__BEGIN__	__EPS__
b	b
r	r
u	u
n	nn
e	e
n	n

__BEGIN__	__EPS__
a	a
r	r
m	m
e	e
n	n

__BEGIN__	__EPS__
b	b
l	l
e	e
i	i
f	b
f	e

__BEGIN__	__EPS__
i	j
h	__EPS__
e	e
s	s
u	us

__BEGIN__	__EPS__
i	ih
n	n

__BEGIN__	__EPS__
g	g
l	le
i	i
c	c
h	h

__BEGIN__	__EPS__
b	b
e	e
g	g
r	r
u	ü
e	__EPS__
b	be

__BEGIN__	__EPS__
h	h
o	ö
r	r

__BEGIN__	__EPS__
h	e
e	r

__BEGIN__	__EPS__
g	g
e	e
s	s
t	t
a	a
l	l
t	t

__BEGIN__	__EPS__
d	d
o	a

__BEGIN__	__EPS__
c	__EPS__
h	k
r	r
a	e
w	u
c	__EPS__
z	z
i	i
g	g
t	t

__BEGIN__	__EPS__
n	n
a	a
c	c
h	h

__BEGIN__	__EPS__
m	m
i	i
c	c
h	h

__BEGIN__	__EPS__
o	o
w	w
e	eh

__BEGIN__	__EPS__
h	e
e	r

__BEGIN__	__EPS__
s	s
c	c
h	h
r	r
i	i
e	e
r	__EPS__
e	__EPS__
n	n

__BEGIN__	__EPS__
d	d
i	i
e	e

__BEGIN__	__EPS__
o	o
w	w
e	eh

__BEGIN__	__EPS__
d	d
a	a

__BEGIN__	__EPS__
r	r
o	o
c	c
h	__EPS__
k	k

__BEGIN__	__EPS__
z	z
i	i
n	n
s	s

__BEGIN__	__EPS__
s	s
c	c
h	h
u	u
i	__EPS__
c	__EPS__
h	h

__BEGIN__	__EPS__
g	g
i	i
e	__EPS__
n	n
g	g

__BEGIN__	__EPS__
d	d
e	e
r	r

__BEGIN__	__EPS__
c	k
l	l
a	a
r	r
h	h
e	e
i	i
t	t

__BEGIN__	__EPS__
d	s
u	t
r	r
c	a
h	h
l	l
v	__EPS__
i	e
c	__EPS__
h	n
t	d
i	__EPS__
c	__EPS__

__BEGIN__	__EPS__
v	u
n	n
d	d

__BEGIN__	__EPS__
d	d
y	ie

__BEGIN__	__EPS__
g	g
a	a
r	r

__BEGIN__	__EPS__
n	n
y	i
e	e

__BEGIN__	__EPS__
s	s
e	eh
r	r
e	__EPS__

__BEGIN__	__EPS__
m	m
e	e
i	i
n	n

__BEGIN__	__EPS__
o	ü
b	b
b	__EPS__
e	e
r	r

__BEGIN__	__EPS__
d	d
u	u
r	r
c	c
h	h

__BEGIN__	__EPS__
g	g
o	ö
e	__EPS__
t	t
t	t
l	l
i	i
c	c
h	h
e	e

__BEGIN__	__EPS__
d	d
i	i
e	e

__BEGIN__	__EPS__
i	i
c	c
h	h

__BEGIN__	__EPS__
d	d
i	i
e	e

__BEGIN__	__EPS__
s	sc
h	h
e	e
i	i
d	d
e	e
n	n

__BEGIN__	__EPS__
e	e
r	r
l	le
i	i
d	d
e	e
n	n

__BEGIN__	__EPS__
v	u
n	n
d	d

__BEGIN__	__EPS__
b	b
o	ö
s	s
e	e
r	r

__BEGIN__	__EPS__
h	h
a	a
w	u
b	p
t	t

__BEGIN__	__EPS__
d	d
e	e
n	n

__BEGIN__	__EPS__
v	a
f	u
f	f

__BEGIN__	__EPS__
b	b
e	e
g	g
i	i
n	n
e	__EPS__
n	__EPS__
g	g

__BEGIN__	__EPS__
m	m
i	i
t	t

__BEGIN__	__EPS__
s	s
t	t
i	i
l	l
l	l
e	e

__BEGIN__	__EPS__
h	h
a	a
t	t
t	t
e	e
n	n

__BEGIN__	__EPS__
w	w
a	a
r	r
d	d

__BEGIN__	__EPS__
s	s
c	c
h	h
w	w
e	e
s	s
t	t
e	e
r	r

__BEGIN__	__EPS__
d	d
o	a

__BEGIN__	__EPS__
e	u
n	n
d	d
e	__EPS__

__BEGIN__	__EPS__
g	g
e	e
s	s
p	p
r	r
o	o
c	c
h	h
e	e
n	n

__BEGIN__	__EPS__
v	v
o	o
l	l
k	ke
s	s

__BEGIN__	__EPS__
m	m
e	e
i	i
n	n

__BEGIN__	__EPS__
c	__EPS__
z	z
u	u

__BEGIN__	__EPS__
d	d
o	a

__BEGIN__	__EPS__
a	a
l	l
s	s
o	o

__BEGIN__	__EPS__
t	t
a	a
g	g
e	e

__BEGIN__	__EPS__
c	k
a	a
i	i
p	p
h	h
a	a
s	s

__BEGIN__	__EPS__
e	e
r	r
f	f
r	r
o	e
w	u
t	t

__BEGIN__	__EPS__
v	u
n	n
n	d

__BEGIN__	__EPS__
m	m
i	i
c	c
h	h

__BEGIN__	__EPS__
s	s
p	p
o	o
t	t
t	t
e	__EPS__

__BEGIN__	__EPS__
a	a
u	u
c	c
h	h

__BEGIN__	__EPS__
d	d
a	a

__BEGIN__	__EPS__
p	b
i	i
n	n

__BEGIN__	__EPS__
d	d
a	a
z	s

__BEGIN__	__EPS__
d	d
a	a
m	m
i	i
t	t

__BEGIN__	__EPS__
h	h
a	a
u	b
e	e

__BEGIN__	__EPS__
d	d
e	e
m	m

__BEGIN__	__EPS__
e	e
r	r
s	s
c	c
h	h
r	r
a	a
g	__EPS__
k	k
e	e
n	n

__BEGIN__	__EPS__
v	u
n	n
d	d

__BEGIN__	__EPS__
i	ih
n	n

__BEGIN__	__EPS__
v	v
e	e
r	r
d	t
r	r
i	e
j	i
f	b
f	__EPS__

__BEGIN__	__EPS__
i	j
u	u
d	d
e	e
n	n

__BEGIN__	__EPS__
r	r
e	e
y	i
n	n
e	e
n	n

__BEGIN__	__EPS__
w	w
i	i
r	r
t	d

__BEGIN__	__EPS__
i	ih
n	n

__BEGIN__	__EPS__
m	m
i	i
c	c
h	h

__BEGIN__	__EPS__
y	ih
r	r

__BEGIN__	__EPS__
k	k
a	a
n	nn

__BEGIN__	__EPS__
i	ih
m	m

__BEGIN__	__EPS__
n	n
i	i
c	c
h	h
t	t

__BEGIN__	__EPS__
n	n
i	ich
t	t

__BEGIN__	__EPS__
e	e
i	i
n	n
e	e
n	m

__BEGIN__	__EPS__
j	j
o	u
e	__EPS__
d	d
e	e
n	n

__BEGIN__	__EPS__
e	e
i	i
n	n

__BEGIN__	__EPS__
d	d
o	a

__BEGIN__	__EPS__
i	j
o	o
h	h
a	a
n	n
n	n
e	e
s	s

__BEGIN__	__EPS__
i	ih
m	m

__BEGIN__	__EPS__
h	h
e	e
r	r
o	a
u	u
z	s

__BEGIN__	__EPS__
s	s
y	ie

__BEGIN__	__EPS__
n	n
o	ö
t	t
e	e
n	n

__BEGIN__	__EPS__
d	d
e	e
m	m

__BEGIN__	__EPS__
p	p
y	i
l	l
a	a
t	t
u	u
s	s

__BEGIN__	__EPS__
c	__EPS__
z	z
u	u

__BEGIN__	__EPS__
g	g
e	e
s	s
t	t
a	a
l	l
t	t

__BEGIN__	__EPS__
a	a
l	l
l	l
e	e

__BEGIN__	__EPS__
v	v
o	o
n	n

__BEGIN__	__EPS__
d	d
i	i
e	e

__BEGIN__	__EPS__
l	l
a	a
s	s
t	t
e	e
r	r

__BEGIN__	__EPS__
s	s
y	ie

__BEGIN__	__EPS__
w	w
i	i
s	s
s	s
e	e
n	n

__BEGIN__	__EPS__
v	u
n	n
d	d

__BEGIN__	__EPS__
e	e
r	r
d	d
e	e
n	n

__BEGIN__	__EPS__
d	d
i	i
e	e

__BEGIN__	__EPS__
m	m
i	i
r	r

__BEGIN__	__EPS__
v	u
n	n
d	d

__BEGIN__	__EPS__
w	a
i	u
d	f
e	__EPS__
r	__EPS__
m	b
a	a
c	__EPS__
h	u
e	e
n	n

__BEGIN__	__EPS__
d	d
v	i
i	e

__BEGIN__	__EPS__
d	d
o	a

__BEGIN__	__EPS__
d	d
o	a

__BEGIN__	__EPS__
e	e
r	r

__BEGIN__	__EPS__
s	s
o	o
l	ll
t	t

__BEGIN__	__EPS__
e	e
i	i
n	n

__BEGIN__	__EPS__
d	d
a	a
n	n
c	__EPS__
k	k

__BEGIN__	__EPS__
i	i
n	n
n	n
i	i
c	g
l	l
i	i
c	c
h	h

__BEGIN__	__EPS__
d	d
e	e
s	s

__BEGIN__	__EPS__
a	a
l	l
s	s
o	o

__BEGIN__	__EPS__
h	h
e	e
i	i
l	l
i	i
g	g
e	e
n	n

__BEGIN__	__EPS__
s	s
i	ie

__BEGIN__	__EPS__
t	t
r	r
u	u
g	g
e	e
n	n

__BEGIN__	__EPS__
m	m
e	e
i	i
n	n

__BEGIN__	__EPS__
i	ih
n	n

__BEGIN__	__EPS__
b	b
e	e
d	t
r	ri
e	e
u	b
e	e
n	n

__BEGIN__	__EPS__
g	g
r	r
o	ö
s	s
s	s
e	e

__BEGIN__	__EPS__
h	h
u	u
n	n
d	d
e	e

__BEGIN__	__EPS__
v	f
o	u
i	h
r	r

__BEGIN__	__EPS__
v	u
n	n
d	d

__BEGIN__	__EPS__
d	d
e	e
s	s

__BEGIN__	__EPS__
i	i
c	c
h	h

__BEGIN__	__EPS__
u	d
e	u

__BEGIN__	__EPS__
e	e
s	s

__BEGIN__	__EPS__
d	d
e	e
n	n

__BEGIN__	__EPS__
a	a
l	l
s	s
o	o

__BEGIN__	__EPS__
d	d
i	i
c	c
h	h

__BEGIN__	__EPS__
i	ih
r	r

__BEGIN__	__EPS__
h	h
e	e
y	i
l	l
i	__EPS__
s	s

__BEGIN__	__EPS__
d	d
o	a

__BEGIN__	__EPS__
v	v
o	o
n	n

__BEGIN__	__EPS__
h	h
e	a
t	tt
e	e
n	n

__BEGIN__	__EPS__
e	e
s	s

__BEGIN__	__EPS__
s	s
o	o

__BEGIN__	__EPS__
m	m
i	i
t	t

__BEGIN__	__EPS__
g	g
e	e
d	d
a	a
c	c
h	h
t	t

__BEGIN__	__EPS__
r	r
a	a
c	c
h	he
n	n

__BEGIN__	__EPS__
s	s
y	ie

__BEGIN__	__EPS__
m	m
e	e
e	e
r	r
e	__EPS__

__BEGIN__	__EPS__
v	u
n	n
d	d

__BEGIN__	__EPS__
v	v
o	o
r	r

__BEGIN__	__EPS__
d	d
u	u
r	r
c	c
h	h

__BEGIN__	__EPS__
r	r
e	e
w	u
e	e

__BEGIN__	__EPS__
d	d
o	a

__BEGIN__	__EPS__
d	d
r	r
e	e
i	i
n	__EPS__

__BEGIN__	__EPS__
d	d
a	a
r	__EPS__
n	n
a	a
c	c
h	h

__BEGIN__	__EPS__
s	s
t	t
i	i
e	e
z	s
z	s

__BEGIN__	__EPS__
i	i
s	s
t	t

__BEGIN__	__EPS__
f	f
u	üh
r	r
e	e
n	n

__BEGIN__	__EPS__
m	m
i	i
t	t

__BEGIN__	__EPS__
o	o
w	w
e	eh

__BEGIN__	__EPS__
i	j
u	u
d	d
e	e
n	n

__BEGIN__	__EPS__
d	d
i	i
e	e

__BEGIN__	__EPS__
s	s
u	oh
n	n

__BEGIN__	__EPS__
i	i
s	s
t	t

__BEGIN__	__EPS__
a	a
l	l
s	s
o	o

__BEGIN__	__EPS__
m	m
i	i
c	c
h	h

__BEGIN__	__EPS__
h	he
u	u
d	t
e	e

__BEGIN__	__EPS__
d	d
a	a
t	s

__BEGIN__	__EPS__
s	se
i	i
n	n

__BEGIN__	__EPS__
e	e
s	s

__BEGIN__	__EPS__
w	w
o	äh
n	n
t	t
e	e
n	n

__BEGIN__	__EPS__
w	w
o	o
r	r
t	t

__BEGIN__	__EPS__
s	s
i	ie

__BEGIN__	__EPS__
n	n
a	a
c	c
h	h

__BEGIN__	__EPS__
d	d
a	a
s	s

__BEGIN__	__EPS__
l	l
i	i
e	e
b	b
s	s
t	t
e	e

__BEGIN__	__EPS__
d	d
i	i
e	e

__BEGIN__	__EPS__
v	f
a	e
s	s
t	t

__BEGIN__	__EPS__
d	d
i	i
e	e

__BEGIN__	__EPS__
s	s
e	e
i	i
n	n

__BEGIN__	__EPS__
e	e
r	r

__BEGIN__	__EPS__
e	e
r	r

__BEGIN__	__EPS__
m	m
y	i
t	t

__BEGIN__	__EPS__
n	n
i	ich
t	t

__BEGIN__	__EPS__
g	g
e	e
n	n
a	a
s	s

__BEGIN__	__EPS__
t	t
o	o
d	d
e	e
s	s

__BEGIN__	__EPS__
s	s
o	oh
n	n
e	__EPS__

__BEGIN__	__EPS__
m	m
e	a
n	n

__BEGIN__	__EPS__
o	oh

__BEGIN__	__EPS__
s	s
u	ü
e	__EPS__
s	s
s	s
y	ig
k	k
a	e
y	i
t	t

__BEGIN__	__EPS__
n	n
u	un

__BEGIN__	__EPS__
s	s
e	e
y	i
n	n

__BEGIN__	__EPS__
l	l
o	ö
e	__EPS__
s	s
e	e
n	n

__BEGIN__	__EPS__
d	d
a	a
s	s

__BEGIN__	__EPS__
a	a
l	l
s	s
o	o

__BEGIN__	__EPS__
b	b
e	e
h	h
u	ü
t	t
e	e

__BEGIN__	__EPS__
i	i
c	c
h	h

__BEGIN__	__EPS__
m	me
y	i
n	n

__BEGIN__	__EPS__
f	f
l	l
u	o
s	s
z	s

__BEGIN__	__EPS__
r	r
e	e
d	d
e	e

__BEGIN__	__EPS__
z	ze
i	i
t	t

__BEGIN__	__EPS__
h	h
e	ä
t	t
t	t
e	e

__BEGIN__	__EPS__
h	h
e	e
r	r
t	__EPS__
z	z

__BEGIN__	__EPS__
s	s
y	ie

__BEGIN__	__EPS__
d	d
a	a
n	n
n	n
e	e
n	n

__BEGIN__	__EPS__
d	d
o	a

__BEGIN__	__EPS__
e	e
i	i
n	n
e	e
n	m

__BEGIN__	__EPS__
s	s
y	ie

__BEGIN__	__EPS__
f	f
u	ü
o	h
r	r
t	t

__BEGIN__	__EPS__
d	d
a	a
t	ss

__BEGIN__	__EPS__
t	__EPS__
w	w
u	asche
n	n

__BEGIN__	__EPS__
v	u
n	n
d	d

__BEGIN__	__EPS__
f	v
u	o
i	__EPS__
r	r

__BEGIN__	__EPS__
d	d
o	a

__BEGIN__	__EPS__
v	u
n	n
d	d

__BEGIN__	__EPS__
s	s
y	i
m	m
e	e
o	o
n	n
e	__EPS__
s	s

__BEGIN__	__EPS__
k	k
i	i
n	n
d	d

__BEGIN__	__EPS__
k	ka
u	u
m	m
e	__EPS__

__BEGIN__	__EPS__
h	h
i	i
n	n

__BEGIN__	__EPS__
g	g
a	a
n	n
t	__EPS__
z	z

__BEGIN__	__EPS__
g	g
r	r
o	o
s	s
s	se
m	m

__BEGIN__	__EPS__
a	a
n	n
s	s
h	__EPS__
e	e
l	l
m	m
u	__EPS__
s	__EPS__

__BEGIN__	__EPS__
m	m
i	i
r	r

__BEGIN__	__EPS__
u	u
n	n
d	d

__BEGIN__	__EPS__
v	v
i	ie
l	l

__BEGIN__	__EPS__
e	e
i	i
n	n

__BEGIN__	__EPS__
d	d
e	e
n	n

__BEGIN__	__EPS__
h	h
e	e
r	r

__BEGIN__	__EPS__
d	d
e	e
r	r

__BEGIN__	__EPS__
f	f
i	i
n	n
d	d
e	e
n	n

__BEGIN__	__EPS__
l	l
i	i
e	e
s	s
z	s
e	e
n	n

__BEGIN__	__EPS__
i	i
c	c
h	h

__BEGIN__	__EPS__
w	w
a	a
i	h
r	r
h	h
e	e
i	i
t	t

__BEGIN__	__EPS__
h	h
a	a
t	t
h	__EPS__

__BEGIN__	__EPS__
w	w
i	ie
d	d
e	e
r	r

__BEGIN__	__EPS__
z	z
e	u
g	g
e	e
b	b
e	e
n	n

__BEGIN__	__EPS__
v	u
n	n
d	d

__BEGIN__	__EPS__
i	i
c	c
h	h

__BEGIN__	__EPS__
i	i
n	n

__BEGIN__	__EPS__
e	e
r	r

__BEGIN__	__EPS__
v	u
n	n
d	d

__BEGIN__	__EPS__
g	g
o	ot
d	t
e	e
s	s

__BEGIN__	__EPS__
g	g
e	e
s	s
t	t
a	a
l	l
t	t

__BEGIN__	__EPS__
g	g
r	r
a	a
b	b

__BEGIN__	__EPS__
m	m
e	e
i	i
n	n

__BEGIN__	__EPS__
v	u
n	n
d	d

__BEGIN__	__EPS__
d	d
v	i
i	e

__BEGIN__	__EPS__
v	u
n	n
d	d

__BEGIN__	__EPS__
c	k
h	o
o	m
m	m
e	e
n	n
t	d

__BEGIN__	__EPS__
n	n
i	ich
t	t

__BEGIN__	__EPS__
d	d
o	a

__BEGIN__	__EPS__
s	s
a	a
c	__EPS__
h	h

__BEGIN__	__EPS__
v	u
n	nd

__BEGIN__	__EPS__
d	d
i	ie

__BEGIN__	__EPS__
m	m
e	e
i	i
n	n

__BEGIN__	__EPS__
s	se
y	i
n	n
e	e
n	n

__BEGIN__	__EPS__
v	u
n	n
r	r
e	e
c	c
h	h
t	t

__BEGIN__	__EPS__
i	i
c	c
h	h

__BEGIN__	__EPS__
l	l
e	ä
n	n
g	ge

__BEGIN__	__EPS__
b	g
e	e
s	s
c	c
h	h
e	e
c	__EPS__
h	h
e	e
n	n

__BEGIN__	__EPS__
l	l
a	ä
n	n
g	g
s	s

__BEGIN__	__EPS__
s	sch
l	l
e	a
g	g

__BEGIN__	__EPS__
v	u
n	n
d	d

__BEGIN__	__EPS__
v	u
n	n
d	d

__BEGIN__	__EPS__
w	w
a	a
r	r
t	d

__BEGIN__	__EPS__
k	k
a	an
n	n

__BEGIN__	__EPS__
d	d
e	e
r	r

__BEGIN__	__EPS__
s	s
i	i
c	c
h	h

__BEGIN__	__EPS__
s	s
a	a
n	n
d	kt

__BEGIN__	__EPS__
s	s
c	c
h	h
w	w
o	__EPS__
e	e
s	s
t	t
e	e
r	r

__BEGIN__	__EPS__
v	u
n	n
d	d

__BEGIN__	__EPS__
m	m
e	e
y	i
n	n

__BEGIN__	__EPS__
h	h
a	e
i	i
l	le

__BEGIN__	__EPS__
d	d
o	a

__BEGIN__	__EPS__
n	n
a	a
c	c
h	h
t	t
e	__EPS__
s	s

__BEGIN__	__EPS__
o	o
s	s
t	t
e	e
r	r
t	t
a	a
g	g

__BEGIN__	__EPS__
g	g
e	e
g	g
r	r
u	ü
e	__EPS__
z	s
z	s
e	__EPS__
t	t

__BEGIN__	__EPS__
s	s
e	e
r	h
e	__EPS__
r	r

__BEGIN__	__EPS__
d	da
z	ss

__BEGIN__	__EPS__
s	s
y	ie

__BEGIN__	__EPS__
v	u
n	n
d	d

__BEGIN__	__EPS__
d	d
i	i
e	e

__BEGIN__	__EPS__
v	v
o	o
n	n

__BEGIN__	__EPS__
s	s
e	e
i	i
n	n

__BEGIN__	__EPS__
g	g
r	r
o	o
z	ss
e	e

__BEGIN__	__EPS__
v	u
n	n
d	d

__BEGIN__	__EPS__
w	w
a	a
s	s
z	s
e	e
r	r

__BEGIN__	__EPS__
d	d
a	a
t	s

__BEGIN__	__EPS__
e	e
i	i
n	n
e	e
m	m

__BEGIN__	__EPS__
m	m
i	i
r	r

__BEGIN__	__EPS__
d	d
o	a

__BEGIN__	__EPS__
h	h
a	än
i	ge
n	n

__BEGIN__	__EPS__
d	d
c	as

__BEGIN__	__EPS__
a	a
n	n

__BEGIN__	__EPS__
m	me
y	i
n	n

__BEGIN__	__EPS__
d	d
o	a

__BEGIN__	__EPS__
v	u
n	n
d	d

__BEGIN__	__EPS__
s	s
t	t
u	um
m	m
e	e
n	n

__BEGIN__	__EPS__
w	w
e	e
n	n
n	n

__BEGIN__	__EPS__
n	n
e	e
f	ff
i	e
n	n

__BEGIN__	__EPS__
s	se
y	i
n	n
i	e
r	r

__BEGIN__	__EPS__
d	de
i	i
n	n

__BEGIN__	__EPS__
p	b
e	e
y	__EPS__
t	ten

__BEGIN__	__EPS__
d	d
i	i
e	e

__BEGIN__	__EPS__
c	__EPS__
z	z
e	e
i	i
c	c
h	h
e	e
n	n

__BEGIN__	__EPS__
d	d
o	a

__BEGIN__	__EPS__
g	__EPS__
e	__EPS__
h	h
e	e
l	l
f	f
e	e
n	n

__BEGIN__	__EPS__
i	i
n	n

__BEGIN__	__EPS__
n	n
i	i
c	c
h	h
t	t

__BEGIN__	__EPS__
d	d
a	a
s	s

__BEGIN__	__EPS__
i	i
c	c
h	h

__BEGIN__	__EPS__
d	d
o	a

__BEGIN__	__EPS__
i	i
s	s
t	t

__BEGIN__	__EPS__
s	sch
w	w
e	e
r	r
t	t

__BEGIN__	__EPS__
d	d
e	e
r	r

__BEGIN__	__EPS__
p	b
e	e
y	i

__BEGIN__	__EPS__
v	v
o	o
n	n

__BEGIN__	__EPS__
v	v
o	o
n	n

__BEGIN__	__EPS__
m	m
i	i
r	r

__BEGIN__	__EPS__
k	k
o	o
s	ste
t	te

__BEGIN__	__EPS__
d	d
a	a
i	__EPS__
r	__EPS__
v	f
u	ü
r	r

__BEGIN__	__EPS__
r	r
u	ü
g	c
k	k
l	l
i	i
n	n
g	gs

__BEGIN__	__EPS__
g	g
e	e
r	r
a	e
w	ut
e	e

__BEGIN__	__EPS__
d	t
o	ö
e	__EPS__
d	t
e	e
n	n

__BEGIN__	__EPS__
s	s
o	o

__BEGIN__	__EPS__
v	u
n	n
d	d

__BEGIN__	__EPS__
d	d
e	e
n	n

__BEGIN__	__EPS__
w	w
y	i
r	r

__BEGIN__	__EPS__
s	se
i	i
n	n

__BEGIN__	__EPS__
a	a
n	n
s	s
h	__EPS__
e	e
l	l
m	m

__BEGIN__	__EPS__
a	a
u	u
f	f
f	__EPS__

__BEGIN__	__EPS__
e	e
i	i
n	n

__BEGIN__	__EPS__
i	ih
m	m

__BEGIN__	__EPS__
r	r
e	e
c	c
h	h
t	t
e	e
n	n

__BEGIN__	__EPS__
f	f
a	a
s	s
z	s

__BEGIN__	__EPS__
w	w
a	e
i	i
n	ne

__BEGIN__	__EPS__
e	e
y	i
n	n

__BEGIN__	__EPS__
m	me
i	i
n	n

__BEGIN__	__EPS__
v	u
n	n
d	d

__BEGIN__	__EPS__
d	d
a	a
t	s

__BEGIN__	__EPS__
m	m
u	ö
g	g
e	e
n	n

__BEGIN__	__EPS__
v	u
n	n
d	d
e	__EPS__

__BEGIN__	__EPS__
g	g
e	e
w	w
a	a
l	l
t	t

__BEGIN__	__EPS__
v	v
o	o
n	n

__BEGIN__	__EPS__
z	z
a	a
r	r
t	t
e	e
n	n

__BEGIN__	__EPS__
w	w
a	a
z	r

__BEGIN__	__EPS__
m	m
u	u
t	tt
e	e
r	r

__BEGIN__	__EPS__
h	h
a	a
n	be
t	n

__BEGIN__	__EPS__
e	e
s	s

__BEGIN__	__EPS__
d	d
a	as
z	s

__BEGIN__	__EPS__
s	s
u	oh
n	n

__BEGIN__	__EPS__
w	w
o	o
r	r
d	d
e	e
n	n

__BEGIN__	d
u	u

__BEGIN__	__EPS__
v	v
o	o
r	r
l	l
i	i
e	e
f	__EPS__
f	f
e	e
n	n

__BEGIN__	__EPS__
k	k
i	i
n	n
d	d

__BEGIN__	__EPS__
p	b
a	a
t	t
e	e
n	n

__BEGIN__	__EPS__
s	s
y	ie

__BEGIN__	__EPS__
z	z
u	u

__BEGIN__	__EPS__
b	b
l	l
u	u
t	t
e	__EPS__

__BEGIN__	__EPS__
v	u
n	n
s	s
e	ä
g	g
e	__EPS__
l	l
i	i
c	c
h	h
e	e

__BEGIN__	__EPS__
v	u
n	n
d	d

__BEGIN__	__EPS__
k	k
i	i
n	n
t	d
h	__EPS__

__BEGIN__	__EPS__
v	ü
b	b
e	e
r	r

__BEGIN__	__EPS__
m	m
y	i
r	r

__BEGIN__	__EPS__
a	a
l	l
l	l
e	e
r	r

__BEGIN__	__EPS__
h	__EPS__
e	e
r	r

__BEGIN__	__EPS__
v	u
r	r
t	t
e	e
i	i
l	l

__BEGIN__	__EPS__
k	k
y	i
n	n
t	d

__BEGIN__	__EPS__
l	l
a	a
n	n
g	g

__BEGIN__	__EPS__
s	s
c	c
h	h
r	r
i	i
e	e
n	n

__BEGIN__	__EPS__
a	a
l	l
s	s
e	__EPS__

__BEGIN__	__EPS__
y	ih
n	n

__BEGIN__	__EPS__
k	k
i	i
n	n
t	d

__BEGIN__	__EPS__
n	n
e	eh
m	m
e	e
s	s
t	t

__BEGIN__	__EPS__
m	m
e	e
i	i
n	n
e	e
m	m

__BEGIN__	__EPS__
m	m
a	a
l	l
e	__EPS__

__BEGIN__	__EPS__
s	s
e	e
l	l
b	be

__BEGIN__	__EPS__
h	h
o	ö
r	r
t	t
e	e
s	s
t	t

__BEGIN__	__EPS__
m	m
e	e
i	i
n	n

__BEGIN__	__EPS__
l	le
i	i
n	n
i	e
n	n

__BEGIN__	__EPS__
c	__EPS__
z	z
a	a
r	r
t	t
e	e
s	s

__BEGIN__	__EPS__
g	g
a	a
n	n
c	__EPS__
z	z

__BEGIN__	__EPS__
i	j
a	a
m	mm
e	e
r	r

__BEGIN__	__EPS__
d	d
a	a
r	r
v	u
m	m
b	__EPS__

__BEGIN__	__EPS__
d	d
a	a
z	ss

__BEGIN__	__EPS__
t	t
o	o
t	t

__BEGIN__	__EPS__
i	i
c	c
h	h

__BEGIN__	__EPS__
d	d
o	a

__BEGIN__	__EPS__
m	m
a	a
r	r
i	i
a	a

__BEGIN__	n
e	ich
n	t

__BEGIN__	__EPS__
n	n
i	ie
d	d
e	e
r	r

__BEGIN__	__EPS__
f	f
v	ü
o	h
r	r
t	t
e	e

__BEGIN__	a
v	u
f	f
g	g
a	a
n	n
g	g
e	__EPS__

__BEGIN__	__EPS__
e	e
r	r
s	s
t	t
e	e
n	n

__BEGIN__	__EPS__
e	e
s	s

__BEGIN__	__EPS__
g	g
e	e
p	b
a	e
i	i
n	n

__BEGIN__	__EPS__
d	d
a	a
r	__EPS__
n	n
a	a
c	c
h	h

__BEGIN__	__EPS__
g	g
e	e
d	d
o	a
c	c
h	h
t	t

__BEGIN__	__EPS__
v	u
n	n
d	t
e	e
r	r

__BEGIN__	__EPS__
c	k
l	l
e	e
y	i
n	n
e	e

__BEGIN__	__EPS__
r	r
i	i
e	e
f	f
f	__EPS__
e	e
n	n

__BEGIN__	__EPS__
y	ih
m	m

__BEGIN__	__EPS__
s	s
i	i
c	c
h	h

__BEGIN__	__EPS__
n	n
e	e
i	i
n	n

__BEGIN__	__EPS__
s	s
e	e
i	i
n	n
e	e
n	n

__BEGIN__	__EPS__
h	i
e	h
m	m

__BEGIN__	__EPS__
a	a
n	n
t	t
w	w
o	o
r	r
t	t
e	e

__BEGIN__	__EPS__
a	a
n	n
s	s
h	__EPS__
e	e
l	l
m	m

__BEGIN__	__EPS__
m	me
y	i
n	n

__BEGIN__	__EPS__
s	s
p	p
r	r
e	e
c	c
h	h
e	e
n	n

__BEGIN__	__EPS__
w	w
u	u
n	n
d	d
e	e
n	n

__BEGIN__	__EPS__
s	s
i	i
c	c
h	h

__BEGIN__	__EPS__
m	m
y	i
r	r

__BEGIN__	__EPS__
m	m
e	e
i	i
n	n

__BEGIN__	__EPS__
c	k
a	a
y	i
p	p
h	h
a	a
s	s

__BEGIN__	__EPS__
v	u
n	n
d	d

__BEGIN__	__EPS__
c	k
r	r
ü	e
t	u
z	z

__BEGIN__	__EPS__
v	u
n	n
d	d

__BEGIN__	__EPS__
k	k
i	i
n	n
t	d

__BEGIN__	__EPS__
d	d
o	a

__BEGIN__	__EPS__
w	w
u	u
r	r
d	d
e	e

__BEGIN__	__EPS__
b	b
l	l
o	o
z	ss

__BEGIN__	__EPS__
i	i
c	ch

__BEGIN__	__EPS__
a	a
n	n
t	t
l	l
i	i
t	t
z	z

__BEGIN__	__EPS__
d	d
i	i
e	e

__BEGIN__	__EPS__
s	s
a	a
i	g
t	t

__BEGIN__	__EPS__
d	d
r	r
e	e
i	i
n	__EPS__

__BEGIN__	__EPS__
d	d
i	i
e	e

__BEGIN__	__EPS__
g	g
a	a
l	l
i	i
l	l
e	e
a	a

__BEGIN__	__EPS__
v	v
o	o
r	r

__BEGIN__	__EPS__
e	i
m	h
e	m

__BEGIN__	__EPS__
s	s
i	i
e	e
c	c
h	h
e	e
n	n

__BEGIN__	__EPS__
g	g
e	e
s	s
c	c
h	h
e	e
c	__EPS__
h	he

__BEGIN__	__EPS__
t	t
r	r
o	o
s	s
t	t

__BEGIN__	__EPS__
g	g
i	i
j	__EPS__
f	b
f	__EPS__

__BEGIN__	__EPS__
e	__EPS__
r	__EPS__
s	s
t	t
i	e
r	r
b	be

__BEGIN__	__EPS__
w	wa
z	s

__BEGIN__	__EPS__
s	s
p	p
r	r
a	a
c	c
h	h

__BEGIN__	__EPS__
w	d
a	e
n	n
t	n

__BEGIN__	__EPS__
d	d
a	a

__BEGIN__	__EPS__
c	k
h	__EPS__
l	l
e	ä
g	g
l	l
e	__EPS__
i	i
c	c
h	h

__BEGIN__	__EPS__
i	i
c	c
h	h

__BEGIN__	a
v	u
f	f

__BEGIN__	__EPS__
c	k
r	r
e	e
w	u
t	__EPS__
z	z
e	__EPS__

__BEGIN__	__EPS__
a	a
n	n
s	s
e	e
l	l
m	m
e	__EPS__

__BEGIN__	__EPS__
w	w
a	a
n	n
n	n
e	__EPS__

__BEGIN__	__EPS__
a	a
n	n
d	d
e	e
r	r
n	n

__BEGIN__	__EPS__
b	b
i	i
s	s
t	t

__BEGIN__	__EPS__
d	d
i	__EPS__
e	e
n	n

__BEGIN__	__EPS__
m	m
o	o
c	c
h	h
t	t
e	e
n	n

__BEGIN__	__EPS__
e	e
n	nt
p	b
l	l
o	ö
s	ss
t	t
e	e
n	n

__BEGIN__	__EPS__
d	d
a	a
s	s

__BEGIN__	__EPS__
s	s
t	t
e	e
i	i
n	n

__BEGIN__	__EPS__
z	z
e	u

__BEGIN__	__EPS__
d	d
u	u

__BEGIN__	__EPS__
m	m
i	i
r	r

__BEGIN__	__EPS__
w	w
a	a
s	r

__BEGIN__	__EPS__
m	m
i	i
c	c
h	h

__BEGIN__	__EPS__
t	t
r	r
a	a
g	g
e	e
n	n

__BEGIN__	__EPS__
d	d
a	a
t	ss

__BEGIN__	__EPS__
l	l
e	e
i	i
p	b

__BEGIN__	__EPS__
h	h
r	e
r	r
t	__EPS__
z	z
e	en
l	l
i	i
e	e
u	b
e	e

__BEGIN__	__EPS__
k	k
u	ö
n	n
i	i
k	__EPS__
c	__EPS__
h	g

__BEGIN__	__EPS__
s	s
i	i
e	e

__BEGIN__	__EPS__
k	k
a	a
n	nn
t	te

__BEGIN__	__EPS__
h	h
e	e
r	r
t	__EPS__
z	z
e	en
l	l
i	i
e	e
u	b
e	e

__BEGIN__	__EPS__
a	a
l	l
z	s

__BEGIN__	__EPS__
m	m
i	i
r	r

__BEGIN__	__EPS__
v	v
o	o
r	r

__BEGIN__	__EPS__
m	m
a	a
g	g
t	d

__BEGIN__	__EPS__
i	j
u	u
d	d
e	e
n	n

__BEGIN__	__EPS__
d	d
i	i
u	e

__BEGIN__	__EPS__
d	d
c	as

__BEGIN__	__EPS__
d	d
a	a

__BEGIN__	__EPS__
e	n
n	icht

__BEGIN__	__EPS__
l	l
a	a
s	s
s	s
e	e
n	n

__BEGIN__	__EPS__
l	l
e	e
i	i
c	c
h	h
n	n
a	a
n	m

__BEGIN__	__EPS__
s	s
c	c
h	h
l	l
a	a
f	f
f	__EPS__

__BEGIN__	__EPS__
o	o
w	w
e	eh

__BEGIN__	__EPS__
t	t
a	a
g	g

__BEGIN__	__EPS__
c	__EPS__
z	z
a	ä
r	r
t	t
l	l
i	i
c	c
h	h

__BEGIN__	__EPS__
m	v
a	__EPS__
n	i
i	e
c	l
h	e

__BEGIN__	__EPS__
g	g
h	__EPS__
e	e
r	r
e	e
c	ck
t	t

__BEGIN__	__EPS__
m	m
a	a
r	r
t	t
e	e
r	r

__BEGIN__	__EPS__
i	i
c	c
h	h

__BEGIN__	__EPS__
l	l
a	a
n	n
g	g

__BEGIN__	__EPS__
s	s
p	p
r	r
a	a
c	c
h	h
e	e
n	n

__BEGIN__	__EPS__
k	k
i	i
n	n
d	d
e	__EPS__

__BEGIN__	__EPS__
n	n
e	eh
m	m
e	e
n	n
t	d

__BEGIN__	__EPS__
d	d
i	i
e	e

__BEGIN__	__EPS__
b	b
l	l
e	e
i	i
p	be

__BEGIN__	__EPS__
g	g
e	e
s	s
p	p
o	ö
t	t
t	t
e	e
s	s

__BEGIN__	__EPS__
v	v
o	o
n	n

__BEGIN__	__EPS__
y	ih
r	r
e	e
n	n

__BEGIN__	__EPS__
a	a
l	l
l	l
e	e

__BEGIN__	__EPS__
d	d
e	e
r	r

__BEGIN__	__EPS__
k	k
i	i
n	n
d	d

__BEGIN__	__EPS__
n	n
i	ich
t	t

__BEGIN__	__EPS__
w	w
e	e
i	i
z	s
h	h
e	e
i	i
t	t

__BEGIN__	__EPS__
v	u
i	__EPS__
n	n
s	s
e	e
r	re
m	m

__BEGIN__	__EPS__
d	d
u	u

__BEGIN__	__EPS__
d	d
e	e
s	s

__BEGIN__	__EPS__
r	r
i	i
t	t
t	t
e	e
r	r

__BEGIN__	__EPS__
y	ih
m	m

__BEGIN__	__EPS__
i	ih
n	n

__BEGIN__	__EPS__
m	m
e	eh
r	r

__BEGIN__	__EPS__
v	__EPS__
e	e
r	r
m	m
o	ü
e	__EPS__
d	d
e	e
r	t

__BEGIN__	__EPS__
a	a
n	n

__BEGIN__	__EPS__
v	u
n	n
d	d

__BEGIN__	__EPS__
v	au
p	f
g	g
e	e
t	__EPS__
z	z
o	o
g	g
e	e
n	n

__BEGIN__	__EPS__
v	v
a	o
n	n

__BEGIN__	__EPS__
a	a
n	n
s	s
e	e
l	l
m	m

__BEGIN__	__EPS__
m	m
e	e
i	i
n	n

__BEGIN__	__EPS__
e	e
i	i
n	n
e	e
n	n

__BEGIN__	__EPS__
g	g
e	ehe

__BEGIN__	__EPS__
d	d
o	a

__BEGIN__	__EPS__
t	t
a	a
g	g
e	e
n	n

__BEGIN__	__EPS__
d	d
o	a

__BEGIN__	__EPS__
i	i
c	c
h	h

__BEGIN__	__EPS__
k	k
i	i
n	n
t	d

__BEGIN__	__EPS__
w	w
a	a
s	r
z	__EPS__

__BEGIN__	__EPS__
s	s
c	c
h	h
o	o
i	__EPS__
s	s
s	s

__BEGIN__	__EPS__
l	l
e	e
i	i
b	b

__BEGIN__	__EPS__
w	w
i	i
e	e

__BEGIN__	__EPS__
s	s
p	p
r	r
a	a
c	c
h	h

__BEGIN__	__EPS__
a	e
i	i
n	n
e	e
n	n

__BEGIN__	__EPS__
d	d
e	e
s	s
t	t
e	__EPS__
r	o

__BEGIN__	__EPS__
n	n
i	i
c	c
h	h
t	t

__BEGIN__	__EPS__
e	e
i	i
n	n

__BEGIN__	__EPS__
b	b
e	e
d	t
r	r
o	ü
e	__EPS__
f	b
f	__EPS__
t	t

__BEGIN__	__EPS__
h	h
e	a
t	t

__BEGIN__	__EPS__
z	z
o	u

__BEGIN__	__EPS__
a	o
d	d
e	e
r	r

__BEGIN__	__EPS__
b	b
y	i
d	t
d	t
e	e
n	n

__BEGIN__	__EPS__
d	d
e	e
m	m

__BEGIN__	__EPS__
d	d
i	i
e	e
z	s

__BEGIN__	__EPS__
i	i
n	n

__BEGIN__	__EPS__
d	d
e	e
m	m
e	__EPS__

__BEGIN__	__EPS__
d	d
y	ie
t	s

__BEGIN__	__EPS__
v	u
n	n
d	d

__BEGIN__	__EPS__
b	b
r	r
a	a
c	c
h	h
t	te

__BEGIN__	__EPS__
a	a
n	n

__BEGIN__	__EPS__
s	sch
w	w
e	e
s	s
t	t
e	e
r	r

__BEGIN__	__EPS__
g	g
a	a
n	n
t	__EPS__
z	z

__BEGIN__	__EPS__
i	i
c	c
h	h

__BEGIN__	__EPS__
d	d
e	e
r	r

__BEGIN__	__EPS__
d	di
e	e
s	s
e	e
n	n

__BEGIN__	__EPS__
d	da
z	ss

__BEGIN__	__EPS__
d	t
a	a
g	g

__BEGIN__	__EPS__
m	m
i	i
c	c
h	h

__BEGIN__	__EPS__
v	u
n	n
d	d

__BEGIN__	__EPS__
l	l
a	a
s	s
t	t
e	e
r	r

__BEGIN__	__EPS__
h	h
e	e
r	r
t	__EPS__
z	z

__BEGIN__	__EPS__
i	i
n	n

__BEGIN__	__EPS__
b	b
o	ö
s	s
z	__EPS__
e	e
n	n

__BEGIN__	__EPS__
w	w
i	i
e	e

__BEGIN__	__EPS__
m	m
i	i
c	c
h	h

__BEGIN__	__EPS__
d	d
a	a
z	s

__BEGIN__	__EPS__
v	u
n	n
d	d

__BEGIN__	__EPS__
b	b
r	r
u	u
o	__EPS__
d	d
e	e
r	r

__BEGIN__	__EPS__
d	d
o	a

__BEGIN__	__EPS__
a	a
n	n

__BEGIN__	__EPS__
d	d
e	e
r	r

__BEGIN__	__EPS__
y	ih
m	m

__BEGIN__	__EPS__
n	n
i	i
e	e

__BEGIN__	__EPS__
e	e
r	r

__BEGIN__	__EPS__
w	w
u	u
s	ss
t	t
e	e
n	n
t	__EPS__

__BEGIN__	__EPS__
e	e
n	m
p	p
h	f
i	i
e	__EPS__
n	n
g	gs
t	t

__BEGIN__	__EPS__
a	a
l	l
l	l
e	e
s	s
a	a
m	m
p	__EPS__
t	t

__BEGIN__	__EPS__
w	w
i	i
d	d
e	e
r	r
s	s
a	a
y	g
t	t

__BEGIN__	__EPS__
l	l
e	ö
w	w
e	i
n	n

__BEGIN__	__EPS__
i	i
c	c
h	h

__BEGIN__	__EPS__
w	w
a	a
n	nn

__BEGIN__	__EPS__
v	v
e	e
r	r
d	d
i	i
e	e
n	n
t	t

__BEGIN__	__EPS__
v	u
n	n
d	d

__BEGIN__	__EPS__
w	w
a	a
s	s
z	s
e	e
r	r

__BEGIN__	__EPS__
d	d
a	a
s	s

__BEGIN__	__EPS__
s	s
e	__EPS__
i	i
n	n
d	d

__BEGIN__	__EPS__
a	a
n	n
s	s
h	__EPS__
e	e
l	l
m	m
u	__EPS__
s	__EPS__

__BEGIN__	__EPS__
a	e
i	i
n	n

__BEGIN__	__EPS__
k	k
a	a
n	nn

__BEGIN__	__EPS__
d	d
a	a
r	r
u	u
m	m
b	__EPS__

__BEGIN__	__EPS__
h	h
a	a
t	t

__BEGIN__	__EPS__
l	l
e	ö
w	w
i	i
n	n

__BEGIN__	__EPS__
v	ü
b	b
e	e
r	r

__BEGIN__	__EPS__
i	ih
n	n

__BEGIN__	__EPS__
i	j
e	e
s	s
u	u
s	s

__BEGIN__	__EPS__
m	m
i	i
n	n
n	n
e	e

__BEGIN__	__EPS__
i	ih
r	r

__BEGIN__	__EPS__
d	d
a	a
z	ss

__BEGIN__	__EPS__
p	b
e	e
y	i

__BEGIN__	__EPS__
a	a
r	r
b	b
e	e
i	i
t	t

__BEGIN__	__EPS__
s	s
a	a
c	__EPS__
h	h

__BEGIN__	__EPS__
s	s
e	e
y	i

__BEGIN__	__EPS__
d	d
a	a
t	ss

__BEGIN__	__EPS__
m	m
i	i
c	c
h	h

__BEGIN__	__EPS__
m	m
i	i
c	c
h	h

__BEGIN__	__EPS__
d	de
i	i
m	n
e	em

__BEGIN__	__EPS__
ü	a
f	u
f	f

__BEGIN__	__EPS__
m	m
i	i
t	t

__BEGIN__	__EPS__
v	v
e	e
r	r
m	d
o	o
r	r
d	b
e	e
n	n
l	__EPS__
i	__EPS__
c	__EPS__
h	__EPS__
e	e

__BEGIN__	__EPS__
d	d
e	e
n	n

__BEGIN__	__EPS__
h	h
i	i
n	n

__BEGIN__	__EPS__
d	d
e	e
r	r

__BEGIN__	__EPS__
e	e
r	r

__BEGIN__	__EPS__
d	t
o	o
i	__EPS__
t	d

__BEGIN__	__EPS__
s	s
y	i
m	m
e	e
o	o
n	n
i	__EPS__
s	s

__BEGIN__	__EPS__
m	m
i	i
t	t

__BEGIN__	__EPS__
v	u
n	n
d	d

__BEGIN__	__EPS__
a	a
n	n
g	g
e	e
s	s
i	i
c	c
h	h
t	t

__BEGIN__	__EPS__
a	a
n	n

__BEGIN__	__EPS__
d	d
a	a
z	ss

__BEGIN__	__EPS__
n	n
a	a
c	c
h	h
t	t
e	__EPS__
s	s

__BEGIN__	__EPS__
s	s
i	i
e	e

__BEGIN__	__EPS__
d	d
e	e
m	m

__BEGIN__	__EPS__
a	a
n	n

__BEGIN__	__EPS__
h	h
a	a
d	t
d	t
e	e
n	n

__BEGIN__	__EPS__
i	u
n	n
d	d

__BEGIN__	__EPS__
i	i
c	c
h	h

__BEGIN__	__EPS__
v	u
n	n
d	d

__BEGIN__	__EPS__
b	b
e	e
g	g
r	r
a	a
b	b
e	e
n	n

__BEGIN__	__EPS__
k	k
y	i
n	n
t	d

__BEGIN__	__EPS__
z	z
e	e
r	r
p	b
r	r
a	a
c	c
h	h
e	e
n	n

__BEGIN__	__EPS__
a	a
n	n

__BEGIN__	__EPS__
d	d
o	a

__BEGIN__	__EPS__
h	h
e	e
r	r
r	r
e	__EPS__
n	n

__BEGIN__	__EPS__
s	s
a	a
g	g
e	e

__BEGIN__	__EPS__
m	m
i	i
c	c
h	h

__BEGIN__	__EPS__
a	a
l	l
l	l
e	e
n	n

__BEGIN__	__EPS__
h	h
e	e
r	r
r	r
e	e
n	n

__BEGIN__	__EPS__
v	v
o	o
r	r

__BEGIN__	__EPS__
d	de
y	i
n	n

__BEGIN__	__EPS__
g	g
e	e
s	s
c	c
h	h
r	r
i	ie
b	b
e	e
n	n

__BEGIN__	__EPS__
a	a
l	l
s	s

__BEGIN__	__EPS__
h	e
e	r

__BEGIN__	__EPS__
s	s
o	o

__BEGIN__	__EPS__
d	d
e	e
n	m

__BEGIN__	__EPS__
e	e
s	s

__BEGIN__	__EPS__
m	m
e	e
i	i
n	n

__BEGIN__	__EPS__
r	r
e	e
c	c
h	h
t	t
e	e
r	r

__BEGIN__	__EPS__
d	d
a	a
s	s

__BEGIN__	__EPS__
d	d
e	e
m	m

__BEGIN__	__EPS__
b	b
e	e
i	r
r	i
e	e
t	t
e	e
n	n
t	__EPS__

__BEGIN__	__EPS__
d	d
i	i
c	c
h	h

__BEGIN__	__EPS__
t	t
a	e
i	i
l	l
t	t
e	e
n	n

__BEGIN__	__EPS__
a	a
n	n

__BEGIN__	__EPS__
s	s
a	a
n	nk
t	t

__BEGIN__	__EPS__
s	s
e	__EPS__
i	i
n	n
d	d

__BEGIN__	__EPS__
t	t
a	a
t	t
e	e
n	n

__BEGIN__	__EPS__
a	a
n	n

__BEGIN__	__EPS__
s	s
a	a
n	n
d	kt

__BEGIN__	__EPS__
d	d
e	e
r	r

__BEGIN__	__EPS__
c	k
h	__EPS__
l	l
e	ä
g	g
l	l
e	__EPS__
y	i
c	c
h	h

__BEGIN__	__EPS__
s	s
a	a
g	g
e	e
n	n

__BEGIN__	__EPS__
c	__EPS__
z	z
u	u

__BEGIN__	__EPS__
s	s
y	ie

__BEGIN__	__EPS__
c	__EPS__
z	z
a	a
r	r
t	t
t	__EPS__
e	e
s	s

__BEGIN__	__EPS__
d	d
e	e
n	n

__BEGIN__	__EPS__
e	e
y	i
a	__EPS__

__BEGIN__	__EPS__
w	w
a	a
n	n
n	n

__BEGIN__	__EPS__
d	d
e	e
i	i
n	n
e	e
r	r

__BEGIN__	__EPS__
v	v
a	o
n	n

__BEGIN__	__EPS__
w	w
o	o
r	r
t	t

__BEGIN__	__EPS__
d	d
a	a
z	ss

__BEGIN__	__EPS__
v	v
o	o
n	n

__BEGIN__	__EPS__
l	le
i	i
n	n
i	e
n	n

__BEGIN__	__EPS__
i	e
r	r
b	b
a	a
r	r
m	m
i	__EPS__
t	t

__BEGIN__	__EPS__
d	d
e	e
s	s
t	t
e	o
r	__EPS__

__BEGIN__	d
v	u

__BEGIN__	__EPS__
v	u
n	n
d	d

__BEGIN__	__EPS__
k	k
r	r
a	a
n	n
k	k
h	h
a	e
i	i
t	t

__BEGIN__	__EPS__
a	a
l	l
s	s
o	o

__BEGIN__	__EPS__
s	s
p	p
r	r
a	a
c	c
h	h

__BEGIN__	__EPS__
m	m
i	i
t	t

__BEGIN__	__EPS__
w	w
a	e
i	i
n	n
t	t
e	e
n	n

__BEGIN__	__EPS__
ü	ü
b	b
e	e
r	r

__BEGIN__	__EPS__
a	a
n	n

__BEGIN__	__EPS__
d	d
e	e
m	m

__BEGIN__	__EPS__
l	l
a	a
i	s
s	s
t	t

__BEGIN__	__EPS__
b	b
e	e
l	l
o	au
p	f
e	e
n	n

__BEGIN__	__EPS__
h	h
e	e
r	rr

__BEGIN__	__EPS__
a	a
n	n
g	g
i	__EPS__
s	s
t	t

__BEGIN__	__EPS__
s	s
c	c
h	h
w	w
e	e
r	r
t	t

__BEGIN__	__EPS__
e	e
r	r

__BEGIN__	__EPS__
d	d
o	a

