__BEGIN__	__EPS__
n	n
i	i
c	c
h	h
t	t

__BEGIN__	__EPS__
h	h
v	__EPS__
o	o
b	b

__BEGIN__	__EPS__
z	z
u	u

__BEGIN__	__EPS__
i	i
n	n

__BEGIN__	__EPS__
d	d
o	a

__BEGIN__	__EPS__
w	w
e	e
i	i
s	ss

__BEGIN__	__EPS__
m	m
e	eh
r	r

__BEGIN__	__EPS__
v	u
n	n
d	d

__BEGIN__	__EPS__
d	d
o	a

__BEGIN__	__EPS__
k	k
i	i
n	n
t	d

__BEGIN__	__EPS__
s	se
i	i
n	n
e	e
n	n

__BEGIN__	__EPS__
v	u
n	n
d	d

__BEGIN__	__EPS__
d	d
a	a
z	ss

__BEGIN__	__EPS__
n	n
i	i
c	c
h	h
t	t

__BEGIN__	a
v	u
p	f

__BEGIN__	__EPS__
i	j
u	u
d	d
e	e
n	n

__BEGIN__	__EPS__
v	v
n	e
s	r
i	b
c	o
h	r
t	g
i	e
g	n

__BEGIN__	__EPS__
m	m
a	a
r	r
i	i
a	a

__BEGIN__	__EPS__
k	k
y	i
n	n
d	d
e	e
r	r

__BEGIN__	__EPS__
a	a
u	u
c	c
h	h

__BEGIN__	__EPS__
f	f
u	ül
l	l
d	te

__BEGIN__	__EPS__
d	de
i	i
n	n
e	e

__BEGIN__	__EPS__
s	s
c	c
h	h
r	r
i	i
t	tt

__BEGIN__	__EPS__
e	e
r	r

__BEGIN__	__EPS__
v	u
n	n
d	d

__BEGIN__	__EPS__
n	n
y	ich
t	t

__BEGIN__	__EPS__
h	h
a	a
t	t
t	t
e	e

__BEGIN__	__EPS__
h	h
e	e
e	__EPS__
r	r
e	r

__BEGIN__	__EPS__
s	s
i	ie

__BEGIN__	__EPS__
h	h
e	e
r	r
o	o
d	d
e	e
s	s

__BEGIN__	__EPS__
w	w
e	ah
r	r
l	l
e	__EPS__
i	i
c	c
h	h

__BEGIN__	__EPS__
t	t
a	a
g	g

__BEGIN__	__EPS__
d	d
i	i
e	e

__BEGIN__	__EPS__
w	w
a	a
r	r
d	d

__BEGIN__	__EPS__
d	d
i	i
c	c
h	h

__BEGIN__	__EPS__
d	de
y	i
n	n
e	e
r	r

__BEGIN__	__EPS__
c	__EPS__
h	k
i	i
n	n
d	d
e	e
s	s

__BEGIN__	__EPS__
d	d
a	a
t	s

__BEGIN__	__EPS__
a	a
n	n
d	d
e	e
r	re

__BEGIN__	__EPS__
c	__EPS__
z	z
u	u
e	__EPS__

__BEGIN__	__EPS__
w	w
a	a
r	r
t	d

__BEGIN__	__EPS__
e	e
z	s
z	s
e	__EPS__
i	i
c	__EPS__
h	g

__BEGIN__	__EPS__
g	g
e	e
s	s
t	t
o	o
r	r
u	b
e	e
n	n

__BEGIN__	__EPS__
h	h
a	än
i	ge
n	n

__BEGIN__	__EPS__
s	s
i	i
e	e

__BEGIN__	__EPS__
d	d
i	i
e	e

__BEGIN__	__EPS__
s	s
e	e
i	i
n	n

__BEGIN__	__EPS__
g	g
e	e
w	w
a	a
n	n
t	d

__BEGIN__	__EPS__
s	s
e	e
i	i
n	n

__BEGIN__	__EPS__
d	d
y	ie

__BEGIN__	__EPS__
d	d
o	a

__BEGIN__	__EPS__
w	w
a	a
s	r

__BEGIN__	__EPS__
a	a
n	n
d	d
e	e
r	re
n	n

__BEGIN__	__EPS__
g	g
h	__EPS__
e	e
d	t
r	r
a	a
g	g
h	__EPS__
e	e
n	n

__BEGIN__	__EPS__
g	g
e	e
d	d
a	a
c	c
h	h
t	t
e	e
n	n

__BEGIN__	__EPS__
e	e
r	r

__BEGIN__	__EPS__
h	h
i	i
n	n
g	g
e	e
n	n

__BEGIN__	__EPS__
a	a
r	r
m	m
e	e

__BEGIN__	__EPS__
d	d
a	a
r	__EPS__
n	n
a	a
c	c
h	h

__BEGIN__	__EPS__
s	s
i	ie

__BEGIN__	__EPS__
l	l
a	a
e	__EPS__
s	s
t	t

__BEGIN__	__EPS__
d	d
o	a

__BEGIN__	__EPS__
n	n
e	eh
m	m
e	e
n	n

__BEGIN__	__EPS__
b	b
l	l
i	i
j	e
u	b
e	e
n	n

__BEGIN__	__EPS__
w	w
a	a
r	r
t	d

__BEGIN__	__EPS__
e	e
r	r

__BEGIN__	__EPS__
k	k
i	i
n	n
t	d

__BEGIN__	__EPS__
i	i
n	n

__BEGIN__	__EPS__
s	s
i	i
c	c
h	h

__BEGIN__	__EPS__
e	e
b	w
i	i
g	g
i	e
n	n

__BEGIN__	__EPS__
v	u
n	n
d	d

__BEGIN__	__EPS__
d	d
o	a

__BEGIN__	__EPS__
m	me
i	i
n	n

__BEGIN__	__EPS__
d	d
o	a

__BEGIN__	__EPS__
s	s
y	ie

__BEGIN__	__EPS__
v	f
u	ü
z	ss
e	e
n	n

__BEGIN__	__EPS__
o	au
c	c
h	h

__BEGIN__	__EPS__
d	d
o	a

__BEGIN__	__EPS__
d	d
e	e
r	r

__BEGIN__	__EPS__
v	u
n	n
d	d

__BEGIN__	__EPS__
i	ih
n	n

__BEGIN__	__EPS__
c	k
r	r
u	e
y	u
t	__EPS__
z	z

__BEGIN__	__EPS__
h	h
a	a
m	mm
e	e
r	r
s	sch
l	l
e	ä
g	ge

__BEGIN__	__EPS__
c	k
r	r
e	e
w	u
c	__EPS__
z	z

__BEGIN__	__EPS__
a	a
n	n
s	s
a	a
c	__EPS__
h	h

__BEGIN__	__EPS__
m	m
i	i
t	t

__BEGIN__	__EPS__
v	u
n	n
s	s
e	e
r	r

__BEGIN__	__EPS__
s	s
a	a
g	__EPS__
h	h
e	e
n	n

__BEGIN__	__EPS__
n	n
i	i
c	c
h	h
t	t

__BEGIN__	__EPS__
g	g
r	r
o	o
s	s
s	s
e	e
m	m

__BEGIN__	__EPS__
i	i
c	c
h	h

__BEGIN__	__EPS__
v	u
n	n
d	d

__BEGIN__	__EPS__
d	d
e	e
r	r

__BEGIN__	__EPS__
h	h
a	a
i	s
s	t

__BEGIN__	__EPS__
w	w
y	i
r	r

__BEGIN__	__EPS__
f	f
r	r
a	a
g	g
e	e
n	n

__BEGIN__	__EPS__
w	w
o	o
u	l
l	l
d	t
e	e
n	n

__BEGIN__	__EPS__
d	d
i	i
e	e

__BEGIN__	__EPS__
a	e
i	i
n	n

__BEGIN__	__EPS__
d	d
e	e
r	r

__BEGIN__	__EPS__
d	d
e	e
i	i
n	n
e	e

__BEGIN__	__EPS__
h	h
u	i
l	l
f	f
f	__EPS__
e	e

__BEGIN__	__EPS__
r	r
e	e
i	__EPS__
c	c
h	h
t	t

__BEGIN__	__EPS__
m	m
i	i
r	r

__BEGIN__	__EPS__
p	p
y	i
l	l
a	a
t	t
u	u
s	s

__BEGIN__	__EPS__
l	l
i	i
e	e
b	b
k	k
o	o
s	s
e	e
n	n

__BEGIN__	__EPS__
d	d
i	i
c	c
h	h

__BEGIN__	__EPS__
l	l
a	a
s	ss
t	t

__BEGIN__	__EPS__
d	d
o	a

__BEGIN__	__EPS__
e	e
s	s
s	s
i	i
c	g
h	__EPS__

__BEGIN__	__EPS__
t	s
z	o
o	g
h	l
a	e
n	i
t	c
z	h

__BEGIN__	__EPS__
e	e
r	r

__BEGIN__	__EPS__
n	n
i	ic
e	h
t	t

__BEGIN__	__EPS__
d	d
i	i
e	e

__BEGIN__	__EPS__
i	i
c	c
h	h

__BEGIN__	__EPS__
i	i
s	s
t	t

__BEGIN__	__EPS__
d	d
e	e
r	r

__BEGIN__	__EPS__
d	d
i	i
e	e

__BEGIN__	__EPS__
t	t
o	oc
h	h
t	t
e	e
r	r

__BEGIN__	__EPS__
d	d
o	a

__BEGIN__	__EPS__
h	h
i	__EPS__
e	a
t	t

__BEGIN__	a
v	u
f	f

__BEGIN__	__EPS__
h	h
e	e
r	r
o	o
d	d
a	e
s	s

__BEGIN__	__EPS__
a	a
r	r
m	m
e	e
n	n

__BEGIN__	__EPS__
d	d
a	a

__BEGIN__	__EPS__
g	g
e	e
w	w
a	a
n	n
t	d

__BEGIN__	__EPS__
d	d
e	e
m	m

__BEGIN__	__EPS__
w	w
a	a
s	r

__BEGIN__	__EPS__
s	s
y	ie

__BEGIN__	__EPS__
s	s
e	e
l	l
u	b
e	e
r	r

__BEGIN__	__EPS__
y	ih
n	n

__BEGIN__	__EPS__
a	a
n	n
t	t
l	l
ü	i
c	t
z	z

__BEGIN__	__EPS__
h	h
e	ä
t	tte

__BEGIN__	__EPS__
w	w
e	ah
r	r
l	l
i	i
c	c
h	h
e	e
n	n

__BEGIN__	__EPS__
g	g
e	e
s	s
c	c
h	h
e	e
h	h
e	e
n	n

__BEGIN__	__EPS__
w	w
a	a
s	r

__BEGIN__	__EPS__
d	d
ü	u

__BEGIN__	__EPS__
g	g
o	o
t	t
h	t

__BEGIN__	__EPS__
d	d
e	e
n	n

__BEGIN__	__EPS__
h	h
e	ä
n	n
d	d
e	e
n	n

__BEGIN__	__EPS__
a	a
n	n

__BEGIN__	__EPS__
w	w
o	o
u	ll
d	t
e	e

__BEGIN__	__EPS__
s	s
t	t
a	ad
t	t

__BEGIN__	__EPS__
m	m
o	ö
r	r
d	d
e	e
r	r

__BEGIN__	__EPS__
k	k
u	o
n	nn
t	te

__BEGIN__	__EPS__
y	ih
n	n

__BEGIN__	__EPS__
e	e
s	s
s	s
e	e
n	n

__BEGIN__	__EPS__
d	d
i	ie
s	s

__BEGIN__	__EPS__
a	a
n	n
d	de
r	r
e	e
n	n

__BEGIN__	__EPS__
w	w
e	e
n	nn

__BEGIN__	__EPS__
v	v
o	o
n	n

__BEGIN__	__EPS__
d	d
o	a

__BEGIN__	__EPS__
i	ih
m	m

__BEGIN__	__EPS__
y	ih
n	n

__BEGIN__	__EPS__
f	f
a	a
s	s
z	s

__BEGIN__	__EPS__
w	w
a	a
s	__EPS__
z	r

__BEGIN__	__EPS__
d	d
y	ie

__BEGIN__	__EPS__
d	d
a	a
s	ss

__BEGIN__	__EPS__
e	e
s	s

__BEGIN__	__EPS__
g	g
o	o
t	tt

__BEGIN__	__EPS__
d	d
i	i
e	e

__BEGIN__	__EPS__
w	w
a	a
z	r

__BEGIN__	__EPS__
s	s
i	i
e	e

__BEGIN__	__EPS__
s	s
t	t
e	e
i	i
n	n

__BEGIN__	__EPS__
d	d
o	a

__BEGIN__	__EPS__
e	e
r	r

__BEGIN__	__EPS__
d	d
o	a

__BEGIN__	__EPS__
d	d
a	a
z	ss

__BEGIN__	__EPS__
d	d
a	a
r	r
v	a
f	u
f	f

__BEGIN__	__EPS__
r	r
o	o
t	t
t	__EPS__
e	e
n	n

__BEGIN__	__EPS__
a	a
n	n

__BEGIN__	__EPS__
s	s
i	i
c	c
h	h

__BEGIN__	__EPS__
p	b
e	e
r	r
a	e
i	i
t	t
e	e
n	n

__BEGIN__	__EPS__
m	m
e	ehr

__BEGIN__	__EPS__
e	e
r	r

__BEGIN__	__EPS__
m	m
i	i
t	t

__BEGIN__	__EPS__
i	i
c	c
h	h

__BEGIN__	__EPS__
f	f
ü	ü
n	n
f	f
f	__EPS__
t	t
a	a
u	u
s	s
e	e
n	n
t	d

__BEGIN__	__EPS__
e	e
r	r
s	s
t	t
a	a
n	n
d	d
e	e
n	n

__BEGIN__	__EPS__
d	d
o	a

__BEGIN__	__EPS__
i	i
c	c
h	h

__BEGIN__	__EPS__
a	a
n	n

__BEGIN__	__EPS__
v	u
n	n
d	d

__BEGIN__	__EPS__
b	b
a	a
n	n
t	d

__BEGIN__	__EPS__
i	i
c	c
h	h

__BEGIN__	__EPS__
d	d
o	a

__BEGIN__	__EPS__
t	t
o	o
d	d

__BEGIN__	__EPS__
w	w
a	a
s	r

__BEGIN__	__EPS__
s	s
e	e
i	i
n	n
e	e
m	m

__BEGIN__	__EPS__
d	d
e	e
r	r

__BEGIN__	__EPS__
d	d
o	a

__BEGIN__	__EPS__
m	m
a	a
c	c
h	h
t	t
e	e

__BEGIN__	__EPS__
r	re
i	i
c	c
h	h

__BEGIN__	__EPS__
d	d
e	e
s	s

__BEGIN__	__EPS__
v	u
n	n
d	d

__BEGIN__	__EPS__
g	g
e	e
l	l
e	i
d	tt
e	e
n	n

__BEGIN__	__EPS__
k	k
y	i
n	n
d	d
e	e
s	s

__BEGIN__	__EPS__
m	m
e	e
i	i
n	n
e	e
m	m

__BEGIN__	__EPS__
y	ih
n	n

__BEGIN__	__EPS__
a	e
i	i
n	n

__BEGIN__	__EPS__
m	m
a	an
n	n

__BEGIN__	__EPS__
v	u
n	n
d	d

__BEGIN__	__EPS__
g	g
e	e
h	h
o	ö
i	__EPS__
r	r
t	t

__BEGIN__	__EPS__
c	k
h	o
o	m
m	m
e	e
n	n
t	d

__BEGIN__	__EPS__
p	b
o	ö
s	s
z	e

__BEGIN__	__EPS__
w	w
o	o
l	l
c	__EPS__
k	k
e	e
n	n

__BEGIN__	__EPS__
n	n
u	un

__BEGIN__	__EPS__
g	g
e	e
g	g
r	r
ü	ü
s	s
z	s
e	__EPS__
t	t

__BEGIN__	__EPS__
w	w
a	a
s	s

__BEGIN__	__EPS__
s	s
c	c
h	h
w	w
e	e
s	s
t	t
e	e
r	r

__BEGIN__	__EPS__
s	b
c	a
h	l
i	__EPS__
r	d

__BEGIN__	__EPS__
d	d
e	e
n	n

__BEGIN__	__EPS__
a	a
n	n
d	d
e	e
r	re

__BEGIN__	__EPS__
s	se
i	i
n	n

__BEGIN__	__EPS__
g	g
e	e
i	i
s	s
t	t

__BEGIN__	__EPS__
g	g
o	o
t	tt

__BEGIN__	__EPS__
m	m
i	i
t	t

__BEGIN__	__EPS__
c	__EPS__
z	z
u	u

__BEGIN__	__EPS__
e	e
r	r
b	b
a	a
r	r
m	me

__BEGIN__	__EPS__
d	d
i	ie
s	s
e	e
n	n
n	__EPS__

__BEGIN__	__EPS__
f	f
r	r
a	a
w	u

__BEGIN__	__EPS__
a	a
n	n

__BEGIN__	__EPS__
d	d
e	e
r	r

__BEGIN__	__EPS__
d	d
a	a

__BEGIN__	__EPS__
d	d
i	i
e	e

__BEGIN__	__EPS__
d	d
a	a

__BEGIN__	__EPS__
e	e
r	r

__BEGIN__	__EPS__
h	h
a	a
t	t
t	te

__BEGIN__	__EPS__
e	e
r	r
l	l
a	a
w	u
b	b
e	__EPS__
s	s
t	t

__BEGIN__	__EPS__
a	a
n	n
t	t
l	l
u	i
c	t
z	z

__BEGIN__	__EPS__
d	d
a	a
m	m
i	i
t	t

__BEGIN__	__EPS__
a	a
l	l
l	l
e	e

__BEGIN__	__EPS__
b	b
l	l
u	u
o	__EPS__
t	t

__BEGIN__	__EPS__
d	d
a	a
z	ss

__BEGIN__	__EPS__
n	n
i	ich
t	t

__BEGIN__	__EPS__
s	s
i	ie

__BEGIN__	__EPS__
m	m
o	o
c	c
h	h
t	te

__BEGIN__	__EPS__
e	e
r	r

__BEGIN__	__EPS__
a	a
l	l
s	s
o	o

__BEGIN__	__EPS__
h	h
e	e
y	i
l	li
g	g

__BEGIN__	__EPS__
h	h
a	a
t	tt
e	e

__BEGIN__	__EPS__
c	k
h	__EPS__
i	i
n	n
d	d

__BEGIN__	__EPS__
n	n
a	a
g	g
e	e
l	l

__BEGIN__	__EPS__
d	d
o	a

__BEGIN__	__EPS__
e	e
r	r
l	l
e	e
i	i
d	d
e	e
n	n

__BEGIN__	d
u	u

__BEGIN__	__EPS__
i	j
u	u
d	d
e	e
n	n

__BEGIN__	__EPS__
l	l
a	a
s	s
z	s

__BEGIN__	__EPS__
d	d
e	e
n	n

__BEGIN__	__EPS__
d	d
a	a

__BEGIN__	__EPS__
c	k
a	a
y	i
p	p
h	h
a	a
s	s

__BEGIN__	__EPS__
k	ka
u	u
m	m
e	__EPS__

__BEGIN__	__EPS__
v	u
n	n
d	d

__BEGIN__	__EPS__
s	s
y	ie

__BEGIN__	__EPS__
s	s
p	p
r	r
a	a
c	c
h	h

__BEGIN__	__EPS__
k	k
n	n
o	o
p	p
h	f
e	e

__BEGIN__	__EPS__
f	f
r	r
a	a
w	u
e	e
n	n

__BEGIN__	__EPS__
g	g
i	i
n	n
g	g

__BEGIN__	__EPS__
o	o
f	b
f	__EPS__

__BEGIN__	__EPS__
a	a
l	l
l	l
e	e

__BEGIN__	__EPS__
z	s
y	ü
d	d
e	e
n	n

__BEGIN__	__EPS__
v	f
ü	ü
r	r
s	s
p	p
r	r
a	a
c	c
h	h

__BEGIN__	__EPS__
h	h
e	a
t	tte

__BEGIN__	__EPS__
n	n
v	un

__BEGIN__	__EPS__
a	o
l	__EPS__
d	d
e	er

__BEGIN__	__EPS__
w	w
i	i
l	l
l	l

__BEGIN__	__EPS__
s	s
t	t
y	i
m	mm
e	e

__BEGIN__	__EPS__
i	ih
r	r

__BEGIN__	__EPS__
d	d
a	a
s	ss

__BEGIN__	__EPS__
g	g
e	e
s	s
c	c
h	h
e	e
h	he
n	n

__BEGIN__	__EPS__
b	b
i	i
s	s

__BEGIN__	__EPS__
v	v
o	o
n	n

__BEGIN__	__EPS__
s	s
o	o

__BEGIN__	__EPS__
d	d
y	ie

__BEGIN__	__EPS__
w	w
a	a
r	r
t	d

__BEGIN__	__EPS__
g	g
e	e
s	s
c	c
h	h
a	a
c	__EPS__
h	h

__BEGIN__	__EPS__
m	m
i	i
t	t

__BEGIN__	__EPS__
s	s
o	o

__BEGIN__	__EPS__
h	h
-	ic

__BEGIN__	__EPS__
d	d
a	a

__BEGIN__	__EPS__
w	w
a	a
r	r
t	d

__BEGIN__	__EPS__
n	n
i	i
e	ch
t	t

__BEGIN__	__EPS__
h	h
e	a
t	t

__BEGIN__	__EPS__
d	d
e	e
r	r

__BEGIN__	__EPS__
d	d
o	a

__BEGIN__	__EPS__
s	s
p	p
r	r
a	a
c	c
h	h

__BEGIN__	__EPS__
v	u
n	n
d	t
e	e
r	r

__BEGIN__	__EPS__
s	s
p	p
r	r
a	a
c	c
h	h

__BEGIN__	__EPS__
m	m
e	e
i	i
n	n
e	e
n	n

__BEGIN__	__EPS__
g	g
e	e
w	w
y	i
n	n
e	n
t	t

__BEGIN__	__EPS__
k	k
i	i
n	n
t	d
h	__EPS__

__BEGIN__	__EPS__
v	u
n	n
d	d

__BEGIN__	__EPS__
v	f
u	ü
r	r
w	w
a	a
i	h
r	r

__BEGIN__	__EPS__
s	s
p	p
r	r
a	a
c	c
h	h

__BEGIN__	__EPS__
s	sc
h	h
o	a
w	u
o	e
n	n

__BEGIN__	__EPS__
m	m
a	a
n	n

__BEGIN__	__EPS__
v	u
n	n
d	d

__BEGIN__	__EPS__
h	h
e	e
r	r
t	__EPS__
z	z

__BEGIN__	__EPS__
k	g
a	o
l	l
u	g
a	a
r	t
i	h
e	a

__BEGIN__	__EPS__
a	a
n	n
s	s
h	__EPS__
e	e
l	l
m	m

__BEGIN__	__EPS__
g	g
e	e
d	t
r	r
a	a
g	g
h	__EPS__
e	e
n	n

__BEGIN__	__EPS__
a	oh
n	n
e	e

__BEGIN__	__EPS__
g	g
a	a
r	r

__BEGIN__	__EPS__
i	ih
n	n

__BEGIN__	__EPS__
e	e
t	t

__BEGIN__	__EPS__
v	f
r	r
a	a
g	g
e	e

__BEGIN__	__EPS__
d	d
a	a
s	ss

__BEGIN__	__EPS__
d	d
i	ie
r	s
e	e
r	r

__BEGIN__	__EPS__
w	w
e	ä
r	r
e	e

__BEGIN__	__EPS__
k	k
y	i
n	n
d	d
e	__EPS__

__BEGIN__	__EPS__
g	g
a	a
r	r

__BEGIN__	__EPS__
c	g
a	o
l	l
u	g
a	a
r	t
i	h
e	a

__BEGIN__	__EPS__
d	d
e	e
r	r

__BEGIN__	__EPS__
m	m
e	e
i	i
n	n

__BEGIN__	__EPS__
n	n
i	i
e	ch
t	t

__BEGIN__	__EPS__
w	w
a	a
z	r

__BEGIN__	__EPS__
d	d
a	a
t	s

__BEGIN__	__EPS__
d	d
e	e
s	s

__BEGIN__	__EPS__
m	m
u	us
s	s
t	t
e	e
n	n

__BEGIN__	__EPS__
e	e
r	r

__BEGIN__	__EPS__
p	b
l	l
u	u
e	__EPS__
t	t
r	r
o	o
t	t

__BEGIN__	__EPS__
d	d
o	a

__BEGIN__	__EPS__
h	h
e	e
i	i
l	l
i	i
g	g
i	__EPS__
s	s
t	t
e	e
n	n

__BEGIN__	__EPS__
d	d
a	a
z	ss

__BEGIN__	__EPS__
s	s
t	t
y	i
m	mm
e	e

__BEGIN__	__EPS__
s	s
u	ü
n	n
d	d
e	e
n	n

__BEGIN__	__EPS__
g	g
e	e
s	s
c	c
h	h
r	r
e	__EPS__
i	ie
b	b
e	e
n	n

__BEGIN__	__EPS__
w	w
a	ah
r	r
h	h
e	e
i	i
t	t

__BEGIN__	__EPS__
v	u
n	n
d	d

__BEGIN__	__EPS__
v	u
n	n
d	d
e	__EPS__

__BEGIN__	__EPS__
f	f
u	ü
e	__EPS__
r	r

__BEGIN__	__EPS__
f	f
r	r
a	a
w	u

__BEGIN__	__EPS__
v	u
n	n
d	d

__BEGIN__	__EPS__
d	d
o	a

__BEGIN__	__EPS__
m	m
y	ir

__BEGIN__	__EPS__
v	v
o	o
r	r

__BEGIN__	__EPS__
c	k
h	__EPS__
i	i
n	n
d	d

__BEGIN__	__EPS__
s	s
a	a
c	c
h	he

__BEGIN__	__EPS__
d	d
a	a
s	ss

__BEGIN__	__EPS__
v	v
e	e
r	r
d	d
a	a
m	mm
n	n
u	i
s	s
z	__EPS__

__BEGIN__	__EPS__
d	d
i	i
e	e

__BEGIN__	__EPS__
h	h
o	ö
r	r
t	t
e	e
n	n
t	__EPS__

__BEGIN__	__EPS__
o	a
g	u
h	g
e	e
n	n

__BEGIN__	__EPS__
s	s
p	p
r	r
a	a
c	c
h	h

__BEGIN__	__EPS__
i	i
n	n

__BEGIN__	__EPS__
b	b
e	e
i	i
n	n

__BEGIN__	__EPS__
n	n
a	ah
m	m

__BEGIN__	__EPS__
h	h
e	a
t	t

__BEGIN__	__EPS__
v	a
f	u
f	f

__BEGIN__	__EPS__
s	s
a	a
g	g
e	e
n	n

__BEGIN__	__EPS__
d	d
a	a

__BEGIN__	__EPS__
d	di
e	e
s	s
e	e
n	n

__BEGIN__	__EPS__
s	s
c	c
h	h
a	a
d	d
e	e
n	n

__BEGIN__	__EPS__
s	s
e	e
c	__EPS__
h	h
e	__EPS__
n	__EPS__
t	t

__BEGIN__	__EPS__
a	e
i	i
n	n
e	e
m	m

__BEGIN__	__EPS__
s	s
i	e
e	i
n	n

__BEGIN__	__EPS__
d	d
o	a

__BEGIN__	__EPS__
h	h
a	ah
n	n
e	__EPS__

__BEGIN__	__EPS__
d	d
a	as
z	s

__BEGIN__	__EPS__
g	g
e	e
d	d
y	ie
n	n
t	t

__BEGIN__	__EPS__
v	v
o	o
n	n

__BEGIN__	__EPS__
s	se
y	i
n	n
e	e

__BEGIN__	__EPS__
g	g
e	e
r	r
n	n

__BEGIN__	__EPS__
v	u
n	n
d	d

__BEGIN__	__EPS__
g	g
e	e
s	s
e	a
i	g
t	t

__BEGIN__	__EPS__
v	u
n	n
d	d

__BEGIN__	__EPS__
d	d
e	e
r	r

__BEGIN__	__EPS__
d	d
o	a

__BEGIN__	__EPS__
h	h
e	e
r	r
o	o
d	d
e	e
s	s

__BEGIN__	__EPS__
s	s
u	u
o	__EPS__
c	c
h	h
t	te

__BEGIN__	__EPS__
v	u
n	n
d	d

__BEGIN__	__EPS__
i	j
u	ü
n	n
g	g
e	e
r	r

__BEGIN__	__EPS__
d	d
e	e
m	m
e	__EPS__

__BEGIN__	__EPS__
v	u
n	n
d	d

__BEGIN__	__EPS__
i	ih
r	r
m	e
e	n

__BEGIN__	__EPS__
h	h
e	a
t	t

__BEGIN__	__EPS__
g	g
h	__EPS__
e	e
s	s
e	e
t	tzt

__BEGIN__	__EPS__
g	g
e	e
s	s
t	t
e	ec
k	k
e	__EPS__
t	t

__BEGIN__	__EPS__
z	z
w	u

__BEGIN__	__EPS__
w	w
e	e
r	r

__BEGIN__	__EPS__
v	u
n	n
d	d

__BEGIN__	__EPS__
f	f
u	üs
z	s
e	e

__BEGIN__	__EPS__
e	e
r	r

__BEGIN__	__EPS__
s	s
i	i
m	m
o	o
n	n

__BEGIN__	__EPS__
h	h
o	ö
r	r
t	t

__BEGIN__	__EPS__
g	g
e	e
w	w
a	a
n	n
d	d

__BEGIN__	__EPS__
f	f
r	r
o	a
w	u

__BEGIN__	__EPS__
h	__EPS__
e	e
l	l
y	y

__BEGIN__	__EPS__
e	e
r	r

__BEGIN__	__EPS__
d	d
e	e
m	m

__BEGIN__	__EPS__
g	__EPS__
e	__EPS__
s	s
p	p
r	r
e	e
c	c
h	h
e	e
n	n

__BEGIN__	__EPS__
e	e
r	r
t	d
r	re
i	i
c	c
h	h

__BEGIN__	__EPS__
w	w
o	u
n	n
d	d
e	e
r	r
s	s

__BEGIN__	__EPS__
c	__EPS__
z	z
a	e
i	i
c	c
h	h
e	e
n	n

__BEGIN__	__EPS__
s	s
p	p
r	r
a	a
c	c
h	h

__BEGIN__	__EPS__
d	d
a	a

__BEGIN__	__EPS__
c	k
l	l
a	a
g	g
e	e

__BEGIN__	__EPS__
i	i
c	c
h	h

__BEGIN__	__EPS__
m	m
i	i
t	t
e	e
i	i
n	n
a	a
n	n
d	d
e	e
r	r

__BEGIN__	__EPS__
b	b
e	e
r	r
i	i
c	c
h	h
t	t
e	e

__BEGIN__	__EPS__
d	d
e	e
r	n

__BEGIN__	__EPS__
m	m
o	o
c	c
h	h
t	te

__BEGIN__	__EPS__
n	n
a	ah
t	t

__BEGIN__	__EPS__
d	d
o	a

__BEGIN__	__EPS__
c	k
l	l
e	ä
g	g
l	l
i	i
c	c
h	h

__BEGIN__	__EPS__
m	m
i	i
r	r

__BEGIN__	__EPS__
d	d
a	a
z	ss

__BEGIN__	d
u	u

__BEGIN__	__EPS__
t	t
r	r
a	a
d	t
e	e
n	n

__BEGIN__	__EPS__
e	e
i	i
n	n
e	e
n	n

__BEGIN__	__EPS__
i	i
c	c
h	h

__BEGIN__	__EPS__
h	h
e	ä
t	t
t	te

__BEGIN__	__EPS__
h	h
e	e
r	r
e	r

__BEGIN__	__EPS__
s	s
u	o
e	h
n	n

__BEGIN__	__EPS__
v	u
n	n
d	d

__BEGIN__	__EPS__
h	h
i	i
n	n

__BEGIN__	__EPS__
d	d
v	u

__BEGIN__	__EPS__
d	d
o	a

__BEGIN__	__EPS__
d	d
y	ie

__BEGIN__	__EPS__
d	d
o	o
r	r
r	__EPS__
e	__EPS__
n	n
e	e
n	n

__BEGIN__	__EPS__
w	w
a	a
s	s

__BEGIN__	__EPS__
s	s
e	e
i	i
n	n

__BEGIN__	__EPS__
d	d
a	a
t	ss

__BEGIN__	__EPS__
g	g
r	r
o	o
z	ss
e	e
m	m

__BEGIN__	__EPS__
n	n
i	i
e	ch
t	t

__BEGIN__	__EPS__
e	e
r	r

__BEGIN__	__EPS__
y	j
a	am
m	m
e	e
r	r

__BEGIN__	__EPS__
h	h
a	a
b	b
e	e
n	n
t	__EPS__

__BEGIN__	__EPS__
v	u
m	m
b	__EPS__

__BEGIN__	__EPS__
d	d
e	e
r	r

__BEGIN__	__EPS__
v	f
i	ie
l	l

__BEGIN__	__EPS__
y	ih
m	m

__BEGIN__	__EPS__
v	u
n	n
s	s
e	e
r	re
m	m

__BEGIN__	__EPS__
w	w
i	i
r	r
t	d

__BEGIN__	__EPS__
v	u
n	n
d	d

__BEGIN__	__EPS__
k	k
o	a
m	m

__BEGIN__	__EPS__
w	w
o	oh
l	l

__BEGIN__	__EPS__
s	s
u	u
o	__EPS__
c	c
h	h
e	__EPS__
t	t
e	e
n	n
t	__EPS__

__BEGIN__	__EPS__
u	v
o	o
n	n

__BEGIN__	__EPS__
v	u
n	n
d	d

__BEGIN__	__EPS__
d	d
e	e
r	r

__BEGIN__	__EPS__
i	ih
n	n

__BEGIN__	__EPS__
s	s
t	t
a	a
i	d
d	t

__BEGIN__	__EPS__
l	l
a	a
i	s
s	s
t	t

__BEGIN__	__EPS__
d	d
e	e
i	i
n	n

__BEGIN__	__EPS__
v	u
n	n
d	d

__BEGIN__	__EPS__
v	u
n	n
s	s
z	__EPS__

__BEGIN__	__EPS__
c	c
o	o
r	r
o	o
n	n
a	a
t	t
u	u
r	r

__BEGIN__	__EPS__
m	m
i	i
r	r

__BEGIN__	__EPS__
t	t
o	o
c	c
h	h
t	t
e	e
r	r

__BEGIN__	__EPS__
d	d
e	e
s	s

__BEGIN__	__EPS__
d	d
e	e
r	r

__BEGIN__	__EPS__
m	m
i	i
r	r

__BEGIN__	__EPS__
a	a
n	n

__BEGIN__	__EPS__
d	d
i	ie
s	s
e	e
m	m
e	__EPS__

__BEGIN__	__EPS__
g	g
e	e
h	h
o	ö
e	__EPS__
r	r
t	t

__BEGIN__	__EPS__
d	d
a	a
z	s

__BEGIN__	__EPS__
w	w
e	ä
r	re

__BEGIN__	__EPS__
a	a
n	n

__BEGIN__	__EPS__
i	i
n	n

__BEGIN__	__EPS__
f	f
r	r
a	a
g	g
t	t

__BEGIN__	__EPS__
d	d
e	e
m	m

__BEGIN__	__EPS__
k	k
o	ö
e	__EPS__
n	n
i	i
n	__EPS__
c	__EPS__
k	g

__BEGIN__	__EPS__
v	u
n	n
d	d

__BEGIN__	__EPS__
a	a
n	n

__BEGIN__	__EPS__
b	b
o	ö
e	__EPS__
s	s
e	e
n	n

__BEGIN__	__EPS__
s	s
p	p
r	r
a	a
c	c
h	h

__BEGIN__	__EPS__
z	z
a	a
r	r
t	t
e	e
s	s

__BEGIN__	__EPS__
n	n
i	i
c	c
h	h
t	t

__BEGIN__	__EPS__
g	g
r	r
a	a
b	b

__BEGIN__	__EPS__
s	s
p	p
o	o
t	tt
e	e
t	t
e	e
n	n

__BEGIN__	__EPS__
a	a
l	l
s	s
o	o

__BEGIN__	__EPS__
k	k
i	i
n	n
t	d

__BEGIN__	__EPS__
k	k
o	a
m	m

__BEGIN__	__EPS__
a	a
l	l
s	s

__BEGIN__	__EPS__
s	s
a	a
c	__EPS__
h	h

__BEGIN__	__EPS__
l	l
i	i
e	e
u	b
e	e

__BEGIN__	__EPS__
t	t
r	r
u	u
g	g
e	e
n	n

__BEGIN__	__EPS__
s	s
e	e
i	i
n	n

__BEGIN__	__EPS__
s	s
p	p
r	r
a	a
c	c
h	h

__BEGIN__	__EPS__
a	a
n	n

__BEGIN__	__EPS__
v	u
n	n
d	d

__BEGIN__	__EPS__
g	g
r	r
i	i
m	mm
i	i
g	g
e	e
n	n

__BEGIN__	__EPS__
v	u
n	n
d	d

__BEGIN__	__EPS__
d	d
u	u
r	r
c	c
h	h
s	s
t	t
a	a
c	c
h	h

__BEGIN__	__EPS__
s	s
t	t
e	eh
t	t

__BEGIN__	__EPS__
a	a
b	b
g	g
e	e
t	__EPS__
z	z
o	o
g	g
e	e
n	n

__BEGIN__	__EPS__
d	m
v	a
i	g
r	e
r	r
e	__EPS__

__BEGIN__	__EPS__
h	h
a	a
b	be

__BEGIN__	__EPS__
i	j
o	o
h	h
a	a
n	n
n	n
e	e
s	s
z	__EPS__

__BEGIN__	__EPS__
t	t
r	r
a	ä
e	__EPS__
c	__EPS__
h	n
e	e
n	n

__BEGIN__	__EPS__
v	u
n	n
d	d

__BEGIN__	__EPS__
w	w
e	e
y	i
n	n
e	e

__BEGIN__	__EPS__
s	s
i	i
e	e

__BEGIN__	__EPS__
s	s
t	t
y	ie
s	ss
e	e

__BEGIN__	__EPS__
d	d
a	a
t	ss

__BEGIN__	__EPS__
i	ih
m	m

__BEGIN__	__EPS__
y	ih
m	m

__BEGIN__	__EPS__
s	s
a	e
c	t
z	z
t	t
e	e
n	n

__BEGIN__	__EPS__
c	k
l	l
a	a
g	g
e	e

__BEGIN__	__EPS__
e	e
i	i
n	n
i	e
s	s

__BEGIN__	__EPS__
d	d
e	e
m	m

__BEGIN__	__EPS__
d	d
e	e
n	n

__BEGIN__	__EPS__
t	t
e	a
t	t
t	__EPS__
e	e
n	n

__BEGIN__	__EPS__
i	j
o	o
h	h
e	a
n	nn
e	e
s	s

__BEGIN__	__EPS__
d	d
i	i
c	c
h	h

__BEGIN__	__EPS__
d	d
o	a

__BEGIN__	__EPS__
h	h
e	a
t	t

__BEGIN__	__EPS__
m	m
e	e
i	i
s	s
t	t
e	e
r	r

__BEGIN__	__EPS__
v	u
n	n
d	d

__BEGIN__	__EPS__
s	s
o	o

__BEGIN__	__EPS__
d	d
e	e
r	r

__BEGIN__	__EPS__
w	w
a	a
s	r

__BEGIN__	a
v	u
f	f

__BEGIN__	__EPS__
e	e
n	n
t	t
e	e
r	h
e	r
t	t

__BEGIN__	__EPS__
u	u
n	n
d	d

__BEGIN__	__EPS__
n	n
i	ich
t	t

__BEGIN__	__EPS__
m	m
i	i
e	__EPS__
r	r

__BEGIN__	__EPS__
d	d
a	a
z	ss

__BEGIN__	__EPS__
n	n
u	un

__BEGIN__	__EPS__
v	u
n	n
d	d

__BEGIN__	__EPS__
e	__EPS__
n	__EPS__
h	k
e	e
i	i
n	n

__BEGIN__	__EPS__
s	s
y	ie

__BEGIN__	__EPS__
s	s
p	p
r	r
a	a
c	c
h	h

__BEGIN__	__EPS__
e	u
n	nd

__BEGIN__	__EPS__
s	s
p	p
r	r
a	a
c	c
h	h

__BEGIN__	__EPS__
w	w
a	ä
e	__EPS__
r	re

__BEGIN__	__EPS__
d	d
i	i
c	c
h	h

__BEGIN__	__EPS__
g	g
e	e
s	s
p	p
r	r
o	o
c	c
h	h
e	e
n	n

__BEGIN__	__EPS__
v	u
n	n
d	d

__BEGIN__	__EPS__
s	s
p	p
r	r
a	a
c	c
h	h
e	e
n	n

__BEGIN__	__EPS__
w	w
i	i
l	lls
t	t

__BEGIN__	__EPS__
s	s
i	i
n	n
t	d

__BEGIN__	__EPS__
b	b
e	e
w	w
y	ie
s	s
e	e
n	n

__BEGIN__	__EPS__
g	g
e	e
l	l
a	a
s	s
s	s
e	e
n	n

__BEGIN__	__EPS__
v	f
o	o
r	r
t	t
a	a
n	n

__BEGIN__	__EPS__
r	r
o	o
t	t

__BEGIN__	__EPS__
t	t
e	a
t	t
e	e
n	n

__BEGIN__	__EPS__
y	j
e	etz
t	t

__BEGIN__	__EPS__
s	s
i	ie

__BEGIN__	__EPS__
o	o

__BEGIN__	__EPS__
d	d
e	e
n	n
n	n
e	__EPS__

__BEGIN__	__EPS__
b	b
e	e
h	__EPS__
e	__EPS__
s	s
i	e
m	n

__BEGIN__	__EPS__
n	n
i	ich
t	t

__BEGIN__	__EPS__
s	sch
w	w
e	e
s	s
t	t
e	e
r	r

__BEGIN__	__EPS__
g	g
i	in
e	g

__BEGIN__	__EPS__
e	p
w	r
a	ie
r	s
t	t
e	e
n	r

__BEGIN__	__EPS__
w	w
a	a
s	r

__BEGIN__	__EPS__
s	s
p	pe
e	e
r	r

__BEGIN__	__EPS__
l	l
a	a
s	s
s	s
e	e
n	n

__BEGIN__	__EPS__
d	d
i	i
c	c
h	h

__BEGIN__	__EPS__
d	d
o	o
c	c
h	h

__BEGIN__	__EPS__
s	s
p	p
r	r
a	a
c	c
h	h

__BEGIN__	__EPS__
l	l
i	i
e	e
b	b
e	e

__BEGIN__	__EPS__
v	u
n	n
d	d

__BEGIN__	__EPS__
i	ih
m	m

__BEGIN__	__EPS__
w	w
i	i
d	d
e	e
r	r

__BEGIN__	__EPS__
w	w
o	o
r	r
t	t

__BEGIN__	__EPS__
e	e
r	r

__BEGIN__	__EPS__
w	w
e	e
r	r
d	d
e	e
t	t

__BEGIN__	__EPS__
a	a
b	b

__BEGIN__	__EPS__
p	b
r	r
a	a
c	c
h	h
t	te

__BEGIN__	__EPS__
h	__EPS__
e	e
i	r

__BEGIN__	__EPS__
s	s
e	e
i	i
n	n

__BEGIN__	__EPS__
m	m
o	a
l	l

__BEGIN__	__EPS__
m	m
i	i
t	t

__BEGIN__	__EPS__
g	g
e	e
h	h
i	i
e	e
s	s
z	s

__BEGIN__	__EPS__
d	d
e	e
m	m

__BEGIN__	__EPS__
d	d
a	a
n	n
n	n

__BEGIN__	__EPS__
o	o
w	w
e	eh

__BEGIN__	__EPS__
i	i
c	c
h	h

__BEGIN__	__EPS__
h	h
a	a
n	be

__BEGIN__	__EPS__
d	d
a	a

__BEGIN__	__EPS__
h	e
i	r

__BEGIN__	__EPS__
s	se
y	i
n	n

__BEGIN__	__EPS__
s	s
y	ie

__BEGIN__	__EPS__
p	b
o	ö
z	s
e	e
n	n

__BEGIN__	__EPS__
s	s
i	i
m	m
e	e
o	o
n	n

__BEGIN__	__EPS__
i	ih
r	r
e	e

__BEGIN__	__EPS__
a	a
l	l
s	s
o	o

__BEGIN__	__EPS__
v	u
n	n
d	d

__BEGIN__	__EPS__
d	da
z	ss

__BEGIN__	__EPS__
d	d
a	a
n	n
n	n
e	__EPS__

__BEGIN__	__EPS__
d	d
u	u
r	r
c	c
h	h

__BEGIN__	__EPS__
v	v
i	i
d	d
e	e

__BEGIN__	__EPS__
g	g
i	i
b	b

__BEGIN__	__EPS__
v	u
n	n
s	s
c	c
h	h
u	u
l	l
d	d
i	i
g	g
e	e
s	s

__BEGIN__	__EPS__
v	f
i	i
e	e
l	l

__BEGIN__	__EPS__
m	m
e	e
i	i
n	n

__BEGIN__	__EPS__
w	w
a	a
s	r

__BEGIN__	__EPS__
m	m
a	a
n	n

__BEGIN__	__EPS__
d	d
a	a

__BEGIN__	__EPS__
n	n
e	ä
c	c
h	h
t	t
e	e
n	ns

__BEGIN__	__EPS__
b	b
e	e
g	g
a	an
i	ge
n	n

__BEGIN__	__EPS__
w	p
e	r
i	o
s	p
s	h
a	e
g	t

__BEGIN__	__EPS__
w	w
e	u
s	ss
t	te

__BEGIN__	__EPS__
d	d
e	e
r	r

__BEGIN__	__EPS__
d	d
a	a
z	ss

__BEGIN__	__EPS__
w	w
ü	u
s	s
c	c
h	h
e	__EPS__

__BEGIN__	__EPS__
d	d
a	a

__BEGIN__	__EPS__
z	z
u	u

__BEGIN__	__EPS__
a	a
n	n

__BEGIN__	__EPS__
o	o
e	__EPS__
u	b
e	e
r	r
s	s
t	t
e	e
n	n

__BEGIN__	__EPS__
d	d
a	a

__BEGIN__	__EPS__
w	w
i	i
e	e

__BEGIN__	__EPS__
d	d
o	a

__BEGIN__	__EPS__
o	ü
b	b
e	e
l	l

__BEGIN__	__EPS__
g	g
e	e
r	r
o	o
e	e
p	p

__BEGIN__	__EPS__
n	n
i	i
c	c
h	h
t	t

__BEGIN__	__EPS__
d	d
o	a

__BEGIN__	__EPS__
r	r
e	e
d	de

__BEGIN__	__EPS__
c	__EPS__
z	z
a	ä
r	r
t	t
l	l
i	i
c	c
h	h

__BEGIN__	__EPS__
e	e
y	i
n	n

__BEGIN__	__EPS__
a	a
n	n
s	s
h	__EPS__
e	e
l	l
m	m
u	__EPS__
s	__EPS__

__BEGIN__	__EPS__
w	w
e	e
r	r
d	d
e	e
n	n

__BEGIN__	__EPS__
i	j
ü	u
d	d
e	e
n	n

__BEGIN__	__EPS__
t	t
e	e
m	m
p	p
e	e
l	l

__BEGIN__	__EPS__
d	d
o	a

__BEGIN__	__EPS__
i	j
e	e
s	s
ü	u
m	s

__BEGIN__	__EPS__
b	b
e	e
g	g
e	eh
r	r
t	t

__BEGIN__	__EPS__
d	d
i	i
r	r

__BEGIN__	__EPS__
a	a
n	n
d	d
e	e
r	r

__BEGIN__	__EPS__
d	d
e	e
n	n

__BEGIN__	__EPS__
m	m
a	a
r	r
i	i
a	a

__BEGIN__	__EPS__
w	w
i	i
e	e

__BEGIN__	__EPS__
d	d
o	a

__BEGIN__	__EPS__
v	f
o	ü
r	r
w	w
a	ah
r	r

__BEGIN__	__EPS__
d	d
e	e
r	r

__BEGIN__	__EPS__
d	d
r	re
i	is
z	s
i	i
c	g

__BEGIN__	__EPS__
l	l
i	i
e	e
b	b
v	__EPS__
i	e

__BEGIN__	__EPS__
a	a
n	n

__BEGIN__	__EPS__
v	u
n	n
d	d

__BEGIN__	__EPS__
n	n
u	un

__BEGIN__	__EPS__
d	de
i	i
n	ne
s	s

__BEGIN__	__EPS__
h	h
e	e
r	r
t	__EPS__
z	z
e	__EPS__
n	__EPS__
k	__EPS__
l	l
i	i
c	c
h	h
e	e
n	n

__BEGIN__	__EPS__
s	s
t	t
a	ä
t	tte

__BEGIN__	__EPS__
d	d
i	i
r	r

__BEGIN__	__EPS__
m	m
a	a
g	g
e	__EPS__
t	d

__BEGIN__	__EPS__
c	__EPS__
z	z
u	u

__BEGIN__	__EPS__
l	l
o	ö
e	__EPS__
s	s
e	e
n	n

__BEGIN__	__EPS__
m	m
a	a
n	n

__BEGIN__	__EPS__
d	d
u	u
r	r
c	c
h	h

__BEGIN__	__EPS__
d	d
a	a
z	ss

__BEGIN__	__EPS__
d	d
a	a
z	ss

__BEGIN__	__EPS__
c	k
r	re
u	u
c	__EPS__
z	z
e	e
n	n

__BEGIN__	__EPS__
i	i
c	c
h	h

__BEGIN__	__EPS__
k	k
e	e
y	i
n	n
e	e
n	n

__BEGIN__	__EPS__
e	e
r	r

__BEGIN__	__EPS__
g	g
e	e
s	s
i	i
c	c
h	h
t	t

__BEGIN__	__EPS__
i	ih
m	m

__BEGIN__	__EPS__
e	__EPS__
w	w
e	e
c	__EPS__
h	g

__BEGIN__	__EPS__
i	i
c	c
h	h

__BEGIN__	__EPS__
h	h
a	a
b	b
e	e
n	n

__BEGIN__	__EPS__
g	g
e	e
s	s
e	a
i	g
t	t

__BEGIN__	__EPS__
e	e
u	u
c	c
h	h

__BEGIN__	__EPS__
d	d
e	e
r	r

__BEGIN__	__EPS__
d	d
o	a

__BEGIN__	__EPS__
h	e
e	r

__BEGIN__	__EPS__
n	n
a	a
c	c
h	h

__BEGIN__	__EPS__
h	h
y	i
m	mm
e	e
l	l
r	re
i	i
c	c
h	h

__BEGIN__	__EPS__
e	e
w	w
i	i
g	g
e	e
r	r

__BEGIN__	__EPS__
a	a
n	n
g	g
e	e
s	s
e	e
h	h
e	e
n	n

__BEGIN__	__EPS__
a	a
u	u
f	f

__BEGIN__	__EPS__
d	d
o	a

__BEGIN__	__EPS__
d	d
i	i
e	e

__BEGIN__	__EPS__
v	v
e	e
r	r
g	g
e	e
s	s
s	s
e	e
n	n

__BEGIN__	__EPS__
m	m
i	i
c	c
h	h

__BEGIN__	__EPS__
w	w
a	e
i	i
n	n
e	e
n	n

__BEGIN__	__EPS__
i	ih
m	m

__BEGIN__	__EPS__
s	s
p	p
r	r
a	a
c	c
h	h

__BEGIN__	__EPS__
f	f
u	a
n	n
d	d
e	e
n	n

__BEGIN__	__EPS__
s	sch
l	l
u	u
g	g
e	e
n	n

__BEGIN__	__EPS__
d	d
i	i
e	e

__BEGIN__	__EPS__
h	h
a	a
s	s
t	t

__BEGIN__	__EPS__
s	s
t	t
e	e
y	i
n	n
e	e
n	n

__BEGIN__	__EPS__
v	v
o	o
l	ll
p	b
r	r
a	a
c	c
h	h
t	t
e	e
n	n

__BEGIN__	__EPS__
n	g
a	est
e	e
c	__EPS__
h	r
t	n

__BEGIN__	__EPS__
d	d
e	e
m	m

__BEGIN__	__EPS__
w	w
o	o
l	ll
t	t
e	e
n	n

__BEGIN__	__EPS__
d	d
e	e
r	r

__BEGIN__	__EPS__
p	p
i	i
l	l
a	a
t	t
v	u
s	s

__BEGIN__	__EPS__
n	n
a	a
g	g
e	e
l	l

__BEGIN__	__EPS__
s	s
y	ie

__BEGIN__	__EPS__
s	s
o	o

__BEGIN__	__EPS__
d	d
o	a

__BEGIN__	__EPS__
l	l
o	o
n	n
g	g
i	i
n	n
u	u
s	s

__BEGIN__	__EPS__
w	w
a	a
s	r

__BEGIN__	__EPS__
k	k
e	e
i	i
n	n

__BEGIN__	__EPS__
m	m
i	i
r	r

__BEGIN__	__EPS__
d	d
o	a

__BEGIN__	__EPS__
l	l
i	ie
b	b
e	e
r	r

__BEGIN__	__EPS__
o	a
u	u
c	c
h	h

__BEGIN__	__EPS__
m	m
a	a
g	g

__BEGIN__	__EPS__
d	d
e	e
n	m

__BEGIN__	__EPS__
g	g
o	ö
n	nn
d	t
o	e
n	n

__BEGIN__	__EPS__
v	f
o	o
l	l
g	g
e	e
t	t

__BEGIN__	__EPS__
d	t
o	o
i	__EPS__
t	d

__BEGIN__	__EPS__
m	m
e	e
n	n
s	s
c	c
h	h
h	h
a	e
i	i
t	t

__BEGIN__	__EPS__
n	n
u	un

__BEGIN__	__EPS__
d	d
e	e
r	r

__BEGIN__	__EPS__
i	i
c	c
h	h

__BEGIN__	__EPS__
n	n
ü	un

__BEGIN__	__EPS__
e	u
n	nd

__BEGIN__	__EPS__
y	i
n	n
n	n
e	i
c	g
l	l
i	i
c	c
h	h
e	e

__BEGIN__	__EPS__
d	d
o	a
r	__EPS__
n	n
o	a
c	c
h	h

__BEGIN__	__EPS__
b	b
i	i
s	s

__BEGIN__	__EPS__
w	w
a	a
r	r
t	d

__BEGIN__	__EPS__
v	u
n	n
d	d

__BEGIN__	__EPS__
v	v
i	ie
l	l

__BEGIN__	__EPS__
l	l
e	ä
n	n
g	ge

__BEGIN__	__EPS__
s	s
w	oh
n	n

__BEGIN__	__EPS__
r	r
e	e
y	i
n	n
e	__EPS__
s	s
t	t
e	e

__BEGIN__	__EPS__
a	a
n	n

__BEGIN__	__EPS__
d	d
o	a

__BEGIN__	__EPS__
d	d
i	i
e	e

__BEGIN__	__EPS__
i	i
c	c
h	h

__BEGIN__	__EPS__
c	__EPS__
z	z
a	a
r	r
t	t
e	e
s	s

__BEGIN__	__EPS__
d	d
a	a
r	r
v	u
m	m
b	__EPS__

__BEGIN__	__EPS__
m	m
y	i
t	t

__BEGIN__	__EPS__
h	h
e	er
r	r

__BEGIN__	__EPS__
d	d
o	a

__BEGIN__	__EPS__
d	d
i	i
r	r

__BEGIN__	__EPS__
d	d
o	a

__BEGIN__	__EPS__
e	e
r	r

__BEGIN__	__EPS__
m	m
i	i
t	t

__BEGIN__	__EPS__
r	r
e	ec
h	h
t	t
e	e
n	n

__BEGIN__	__EPS__
w	w
o	o
l	ll
t	t

__BEGIN__	__EPS__
d	d
e	e
n	n

__BEGIN__	__EPS__
d	d
e	e
r	r

__BEGIN__	__EPS__
e	e
r	r
t	t
o	öt
e	e
d	__EPS__
t	t

__BEGIN__	__EPS__
d	d
u	u

__BEGIN__	__EPS__
d	d
o	a

__BEGIN__	__EPS__
i	ih
m	m

__BEGIN__	__EPS__
s	s
u	o
n	nne

__BEGIN__	__EPS__
e	e
i	i
n	n

__BEGIN__	__EPS__
y	ih
n	n

__BEGIN__	__EPS__
d	d
i	ie
s	s
e	e
r	r

__BEGIN__	__EPS__
p	p
y	i
l	l
a	a
t	t
u	u
n	s

__BEGIN__	__EPS__
v	v
e	e
r	r
g	g
i	i
b	b

__BEGIN__	__EPS__
c	k
l	l
e	ä
g	g
e	__EPS__
l	l
i	i
c	c
h	h
e	e

__BEGIN__	__EPS__
h	h
a	a
t	t

__BEGIN__	__EPS__
d	d
i	i
e	e

__BEGIN__	__EPS__
t	t
r	r
a	ä
e	__EPS__
c	__EPS__
h	n
e	e
r	__EPS__
n	n

__BEGIN__	__EPS__
m	m
i	i
c	c
h	h

__BEGIN__	__EPS__
m	me
y	i
n	n

__BEGIN__	__EPS__
e	e
w	u
r	r
e	e

__BEGIN__	__EPS__
h	h
o	a
u	u
p	p
t	t

__BEGIN__	__EPS__
v	u
n	n
d	d

__BEGIN__	__EPS__
a	a
n	n
s	s
h	__EPS__
e	e
l	l
m	m
u	__EPS__
s	__EPS__

__BEGIN__	__EPS__
p	p
i	i
l	l
a	a
t	t
u	u
s	s

__BEGIN__	__EPS__
d	d
a	a
z	ss

__BEGIN__	__EPS__
s	s
p	p
r	r
a	a
c	c
h	h

__BEGIN__	__EPS__
i	i
n	n

__BEGIN__	__EPS__
d	d
e	e
r	r

__BEGIN__	__EPS__
h	h
o	ö
r	r
t	t

__BEGIN__	__EPS__
a	a
n	n
s	s
h	__EPS__
e	e
l	l
m	m
u	__EPS__
s	__EPS__

__BEGIN__	__EPS__
d	d
a	a
s	ss

__BEGIN__	__EPS__
d	d
e	e
s	s

__BEGIN__	__EPS__
z	z
a	a
r	r
t	t
e	e
n	n

__BEGIN__	__EPS__
v	u
n	n
d	d

__BEGIN__	__EPS__
l	l
e	e
i	i
c	c
h	h
n	n
a	a
m	m

__BEGIN__	__EPS__
n	n
a	a
g	g
e	e
l	l
s	s

__BEGIN__	__EPS__
v	u
n	n
d	d

__BEGIN__	__EPS__
d	d
i	i
r	r

__BEGIN__	__EPS__
a	a
u	u
f	f
f	__EPS__

__BEGIN__	__EPS__
s	s
o	o

__BEGIN__	__EPS__
d	d
a	as
s	s

__BEGIN__	__EPS__
a	a
u	u
f	f

__BEGIN__	__EPS__
f	f
r	r
o	__EPS__
e	e
i	u
d	d
e	e
n	n

__BEGIN__	__EPS__
s	s
v	i
i	e

__BEGIN__	__EPS__
e	e
i	i
n	n

__BEGIN__	__EPS__
d	d
e	e
s	s

__BEGIN__	__EPS__
n	n
u	un

__BEGIN__	__EPS__
g	g
e	e
t	t
a	a
e	__EPS__
n	n

__BEGIN__	__EPS__
s	s
y	ie

__BEGIN__	__EPS__
d	d
i	i
e	e

__BEGIN__	__EPS__
d	d
o	a

__BEGIN__	__EPS__
d	d
e	e
m	m

__BEGIN__	__EPS__
y	ih
n	n

__BEGIN__	__EPS__
h	h
o	a
u	u
p	p
t	t

__BEGIN__	__EPS__
s	s
t	t
u	u
n	n
d	de

__BEGIN__	__EPS__
b	b
r	r
u	u
s	s
t	t

__BEGIN__	__EPS__
e	e
r	r

__BEGIN__	__EPS__
o	ih
n	n

__BEGIN__	__EPS__
s	s
c	c
h	h
r	r
i	i
r	__EPS__
e	e
n	n

__BEGIN__	__EPS__
i	j
e	e
r	r
u	u
s	s
a	a
l	l
e	e
m	m

__BEGIN__	__EPS__
p	b
e	e
y	i

__BEGIN__	__EPS__
v	v
o	o
l	l
k	ke
s	s

__BEGIN__	__EPS__
g	g
r	r
a	a
b	b

__BEGIN__	__EPS__
g	g
o	o
t	tt
e	e
s	s

__BEGIN__	__EPS__
m	m
i	i
t	t

__BEGIN__	__EPS__
d	d
a	a
s	ss

__BEGIN__	__EPS__
d	d
u	u
r	r
c	c
h	h
s	s
t	t
o	o
c	c
h	h
e	e
n	n

__BEGIN__	__EPS__
v	u
m	n
s	s
e	e
r	r

__BEGIN__	__EPS__
l	l
e	e
i	g
t	t
e	e
n	n
d	__EPS__

__BEGIN__	__EPS__
v	ü
b	b
e	e
r	r

__BEGIN__	__EPS__
w	w
a	a
r	r
e	e
n	n

__BEGIN__	__EPS__
l	l
e	e
u	u
t	t
e	e
n	n

__BEGIN__	__EPS__
e	ih
r	r
e	e

__BEGIN__	__EPS__
p	p
y	i
l	l
a	a
t	t
u	u
s	s

__BEGIN__	__EPS__
r	r
e	e
c	c
h	h
t	t
e	e
n	n

__BEGIN__	__EPS__
d	d
e	e
m	m

__BEGIN__	__EPS__
n	n
o	o
c	c
h	h

__BEGIN__	__EPS__
c	__EPS__
h	k
l	l
a	a
g	g
t	t

__BEGIN__	__EPS__
g	g
r	r
o	o
s	s
s	s
e	e
m	m

__BEGIN__	__EPS__
g	g
o	o
t	t
t	t

__BEGIN__	__EPS__
d	d
a	a
z	ss

__BEGIN__	__EPS__
i	ih
n	n

__BEGIN__	__EPS__
p	p
h	f
e	e
n	n
n	n
i	i
n	__EPS__
g	g

__BEGIN__	__EPS__
i	i
s	s
t	t

__BEGIN__	__EPS__
v	v
e	e
r	r
g	g
e	e
s	s
s	s
e	e
n	n

__BEGIN__	__EPS__
a	a
n	n

__BEGIN__	__EPS__
d	d
o	a

__BEGIN__	__EPS__
s	s
p	p
r	r
a	a
c	c
h	h

__BEGIN__	__EPS__
v	u
n	n
s	s

__BEGIN__	__EPS__
o	o
s	s
t	t
e	e
r	r
t	t
a	a
g	g

__BEGIN__	__EPS__
l	le
i	i
b	b
e	__EPS__

__BEGIN__	__EPS__
i	i
c	c
h	h

__BEGIN__	__EPS__
m	m
o	o
c	c
h	h
t	t
e	e

__BEGIN__	__EPS__
w	w
a	a
r	r
d	d

__BEGIN__	__EPS__
l	l
a	a
n	n
g	g

__BEGIN__	__EPS__
d	d
a	a

__BEGIN__	__EPS__
f	f
r	r
a	a
u	u

__BEGIN__	__EPS__
t	__EPS__
z	z
o	u

__BEGIN__	__EPS__
a	a
u	u
g	g
e	e
n	n

__BEGIN__	__EPS__
d	d
i	i
e	e

__BEGIN__	__EPS__
v	u
n	n
d	d

__BEGIN__	__EPS__
s	s
a	a
g	g
e	e

__BEGIN__	__EPS__
d	d
a	a
s	ss

__BEGIN__	__EPS__
a	a
l	l
s	s

__BEGIN__	__EPS__
d	d
y	ie

__BEGIN__	__EPS__
d	d
o	a

__BEGIN__	__EPS__
a	a
n	n
d	d
e	e
r	r
s	s

__BEGIN__	__EPS__
v	u
n	n
d	d

__BEGIN__	__EPS__
w	w
o	o
e	l
l	l
t	t

__BEGIN__	__EPS__
s	s
o	o

__BEGIN__	__EPS__
d	d
o	a

__BEGIN__	__EPS__
v	u
n	n
n	d

__BEGIN__	__EPS__
w	w
e	ä
r	r
e	e

__BEGIN__	__EPS__
d	d
e	e
m	m

__BEGIN__	__EPS__
v	u
n	n
d	d

__BEGIN__	__EPS__
d	d
e	e
n	n

__BEGIN__	__EPS__
w	w
a	a
r	r
d	d

__BEGIN__	__EPS__
w	w
a	a
z	r

__BEGIN__	__EPS__
d	d
o	a

__BEGIN__	__EPS__
f	f
u	üh
r	r
t	t

__BEGIN__	__EPS__
i	ih
m	m

__BEGIN__	__EPS__
s	s
o	o

__BEGIN__	__EPS__
p	p
s	s
a	a
l	l
t	t
e	e
r	r

__BEGIN__	__EPS__
s	se
y	i
d	d
e	e
n	n

__BEGIN__	__EPS__
p	b
e	e
i	i
c	c
h	h
t	te

__BEGIN__	__EPS__
n	n
i	i
c	c
h	h
t	t

__BEGIN__	__EPS__
m	m
e	e
y	i
n	n

__BEGIN__	__EPS__
e	e
r	r

__BEGIN__	__EPS__
g	g
e	e
l	l
e	e
e	__EPS__
f	b
f	__EPS__
d	t
e	e

__BEGIN__	__EPS__
a	a
n	n
d	d
e	e
r	re
n	n

__BEGIN__	__EPS__
m	m
e	e
i	i
n	n

__BEGIN__	__EPS__
v	u
n	n
d	d

__BEGIN__	__EPS__
n	n
i	ich
t	t

__BEGIN__	n
e	ich
n	t

__BEGIN__	__EPS__
v	u
m	m
b	__EPS__

__BEGIN__	__EPS__
s	s
c	c
h	h
a	a
u	u
w	__EPS__
e	e

__BEGIN__	__EPS__
i	i
c	c
h	h

__BEGIN__	__EPS__
a	a
n	n

__BEGIN__	__EPS__
d	d
i	i
e	e

__BEGIN__	__EPS__
s	s
e	ee
l	le

__BEGIN__	__EPS__
s	s
e	a
g	g
g	__EPS__
h	__EPS__
e	e

__BEGIN__	__EPS__
t	t
o	o
e	__EPS__
r	r
e	e
n	n

__BEGIN__	__EPS__
p	p
y	i
l	l
a	a
t	t
u	u
s	s

__BEGIN__	__EPS__
d	d
a	a
s	ss

__BEGIN__	__EPS__
n	n
i	i
e	ch
t	t

__BEGIN__	__EPS__
d	d
o	a

__BEGIN__	__EPS__
m	m
i	i
c	c
h	h

__BEGIN__	__EPS__
l	l
i	i
e	e
u	b
e	e
n	n

__BEGIN__	__EPS__
s	sch
n	n
o	ö
e	__EPS__
d	d
e	e
r	r

__BEGIN__	__EPS__
g	g
e	e
r	r
n	n

__BEGIN__	__EPS__
s	s
t	t
o	ö
r	r
e	e
r	r

__BEGIN__	__EPS__
d	d
e	e
i	i
n	n
e	e
r	r

__BEGIN__	__EPS__
g	g
e	e
s	s
c	c
h	h
a	a
c	__EPS__
h	h

__BEGIN__	__EPS__
k	k
r	r
e	e
w	u
c	__EPS__
z	z

__BEGIN__	__EPS__
s	s
p	p
r	r
a	a
c	c
h	h
e	e
n	n

__BEGIN__	__EPS__
i	j
e	ä
m	mm
e	e
r	r
l	l
i	i
c	c
h	h
e	e
n	n

__BEGIN__	__EPS__
m	m
e	e
i	i
n	n
e	e
r	r

__BEGIN__	__EPS__
v	u
n	n
d	d

__BEGIN__	__EPS__
t	__EPS__
z	z
o	u

__BEGIN__	__EPS__
m	m
a	a
g	g

__BEGIN__	__EPS__
m	m
e	e
n	n
s	s
c	c
h	h

__BEGIN__	__EPS__
d	d
a	a
z	ss

__BEGIN__	__EPS__
s	s
p	pr
e	ich
t	t

__BEGIN__	__EPS__
d	d
i	i
e	e

__BEGIN__	__EPS__
z	zu

__BEGIN__	__EPS__
v	u
n	n
d	d

__BEGIN__	__EPS__
n	n
a	a
c	c
h	h

__BEGIN__	__EPS__
v	u
n	n
d	d

__BEGIN__	__EPS__
w	w
u	a
r	r
p	f
e	e
n	n

__BEGIN__	__EPS__
v	v
o	o
n	n

__BEGIN__	__EPS__
v	v
u	o
r	r

__BEGIN__	__EPS__
b	b
e	e
g	g
e	eh
r	r
t	t
e	e

__BEGIN__	__EPS__
i	ih
m	m

__BEGIN__	__EPS__
d	d
o	a

__BEGIN__	__EPS__
w	w
a	e
i	i
s	ss
t	t

__BEGIN__	__EPS__
d	d
o	a

__BEGIN__	__EPS__
w	w
a	a
z	s

__BEGIN__	__EPS__
d	d
o	a

__BEGIN__	__EPS__
y	i
n	n

__BEGIN__	__EPS__
s	s
o	o

__BEGIN__	__EPS__
i	j
e	e
r	r
u	u
s	s
a	a
l	l
e	e
m	m

__BEGIN__	__EPS__
s	se
y	i
n	n
e	e
n	n

__BEGIN__	__EPS__
g	g
e	e
w	w
o	oh
n	n
h	h
e	e
i	i
t	t

__BEGIN__	__EPS__
d	d
i	i
e	e

__BEGIN__	__EPS__
i	i
s	s
t	t

__BEGIN__	__EPS__
s	s
e	e
i	i
n	n
e	e
m	m

__BEGIN__	__EPS__
a	a
n	n
s	s
e	e
l	l
m	m
e	__EPS__

__BEGIN__	__EPS__
a	a
e	__EPS__
r	r
m	m
e	e
n	n

__BEGIN__	__EPS__
c	k
r	r
e	e
w	u
c	__EPS__
z	z

__BEGIN__	a
v	u
f	f

__BEGIN__	__EPS__
d	d
a	a
n	n
n	n

__BEGIN__	__EPS__
h	h
e	a
t	t

__BEGIN__	__EPS__
v	u
n	n
d	d

__BEGIN__	__EPS__
n	n
i	i
e	e

__BEGIN__	__EPS__
d	d
e	e
r	r

__BEGIN__	__EPS__
i	ih
n	n

__BEGIN__	__EPS__
r	r
i	i
e	e
f	f
f	__EPS__
e	e
n	n

__BEGIN__	__EPS__
b	b
e	e
r	r
g	g
e	e
n	n

__BEGIN__	__EPS__
s	s
a	o
l	ll
t	t

__BEGIN__	__EPS__
g	g
a	a
r	r

__BEGIN__	__EPS__
v	u
n	n
g	g
e	e
s	s
t	t
u	ü
m	m
i	__EPS__
g	__EPS__
e	e
n	n

__BEGIN__	__EPS__
e	e
r	r
p	b
a	a
r	r
m	m
u	u
n	n
g	g
e	__EPS__

__BEGIN__	__EPS__
i	ih
n	n

__BEGIN__	__EPS__
d	d
i	i
e	e

__BEGIN__	__EPS__
d	d
u	u

__BEGIN__	__EPS__
t	t
o	ö
e	__EPS__
t	t
e	e
n	n

__BEGIN__	__EPS__
n	n
a	a
c	c
h	h
e	__EPS__

__BEGIN__	__EPS__
i	j
u	u
d	d
e	e
n	n

__BEGIN__	__EPS__
v	__EPS__
z	b
g	__EPS__
e	e
n	s
o	o
m	__EPS__
e	__EPS__
n	n
l	d
i	e
c	r
h	s

__BEGIN__	__EPS__
e	e
w	ue
r	r

__BEGIN__	__EPS__
g	g
e	e
g	g
e	e
n	n

__BEGIN__	__EPS__
v	u
n	n
d	d

__BEGIN__	__EPS__
s	s
p	p
r	r
a	a
c	c
h	h

__BEGIN__	__EPS__
s	s
a	a
g	g
e	e
n	n

__BEGIN__	__EPS__
m	me
y	i
n	n

__BEGIN__	__EPS__
w	w
a	a
r	h
r	r

__BEGIN__	__EPS__
d	d
a	a

__BEGIN__	__EPS__
s	s
i	i
c	c
h	h

__BEGIN__	__EPS__
d	de
i	i
n	n
e	e
r	r

__BEGIN__	__EPS__
i	j
u	ü
n	n
g	g
e	e
r	r

__BEGIN__	__EPS__
i	ih
m	m

__BEGIN__	__EPS__
l	le
i	i
p	b

__BEGIN__	__EPS__
v	u
n	n
d	d
e	__EPS__

__BEGIN__	__EPS__
s	s
c	c
h	h
l	l
a	ä
g	ge

__BEGIN__	__EPS__
d	d
i	i
e	e

__BEGIN__	__EPS__
e	e
r	r

__BEGIN__	__EPS__
g	g
i	i
e	ng

__BEGIN__	__EPS__
g	__EPS__
e	__EPS__
t	t
r	r
o	ö
e	__EPS__
s	s
t	t
e	e
n	n

__BEGIN__	__EPS__
n	n
i	i
c	c
h	h
t	t

__BEGIN__	__EPS__
a	a
b	b
e	e
r	r

__BEGIN__	__EPS__
y	ih
n	n

__BEGIN__	__EPS__
s	s
e	e
l	l
b	b
e	e
r	r

__BEGIN__	__EPS__
e	e
y	i
m	n
e	em

__BEGIN__	__EPS__
d	d
o	a

__BEGIN__	__EPS__
m	m
a	a
n	n

__BEGIN__	__EPS__
d	d
o	a

__BEGIN__	__EPS__
d	d
e	e
s	s

__BEGIN__	__EPS__
l	le
i	i
c	c
h	h
a	n
e	a
m	m
s	s

__BEGIN__	__EPS__
d	d
a	a

__BEGIN__	__EPS__
d	d
a	a
s	s

__BEGIN__	__EPS__
w	w
i	i
e	e

__BEGIN__	__EPS__
v	f
i	in
e	g

__BEGIN__	__EPS__
a	a
l	l
l	l

__BEGIN__	__EPS__
h	h
e	e
r	r
a	a
b	b

__BEGIN__	__EPS__
e	e
r	r
m	m
a	ah
n	n
t	t

__BEGIN__	__EPS__
v	u
n	n
d	d

__BEGIN__	__EPS__
k	k
e	a
i	i
s	s
e	e
r	r

__BEGIN__	__EPS__
w	w
a	a
z	r

__BEGIN__	__EPS__
t	__EPS__
z	z
v	u
e	__EPS__

__BEGIN__	__EPS__
m	m
i	i
r	r

__BEGIN__	__EPS__
w	w
a	a
s	r

__BEGIN__	__EPS__
c	k
r	r
e	e
u	u
c	__EPS__
z	z

__BEGIN__	__EPS__
a	a
n	n

__BEGIN__	__EPS__
s	se
i	i
n	n
e	e

__BEGIN__	__EPS__
c	k
r	r
u	e
c	u
z	z
i	e
s	s

__BEGIN__	__EPS__
a	a
b	b

__BEGIN__	__EPS__
s	s
p	p
o	ö
t	t
t	t
l	__EPS__
i	is
c	c
h	h

__BEGIN__	__EPS__
g	g
l	l
e	e
y	i
c	c
h	h

__BEGIN__	__EPS__
d	d
i	i
r	r

__BEGIN__	__EPS__
d	d
i	i
e	e

__BEGIN__	__EPS__
v	u
n	n
d	d

__BEGIN__	__EPS__
m	m
i	i
r	r

__BEGIN__	__EPS__
e	a
l	l
l	l
v	__EPS__
i	e

__BEGIN__	__EPS__
e	e
r	r
k	k
a	a
n	nn
t	t

__BEGIN__	__EPS__
d	d
o	a

__BEGIN__	__EPS__
d	d
o	a

__BEGIN__	__EPS__
w	w
a	a
s	r

__BEGIN__	__EPS__
d	d
a	a
t	ss

__BEGIN__	__EPS__
i	j
h	__EPS__
e	e
s	s
u	u
s	s

__BEGIN__	__EPS__
i	ih
n	n

__BEGIN__	__EPS__
s	s
e	e
l	l
b	b
e	e
r	r

__BEGIN__	__EPS__
g	g
i	i
e	__EPS__
n	n
c	g
h	__EPS__

__BEGIN__	__EPS__
d	d
o	a

__BEGIN__	__EPS__
s	s
a	a
b	bb
a	a
t	t
h	__EPS__

