__BEGIN__	__EPS__
g	g
e	e
s	s
p	p
o	o
t	tt
o	e
t	t

__BEGIN__	__EPS__
i	i
c	c
h	h

__BEGIN__	__EPS__
d	d
e	e
r	r

__BEGIN__	__EPS__
d	d
i	ir

__BEGIN__	__EPS__
n	n
i	i
c	c
h	h
t	t

__BEGIN__	__EPS__
w	w
i	i
e	e

__BEGIN__	__EPS__
v	v
a	o
n	n

__BEGIN__	__EPS__
s	s
a	o
l	l
l	l

__BEGIN__	__EPS__
h	h
a	a
n	n
t	d

__BEGIN__	__EPS__
u	u
n	n
d	d

__BEGIN__	__EPS__
i	ih
n	n

__BEGIN__	__EPS__
d	d
e	e
n	n

__BEGIN__	__EPS__
d	d
i	i
e	e

__BEGIN__	__EPS__
z	z
a	e
i	i
c	c
h	h
e	e
n	n

__BEGIN__	__EPS__
m	m
i	i
t	t

__BEGIN__	__EPS__
m	m
i	i
r	r

__BEGIN__	__EPS__
a	a
l	l
s	s
o	o

__BEGIN__	__EPS__
t	t
o	o
d	d
e	__EPS__

__BEGIN__	__EPS__
s	s
a	a
g	g
e	e
n	n

__BEGIN__	__EPS__
w	w
a	a
r	r

__BEGIN__	__EPS__
w	wa
z	s

__BEGIN__	__EPS__
m	me
i	i
n	n
e	e
m	m

__BEGIN__	__EPS__
a	a
n	n

__BEGIN__	__EPS__
i	ih
n	n

__BEGIN__	__EPS__
g	g
e	e
m	m
a	e
i	i
n	nschaft

__BEGIN__	__EPS__
w	w
o	o
l	ll
t	t

__BEGIN__	__EPS__
d	d
a	as
s	s

__BEGIN__	__EPS__
a	a
n	n
r	r
u	üh
r	r
t	t
e	e

__BEGIN__	__EPS__
v	v
e	e
r	r
s	s
e	eh
r	r
t	t
e	e
s	s

__BEGIN__	__EPS__
s	se
i	i
n	n
e	e
s	s

__BEGIN__	__EPS__
p	b
e	e
y	i

__BEGIN__	__EPS__
d	d
o	a

__BEGIN__	__EPS__
d	d
e	e
n	n

__BEGIN__	__EPS__
w	w
a	a
n	n
n	n

__BEGIN__	__EPS__
v	u
r	r
t	t
e	e
i	i
l	l

__BEGIN__	__EPS__
g	g
a	a
n	n
c	__EPS__
z	z

__BEGIN__	__EPS__
d	d
e	e
s	s

__BEGIN__	__EPS__
v	u
n	n
d	d

__BEGIN__	__EPS__
s	s
y	ie

__BEGIN__	__EPS__
z	z
a	e
i	i
c	c
h	h
e	e
n	n

__BEGIN__	__EPS__
m	m
i	i
l	l
c	c
h	h

__BEGIN__	__EPS__
d	d
e	e
n	n

__BEGIN__	__EPS__
s	s
y	ie

__BEGIN__	__EPS__
i	i
c	c
h	h

__BEGIN__	__EPS__
l	la
u	u
t	t
h	__EPS__

__BEGIN__	__EPS__
m	m
i	i
t	t

__BEGIN__	__EPS__
f	f
u	üh
r	r
t	t
e	e
n	n

__BEGIN__	__EPS__
w	w
i	i
e	e

__BEGIN__	__EPS__
a	a
n	n

__BEGIN__	__EPS__
s	se
i	i
n	n

__BEGIN__	__EPS__
e	e
r	r
l	l
ö	ö
s	s
e	__EPS__
t	t

__BEGIN__	__EPS__
w	p
u	r
n	ä
i	c
g	__EPS__
k	h
l	t
i	i
c	__EPS__
h	g

__BEGIN__	__EPS__
d	d
o	a

__BEGIN__	__EPS__
m	m
i	i
t	t

__BEGIN__	__EPS__
w	w
i	i
r	r
t	d

__BEGIN__	__EPS__
m	m
i	i
c	c
h	h

__BEGIN__	__EPS__
d	d
v	u

__BEGIN__	__EPS__
d	d
e	e
r	r

__BEGIN__	__EPS__
g	g
r	r
a	a
b	b

__BEGIN__	__EPS__
s	s
p	p
r	r
a	a
c	c
h	h

__BEGIN__	__EPS__
g	s
e	e
s	__EPS__
i	i
n	n

__BEGIN__	__EPS__
d	d
e	e
r	r

__BEGIN__	__EPS__
v	u
n	n
d	d

__BEGIN__	__EPS__
d	d
u	u

__BEGIN__	__EPS__
a	a
l	l
l	l
i	e
t	s

__BEGIN__	__EPS__
w	w
o	o
l	ll
t	te

__BEGIN__	__EPS__
m	me
y	i
n	n

__BEGIN__	__EPS__
v	u
n	n
d	d

__BEGIN__	__EPS__
a	a
l	l
l	l
e	e
n	n

__BEGIN__	__EPS__
d	d
i	i
e	e

__BEGIN__	__EPS__
d	d
u	u
r	r
c	c
h	h
g	g
i	i
n	n
g	g

__BEGIN__	__EPS__
s	s
i	ie
b	b
e	e
n	n

__BEGIN__	__EPS__
m	m
i	i
t	t

__BEGIN__	__EPS__
k	k
u	ö
n	n
n	__EPS__
i	i
g	g
r	r
e	e
i	i
c	c
h	h

__BEGIN__	__EPS__
a	a
r	r
m	m
e	__EPS__

__BEGIN__	__EPS__
d	d
o	a

__BEGIN__	__EPS__
w	w
a	a
s	r

__BEGIN__	__EPS__
d	d
i	i
e	e

__BEGIN__	__EPS__
d	d
a	a
n	n
e	n

__BEGIN__	__EPS__
o	oh

__BEGIN__	__EPS__
e	e
r	r
l	l
o	ö
s	s
e	__EPS__
t	t

__BEGIN__	__EPS__
d	d
o	a

__BEGIN__	__EPS__
r	r
e	e
c	c
h	h
t	t
e	e

__BEGIN__	__EPS__
w	w
i	i
e	e

__BEGIN__	__EPS__
e	e
y	i
m	n
e	em

__BEGIN__	__EPS__
h	h
a	a
b	b
e	e
n	n

__BEGIN__	a
v	u
f	f
w	w
a	ä
r	r
t	ts

__BEGIN__	__EPS__
n	n
e	e
i	h
m	m
p	__EPS__
t	t

__BEGIN__	__EPS__
d	d
a	a
z	ss

__BEGIN__	__EPS__
s	s
c	o
h	l
o	__EPS__
l	l

__BEGIN__	__EPS__
t	t
o	ö
e	__EPS__
d	t
e	e
n	n

__BEGIN__	__EPS__
h	h
e	e
r	r
c	__EPS__
z	z

__BEGIN__	__EPS__
r	r
i	i
t	t
t	t
e	e
r	r

__BEGIN__	__EPS__
d	d
e	e
m	m

__BEGIN__	__EPS__
d	d
e	e
r	r

__BEGIN__	__EPS__
a	a
l	l
s	s
o	o

__BEGIN__	__EPS__
d	d
i	i
e	e

__BEGIN__	__EPS__
m	m
e	e
i	i
n	n
e	e
r	r

__BEGIN__	__EPS__
d	d
o	a

__BEGIN__	__EPS__
a	a
l	l
l	lerl
i	ie
b	b
s	s
t	t
e	e
r	r

__BEGIN__	__EPS__
v	u
n	n
d	d

__BEGIN__	__EPS__
d	d
n	omi
-	n
i	i

__BEGIN__	__EPS__
s	s
o	o

__BEGIN__	__EPS__
v	u
n	n
s	s

__BEGIN__	__EPS__
d	d
r	r
u	ü
c	c
k	k
d	t
e	e

__BEGIN__	__EPS__
v	u
n	n
d	d

__BEGIN__	__EPS__
m	m
e	e
y	i
n	n

__BEGIN__	__EPS__
g	g
o	o
t	tte
z	s

__BEGIN__	__EPS__
i	j
e	e
r	r
u	u
s	s
a	a
l	l
e	e
m	m

__BEGIN__	__EPS__
h	h
e	e
r	r
t	__EPS__
z	z
e	e
n	n

__BEGIN__	__EPS__
d	d
u	u
r	r
c	c
h	h
s	sch
l	l
a	a
y	ge
n	n

__BEGIN__	__EPS__
l	l
a	a
u	u
t	t
t	__EPS__
e	e
r	r

__BEGIN__	__EPS__
s	s
u	u
e	__EPS__
c	c
h	h
t	t
e	e
n	n

__BEGIN__	__EPS__
s	s
p	p
r	r
a	a
c	c
h	h

__BEGIN__	__EPS__
a	a
b	b
e	e
r	r

__BEGIN__	__EPS__
a	a
n	n

__BEGIN__	__EPS__
v	u
n	n
d	d

__BEGIN__	__EPS__
e	e
r	r
l	l
e	__EPS__
d	ö
i	s
g	__EPS__
t	t

__BEGIN__	__EPS__
z	z
ü	u

__BEGIN__	__EPS__
v	u
n	n
d	d

__BEGIN__	__EPS__
d	da
z	s

__BEGIN__	__EPS__
e	e
s	s

__BEGIN__	__EPS__
s	s
i	i
c	c
h	h

__BEGIN__	__EPS__
s	s
u	o
n	n
d	d
e	e
r	rn

__BEGIN__	__EPS__
d	d
i	i
c	c
h	h

__BEGIN__	__EPS__
l	l
e	e
u	u
e	__EPS__
t	t
e	e
n	n

__BEGIN__	__EPS__
e	__EPS__
n	__EPS__
h	k
e	e
i	i
n	n

__BEGIN__	__EPS__
d	t
e	ä
d	t
e	e
n	n

__BEGIN__	__EPS__
c	k
h	__EPS__
i	i
n	n
d	d

__BEGIN__	__EPS__
o	ih
n	n

__BEGIN__	__EPS__
v	u
n	n
d	d

__BEGIN__	__EPS__
d	d
i	i
e	e

__BEGIN__	__EPS__
o	a
u	u
g	g
e	e
n	n

__BEGIN__	__EPS__
w	w
a	a
r	r
d	d

__BEGIN__	__EPS__
v	v
a	o
n	n

__BEGIN__	__EPS__
s	s
c	c
h	h
a	a
f	f
t	t

__BEGIN__	__EPS__
r	r
a	a
d	t
e	e

__BEGIN__	__EPS__
d	d
e	e
r	r

__BEGIN__	__EPS__
g	g
o	o
t	tt
e	e
s	s

__BEGIN__	__EPS__
n	n
i	ic
h	h
t	t

__BEGIN__	__EPS__
v	f
r	r
o	a
u	u
w	__EPS__
e	__EPS__

__BEGIN__	__EPS__
i	j
u	u
d	d
e	e
n	n

__BEGIN__	__EPS__
b	b
o	o
i	__EPS__
t	t

__BEGIN__	__EPS__
d	d
o	a

__BEGIN__	__EPS__
s	s
i	e
e	i

__BEGIN__	__EPS__
s	s
u	oh
n	n

__BEGIN__	__EPS__
d	d
i	ie
s	s
e	e
m	m

__BEGIN__	__EPS__
m	m
i	i
c	c
h	h

__BEGIN__	__EPS__
s	s
c	c
h	h
a	a
r	r
p	f

__BEGIN__	__EPS__
n	n
i	i
c	c
h	h
t	t

__BEGIN__	__EPS__
e	e
t	t

__BEGIN__	__EPS__
d	d
o	a

__BEGIN__	__EPS__
v	u
n	n
d	d

__BEGIN__	__EPS__
l	l
o	a
s	s
z	s

__BEGIN__	__EPS__
g	g
e	e
s	s
u	ü
n	n
d	d
i	i
g	g
e	__EPS__
t	t

__BEGIN__	__EPS__
a	a
n	n
s	se
h	l
-	m

__BEGIN__	__EPS__
s	s
y	ie

__BEGIN__	__EPS__
n	n
y	i
e	e

__BEGIN__	__EPS__
v	u
n	n
d	d

__BEGIN__	__EPS__
i	ih
n	n

__BEGIN__	__EPS__
m	m
i	i
c	c
h	h

__BEGIN__	__EPS__
a	a
l	l
s	s

__BEGIN__	__EPS__
d	d
i	i
e	e

__BEGIN__	__EPS__
v	u
n	n
d	d

__BEGIN__	sc
w	hl
i	i
r	m
s	m
e	e
r	r

__BEGIN__	__EPS__
w	w
a	a
s	r

__BEGIN__	__EPS__
m	m
y	i
t	t

__BEGIN__	__EPS__
w	w
a	a
r	r
t	d
h	__EPS__

__BEGIN__	__EPS__
d	d
o	a

__BEGIN__	__EPS__
m	me
y	i
n	n
e	e
m	m

__BEGIN__	__EPS__
m	m
i	i
r	r

__BEGIN__	__EPS__
s	s
p	p
r	r
a	a
c	c
h	h

__BEGIN__	__EPS__
c	k
r	r
e	e
u	u
c	__EPS__
z	z
i	i
g	g
e	e
n	n

__BEGIN__	__EPS__
m	m
i	i
t	t

__BEGIN__	__EPS__
y	i
n	n

__BEGIN__	__EPS__
a	a
n	n
e	__EPS__
b	b
l	l
i	ic
k	k

__BEGIN__	__EPS__
h	e
e	r

__BEGIN__	__EPS__
d	d
a	as
s	s

__BEGIN__	__EPS__
w	w
e	e
i	i
n	n
e	e
n	n
d	d
e	__EPS__

__BEGIN__	__EPS__
r	r
e	e
y	i
n	n
e	e

__BEGIN__	__EPS__
d	d
o	a

__BEGIN__	__EPS__
j	j
o	u
e	__EPS__
d	d
e	e
n	n

__BEGIN__	__EPS__
s	s
e	e
i	i
n	n

__BEGIN__	__EPS__
s	sä
v	u
l	l
e	e

__BEGIN__	__EPS__
d	d
e	e
r	r

__BEGIN__	__EPS__
w	w
a	as
s	ser

__BEGIN__	__EPS__
d	d
a	a
t	s

__BEGIN__	__EPS__
s	s
e	e
l	l
i	i
g	g

__BEGIN__	__EPS__
a	a
n	n
s	s
e	e
l	l
m	m
e	__EPS__

__BEGIN__	__EPS__
h	h
e	a
t	t

__BEGIN__	__EPS__
v	u
n	n
d	d

__BEGIN__	__EPS__
h	h
e	e
r	r
t	__EPS__
z	z
e	e
n	n
l	l
e	e
i	i
d	d
e	__EPS__

__BEGIN__	__EPS__
a	e
i	i
n	ne
s	s

__BEGIN__	__EPS__
v	u
n	n
d	d

__BEGIN__	__EPS__
i	i
c	c
h	h

__BEGIN__	__EPS__
d	d
o	a

__BEGIN__	__EPS__
m	m
a	a
r	r
t	t
e	e
r	r

__BEGIN__	__EPS__
e	e
r	r

__BEGIN__	__EPS__
g	g
a	a
l	l
i	i
l	l
e	e
e	a
n	__EPS__

__BEGIN__	__EPS__
s	s
c	c
h	h
r	r
u	i
w	__EPS__
e	e
n	n

__BEGIN__	__EPS__
g	g
e	e
h	h
o	ö
r	r
t	t

__BEGIN__	__EPS__
v	u
n	n
d	d

__BEGIN__	__EPS__
m	m
a	a
g	g
t	d

__BEGIN__	__EPS__
d	d
c	ass

__BEGIN__	__EPS__
v	u
n	n
d	d

__BEGIN__	__EPS__
d	d
a	a
s	s

__BEGIN__	__EPS__
f	f
u	uh
r	r

__BEGIN__	__EPS__
y	ih
n	n

__BEGIN__	__EPS__
v	u
n	n
s	s
e	ä
g	g
l	l
i	i
c	c
h	h

__BEGIN__	__EPS__
d	di
e	e
s	s
e	e
n	n

__BEGIN__	__EPS__
g	g
a	a
p	b

__BEGIN__	__EPS__
d	d
a	a
r	r
u	u
m	m
b	__EPS__

__BEGIN__	__EPS__
d	d
i	i
e	e

__BEGIN__	__EPS__
s	s
y	ie

__BEGIN__	__EPS__
d	d
a	a
r	r

__BEGIN__	__EPS__
g	g
e	e
w	w
a	a
n	nn

__BEGIN__	__EPS__
d	d
o	a

__BEGIN__	__EPS__
v	u
n	n
d	d

__BEGIN__	__EPS__
d	d
e	e
i	i
n	n

__BEGIN__	__EPS__
d	d
a	a
z	ss

__BEGIN__	__EPS__
m	m
i	i
r	r

__BEGIN__	__EPS__
v	u
n	n
d	d

__BEGIN__	__EPS__
v	u
n	n
d	d

__BEGIN__	__EPS__
d	d
a	a
t	ss

__BEGIN__	__EPS__
w	w
a	a
n	nn

__BEGIN__	__EPS__
n	n
i	i
c	c
h	h
t	t

__BEGIN__	__EPS__
o	oh

__BEGIN__	__EPS__
a	a
n	n
t	t
l	l
u	i
c	t
z	z

__BEGIN__	__EPS__
g	g
o	o
t	tt

__BEGIN__	__EPS__
v	u
n	n
d	d
e	__EPS__

__BEGIN__	__EPS__
d	d
i	i
e	e

__BEGIN__	__EPS__
d	d
a	a
t	s

__BEGIN__	__EPS__
a	a
n	n
d	d
e	e
r	re

__BEGIN__	__EPS__
l	l
v	e
i	u
t	t
e	e
n	n

__BEGIN__	__EPS__
i	ih
m	m

__BEGIN__	__EPS__
z	z
w	w
e	e
i	i
n	__EPS__
e	__EPS__

__BEGIN__	__EPS__
d	d
a	a
s	ss

__BEGIN__	__EPS__
d	d
i	i
r	r

__BEGIN__	__EPS__
m	m
i	i
c	c
h	h

__BEGIN__	__EPS__
h	__EPS__
e	e
r	r

__BEGIN__	__EPS__
v	v
o	o
n	n

__BEGIN__	__EPS__
m	m
e	e
i	i
n	n
e	e
m	m

__BEGIN__	__EPS__
w	w
o	o
u	l
l	l
d	t
e	e
n	n

__BEGIN__	__EPS__
v	u
n	n
g	g
e	l
l	e
i	i
c	c
h	h

__BEGIN__	__EPS__
b	b
a	a
l	l
d	d

__BEGIN__	__EPS__
h	h
ö	ö
r	r
t	t
e	e
n	n

__BEGIN__	__EPS__
u	u
m	m
b	__EPS__
f	f
a	a
n	n
g	g
e	e
n	n

__BEGIN__	__EPS__
v	v
e	e
r	r
l	l
i	i
e	e
s	sses
t	t

__BEGIN__	__EPS__
e	e
i	i
n	n

__BEGIN__	__EPS__
m	m
e	e
n	n
s	s
h	c
e	h

__BEGIN__	__EPS__
s	s
y	ie

__BEGIN__	__EPS__
d	d
o	a

__BEGIN__	__EPS__
d	d
y	ie

__BEGIN__	__EPS__
d	d
i	ie

__BEGIN__	__EPS__
d	d
a	a
n	nn

__BEGIN__	__EPS__
d	d
o	a

__BEGIN__	__EPS__
c	k
r	r
e	e
w	u
c	__EPS__
z	z

__BEGIN__	__EPS__
t	t
r	r
a	a
g	g
e	e
n	n
t	d

__BEGIN__	__EPS__
i	ih
m	m

__BEGIN__	__EPS__
s	s
y	ie

__BEGIN__	__EPS__
l	l
i	i
e	e
b	be

__BEGIN__	__EPS__
v	u
n	n
d	d

__BEGIN__	__EPS__
n	n
e	e
u	ff
e	e

__BEGIN__	__EPS__
l	l
i	i
f	e
f	f
e	e
n	n

__BEGIN__	__EPS__
v	u
n	n
d	d

__BEGIN__	__EPS__
f	f
l	l
e	e
c	c
h	k

__BEGIN__	__EPS__
t	t
o	o
d	d
e	e

__BEGIN__	__EPS__
i	ih
n	n

__BEGIN__	__EPS__
k	k
u	ö
n	ni
c	g

__BEGIN__	__EPS__
d	d
i	i
e	e

__BEGIN__	__EPS__
d	d
y	i
e	e

__BEGIN__	__EPS__
s	sch
w	w
e	e
r	r
t	t

__BEGIN__	__EPS__
d	d
o	a

__BEGIN__	__EPS__
i	i
n	n
d	__EPS__
e	__EPS__
n	__EPS__

__BEGIN__	__EPS__
v	u
n	n
d	d

__BEGIN__	__EPS__
p	p
e	e
t	t
r	r
u	u
s	s

__BEGIN__	__EPS__
v	u
n	n
d	d

__BEGIN__	__EPS__
a	a
u	u
f	f
f	__EPS__

__BEGIN__	__EPS__
g	g
e	e
w	w
a	a
n	n
t	d

__BEGIN__	__EPS__
m	m
i	i
r	r

__BEGIN__	__EPS__
g	__EPS__
e	__EPS__
b	b
e	e
t	t
t	t

__BEGIN__	__EPS__
m	m
e	e
i	i
n	n

__BEGIN__	__EPS__
s	se
y	i
d	t
e	e
n	n

__BEGIN__	__EPS__
m	m
i	i
r	r

__BEGIN__	__EPS__
h	h
i	i
e	e
s	s
z	s

__BEGIN__	__EPS__
a	a
u	u
g	gustin
u	u
s	s

__BEGIN__	__EPS__
g	__EPS__
e	__EPS__
s	s
e	e
c	__EPS__
h	h
e	e
n	n

__BEGIN__	__EPS__
h	e
e	r

__BEGIN__	__EPS__
d	d
o	a

__BEGIN__	__EPS__
s	s
a	a
h	h
e	e
n	n

__BEGIN__	__EPS__
i	j
v	u
d	d
e	e
n	n

__BEGIN__	__EPS__
d	d
y	ie
t	s

__BEGIN__	__EPS__
e	e
r	r

__BEGIN__	__EPS__
d	d
e	e
r	r

__BEGIN__	__EPS__
m	m
e	e
i	i
n	n

__BEGIN__	__EPS__
c	k
a	a
y	i
p	p
h	h
a	a
s	s

__BEGIN__	__EPS__
g	g
e	e
p	b
ü	u
n	n
d	d
e	e
n	n

__BEGIN__	__EPS__
g	zusamm
e	en
b	b
r	r
e	e
c	c
h	h
e	e
n	n

__BEGIN__	__EPS__
d	d
e	e
r	r

__BEGIN__	__EPS__
d	d
i	i
c	c
h	h

__BEGIN__	__EPS__
g	g
r	r
a	a
b	b

__BEGIN__	__EPS__
a	a
l	l
l	l
e	e

__BEGIN__	__EPS__
s	s
p	p
r	r
a	a
c	c
h	h

__BEGIN__	__EPS__
l	l
e	e
i	i
b	b

__BEGIN__	__EPS__
e	e
r	r
f	f
u	ül
l	l
t	t
e	e

__BEGIN__	__EPS__
d	d
y	i
e	e

__BEGIN__	__EPS__
d	d
i	i
e	e

__BEGIN__	__EPS__
v	u
n	n
d	d

__BEGIN__	__EPS__
m	m
i	i
r	r

__BEGIN__	__EPS__
v	u
n	n
d	d

__BEGIN__	__EPS__
v	u
n	n
d	d

__BEGIN__	__EPS__
d	d
e	e
r	r

__BEGIN__	__EPS__
o	o
d	d
e	e
r	r

__BEGIN__	__EPS__
c	k
h	__EPS__
o	o
e	m
m	m

__BEGIN__	__EPS__
w	w
e	e
i	i
z	s
h	h
e	e
i	i
t	t

__BEGIN__	__EPS__
v	f
o	ü
e	__EPS__
s	s
s	s
e	e

__BEGIN__	__EPS__
s	s
p	p
r	r
a	a
c	c
h	h

__BEGIN__	__EPS__
k	k
i	i
n	n
d	d

__BEGIN__	__EPS__
t	t
r	r
u	u
g	g

__BEGIN__	__EPS__
h	h
e	a
t	t

__BEGIN__	__EPS__
v	v
o	o
n	n

__BEGIN__	__EPS__
m	me
i	i
n	n

__BEGIN__	__EPS__
e	ei
n	n
e	e

__BEGIN__	__EPS__
v	u
n	n
d	d

__BEGIN__	__EPS__
s	s
i	ie

__BEGIN__	__EPS__
v	u
n	n
d	d

__BEGIN__	__EPS__
v	v
a	o
n	n

__BEGIN__	__EPS__
m	m
e	e
i	i
n	n

__BEGIN__	__EPS__
d	d
a	a
r	r
a	a
u	u
f	f
f	__EPS__

__BEGIN__	__EPS__
s	s
p	p
r	r
a	a
c	c
h	h

__BEGIN__	__EPS__
d	d
e	e
r	r

__BEGIN__	__EPS__
k	k
y	i
n	n
t	d

__BEGIN__	__EPS__
w	w
a	a
s	r

__BEGIN__	__EPS__
w	w
a	a
n	n
t	de

__BEGIN__	__EPS__
e	e
s	s
s	s
e	e
s	s
t	t

__BEGIN__	__EPS__
h	d
o	r
r	e
c	c
z	k

__BEGIN__	__EPS__
w	w
a	a
s	r

__BEGIN__	__EPS__
a	a
l	l
s	s
o	o

__BEGIN__	__EPS__
v	u
n	n
n	d

__BEGIN__	__EPS__
w	w
e	ä
r	r
e	e

__BEGIN__	__EPS__
g	g
e	e
b	b
e	e

__BEGIN__	__EPS__
k	k
u	o
n	m
n	__EPS__
p	m
t	t

__BEGIN__	__EPS__
w	w
e	e
i	i
z	s
h	h
e	e
i	i
t	t

__BEGIN__	__EPS__
s	s
e	e
i	i
n	n
e	e
n	n

__BEGIN__	__EPS__
a	a
n	n
d	d
e	e
r	r
s	s

__BEGIN__	__EPS__
s	s
c	c
h	h
a	e
i	i
t	t
e	e
l	l

__BEGIN__	__EPS__
d	d
e	e
r	r

__BEGIN__	__EPS__
g	g
e	e
m	m
a	e
i	i
n	n
e	e
n	n

__BEGIN__	__EPS__
s	s
y	ie

__BEGIN__	__EPS__
p	b
r	r
u	u
d	d
e	e
r	r

__BEGIN__	__EPS__
r	r
i	i
e	e
p	f
e	e
n	n

__BEGIN__	__EPS__
g	g
e	e
s	s
c	c
h	h
i	i
e	eh
t	t

__BEGIN__	__EPS__
m	m
e	e
i	i
n	n
e	e
m	m

__BEGIN__	__EPS__
g	g
e	e
s	s
c	c
h	h
r	r
i	ie
b	b
e	e
n	n

__BEGIN__	__EPS__
i	i
c	c
h	h

__BEGIN__	__EPS__
m	m
e	e
i	i
n	n
e	e
r	r

__BEGIN__	__EPS__
m	m
e	e
i	i
n	n

__BEGIN__	__EPS__
i	i
n	n

__BEGIN__	__EPS__
d	d
e	e
r	r

__BEGIN__	__EPS__
w	w
a	a
s	r

__BEGIN__	__EPS__
w	w
a	e
i	i
n	n
t	t

__BEGIN__	__EPS__
h	h
a	a
t	t

__BEGIN__	__EPS__
s	s
e	e
i	i
n	n
e	e
n	t
w	w
e	e
g	g
e	e
n	n

__BEGIN__	__EPS__
i	ih
m	m

__BEGIN__	__EPS__
d	d
i	i
c	c
h	h

__BEGIN__	__EPS__
i	ih
n	n

__BEGIN__	__EPS__
b	__EPS__
e	e
h	r
a	l
l	ö
t	s
e	e
r	r

__BEGIN__	__EPS__
b	b
o	ö
e	__EPS__
s	s
e	e
r	r

__BEGIN__	__EPS__
k	k
e	e
y	i
n	n

__BEGIN__	__EPS__
s	s
o	o

__BEGIN__	__EPS__
w	w
a	o

__BEGIN__	__EPS__
d	d
o	a

__BEGIN__	__EPS__
l	l
u	e
i	u
t	te

__BEGIN__	__EPS__
g	g
e	e
m	m
a	a
h	h
e	__EPS__
l	l

__BEGIN__	__EPS__
i	i
e	h
r	r

__BEGIN__	__EPS__
v	u
n	n
d	d

__BEGIN__	__EPS__
h	h
e	ä
n	n
d	de

__BEGIN__	__EPS__
i	i
s	s
t	t

__BEGIN__	__EPS__
w	w
a	a
n	nn

__BEGIN__	__EPS__
t	__EPS__
z	z
v	u

__BEGIN__	__EPS__
e	e
r	r
s	s
a	a
h	h
e	e
n	n

__BEGIN__	__EPS__
w	w
e	e
r	r

__BEGIN__	__EPS__
k	k
ü	ü
s	ss
t	t
e	e

__BEGIN__	__EPS__
h	h
a	a
t	t

__BEGIN__	__EPS__
s	se
y	i

__BEGIN__	__EPS__
i	ih
r	r
e	e
n	n

__BEGIN__	__EPS__
w	a
t	u
q	s
u	k
a	a
m	m

__BEGIN__	__EPS__
g	g
e	e
f	f
l	l
o	o
s	s
s	s
e	e
n	n

__BEGIN__	__EPS__
d	d
a	a
s	s

__BEGIN__	__EPS__
h	h
a	a
n	n
t	d

__BEGIN__	__EPS__
v	u
n	n
d	d

__BEGIN__	__EPS__
m	m
e	e
i	i
n	n
e	e
r	r

__BEGIN__	__EPS__
v	u
n	n
d	d

__BEGIN__	__EPS__
i	j
h	__EPS__
e	e
s	s
u	u
s	s

__BEGIN__	k
s	r
i	an
c	k
h	h
e	e
n	it

__BEGIN__	__EPS__
v	u
n	n
d	d

__BEGIN__	__EPS__
w	w
a	ah
r	r

__BEGIN__	__EPS__
y	ih
m	m

__BEGIN__	__EPS__
d	d
a	a
s	s

__BEGIN__	__EPS__
h	h
e	ä
n	n
c	__EPS__
k	g
e	e
n	n

__BEGIN__	__EPS__
i	i
c	c
h	h

__BEGIN__	__EPS__
g	g
a	a
r	r

__BEGIN__	__EPS__
i	j
e	e
r	r
u	u
s	s
a	a
l	l
e	e
m	m

__BEGIN__	__EPS__
a	a
n	n
n	n
a	a
s	s

__BEGIN__	__EPS__
v	u
n	n
d	d

__BEGIN__	__EPS__
v	u
n	n
d	d

__BEGIN__	__EPS__
v	u
n	n
d	d

__BEGIN__	__EPS__
i	i
s	s
t	t

__BEGIN__	__EPS__
g	g
e	e
s	s
o	ä
e	u
g	g
t	t

__BEGIN__	__EPS__
p	p
y	i
l	l
a	a
t	t
u	u
s	s

__BEGIN__	__EPS__
s	s
p	p
r	r
a	a
c	c
h	h
e	e
n	n

__BEGIN__	__EPS__
a	a
l	l
s	s

__BEGIN__	__EPS__
d	d
o	a

__BEGIN__	__EPS__
w	w
i	i
l	l
l	l
e	e
n	n

__BEGIN__	__EPS__
s	s
p	p
r	r
a	a
c	c
h	h

__BEGIN__	__EPS__
e	e
r	r

__BEGIN__	__EPS__
m	m
i	i
t	t

__BEGIN__	__EPS__
s	s
p	p
r	r
a	ä
e	__EPS__
c	c
h	he

__BEGIN__	__EPS__
h	e
e	r

__BEGIN__	__EPS__
v	u
n	n
r	r
e	e
i	i
n	n
v	e
n	n

__BEGIN__	__EPS__
h	h
e	e
r	rr
s	s
c	c
h	h
a	a
f	f
t	t

__BEGIN__	__EPS__
h	h
e	e
r	r
t	__EPS__
z	z

__BEGIN__	__EPS__
d	d
i	i
e	e
b	b

__BEGIN__	__EPS__
w	w
a	a
s	r

__BEGIN__	__EPS__
d	d
e	e
s	s

__BEGIN__	__EPS__
m	m
a	a
r	r
i	i
a	a

__BEGIN__	__EPS__
s	s
y	ie

__BEGIN__	__EPS__
s	s
u	u
e	__EPS__
c	c
h	h
t	t
e	e

__BEGIN__	__EPS__
i	ih
n	n

__BEGIN__	__EPS__
a	a
l	l
s	s

__BEGIN__	__EPS__
e	e
n	n
t	t
s	s
c	c
h	h
u	u
l	l
d	d
i	i
g	g
e	e
n	n

__BEGIN__	__EPS__
h	h
a	a
b	be

__BEGIN__	__EPS__
s	s
a	o
l	ll
t	t

__BEGIN__	__EPS__
i	i
n	n

__BEGIN__	__EPS__
i	j
e	e
r	r
e	e
m	m
i	i
a	a
s	__EPS__

__BEGIN__	__EPS__
l	l
e	e
v	u
t	t
e	e
n	n

__BEGIN__	__EPS__
m	me
y	i
m	n
e	e
s	s

__BEGIN__	__EPS__
s	s
t	t
a	a
c	c
h	h
e	e
n	n

__BEGIN__	__EPS__
w	w
i	i
e	e

__BEGIN__	__EPS__
k	k
i	i
n	n
t	d

__BEGIN__	__EPS__
e	e
r	r

__BEGIN__	__EPS__
d	d
a	a
s	s
z	__EPS__

__BEGIN__	__EPS__
v	f
r	r
o	a
w	u
e	__EPS__

__BEGIN__	__EPS__
s	s
e	e
i	i
n	n

__BEGIN__	__EPS__
w	w
i	i
l	lls
t	t

__BEGIN__	__EPS__
s	s
o	o

__BEGIN__	__EPS__
d	d
u	u
r	r
c	c
h	h

__BEGIN__	__EPS__
z	z
w	w
e	e
y	i
e	__EPS__
n	__EPS__

__BEGIN__	__EPS__
s	s
e	e
i	i
n	n

__BEGIN__	__EPS__
m	m
i	i
e	__EPS__
r	r

__BEGIN__	__EPS__
h	h
a	a
s	s
t	t

__BEGIN__	__EPS__
d	d
o	a

__BEGIN__	__EPS__
i	i
s	s
t	t

__BEGIN__	__EPS__
n	n
a	ah
m	m
e	e
n	n

__BEGIN__	__EPS__
v	u
n	n
d	d

__BEGIN__	__EPS__
d	d
a	a
n	nn

__BEGIN__	__EPS__
s	se
i	i
n	n

__BEGIN__	__EPS__
a	a
l	l
l	l
e	e
n	n

__BEGIN__	__EPS__
d	d
a	a
t	s

__BEGIN__	__EPS__
h	h
a	a
b	b
e	e
n	n

__BEGIN__	__EPS__
s	s
p	p
r	r
a	a
c	c
h	h

__BEGIN__	__EPS__
d	d
y	ie

__BEGIN__	__EPS__
e	e
i	i
n	n

__BEGIN__	__EPS__
s	s
e	e
i	i
n	n
e	e
w	__EPS__

__BEGIN__	__EPS__
g	g
r	r
o	o
z	s
z	s

__BEGIN__	__EPS__
h	h
i	i
n	n

__BEGIN__	__EPS__
v	v
o	o
n	n

__BEGIN__	__EPS__
i	ih
m	m

__BEGIN__	__EPS__
a	a
l	l
z	s

__BEGIN__	n
e	ich
n	t

__BEGIN__	__EPS__
n	n
a	ac
h	h
t	t

__BEGIN__	__EPS__
b	b
r	r
u	u
n	nn
e	e
n	n

__BEGIN__	__EPS__
s	s
o	o

__BEGIN__	__EPS__
i	ih
m	m

__BEGIN__	__EPS__
g	g
e	__EPS__
l	l
i	ie
d	d

__BEGIN__	__EPS__
d	d
e	e
n	n

__BEGIN__	__EPS__
s	s
y	i
e	e

__BEGIN__	__EPS__
n	n
a	a
c	c
h	h

__BEGIN__	__EPS__
s	s
i	ie

__BEGIN__	__EPS__
s	s
e	e
i	ie
n	n

__BEGIN__	__EPS__
m	m
i	i
r	r

__BEGIN__	__EPS__
g	g
e	e
w	folgs
m	m
a	a
n	nn

__BEGIN__	__EPS__
k	k
ü	ö
n	n
i	i
g	g

__BEGIN__	__EPS__
b	b
l	l
i	i
e	e
b	b
e	e
n	n

__BEGIN__	__EPS__
f	f
r	r
a	a
g	g
t	t

__BEGIN__	__EPS__
s	s
o	o
e	__EPS__

__BEGIN__	__EPS__
i	j
u	u
d	d
e	e
n	n

__BEGIN__	__EPS__
z	z
c	__EPS__
u	u

__BEGIN__	__EPS__
m	m
e	e
n	n
s	s
c	c
h	h
e	e
n	n

__BEGIN__	__EPS__
d	d
u	u
r	r
c	c
h	h
s	s
t	t
a	a
c	c
h	h

__BEGIN__	__EPS__
i	ih
m	m

__BEGIN__	__EPS__
g	g
r	r
o	o
s	s
s	s
e	e
m	m

__BEGIN__	__EPS__
t	t
u	u
e	__EPS__
t	t

__BEGIN__	__EPS__
m	m
i	i
t	t

__BEGIN__	__EPS__
d	d
i	i
e	e

__BEGIN__	__EPS__
h	h
i	i
e	e
l	l
d	t
e	e
n	n

__BEGIN__	__EPS__
m	m
i	i
t	t

__BEGIN__	__EPS__
l	l
e	e
i	i
p	b

__BEGIN__	__EPS__
g	g
e	e
s	s
c	c
h	h
a	a
c	__EPS__
h	h

__BEGIN__	__EPS__
s	s
p	p
r	r
a	ä
e	__EPS__
c	c
h	h
e	e
n	n

__BEGIN__	__EPS__
v	u
m	m
b	__EPS__
h	h
a	a
n	n
c	__EPS__
h	g
c	__EPS__

__BEGIN__	__EPS__
s	se
y	i
n	n
e	e
n	n

__BEGIN__	__EPS__
v	u
n	n
d	d

__BEGIN__	__EPS__
d	d
o	a

__BEGIN__	__EPS__
d	d
a	a
s	s

__BEGIN__	__EPS__
m	m
o	o
e	c
h	h
t	t
e	e

__BEGIN__	__EPS__
w	w
a	a
n	nn

__BEGIN__	__EPS__
v	v
o	o
n	n

__BEGIN__	__EPS__
n	n
o	ah
m	m
e	e
n	n
d	__EPS__

__BEGIN__	__EPS__
i	j
u	u
d	d
e	e
n	n

__BEGIN__	__EPS__
h	h
a	abe
n	n

__BEGIN__	__EPS__
s	s
y	ie

__BEGIN__	__EPS__
y	ih
n	n

__BEGIN__	__EPS__
s	s
p	p
r	r
a	a
c	c
h	h

__BEGIN__	__EPS__
g	g
e	e
s	s
c	c
h	h
r	r
i	ie
b	b
e	e
n	n

__BEGIN__	__EPS__
z	z
v	u

__BEGIN__	__EPS__
h	__EPS__
e	e
r	r

__BEGIN__	__EPS__
a	a
b	b
e	e
r	r

__BEGIN__	__EPS__
s	fre
v	un
o	d
z	l
e	ich
k	k
e	e
i	i
t	t

__BEGIN__	__EPS__
d	d
e	e
n	nar

__BEGIN__	__EPS__
m	m
e	e
y	i
n	n
e	e
s	s

__BEGIN__	__EPS__
d	d
e	e
r	r

__BEGIN__	__EPS__
m	m
e	ehr

__BEGIN__	__EPS__
h	h
v	e
i	u
t	te

__BEGIN__	__EPS__
m	m
a	a
g	g
d	d
a	a
l	l
e	e
n	n
a	a

__BEGIN__	__EPS__
a	a
l	l
l	l
e	e
m	m

__BEGIN__	__EPS__
g	g
r	r
i	i
e	e
x	ch
e	e

__BEGIN__	__EPS__
d	d
o	a

__BEGIN__	__EPS__
a	a
u	u
s	s

__BEGIN__	__EPS__
n	n
i	i
c	c
h	h
t	t

__BEGIN__	__EPS__
m	m
a	a
n	n

__BEGIN__	__EPS__
s	se
y	i
n	n

__BEGIN__	__EPS__
e	nich
n	t

__BEGIN__	__EPS__
h	h
e	e
r	r
t	__EPS__
z	z
e	e
n	n

__BEGIN__	__EPS__
i	i
n	n

__BEGIN__	__EPS__
w	w
a	a
s	r

__BEGIN__	__EPS__
i	i
c	c
h	h

__BEGIN__	__EPS__
c	k
h	__EPS__
i	i
n	n
d	d

__BEGIN__	__EPS__
v	u
n	n
d	d

__BEGIN__	__EPS__
z	z
e	u

__BEGIN__	__EPS__
h	h
o	ö
e	__EPS__
r	r
e	e

__BEGIN__	__EPS__
b	b
i	i
s	s
t	t

__BEGIN__	__EPS__
d	d
i	i
e	e

__BEGIN__	__EPS__
p	p
r	r
i	i
j	e
s	s
e	e
n	n

__BEGIN__	__EPS__
i	j
u	u
d	d
e	e
n	n

__BEGIN__	__EPS__
d	d
o	a
e	__EPS__

__BEGIN__	__EPS__
d	d
e	e
n	n

__BEGIN__	__EPS__
s	s
e	i
c	e
h	h

__BEGIN__	__EPS__
t	t
o	o
t	d
e	e
s	s

__BEGIN__	__EPS__
v	v
o	o
n	n

__BEGIN__	__EPS__
n	n
a	e
y	i
n	n

__BEGIN__	__EPS__
i	j
h	es
-	u
s	s

__BEGIN__	__EPS__
s	s
p	p
r	r
a	a
c	c
h	h
e	e
n	n

__BEGIN__	__EPS__
k	g
r	r
i	i
s	e
c	c
h	h
i	is
c	c
h	h

__BEGIN__	__EPS__
h	__EPS__
e	e
r	r

__BEGIN__	__EPS__
i	ih
n	n

__BEGIN__	__EPS__
h	h
o	ö
e	__EPS__
r	r
t	t

__BEGIN__	__EPS__
p	b
e	e
r	r
g	g
e	e
n	n

__BEGIN__	__EPS__
a	a
n	n

__BEGIN__	__EPS__
v	u
n	n
d	d

__BEGIN__	__EPS__
l	l
i	i
e	e
b	b
e	e
s	s

__BEGIN__	__EPS__
v	u
n	n
d	d
e	__EPS__

__BEGIN__	__EPS__
d	d
e	e
r	r

__BEGIN__	__EPS__
l	l
e	e
v	u
t	te

__BEGIN__	__EPS__
d	d
i	i
e	e

__BEGIN__	__EPS__
x	x
v	v

__BEGIN__	__EPS__
d	d
i	i
e	e

__BEGIN__	__EPS__
m	m
e	e
i	i
n	n
e	e
r	r

__BEGIN__	__EPS__
v	u
n	n
d	d

__BEGIN__	__EPS__
s	s
l	c
o	h
i	l
c	u
h	g

__BEGIN__	__EPS__
i	i
c	c
h	h

__BEGIN__	__EPS__
g	g
i	i
b	b
s	s
t	t

__BEGIN__	__EPS__
b	b
i	i
n	n

__BEGIN__	__EPS__
v	v
o	o
r	r

__BEGIN__	__EPS__
l	l
e	e
y	i
d	d
e	e
n	n
s	s

__BEGIN__	__EPS__
d	d
e	e
m	m

__BEGIN__	__EPS__
s	s
t	t
u	u
m	mm
e	e
n	n

__BEGIN__	__EPS__
e	e
t	t

__BEGIN__	__EPS__
v	u
n	n
d	d

__BEGIN__	__EPS__
s	se
i	i
n	n
e	e
n	n

__BEGIN__	__EPS__
e	e
l	l
e	e
m	m
e	e
n	n
t	t
e	e
n	n

__BEGIN__	__EPS__
v	u
n	n
g	g
e	e
t	t
r	r
o	ö
e	__EPS__
s	s
t	t
e	e
t	t

__BEGIN__	__EPS__
a	a
n	n

__BEGIN__	__EPS__
a	a
u	u
f	f
t	t
u	u
t	t

__BEGIN__	__EPS__
v	u
n	n
d	d

__BEGIN__	__EPS__
w	w
e	ah
r	r
l	l
i	i
c	c
h	h

__BEGIN__	__EPS__
d	d
e	e
z	s

__BEGIN__	__EPS__
i	ih
m	m

__BEGIN__	p
s	s
a	a
l	l
t	t
e	e
r	r

__BEGIN__	__EPS__
k	k
n	n
i	i
e	e
t	t
e	e
n	n

__BEGIN__	__EPS__
k	k
u	ö
n	ni
g	g

__BEGIN__	__EPS__
s	s
c	c
h	h
a	a
m	m

__BEGIN__	__EPS__
s	s
y	ie

__BEGIN__	__EPS__
d	d
e	e
n	n

__BEGIN__	__EPS__
f	f
u	ü
e	h
r	r
e	e
n	n

__BEGIN__	__EPS__
d	d
a	a

__BEGIN__	__EPS__
d	d
e	e
n	n

__BEGIN__	__EPS__
v	u
n	n
d	d

__BEGIN__	__EPS__
v	u
n	n
d	d

__BEGIN__	__EPS__
d	d
e	e
n	n

__BEGIN__	__EPS__
l	l
e	e
y	i
d	d
e	e

__BEGIN__	__EPS__
m	m
i	i
t	t

__BEGIN__	__EPS__
g	g
e	e
u	f
a	a
n	n
g	g
e	e
n	n

__BEGIN__	__EPS__
m	m
o	o
c	c
h	h
t	t
e	e
n	n

__BEGIN__	__EPS__
s	s
y	ie

__BEGIN__	__EPS__
v	i
m	m
m	m
e	e
r	r
s	__EPS__

__BEGIN__	__EPS__
m	m
i	i
c	c
h	h

__BEGIN__	__EPS__
m	m
o	a
l	l
e	__EPS__

__BEGIN__	__EPS__
s	s
o	o

__BEGIN__	__EPS__
v	u
n	n
d	d

__BEGIN__	__EPS__
c	__EPS__
z	__EPS__
w	w
ü	u
g	s
e	ch

__BEGIN__	__EPS__
d	d
i	i
e	e

__BEGIN__	__EPS__
g	g
a	a
b	b

__BEGIN__	__EPS__
s	s
o	o
e	__EPS__

__BEGIN__	__EPS__
n	n
u	un

__BEGIN__	__EPS__
v	u
n	n
d	d

__BEGIN__	__EPS__
v	u
n	n
d	d
e	__EPS__

__BEGIN__	__EPS__
m	m
i	i
t	t

__BEGIN__	__EPS__
s	s
i	i
n	n
t	d

__BEGIN__	__EPS__
v	v
o	o
n	n

__BEGIN__	__EPS__
d	d
a	a
z	ss

__BEGIN__	__EPS__
d	d
a	a

__BEGIN__	__EPS__
d	d
e	e
m	m

__BEGIN__	__EPS__
m	m
a	a
n	n

__BEGIN__	__EPS__
m	me
y	i
n	n

__BEGIN__	__EPS__
d	d
y	ie

__BEGIN__	__EPS__
d	t
e	ä
d	t
e	e

__BEGIN__	__EPS__
v	f
l	l
o	o
c	c
h	h
t	t
e	e
n	n

__BEGIN__	__EPS__
j	j
o	u
e	__EPS__
d	de
n	n

__BEGIN__	__EPS__
d	d
i	i
e	e

__BEGIN__	__EPS__
w	w
a	a
r	r
t	d

__BEGIN__	__EPS__
n	n
i	e
e	h
m	m
e	e
n	n

__BEGIN__	__EPS__
s	s
p	p
r	r
a	a
c	c
h	h

__BEGIN__	__EPS__
o	o
s	s
t	t
e	e
r	r
t	t
a	a
g	g

__BEGIN__	__EPS__
a	a
n	n

__BEGIN__	__EPS__
g	g
e	e
w	w
a	a
n	n
t	d

__BEGIN__	__EPS__
e	e
r	r
t	__EPS__
z	z
e	e
v	u
g	g
e	e
n	n

__BEGIN__	__EPS__
g	g
a	a
n	n
c	__EPS__
z	z
e	e
n	n

__BEGIN__	__EPS__
v	__EPS__
n	n
g	ü
e	c
s	h
z	t
e	er
n	n

__BEGIN__	__EPS__
g	g
a	i
n	n
g	g

__BEGIN__	__EPS__
s	s
o	o

__BEGIN__	__EPS__
b	b
e	e
w	w
e	e
y	i
n	n
e	e
n	n

__BEGIN__	__EPS__
f	f
r	r
a	a
u	u
w	__EPS__
e	__EPS__

__BEGIN__	__EPS__
m	m
e	e
n	n
s	s
h	c
e	h

__BEGIN__	__EPS__
b	b
i	i
n	n

__BEGIN__	__EPS__
v	u
n	n
d	d

__BEGIN__	__EPS__
s	s
p	p
r	r
a	a
c	c
h	h

__BEGIN__	__EPS__
w	w
a	a
s	r
z	__EPS__

__BEGIN__	__EPS__
w	w
e	ä
r	re

__BEGIN__	__EPS__
d	d
o	a

__BEGIN__	__EPS__
w	w
i	ie
d	d
e	e
r	r

__BEGIN__	__EPS__
g	g
o	o
t	tt

__BEGIN__	__EPS__
a	a
u	u
c	c
h	h

__BEGIN__	__EPS__
a	a
v	u
f	f

__BEGIN__	__EPS__
s	s
e	e
i	i
n	n

__BEGIN__	__EPS__
d	d
a	a
z	s

__BEGIN__	__EPS__
g	g
e	e
m	m
a	a
c	c
h	h
t	t

__BEGIN__	__EPS__
s	s
a	a
b	bb
a	a
c	t
z	s

__BEGIN__	__EPS__
d	d
u	u

__BEGIN__	__EPS__
i	j
a	a
m	mm
e	e
r	r

__BEGIN__	__EPS__
h	h
e	ee
r	r

__BEGIN__	__EPS__
i	ih
r	r

__BEGIN__	__EPS__
g	g
e	e
w	w
a	an
n	n

__BEGIN__	__EPS__
c	k
r	r
u	e
i	u
c	__EPS__
z	z

__BEGIN__	__EPS__
k	k
o	o
m	mm
e	e

__BEGIN__	__EPS__
s	s
i	i
c	c
h	h

__BEGIN__	__EPS__
e	e
r	r
f	f
u	ü
e	l
l	l
t	t

__BEGIN__	__EPS__
w	w
a	a
s	r

__BEGIN__	__EPS__
s	s
i	ie

__BEGIN__	__EPS__
i	e
u	u
c	c
h	h

__BEGIN__	__EPS__
b	b
v	a
n	n
d	d
e	e
n	n

__BEGIN__	__EPS__
s	s
c	c
h	h
w	w
e	e
s	s
t	t
e	e
r	r

__BEGIN__	__EPS__
t	__EPS__
z	z
a	e
i	i
c	c
h	h
e	e
n	n

__BEGIN__	__EPS__
a	a
u	u
f	f

__BEGIN__	__EPS__
l	l
o	o
b	b
e	t
t	e

__BEGIN__	__EPS__
s	s
t	t
i	i
m	mme

__BEGIN__	__EPS__
d	d
a	a
s	ss

__BEGIN__	__EPS__
d	d
a	a

__BEGIN__	__EPS__
b	g
e	e
s	sc
h	h
i	i
h	e
e	h
t	t

__BEGIN__	__EPS__
e	e
z	s

__BEGIN__	__EPS__
m	m
i	i
t	t

__BEGIN__	__EPS__
e	e
l	l
e	e
m	m
e	e
n	n
t	t

__BEGIN__	__EPS__
t	__EPS__
z	z
v	u

__BEGIN__	__EPS__
a	a
c	c
h	h

__BEGIN__	__EPS__
h	h
e	e
r	r
r	r
e	__EPS__

__BEGIN__	__EPS__
s	s
e	e
y	i
l	l
e	e

__BEGIN__	__EPS__
h	h
v	e
i	u
t	t
e	e

__BEGIN__	__EPS__
i	j
o	u
e	__EPS__
d	d
e	e
n	n

__BEGIN__	__EPS__
d	d
e	e
n	n

__BEGIN__	__EPS__
w	w
a	o
i	h
l	l

__BEGIN__	__EPS__
d	d
a	a
t	ss

__BEGIN__	__EPS__
n	n
o	o
c	c
h	h

__BEGIN__	__EPS__
d	d
a	a
z	s

__BEGIN__	__EPS__
b	b
i	i
n	n

__BEGIN__	__EPS__
d	d
a	a

__BEGIN__	__EPS__
e	e
r	r

__BEGIN__	__EPS__
d	d
a	a
s	ss

__BEGIN__	__EPS__
e	e
t	t
w	w
a	a
s	s

__BEGIN__	__EPS__
h	h
e	e
r	r
t	__EPS__
z	z
l	l
i	i
e	e
b	b
e	e
r	r

__BEGIN__	__EPS__
d	d
e	e
m	m

__BEGIN__	__EPS__
m	l
y	ie
n	b
i	e
g	v
k	o
l	l
i	l
c	e
h	__EPS__
s	s

__BEGIN__	__EPS__
w	w
u	u
n	n
d	d
e	e
n	n

__BEGIN__	__EPS__
w	w
e	e
r	r
f	f
f	__EPS__
e	e
n	n

__BEGIN__	__EPS__
a	a
n	n

__BEGIN__	__EPS__
v	v
o	o
n	n

__BEGIN__	__EPS__
w	w
e	e
r	r
d	d
e	e
n	n

__BEGIN__	__EPS__
m	m
a	a
n	n

__BEGIN__	__EPS__
n	n
i	i
e	ch
t	t

__BEGIN__	__EPS__
a	oh
n	ne

__BEGIN__	__EPS__
a	a
n	n
c	s
e	e
l	l
m	m
e	__EPS__

__BEGIN__	__EPS__
a	a
n	n
g	g
e	e
s	s
e	e
h	h
e	e
n	n

__BEGIN__	__EPS__
a	a
l	l
s	s

__BEGIN__	__EPS__
v	u
m	m
b	__EPS__

__BEGIN__	__EPS__
d	d
i	i
e	e

__BEGIN__	__EPS__
w	w
i	i
r	r

__BEGIN__	__EPS__
v	u
n	n
s	s
i	e
r	r

__BEGIN__	__EPS__
d	d
e	e
r	r

__BEGIN__	__EPS__
l	l
e	e
b	b
e	e
n	n
d	d
i	i
n	__EPS__
g	g

__BEGIN__	__EPS__
g	g
a	a
b	b

__BEGIN__	d
u	u

__BEGIN__	__EPS__
g	g
e	e
r	r
n	n

__BEGIN__	__EPS__
s	s
e	e
l	l
b	b
e	e
n	r

__BEGIN__	__EPS__
d	d
e	e
m	m

__BEGIN__	__EPS__
w	w
e	e
r	r
f	f
f	__EPS__
e	e
n	n

__BEGIN__	__EPS__
n	n
i	ic
h	h
t	t

__BEGIN__	__EPS__
v	u
n	n
d	d

__BEGIN__	__EPS__
d	d
o	a

__BEGIN__	__EPS__
d	d
e	e
r	r

__BEGIN__	__EPS__
d	d
a	a

__BEGIN__	__EPS__
v	u
n	n
g	g
e	__EPS__
l	l
i	i
m	m
p	p
h	f

__BEGIN__	__EPS__
v	u
n	n
d	d

__BEGIN__	__EPS__
i	ih
n	n

__BEGIN__	d
v	u

__BEGIN__	__EPS__
d	d
i	i
e	e

__BEGIN__	__EPS__
g	g
a	a
r	r

__BEGIN__	__EPS__
d	d
i	i
e	e

__BEGIN__	__EPS__
d	d
e	e
m	m

__BEGIN__	__EPS__
i	j
u	u
d	d
e	e
n	n

__BEGIN__	__EPS__
a	a
n	n
s	s
e	e
l	l
m	m
e	__EPS__

__BEGIN__	__EPS__
i	i
s	st

__BEGIN__	__EPS__
d	d
e	e
n	n

__BEGIN__	__EPS__
y	je
m	m
a	a
n	n
t	d

__BEGIN__	__EPS__
b	b
i	i
s	s
c	c
h	h
o	o
f	f
f	__EPS__

__BEGIN__	__EPS__
v	u
n	n
d	d

__BEGIN__	__EPS__
i	i
c	c
h	h

__BEGIN__	__EPS__
v	v
o	o
n	n

__BEGIN__	__EPS__
p	p
r	r
o	ü
e	__EPS__
u	f
e	e
n	n

__BEGIN__	__EPS__
s	s
e	e
i	i
n	n
e	e
m	m

__BEGIN__	__EPS__
i	j
u	u
d	d
e	e
n	n

__BEGIN__	__EPS__
i	ih
r	re
n	n

__BEGIN__	__EPS__
g	g
o	o
t	tte
z	s

__BEGIN__	__EPS__
v	f
i	i
n	n
d	de

__BEGIN__	__EPS__
e	e
s	s

__BEGIN__	__EPS__
d	d
o	a

__BEGIN__	__EPS__
d	d
o	a

__BEGIN__	__EPS__
n	n
i	i
c	c
h	h
t	t

__BEGIN__	__EPS__
i	j
e	e
g	g
l	l
i	i
c	c
h	h
e	e
r	r

__BEGIN__	__EPS__
w	w
e	e
r	r

__BEGIN__	__EPS__
s	s
p	p
r	r
a	a
c	c
h	h

__BEGIN__	__EPS__
m	m
ü	ü
s	s
s	s
i	i
g	g

__BEGIN__	__EPS__
h	e
e	r

__BEGIN__	__EPS__
g	g
e	e
d	t
a	a
i	__EPS__
n	n

__BEGIN__	__EPS__
g	g
e	e
d	d
v	u
l	l
t	d
e	__EPS__
k	__EPS__
l	__EPS__
i	i
c	g
h	__EPS__

__BEGIN__	__EPS__
m	m
e	ee
r	r
d	d
o	o
r	rn
e	e
n	n

__BEGIN__	__EPS__
a	a
l	l
l	l
e	e
s	s

__BEGIN__	__EPS__
d	d
a	a
z	s

__BEGIN__	__EPS__
a	a
u	u
d	d
e	e

__BEGIN__	__EPS__
k	k
o	om
m	m

__BEGIN__	__EPS__
d	d
e	e
r	r

__BEGIN__	__EPS__
o	__EPS__
s	__EPS__
t	__EPS__
e	__EPS__
r	r
n	__EPS__
r	__EPS__
e	e
c	c
h	h
t	ts

__BEGIN__	__EPS__
d	d
a	a
s	ss

__BEGIN__	__EPS__
f	f
r	r
a	a
g	g
t	t

__BEGIN__	__EPS__
a	a
n	n
t	t
w	w
o	o
e	__EPS__
r	r
d	t
e	e

__BEGIN__	__EPS__
v	u
n	n
d	d

__BEGIN__	__EPS__
l	l
a	e
y	i
d	d

__BEGIN__	__EPS__
o	o
f	b

__BEGIN__	__EPS__
t	__EPS__
z	z
o	u

__BEGIN__	__EPS__
d	d
e	e
r	r

__BEGIN__	__EPS__
d	d
a	a
s	s

__BEGIN__	__EPS__
s	s
i	i
e	e

__BEGIN__	__EPS__
w	w
i	o
l	l
l	l
e	e
n	n

__BEGIN__	__EPS__
l	l
e	e
b	b
e	e
n	n
t	d

__BEGIN__	__EPS__
g	g
i	i
n	n
g	g
e	e
n	n

__BEGIN__	__EPS__
s	s
p	p
r	r
a	a
c	c
h	h

__BEGIN__	__EPS__
s	s
i	i
c	c
h	h

__BEGIN__	__EPS__
d	d
e	e
s	s

__BEGIN__	__EPS__
c	k
l	l
e	e
y	i
d	d
e	e
r	r

__BEGIN__	__EPS__
v	u
n	n
d	d

__BEGIN__	__EPS__
m	m
i	i
c	c
h	h

__BEGIN__	__EPS__
s	s
c	c
h	h
r	r
i	i
e	e
r	__EPS__
e	__EPS__
n	n

__BEGIN__	__EPS__
f	f
r	re
ü	u
n	n
d	d
e	e
n	n

__BEGIN__	__EPS__
n	n
i	i
c	c
h	h
t	t

__BEGIN__	__EPS__
i	i
c	c
h	h

__BEGIN__	__EPS__
m	m
e	e
i	i
n	n
e	e
s	s

__BEGIN__	__EPS__
m	m
o	us
s	s
t	t
e	e

__BEGIN__	__EPS__
f	f
r	r
a	a
w	u
e	e
n	n

__BEGIN__	__EPS__
m	m
a	a
n	n

__BEGIN__	__EPS__
v	ü
b	b
e	e
r	r

__BEGIN__	__EPS__
m	m
a	a
n	n

__BEGIN__	__EPS__
s	sä
ü	u
l	l
e	e

__BEGIN__	__EPS__
c	__EPS__
z	z
e	e
r	r
p	b
r	r
e	e
c	c
h	h
e	e
n	n

__BEGIN__	__EPS__
d	d
i	i
e	e

__BEGIN__	__EPS__
i	i
n	n

__BEGIN__	__EPS__
s	s
e	e
y	i
n	n

__BEGIN__	__EPS__
i	ih
n	n

__BEGIN__	__EPS__
a	a
n	n

__BEGIN__	__EPS__
m	m
e	e
i	i
n	n

__BEGIN__	__EPS__
d	d
a	a
t	s

__BEGIN__	__EPS__
b	__EPS__
o	ü
u	b
e	e
n	r

__BEGIN__	__EPS__
p	p
i	i
l	l
a	a
t	t
u	u
s	s

__BEGIN__	__EPS__
h	h
e	e
r	r
r	r
e	__EPS__

__BEGIN__	__EPS__
v	a
f	u
f	f

__BEGIN__	__EPS__
d	d
o	a

__BEGIN__	__EPS__
v	v
i	ie
l	l

__BEGIN__	__EPS__
v	u
n	n
d	d

__BEGIN__	__EPS__
h	h
e	a
t	t

__BEGIN__	__EPS__
m	m
a	a
i	i
d	d
t	__EPS__

__BEGIN__	__EPS__
h	h
e	e
l	l
i	i
a	a
m	m

__BEGIN__	__EPS__
d	d
a	a
z	s

__BEGIN__	__EPS__
s	s
e	e
i	i
n	n
e	e
n	n

__BEGIN__	__EPS__
d	d
i	i
e	e

__BEGIN__	__EPS__
s	s
o	o
u	l
l	l
d	t
e	e
n	n

__BEGIN__	__EPS__
d	o
i	__EPS__
k	f
c	t
h	__EPS__

__BEGIN__	__EPS__
s	se
i	i
n	n

__BEGIN__	__EPS__
s	s
p	p
r	r
a	a
c	c
h	h

__BEGIN__	__EPS__
w	w
a	ä
e	__EPS__
r	r
e	e
n	n

__BEGIN__	__EPS__
w	w
a	ah
r	r

__BEGIN__	__EPS__
f	f
r	r
o	a
w	u
e	__EPS__

__BEGIN__	__EPS__
g	g
i	i
b	b
s	s
t	t

__BEGIN__	__EPS__
e	e
r	r
s	s
t	t
o	o
r	r
b	b
e	e
n	n

__BEGIN__	__EPS__
w	w
e	o
l	l
l	l
e	e
n	n
t	__EPS__

__BEGIN__	__EPS__
p	b
e	e
g	g
u	o
e	__EPS__
z	s
z	s

__BEGIN__	__EPS__
s	sc
h	h
w	w
i	it
z	z
t	t
e	e

__BEGIN__	__EPS__
s	se
y	i
t	t
e	e

__BEGIN__	__EPS__
n	n
a	ah
m	m

__BEGIN__	__EPS__
l	l
e	e
i	i
d	d

__BEGIN__	__EPS__
t	t
a	a
e	__EPS__
t	t

__BEGIN__	__EPS__
d	d
e	e
r	r

__BEGIN__	__EPS__
s	s
e	e
i	i
n	n
e	e
r	r

__BEGIN__	__EPS__
g	g
e	e
s	s
t	t
a	a
l	l
t	tet

__BEGIN__	__EPS__
h	h
a	a
n	be
d	n

__BEGIN__	__EPS__
w	w
a	a
z	r

__BEGIN__	__EPS__
i	i
n	n

__BEGIN__	__EPS__
m	m
a	a
g	g
d	d
a	a
l	l
e	e
n	n
a	a

__BEGIN__	__EPS__
d	d
a	a
z	s

__BEGIN__	__EPS__
d	d
e	e
m	m

__BEGIN__	__EPS__
d	d
e	e
r	r

__BEGIN__	__EPS__
v	u
n	n
d	d

__BEGIN__	__EPS__
b	b
e	e
r	r
g	g
e	e
n	n

__BEGIN__	__EPS__
n	n
a	a
c	c
h	h

__BEGIN__	__EPS__
d	d
e	e
r	r

__BEGIN__	__EPS__
d	d
o	a

__BEGIN__	__EPS__
i	i
n	n

__BEGIN__	a
v	u
f	f
s	s
a	e
t	t
z	z
t	t
e	e

__BEGIN__	__EPS__
s	s
i	i
c	c
h	h

__BEGIN__	__EPS__
i	j
u	u
d	d
a	a
z	s

__BEGIN__	__EPS__
c	k
h	__EPS__
l	l
a	a
g	g
t	t

__BEGIN__	__EPS__
d	d
i	i
r	r

__BEGIN__	__EPS__
d	d
e	e
m	m

__BEGIN__	__EPS__
s	sch
w	w
e	e
r	re

__BEGIN__	__EPS__
i	ih
n	n

__BEGIN__	__EPS__
e	e
r	r

__BEGIN__	__EPS__
v	v
o	o
n	n

__BEGIN__	__EPS__
v	u
n	n
d	d

__BEGIN__	__EPS__
v	v
o	o
n	n

__BEGIN__	__EPS__
c	k
h	__EPS__
i	i
n	n
d	d
e	e
s	s

__BEGIN__	__EPS__
o	o
d	d
e	e
r	r

__BEGIN__	__EPS__
a	a
l	l
s	s

__BEGIN__	__EPS__
r	r
i	i
b	p
b	p
e	e
n	n

__BEGIN__	__EPS__
d	d
a	a
t	s

__BEGIN__	__EPS__
s	se
y	i
m	n
e	em

__BEGIN__	__EPS__
y	ih
m	m

__BEGIN__	__EPS__
y	ih
n	n

__BEGIN__	__EPS__
v	u
n	n
n	d

__BEGIN__	__EPS__
a	a
n	n
g	g
e	e
s	s
e	e
c	__EPS__
h	h
e	e
n	n

__BEGIN__	__EPS__
w	w
o	o
l	ll
d	t

__BEGIN__	__EPS__
d	d
a	a

__BEGIN__	__EPS__
a	a
n	n

__BEGIN__	__EPS__
m	m
e	e
i	i
n	n

__BEGIN__	__EPS__
e	e
i	i
n	n

__BEGIN__	__EPS__
d	d
e	e
n	n

__BEGIN__	__EPS__
s	s
e	e
y	i
n	n
e	e

__BEGIN__	__EPS__
v	u
n	n
d	d

__BEGIN__	__EPS__
b	w
e	a
i	r
t	t
o	e
t	t
o	e
n	n

__BEGIN__	__EPS__
t	t
r	ra
u	u
r	r
i	i
g	g
e	e
n	n

__BEGIN__	__EPS__
z	z
u	u

__BEGIN__	__EPS__
d	d
a	a
t	s

__BEGIN__	zu
s	s
a	a
m	mmen

__BEGIN__	__EPS__
d	d
e	e
r	r

__BEGIN__	__EPS__
d	d
i	i
e	e

__BEGIN__	__EPS__
v	u
n	n
d	d

__BEGIN__	__EPS__
a	a
n	n

__BEGIN__	__EPS__
h	h
i	i
n	n
f	f
u	ü
o	h
r	r
t	t
e	e
n	n

__BEGIN__	__EPS__
s	s
i	i
j	e

__BEGIN__	__EPS__
m	m
i	i
r	r

__BEGIN__	__EPS__
b	b
y	i
s	s
t	t

__BEGIN__	__EPS__
w	w
e	e
i	i
s	s
s	s
a	a
g	g
u	u
n	n
g	g

__BEGIN__	__EPS__
d	d
i	i
e	e

__BEGIN__	__EPS__
d	d
o	a

__BEGIN__	__EPS__
g	g
e	e
c	k
l	l
a	a
g	g
e	__EPS__
t	t

__BEGIN__	__EPS__
v	u
n	n
s	s
a	ä
g	g
e	__EPS__
l	l
i	i
c	c
h	h
e	e
r	r

__BEGIN__	__EPS__
m	m
o	o
i	__EPS__
c	c
h	h
t	t
e	e

__BEGIN__	__EPS__
e	e
z	s

__BEGIN__	__EPS__
d	d
c	ass

__BEGIN__	__EPS__
i	ih
n	n

__BEGIN__	__EPS__
v	f
r	r
o	a
g	g
e	__EPS__
t	t
e	e
n	n

__BEGIN__	__EPS__
s	s
a	a
g	g
e	e

__BEGIN__	__EPS__
d	d
a	a
s	ss

__BEGIN__	__EPS__
k	k
u	om
m	me

__BEGIN__	__EPS__
l	l
i	ie
f	f

__BEGIN__	__EPS__
d	d
a	a
i	__EPS__
r	__EPS__

__BEGIN__	__EPS__
n	n
a	ah
m	m
e	e
n	n

__BEGIN__	__EPS__
v	u
n	n
d	d

__BEGIN__	__EPS__
w	w
a	a
r	r
d	d

__BEGIN__	__EPS__
v	v
o	o
n	n

__BEGIN__	__EPS__
l	l
e	e
i	i
p	b

__BEGIN__	__EPS__
m	m
i	i
r	r

__BEGIN__	__EPS__
d	d
a	a

__BEGIN__	__EPS__
v	v
o	o
n	n

__BEGIN__	__EPS__
g	g
i	i
e	__EPS__
n	n
g	g
e	e
n	n

__BEGIN__	__EPS__
i	j
u	u
d	d
e	e
n	n

__BEGIN__	__EPS__
s	s
p	p
r	r
e	e
c	c
h	h
e	e
n	n

__BEGIN__	__EPS__
g	g
r	r
o	o
s	s
s	s
e	e
n	__EPS__
n	n

__BEGIN__	__EPS__
d	d
i	i
e	e
p	b

__BEGIN__	__EPS__
s	sch
l	l
e	ä
g	g
e	e

__BEGIN__	__EPS__
n	n
i	i
c	c
h	h
t	t

__BEGIN__	__EPS__
d	d
u	u

__BEGIN__	__EPS__
i	ih
n	n

__BEGIN__	__EPS__
l	l
o	oh
n	n
e	e
n	n

__BEGIN__	__EPS__
a	a
n	n
s	s
h	__EPS__
e	e
l	l
m	m
u	__EPS__
s	__EPS__

__BEGIN__	__EPS__
d	da
z	ss

__BEGIN__	__EPS__
e	e
r	r
s	s
t	t
u	a
n	n
d	d
e	e
n	n

__BEGIN__	__EPS__
m	m
e	e
y	i
n	n
e	e
n	n

__BEGIN__	__EPS__
d	d
o	o
c	c
h	h

__BEGIN__	__EPS__
d	d
a	a

__BEGIN__	__EPS__
k	k
i	i
n	n
d	d
e	__EPS__

__BEGIN__	__EPS__
l	l
e	ä
n	n
g	ge

__BEGIN__	__EPS__
s	s
p	p
r	r
a	a
c	c
h	h

__BEGIN__	__EPS__
g	__EPS__
e	__EPS__
z	z
e	e
u	u
g	g
e	e
n	n

__BEGIN__	__EPS__
d	d
a	a
s	s

__BEGIN__	__EPS__
s	s
c	c
h	h
a	e
y	i
t	t
e	e
l	l
n	n

__BEGIN__	__EPS__
w	we
y	i
s	ss
a	a
g	gung

__BEGIN__	__EPS__
n	n
a	ach

__BEGIN__	__EPS__
v	ü
e	__EPS__
b	b
e	e
l	l
d	t
e	ä
t	__EPS__
t	t
e	e
r	r

__BEGIN__	__EPS__
w	w
i	ie
d	d
e	e
r	r

__BEGIN__	__EPS__
w	w
o	a
r	r
t	d

__BEGIN__	__EPS__
i	i
n	n

__BEGIN__	__EPS__
l	l
i	i
e	e
b	b
e	e
s	s

__BEGIN__	__EPS__
w	w
a	a
n	n
n	n

__BEGIN__	__EPS__
d	d
e	e
n	n

__BEGIN__	__EPS__
d	d
o	o
r	r
n	n
e	e
n	n

__BEGIN__	__EPS__
d	d
a	a

__BEGIN__	__EPS__
h	h
e	e
r	r
c	__EPS__
z	z
e	e
n	n

__BEGIN__	__EPS__
s	s
t	t
a	a
r	r
b	b
e	e
n	n

__BEGIN__	__EPS__
k	k
i	i
n	n
t	d

__BEGIN__	__EPS__
i	i
s	s
t	t

__BEGIN__	__EPS__
i	__EPS__
n	__EPS__
g	g
e	e
s	s
y	i
n	n
d	d
e	e

__BEGIN__	__EPS__
a	a
b	b
e	e
r	r

__BEGIN__	__EPS__
a	a
b	b
n	n
e	eh
m	m
e	e
n	n

__BEGIN__	__EPS__
h	h
u	u
n	n
d	d
e	e

__BEGIN__	__EPS__
w	w
e	ä
r	re

__BEGIN__	__EPS__
t	t
e	e
m	m
p	p
e	e
l	l

__BEGIN__	__EPS__
m	m
e	e
i	i
n	n

__BEGIN__	__EPS__
p	__EPS__
e	__EPS__
r	__EPS__
t	t
r	r
a	a
n	n
s	s
i	__EPS__
u	u
i	i
t	t

__BEGIN__	__EPS__
b	b
i	i
t	t
t	t
e	e
r	r
l	l
i	i
c	c
h	h
e	e
n	n

__BEGIN__	__EPS__
a	a
n	n
n	n
a	a
s	s

__BEGIN__	__EPS__
v	v
o	o
n	n

__BEGIN__	__EPS__
n	n
a	a
c	c
h	h
t	t

__BEGIN__	__EPS__
s	s
p	p
r	r
a	a
c	c
h	h

__BEGIN__	__EPS__
s	s
e	e
i	i
n	n

__BEGIN__	__EPS__
r	r
e	e
y	i
n	n
e	e
n	n

__BEGIN__	__EPS__
a	a
u	u
d	d
i	i

__BEGIN__	__EPS__
i	ih
n	n

__BEGIN__	__EPS__
k	k
u	ü
s	ss
t	te

__BEGIN__	__EPS__
w	w
o	a
r	r
i	e
n	n

__BEGIN__	__EPS__
w	w
a	a
z	r

__BEGIN__	__EPS__
d	d
u	u

__BEGIN__	__EPS__
a	a
n	n

__BEGIN__	__EPS__
d	d
a	a
z	s

__BEGIN__	__EPS__
r	r
y	i
t	t
t	t
e	e
r	r

__BEGIN__	__EPS__
h	h
e	a
t	t
t	t
e	e

__BEGIN__	__EPS__
a	a
l	l
l	l
e	e
r	r
l	l
i	i
e	e
b	b
s	s
t	t
e	e

__BEGIN__	__EPS__
m	me
y	i
n	n

__BEGIN__	__EPS__
d	d
i	i
e	e

__BEGIN__	__EPS__
c	k
r	r
e	e
w	u
c	__EPS__
z	z

__BEGIN__	__EPS__
h	h
i	ie
z	ss

__BEGIN__	__EPS__
k	k
i	i
n	n
t	d

__BEGIN__	__EPS__
h	h
a	a
n	b
t	t

__BEGIN__	__EPS__
m	m
y	i
r	r

__BEGIN__	__EPS__
l	l
i	e
e	i
b	b

__BEGIN__	__EPS__
d	d
o	a

__BEGIN__	__EPS__
d	d
o	a

__BEGIN__	__EPS__
g	g
e	e
s	s
c	c
h	h
l	l
a	a
g	g
e	e
n	n

__BEGIN__	__EPS__
s	s
e	e
l	l
b	b
i	e
n	n

__BEGIN__	__EPS__
g	g
e	e
b	be
n	n

__BEGIN__	__EPS__
c	k
h	__EPS__
i	i
n	n
t	d
-	__EPS__

__BEGIN__	__EPS__
e	e
y	i
n	n

__BEGIN__	__EPS__
g	g
e	e
r	r
n	n

__BEGIN__	__EPS__
v	v
a	o
n	n

__BEGIN__	__EPS__
e	e
i	__EPS__
w	u
r	re
n	n

