__BEGIN__	__EPS__
v	u
n	n
d	d

__BEGIN__	__EPS__
x	chr
c	istus

__BEGIN__	__EPS__
s	s
e	e
i	i
n	n

__BEGIN__	__EPS__
d	da
z	s

__BEGIN__	__EPS__
g	g
a	a
b	b

__BEGIN__	__EPS__
w	w
a	a
s	s

__BEGIN__	__EPS__
a	a
r	r
m	m

__BEGIN__	__EPS__
h	h
a	a
n	n
t	d

__BEGIN__	__EPS__
d	d
e	e
n	n

__BEGIN__	__EPS__
w	w
e	eh

__BEGIN__	__EPS__
s	sch
w	w
e	e
r	r
e	e

__BEGIN__	__EPS__
m	m
i	i
t	t

__BEGIN__	__EPS__
m	me
i	i
n	n

__BEGIN__	__EPS__
d	d
e	e
n	n

__BEGIN__	__EPS__
a	a
n	n
d	de
r	r
e	e

__BEGIN__	__EPS__
s	s
i	i
t	t
t	t
e	e
n	n

__BEGIN__	__EPS__
i	j
u	u
d	d
e	e
n	n

__BEGIN__	__EPS__
g	g
e	e
d	d
e	e
n	n
k	k
e	e
n	n

__BEGIN__	__EPS__
t	d
r	r
v	ü
c	c
h	k
t	t
o	e
n	n

__BEGIN__	__EPS__
s	s
t	t
u	__EPS__
o	a
n	n
t	d

__BEGIN__	__EPS__
d	d
y	ie

__BEGIN__	__EPS__
m	g
e	eschich
r	te

__BEGIN__	__EPS__
a	a
u	u
f	f

__BEGIN__	__EPS__
v	v
e	e
r	r
s	s
v	ü
i	h
n	n
e	__EPS__
t	t

__BEGIN__	__EPS__
s	s
e	e
l	l
b	be

__BEGIN__	__EPS__
d	d
a	a
r	r

__BEGIN__	__EPS__
m	m
i	i
r	r

__BEGIN__	__EPS__
m	me
i	i
n	n
e	e
s	s

__BEGIN__	__EPS__
a	a
b	b
z	z
i	i
e	e
h	h
e	e
n	n

__BEGIN__	__EPS__
b	b
e	e
s	s
c	c
h	h
l	l
o	o
s	s
z	s

__BEGIN__	__EPS__
p	b
o	o
t	t
e	e
n	n

__BEGIN__	__EPS__
m	m
i	i
t	t

__BEGIN__	__EPS__
v	v
a	o
n	n

__BEGIN__	__EPS__
ü	a
f	u
f	f

__BEGIN__	__EPS__
v	f
r	r
i	e
e	u
n	n
t	d

__BEGIN__	__EPS__
i	ih
m	m

__BEGIN__	__EPS__
m	m
e	e
i	i
n	n

__BEGIN__	__EPS__
f	f
l	l
o	o
c	__EPS__
h	h

__BEGIN__	__EPS__
z	z
e	e
r	r
p	b
r	r
i	i
c	c
h	h
e	__EPS__
t	t

__BEGIN__	__EPS__
n	n
i	i
e	e

__BEGIN__	__EPS__
t	t
r	r
u	oc
k	k
n	n
e	e
t	te

__BEGIN__	__EPS__
v	u
n	n
d	d

__BEGIN__	__EPS__
o	a
u	u
c	c
h	h

__BEGIN__	__EPS__
t	t
a	a
g	g
e	__EPS__

__BEGIN__	__EPS__
s	s
i	ie

__BEGIN__	__EPS__
v	u
n	n
d	d

__BEGIN__	__EPS__
r	r
a	a
e	__EPS__
t	t

__BEGIN__	__EPS__
m	m
i	i
r	r

__BEGIN__	__EPS__
b	b
i	i
s	s
t	t

__BEGIN__	__EPS__
a	a
l	l
s	s
o	o

__BEGIN__	__EPS__
d	d
a	a
s	ss

__BEGIN__	__EPS__
c	k
l	l
a	a
g	ge

__BEGIN__	__EPS__
k	k
i	i
n	n
t	d

__BEGIN__	__EPS__
c	k
r	r
ü	e
t	u
z	z

__BEGIN__	__EPS__
v	v
o	o
n	n

__BEGIN__	__EPS__
v	f
r	r
o	a
g	g
e	__EPS__
t	t
e	e

__BEGIN__	__EPS__
n	n
u	un

__BEGIN__	__EPS__
v	u
n	n
d	d

__BEGIN__	__EPS__
h	h
i	i
e	e
s	s
z	s
e	e
n	n

__BEGIN__	__EPS__
s	s
c	c
h	h
o	u
i	__EPS__
l	l
t	d

__BEGIN__	__EPS__
s	se
i	i
n	n

__BEGIN__	__EPS__
h	h
a	a
i	be
n	n

__BEGIN__	__EPS__
z	z
e	e
r	rr
t	t

__BEGIN__	__EPS__
i	i
c	c
h	h

__BEGIN__	__EPS__
o	o
b	b

__BEGIN__	__EPS__
i	ih
n	n
e	e
n	n

__BEGIN__	__EPS__
e	e
r	r

__BEGIN__	__EPS__
b	b
e	e
s	s
e	e
s	s
s	s
e	e
n	n

__BEGIN__	__EPS__
v	u
n	n
d	d

__BEGIN__	__EPS__
a	e
i	i
n	n

__BEGIN__	__EPS__
w	w
a	ah
r	r
h	h
a	e
y	i
t	t

__BEGIN__	__EPS__
s	s
u	o
n	n
d	d
e	e
r	rn

__BEGIN__	__EPS__
a	a
l	l
s	s

__BEGIN__	__EPS__
p	b
i	i
s	s
t	t

__BEGIN__	__EPS__
h	h
e	e
y	i
s	s
c	s
h	e

__BEGIN__	__EPS__
m	me
y	i
n	n

__BEGIN__	__EPS__
r	r
e	e
i	i
c	c
h	h

__BEGIN__	__EPS__
g	g
r	r
o	o
z	ss
e	e
m	m

__BEGIN__	__EPS__
d	d
e	e
r	r

__BEGIN__	a
v	u
f	f

__BEGIN__	__EPS__
a	a
l	l
s	s

__BEGIN__	__EPS__
d	d
o	a

__BEGIN__	__EPS__
d	d
e	e
r	r

__BEGIN__	__EPS__
d	d
o	a

__BEGIN__	__EPS__
w	w
a	a
z	s

__BEGIN__	__EPS__
v	u
n	n
d	d

__BEGIN__	__EPS__
s	s
i	ie

__BEGIN__	__EPS__
h	h
e	e
r	r
e	r

__BEGIN__	__EPS__
i	ih
m	m

__BEGIN__	__EPS__
i	ih
n	n

__BEGIN__	__EPS__
n	n
a	a
c	c
h	h

__BEGIN__	__EPS__
i	i
s	s
t	t

__BEGIN__	__EPS__
w	w
a	a
s	r

__BEGIN__	__EPS__
a	a
n	n
s	s
e	e
l	l
m	m
e	__EPS__

__BEGIN__	__EPS__
b	b
e	__EPS__
l	l
e	e
i	i
b	b
e	e
n	n

__BEGIN__	__EPS__
w	w
a	a
i	h
r	r
h	h
e	e
y	i
t	t

__BEGIN__	__EPS__
g	g
e	e
c	k
l	l
a	e
i	i
d	d
e	e
t	t

__BEGIN__	__EPS__
d	d
o	a

__BEGIN__	__EPS__
v	v
e	e
r	r
g	g
r	r
a	a
b	b
e	e
n	n

__BEGIN__	__EPS__
s	se
y	i
n	n

__BEGIN__	__EPS__
s	s
t	t
a	a
r	r
c	__EPS__
k	k
e	e

__BEGIN__	__EPS__
a	e
i	i
n	n
e	e
r	r

__BEGIN__	__EPS__
d	d
e	e
n	n

__BEGIN__	__EPS__
d	d
i	ie
t	s

__BEGIN__	__EPS__
d	d
o	a

__BEGIN__	__EPS__
g	g
e	e
r	r
i	i
c	c
h	h
t	t

__BEGIN__	__EPS__
v	v
o	o
r	r

__BEGIN__	__EPS__
t	t
a	e
i	i
l	l

__BEGIN__	__EPS__
g	g
r	r
o	o
s	ss

__BEGIN__	__EPS__
s	s
c	c
h	h
w	w
e	e
s	s
t	t
e	e
r	r

__BEGIN__	__EPS__
i	j
u	ü
n	n
g	g
e	e
r	r
n	n

__BEGIN__	__EPS__
m	m
e	e
i	i
n	n
e	e
r	r

__BEGIN__	__EPS__
d	d
a	a
n	n
n	n
e	e
n	n

__BEGIN__	__EPS__
g	__EPS__
e	__EPS__
s	s
a	a
c	__EPS__
h	h

__BEGIN__	__EPS__
v	f
r	r
a	a
g	g
e	__EPS__
d	t
e	e

__BEGIN__	__EPS__
a	a
l	l
s	s
o	o

__BEGIN__	__EPS__
p	g
h	__EPS__
e	e
l	w
l	a
e	n
r	d

__BEGIN__	__EPS__
i	i
c	c
h	h

__BEGIN__	__EPS__
d	d
o	a

__BEGIN__	__EPS__
d	d
a	a

__BEGIN__	__EPS__
v	u
n	n
d	d

__BEGIN__	__EPS__
h	h
o	ö
e	__EPS__
r	r
e	e

__BEGIN__	__EPS__
s	s
y	ie

__BEGIN__	__EPS__
v	v
e	e
r	r
d	d
a	a
m	m
b	m
t	t

__BEGIN__	__EPS__
h	h
e	e
r	r
c	__EPS__
z	z
e	e
n	n

__BEGIN__	__EPS__
m	m
i	i
c	c
h	h

__BEGIN__	__EPS__
m	m
y	i
r	r

__BEGIN__	__EPS__
a	a
v	u
c	c
h	h

__BEGIN__	__EPS__
d	d
o	a

__BEGIN__	__EPS__
h	h
e	a
t	t

__BEGIN__	__EPS__
s	s
a	ä
u	u
g	g
e	e
n	n
t	d

__BEGIN__	__EPS__
v	u
n	n
d	d

__BEGIN__	__EPS__
l	l
a	e
w	u
t	t
e	e
n	n

__BEGIN__	__EPS__
l	l
i	i
e	e
w	b
e	e

__BEGIN__	__EPS__
d	d
o	a

__BEGIN__	__EPS__
v	u
n	n
d	d

__BEGIN__	__EPS__
s	s
a	a
g	g
e	e
n	n

__BEGIN__	__EPS__
s	s
o	o

__BEGIN__	__EPS__
s	s
t	t
a	ad
t	t

__BEGIN__	__EPS__
n	n
o	o
t	t

__BEGIN__	__EPS__
g	g
r	r
o	o
z	s
z	s
e	e
m	m

__BEGIN__	__EPS__
v	v
o	o
l	l
k	k

__BEGIN__	__EPS__
d	d
a	a
z	s

__BEGIN__	__EPS__
i	i
c	ch

__BEGIN__	__EPS__
a	a
l	l
s	s
o	o

__BEGIN__	__EPS__
b	b
e	e
w	w
e	e
g	g
t	t

__BEGIN__	__EPS__
s	s
i	ie

__BEGIN__	e
s	s

__BEGIN__	__EPS__
a	a
n	n

__BEGIN__	__EPS__
n	n
i	ich
t	t

__BEGIN__	__EPS__
s	s
c	c
h	h
a	e
i	i
d	de

__BEGIN__	__EPS__
d	d
u	u
r	r
c	c
h	h

__BEGIN__	__EPS__
w	w
a	a
z	r

__BEGIN__	__EPS__
g	g
e	e
w	w
e	a
l	l
t	t
i	i
g	g

__BEGIN__	__EPS__
v	u
n	n
d	d

__BEGIN__	__EPS__
i	i
n	n

__BEGIN__	__EPS__
s	s
i	i
c	c
h	h

__BEGIN__	__EPS__
l	l
a	a
g	g

__BEGIN__	__EPS__
e	e
s	s

__BEGIN__	__EPS__
s	s
t	t
u	a
n	n
d	d

__BEGIN__	__EPS__
d	da
z	s

__BEGIN__	__EPS__
n	n
y	ich
t	t

__BEGIN__	__EPS__
h	h
e	a
t	t
t	te
n	n

__BEGIN__	__EPS__
v	u
n	n
g	g
e	__EPS__
l	le
i	i
c	c
h	h

__BEGIN__	__EPS__
l	l
a	ä
s	s
t	t
e	e
r	r
l	l
e	__EPS__
y	i
c	c
h	h
e	e
n	n

__BEGIN__	__EPS__
n	n
i	i
c	c
h	h
t	t

__BEGIN__	__EPS__
d	d
e	e
n	n

__BEGIN__	__EPS__
v	v
o	o
n	n

__BEGIN__	__EPS__
h	e
e	r

__BEGIN__	__EPS__
v	v
o	o
n	n

__BEGIN__	__EPS__
g	g
e	e
f	f
e	ä
s	s
s	s
e	e

__BEGIN__	__EPS__
a	a
l	l
l	l
e	e

__BEGIN__	__EPS__
m	m
e	eh
r	r

__BEGIN__	__EPS__
g	g
o	o
t	tt
e	e
s	s

__BEGIN__	__EPS__
m	m
e	e
i	i
n	n

__BEGIN__	__EPS__
i	i
c	c
h	h

__BEGIN__	__EPS__
d	d
v	ie

__BEGIN__	__EPS__
d	d
i	i
e	e

__BEGIN__	__EPS__
e	eh
r	r
e	e

__BEGIN__	__EPS__
s	s
o	o
l	ll
t	t

__BEGIN__	__EPS__
a	o
l	__EPS__
d	d
e	er

__BEGIN__	__EPS__
l	l
a	e
w	u
t	t
e	e
n	n

__BEGIN__	__EPS__
h	h
i	i
e	er

__BEGIN__	__EPS__
d	d
a	a
s	ss

__BEGIN__	__EPS__
b	b
i	i
t	t
t	t
e	e
r	r
h	k
e	e
y	i
t	t

__BEGIN__	__EPS__
g	g
r	r
o	o
z	ss
e	e
m	m

__BEGIN__	__EPS__
w	w
a	a
r	r
d	d

__BEGIN__	__EPS__
a	a
n	n

__BEGIN__	__EPS__
s	s
c	c
h	h
l	l
a	a
c	__EPS__
h	g
e	e
n	n

__BEGIN__	__EPS__
s	s
o	o

__BEGIN__	__EPS__
d	d
a	a
i	__EPS__
r	__EPS__

__BEGIN__	__EPS__
i	jo
h	h
o	an
-	n
e	e
s	s

__BEGIN__	__EPS__
d	d
i	i
e	e

__BEGIN__	__EPS__
v	v
a	a
t	t
e	e
r	r

__BEGIN__	__EPS__
w	w
a	a
s	r

__BEGIN__	__EPS__
n	n
i	ich
t	t

__BEGIN__	__EPS__
d	d
a	a
u	v
i	i
d	d

__BEGIN__	__EPS__
v	u
n	n
d	d

__BEGIN__	__EPS__
s	s
i	i
e	e
c	c
h	h
e	e
n	n

__BEGIN__	__EPS__
d	d
a	a
t	s

__BEGIN__	__EPS__
s	s
e	eh
y	e
n	n

__BEGIN__	__EPS__
d	d
e	e
r	r

__BEGIN__	__EPS__
e	e
r	r

__BEGIN__	__EPS__
v	u
n	n
d	d

__BEGIN__	__EPS__
i	i
n	n

__BEGIN__	__EPS__
a	a
b	b

__BEGIN__	__EPS__
s	s
y	ie

__BEGIN__	__EPS__
d	d
o	a

__BEGIN__	__EPS__
d	d
i	i
e	e

__BEGIN__	__EPS__
d	d
e	e
r	r

__BEGIN__	__EPS__
d	d
e	e
n	n

__BEGIN__	__EPS__
m	m
e	e
i	i
n	n
e	e
n	n

__BEGIN__	__EPS__
d	d
i	i
e	e

__BEGIN__	__EPS__
h	u
e	m
l	a
s	rm
e	e
n	n

__BEGIN__	__EPS__
v	v
o	o
l	l
c	__EPS__
k	k

__BEGIN__	__EPS__
d	d
e	e
m	m

__BEGIN__	__EPS__
t	t
a	a
t	t
e	e
n	n

__BEGIN__	__EPS__
s	s
y	ie

__BEGIN__	__EPS__
m	m
y	i
r	r

__BEGIN__	__EPS__
i	u
n	n
d	d

__BEGIN__	__EPS__
d	d
e	e
m	m

__BEGIN__	__EPS__
s	s
e	e
i	i
n	n
e	e
n	n

__BEGIN__	__EPS__
m	m
e	e
i	i
n	n
e	e
m	m

__BEGIN__	__EPS__
v	v
a	a
t	t
e	e
r	r

__BEGIN__	__EPS__
e	e
s	s

__BEGIN__	__EPS__
e	u
n	nd

__BEGIN__	__EPS__
g	g
u	ü
t	t
l	l
i	i
c	c
h	h
e	e
n	n

__BEGIN__	__EPS__
g	g
e	e
a	a
n	n
t	t
w	w
u	__EPS__
o	o
r	rte
t	t

__BEGIN__	__EPS__
e	e
r	r

__BEGIN__	__EPS__
d	d
a	a
s	s

__BEGIN__	__EPS__
r	r
a	e
i	i
n	n
y	e

__BEGIN__	__EPS__
d	d
e	e
m	m

__BEGIN__	__EPS__
d	d
i	i
c	c
h	h

__BEGIN__	__EPS__
n	n
y	i
e	e
m	m
a	a
n	n
t	d

__BEGIN__	__EPS__
m	me
i	i
n	n
e	e
r	r

__BEGIN__	__EPS__
s	s
o	o

__BEGIN__	__EPS__
s	k
i	r
e	a
c	n
h	k
e	e
n	n

__BEGIN__	__EPS__
l	l
a	ass

__BEGIN__	__EPS__
p	p
r	r
a	a
n	n
g	g
e	e
n	n

__BEGIN__	__EPS__
l	l
e	e
b	b
e	e
n	n

__BEGIN__	__EPS__
b	b
e	e
g	g
o	a
n	n
d	n

__BEGIN__	__EPS__
v	u
n	n
d	d

__BEGIN__	__EPS__
g	g
i	i
n	n
g	g

__BEGIN__	__EPS__
w	w
a	a
s	r

__BEGIN__	__EPS__
d	d
i	i
e	e

__BEGIN__	__EPS__
i	j
u	u
d	d
e	e
n	n

__BEGIN__	__EPS__
s	s
v	i
i	e

__BEGIN__	__EPS__
d	d
a	a
r	__EPS__
n	n
a	a
c	c
h	h

__BEGIN__	__EPS__
g	g
e	e
h	h
a	a
b	b
t	t

__BEGIN__	a
v	u
z	s
f	f
v	üh
r	r
t	t
e	e

__BEGIN__	__EPS__
s	s
t	t
a	ä
t	tte

__BEGIN__	__EPS__
d	d
e	e
r	r

__BEGIN__	__EPS__
f	f
r	r
o	a
w	u

__BEGIN__	__EPS__
u	u
n	n
d	d

__BEGIN__	__EPS__
s	sch
w	w
e	e
r	r
t	t

__BEGIN__	__EPS__
s	s
a	a
n	nk
t	t

__BEGIN__	__EPS__
m	m
i	i
c	c
h	h

__BEGIN__	__EPS__
n	n
i	ic
h	h
t	t

__BEGIN__	__EPS__
s	s
c	c
h	h
r	r
a	e
i	i

__BEGIN__	__EPS__
w	w
a	a
e	h
r	r
h	h
e	e
i	i
t	t

__BEGIN__	__EPS__
w	w
a	a
s	r

__BEGIN__	__EPS__
q	k
u	__EPS__
o	a
m	m
e	e
n	n

__BEGIN__	p
s	s
a	a
l	l
t	t
e	e
r	r

__BEGIN__	__EPS__
d	d
i	i
e	e

__BEGIN__	__EPS__
i	j
e	ä
m	mm
e	e
r	r
l	l
i	i
c	c
h	h

__BEGIN__	__EPS__
m	m
i	i
t	t

__BEGIN__	__EPS__
g	g
r	r
o	o
s	s
s	s
e	e
r	r

__BEGIN__	__EPS__
a	a
n	n
s	s
h	__EPS__
e	e
l	l
m	m
u	__EPS__
s	__EPS__

__BEGIN__	d
u	u

__BEGIN__	__EPS__
a	a
l	l
l	l
e	e
r	r

__BEGIN__	__EPS__
s	s
i	ie

__BEGIN__	__EPS__
v	v
e	e
r	r
d	d
a	a
m	m
p	m
n	n
u	i
s	s
z	__EPS__

__BEGIN__	__EPS__
h	h
e	e
l	l
y	y

__BEGIN__	__EPS__
e	e
y	i
n	n
e	e
r	r

__BEGIN__	__EPS__
d	d
c	ass

__BEGIN__	__EPS__
p	p
y	i
l	l
a	a
t	t
u	u
s	s

__BEGIN__	__EPS__
v	u
n	n
d	d

__BEGIN__	__EPS__
d	d
e	e
n	m

__BEGIN__	__EPS__
v	u
n	n
d	d

__BEGIN__	__EPS__
d	d
e	e
m	m

__BEGIN__	__EPS__
w	w
a	a
s	r

__BEGIN__	__EPS__
b	b
e	__EPS__
l	l
a	e
i	i
b	b

__BEGIN__	n
e	ich
n	t

__BEGIN__	__EPS__
d	d
o	a

__BEGIN__	__EPS__
s	s
t	t
e	ö
c	c
k	k
e	e
n	n

__BEGIN__	__EPS__
d	d
a	a
s	ss

__BEGIN__	__EPS__
v	v
o	o
n	n

__BEGIN__	__EPS__
w	w
e	e
r	r
i	__EPS__
c	__EPS__
h	k

__BEGIN__	__EPS__
s	s
c	c
h	h
a	a
n	n
t	d
e	e
n	n

__BEGIN__	__EPS__
d	d
o	a

__BEGIN__	__EPS__
p	b
e	ei
d	d
e	e

__BEGIN__	a
v	u
f	f

__BEGIN__	__EPS__
c	k
h	__EPS__
u	ö
n	n
i	i
c	__EPS__
h	g

__BEGIN__	d
u	u

__BEGIN__	__EPS__
l	l
i	i
e	e
b	b
e	e
n	n

__BEGIN__	__EPS__
s	s
e	e
e	e
l	le

__BEGIN__	__EPS__
w	w
a	a
s	r

__BEGIN__	__EPS__
d	d
e	e
m	m

__BEGIN__	__EPS__
h	e
e	r

__BEGIN__	__EPS__
d	d
a	a
s	s

__BEGIN__	__EPS__
g	g
e	__EPS__
l	l
o	au
b	be

__BEGIN__	__EPS__
l	l
ü	e
t	u
t	t
e	e
n	n

__BEGIN__	__EPS__
e	e
r	r

__BEGIN__	__EPS__
f	f
v	ü
e	h
r	r
t	t
e	e
n	n

__BEGIN__	__EPS__
d	d
w	u

__BEGIN__	__EPS__
e	e
r	r

__BEGIN__	__EPS__
v	u
n	n
d	d

__BEGIN__	__EPS__
s	s
p	p
r	r
a	a
c	c
h	h

__BEGIN__	__EPS__
i	i
n	n

__BEGIN__	__EPS__
d	d
a	a
s	ss

__BEGIN__	__EPS__
m	m
e	e
n	n
s	s
h	c
e	h
l	l
i	i
c	c
h	h
e	e
r	r

__BEGIN__	__EPS__
m	m
e	e
y	i
n	n

__BEGIN__	__EPS__
a	a
l	l
s	s

__BEGIN__	__EPS__
g	g
u	ö
n	nn
d	t
e	e

__BEGIN__	__EPS__
v	u
n	n
d	d

__BEGIN__	__EPS__
b	b
i	i
s	s
t	t

__BEGIN__	__EPS__
s	s
o	ol
l	l
t	t

__BEGIN__	__EPS__
d	d
a	a
r	r
u	u
m	m
b	__EPS__

__BEGIN__	__EPS__
b	b
e	e
r	r
g	g
e	e
n	n

__BEGIN__	__EPS__
w	w
a	a
s	r

__BEGIN__	__EPS__
s	s
o	o

__BEGIN__	__EPS__
e	e
z	s

__BEGIN__	__EPS__
k	k
i	i
n	n
d	d

__BEGIN__	__EPS__
m	m
i	i
t	t

__BEGIN__	__EPS__
d	d
o	a

__BEGIN__	__EPS__
d	d
y	ir

__BEGIN__	__EPS__
s	s
c	c
h	h
r	r
i	i
r	__EPS__
e	e
n	n

__BEGIN__	__EPS__
b	b
l	l
o	u
i	__EPS__
t	t

__BEGIN__	__EPS__
s	s
t	t
a	ä
t	tte

__BEGIN__	__EPS__
g	g
r	r
o	o
s	s
s	s
e	e

__BEGIN__	__EPS__
n	n
a	ah
n	m

__BEGIN__	__EPS__
g	g
a	a
b	b

__BEGIN__	__EPS__
n	n
a	a
c	c
h	h
g	g
i	i
e	__EPS__
n	n
g	g
e	e
n	n

__BEGIN__	__EPS__
s	s
e	e
i	i
n	n

__BEGIN__	__EPS__
n	n
a	a
c	c
h	h
t	t

__BEGIN__	__EPS__
s	s
e	e
i	i
n	n

__BEGIN__	__EPS__
v	v
o	o
n	n

__BEGIN__	__EPS__
g	g
a	a
l	l
l	l
e	e
n	n

__BEGIN__	__EPS__
d	d
i	i
s	e
s	s

__BEGIN__	__EPS__
d	d
a	a
s	s

__BEGIN__	__EPS__
m	m
a	a
c	c
h	h
t	t

__BEGIN__	__EPS__
g	w
e	__EPS__
w	a
e	h
r	r
e	e
r	r

__BEGIN__	__EPS__
s	s
e	e
i	i
n	n

__BEGIN__	__EPS__
i	j
u	u
d	da
e	e
o	o
r	r
u	u
m	m

__BEGIN__	__EPS__
d	d
i	i
e	e

__BEGIN__	__EPS__
h	h
a	a
w	u
p	p
t	t

__BEGIN__	__EPS__
b	b
e	e
g	g
r	r
a	a
b	be

__BEGIN__	__EPS__
i	i
c	c
h	h

__BEGIN__	__EPS__
v	v
e	e
r	r
g	g
i	i
b	b

__BEGIN__	__EPS__
i	i
n	n

__BEGIN__	__EPS__
p	p
i	i
l	l
a	a
t	t
u	u
s	s

__BEGIN__	__EPS__
v	v
o	o
n	n

__BEGIN__	__EPS__
a	a
l	l
l	l
e	e
s	s

__BEGIN__	__EPS__
m	me
i	i
n	n

__BEGIN__	__EPS__
s	sc
h	h
a	ä
c	c
h	h
e	e
r	r
n	n

__BEGIN__	__EPS__
f	f
o	o
r	r
m	m
a	a

__BEGIN__	__EPS__
b	g
e	e
s	s
c	c
h	h
e	eh
e	e
n	n

__BEGIN__	__EPS__
n	n
a	ah
m	m
e	e
n	n

__BEGIN__	__EPS__
t	t
o	o
d	d

__BEGIN__	__EPS__
y	ih
m	m

__BEGIN__	__EPS__
e	e
r	r

__BEGIN__	__EPS__
g	g
e	ehe
n	n

__BEGIN__	__EPS__
m	m
a	a
g	g
d	d
a	a
l	l
e	e
n	n
a	a

__BEGIN__	__EPS__
a	a
n	n

__BEGIN__	__EPS__
d	d
o	a

__BEGIN__	__EPS__
h	h
e	e
r	r
c	__EPS__
z	z

__BEGIN__	__EPS__
d	d
e	e
r	r

__BEGIN__	__EPS__
d	d
e	e
m	m

__BEGIN__	__EPS__
d	d
a	a
s	ss

__BEGIN__	__EPS__
n	n
o	o
c	c
h	h

__BEGIN__	__EPS__
z	z
a	a
r	r
t	t
e	e
s	s

__BEGIN__	__EPS__
v	u
n	n
d	d

__BEGIN__	__EPS__
u	a
f	u
f	f
g	g
e	e
r	r
i	i
c	c
h	h
t	tet

__BEGIN__	__EPS__
a	a
b	b
e	e
r	r

__BEGIN__	__EPS__
o	o
w	w
e	eh

__BEGIN__	__EPS__
l	l
e	e
g	g
t	t
e	e
n	n

__BEGIN__	__EPS__
u	v
i	i
d	d
e	e

__BEGIN__	__EPS__
y	i
m	m

__BEGIN__	__EPS__
k	ka
u	u
m	m

__BEGIN__	__EPS__
d	d
a	a
s	ss

__BEGIN__	__EPS__
a	a
l	l
l	l
e	e
r	r
l	l
i	ie
b	b
s	s
t	t
e	e

__BEGIN__	__EPS__
l	l
a	a
s	s
s	se
n	n

__BEGIN__	__EPS__
l	l
e	e
u	u
t	t
e	e

__BEGIN__	__EPS__
d	d
a	a
r	r

__BEGIN__	__EPS__
b	be
y	i

__BEGIN__	__EPS__
n	n
o	ö
e	__EPS__
t	t
e	e
n	n

__BEGIN__	__EPS__
s	s
e	e
i	i
n	n
e	e
w	__EPS__

__BEGIN__	__EPS__
d	d
o	a

__BEGIN__	__EPS__
s	s
a	a
c	__EPS__
h	h

__BEGIN__	__EPS__
o	o
i	i
-	n
a	a

__BEGIN__	__EPS__
d	d
a	a
s	s

__BEGIN__	__EPS__
a	a
l	l
s	s
o	o

__BEGIN__	__EPS__
s	s
p	p
e	__EPS__
r	ri
c	c
h	h
t	t

__BEGIN__	__EPS__
l	l
a	a
s	ss

__BEGIN__	__EPS__
s	s
p	p
r	r
a	a
c	ch

__BEGIN__	__EPS__
d	d
a	a
s	ss

__BEGIN__	__EPS__
a	a
b	b
e	e
r	r

__BEGIN__	__EPS__
m	m
a	o
c	c
h	h
t	te

__BEGIN__	__EPS__
m	m
e	e
i	i
n	n

__BEGIN__	__EPS__
i	i
s	s
t	t

__BEGIN__	__EPS__
z	z
o	o
r	r
n	n
e	__EPS__

__BEGIN__	__EPS__
v	u
n	n
d	d

__BEGIN__	d
u	u

__BEGIN__	__EPS__
s	s
u	oh
n	n

__BEGIN__	__EPS__
i	i
s	s
t	t

__BEGIN__	__EPS__
d	d
a	a
s	ss

__BEGIN__	__EPS__
i	j
u	ü
n	n
g	g
e	e
r	r

__BEGIN__	__EPS__
f	f
u	üh
r	r
t	t
e	e
n	n

__BEGIN__	__EPS__
y	ih
n	n

__BEGIN__	__EPS__
t	t
a	a
g	ge
s	s

__BEGIN__	__EPS__
d	d
i	i
e	e

__BEGIN__	__EPS__
d	d
i	i
r	e
r	s
e	er

__BEGIN__	__EPS__
s	s
e	e
y	i
n	n

__BEGIN__	__EPS__
w	w
i	i
e	e

__BEGIN__	__EPS__
z	z
t	__EPS__
e	ä
r	r
t	t
l	l
e	__EPS__
i	i
c	c
h	h

__BEGIN__	__EPS__
v	ü
i	__EPS__
b	b
e	e
r	r

__BEGIN__	__EPS__
m	m
o	o
c	c
h	h
t	te

__BEGIN__	__EPS__
e	u
e	n
n	d

__BEGIN__	__EPS__
t	t
u	u
e	__EPS__

__BEGIN__	__EPS__
v	u
n	n
d	d

__BEGIN__	__EPS__
m	m
a	a
g	g
d	d
a	a
l	l
e	e
n	n
a	a

__BEGIN__	__EPS__
b	b
y	i
n	n

__BEGIN__	be
s	s
u	o
n	n
d	d
e	e
r	re
n	n

__BEGIN__	__EPS__
a	a
n	n

__BEGIN__	__EPS__
s	s
i	ie

__BEGIN__	__EPS__
d	d
a	a
z	ss

__BEGIN__	__EPS__
h	h
y	i
e	er

__BEGIN__	__EPS__
e	e
i	i
n	n

__BEGIN__	__EPS__
i	ih
n	n

__BEGIN__	__EPS__
s	s
c	c
h	h
r	r
e	i
y	e

__BEGIN__	__EPS__
d	d
a	a
z	ss

__BEGIN__	__EPS__
h	h
a	a
n	be
d	n

__BEGIN__	__EPS__
v	u
n	n
d	d

__BEGIN__	__EPS__
z	z
a	ä
r	r
t	t
l	l
i	i
c	c
h	h

__BEGIN__	__EPS__
w	w
a	a
s	r

__BEGIN__	__EPS__
e	nich
n	t

__BEGIN__	__EPS__
g	g
ü	ö
n	n
d	n
e	e
n	n

__BEGIN__	__EPS__
s	s
p	p
r	r
a	a
c	c
h	h

__BEGIN__	__EPS__
s	__EPS__
a	a
m	ls

__BEGIN__	__EPS__
r	r
o	o
c	c
k	k

__BEGIN__	__EPS__
v	f
r	r
o	a
u	u
w	__EPS__
e	e
n	n

__BEGIN__	__EPS__
s	s
i	i
e	e

__BEGIN__	__EPS__
d	d
i	i
u	u
i	i
s	s
e	e
r	r
u	u
n	n
t	t

__BEGIN__	__EPS__
e	e
r	r
s	s
c	c
h	h
e	e
i	i
n	ne

__BEGIN__	__EPS__
i	i
c	c
h	h

__BEGIN__	__EPS__
g	g
r	r
o	o
s	s
s	s
e	e

__BEGIN__	__EPS__
k	k
i	i
n	n
d	d

__BEGIN__	__EPS__
h	h
e	e
r	r
r	r
e	e
n	n

__BEGIN__	__EPS__
t	t
a	a
g	g

__BEGIN__	__EPS__
c	k
l	l
e	e
i	i
d	d
e	e
r	r

__BEGIN__	__EPS__
b	b
e	e
k	k
a	a
n	nn
t	t

__BEGIN__	__EPS__
i	i
n	n

__BEGIN__	__EPS__
e	e
r	r

__BEGIN__	__EPS__
d	d
o	o
c	c
h	h

__BEGIN__	__EPS__
d	d
u	u

__BEGIN__	__EPS__
m	m
i	i
r	r

__BEGIN__	__EPS__
s	s
p	p
a	a
n	n
n	n
e	e

__BEGIN__	__EPS__
e	e
r	r

__BEGIN__	__EPS__
v	v
o	o
n	n

__BEGIN__	__EPS__
i	i
c	c
h	h

__BEGIN__	__EPS__
d	d
e	e
i	i
n	n

__BEGIN__	__EPS__
i	i
c	c
h	h

__BEGIN__	__EPS__
t	t
r	r
u	ü
b	b
s	s
e	a
y	__EPS__
l	l

__BEGIN__	__EPS__
e	e
r	r

__BEGIN__	__EPS__
k	k
i	i
n	n
d	d

__BEGIN__	__EPS__
i	i
s	s
t	t

__BEGIN__	__EPS__
i	j
u	u
d	d
e	e
n	n

__BEGIN__	__EPS__
d	d
o	a
r	ra
v	u
z	s

__BEGIN__	__EPS__
i	u
n	n
d	d

__BEGIN__	__EPS__
e	ä
n	n
g	g
e	__EPS__
s	s
t	t
e	e
n	n

__BEGIN__	__EPS__
d	d
a	a
s	ss

__BEGIN__	n
i	i
c	c
h	h
t	t

__BEGIN__	__EPS__
e	e
r	r

__BEGIN__	__EPS__
a	a
n	n

__BEGIN__	__EPS__
a	a
u	u
f	f

__BEGIN__	__EPS__
r	r
e	e
d	de

__BEGIN__	__EPS__
s	s
p	p
r	r
a	a
c	c
h	h

__BEGIN__	__EPS__
w	w
o	o
r	r
t	t

__BEGIN__	__EPS__
n	n
a	a
c	c
h	h

__BEGIN__	__EPS__
b	b
e	e
d	d
e	e
c	c
k	k
e	__EPS__
n	t
d	__EPS__

__BEGIN__	__EPS__
e	e
r	r
f	f
v	ü
i	__EPS__
l	l
l	l
e	__EPS__
t	t

__BEGIN__	__EPS__
s	s
o	o
l	ll

__BEGIN__	__EPS__
h	e
e	r

__BEGIN__	__EPS__
d	d
a	a

__BEGIN__	__EPS__
s	s
p	p
r	r
a	a
c	c
h	h

__BEGIN__	__EPS__
m	m
e	e
i	i
n	n

__BEGIN__	__EPS__
i	j
o	o
h	h
a	a
n	n
n	n
e	e
s	s

__BEGIN__	__EPS__
d	d
i	i
e	e

__BEGIN__	__EPS__
a	a
b	b
e	e
r	r

__BEGIN__	__EPS__
v	v
a	a
t	t
e	e
r	r
s	s

__BEGIN__	__EPS__
s	s
p	p
r	r
a	a
e	__EPS__
c	c
h	h
e	e
n	n

__BEGIN__	__EPS__
m	m
i	i
t	t

__BEGIN__	__EPS__
u	a
f	u
f	f

__BEGIN__	__EPS__
m	m
e	e
i	i
n	ne
s	s

__BEGIN__	__EPS__
l	l
e	e
n	n
t	den

__BEGIN__	__EPS__
z	z
w	w
e	e
y	i
e	e
r	r

__BEGIN__	__EPS__
k	k
i	i
n	n
t	d

__BEGIN__	__EPS__
i	j
u	ü
n	n
g	g
e	e
r	r

__BEGIN__	__EPS__
v	v
e	e
r	r
l	l
e	e
n	ih
e	e

__BEGIN__	__EPS__
h	h
o	ö
e	__EPS__
r	r
t	t

__BEGIN__	__EPS__
w	w
e	ä
r	r
e	e

__BEGIN__	__EPS__
h	h
i	i
n	n

__BEGIN__	__EPS__
m	m
i	i
r	r

__BEGIN__	__EPS__
h	h
e	e
r	r
t	__EPS__
z	z
e	e
n	n

__BEGIN__	__EPS__
z	z
v	u
o	__EPS__

__BEGIN__	__EPS__
v	u
n	n
d	d

__BEGIN__	__EPS__
s	s
o	o
e	h
n	n

__BEGIN__	__EPS__
s	s
p	p
r	r
e	e
c	c
h	h
e	e
n	n

__BEGIN__	__EPS__
p	b
l	l
u	u
t	t

__BEGIN__	__EPS__
b	b
e	e
h	h
u	ü
i	__EPS__
t	t
e	e
n	n
d	d

__BEGIN__	__EPS__
s	s
a	as
z	s

__BEGIN__	__EPS__
f	f
u	ü
n	n
f	f

__BEGIN__	__EPS__
d	d
y	ie

__BEGIN__	__EPS__
d	d
e	e
r	r

__BEGIN__	__EPS__
v	u
n	n
d	d

__BEGIN__	__EPS__
s	s
c	c
h	h
r	r
e	e
i	i
b	b
t	t

__BEGIN__	__EPS__
d	d
e	e
n	n

__BEGIN__	__EPS__
g	g
e	e
b	b
o	o
r	re
n	n

__BEGIN__	__EPS__
v	a
y	u
s	__EPS__
s	s
t	__EPS__
z	z
o	o
g	g
e	e
n	n

__BEGIN__	__EPS__
g	g
e	e
h	h
o	ö
i	__EPS__
r	r
t	t

__BEGIN__	__EPS__
h	h
i	i
e	e
r	r

__BEGIN__	__EPS__
d	d
a	a
z	ss

__BEGIN__	__EPS__
z	z
u	u

__BEGIN__	__EPS__
v	u
n	n
d	d

__BEGIN__	__EPS__
v	f
r	r
a	a
e	__EPS__
c	g
h	__EPS__
d	t
e	e

__BEGIN__	__EPS__
v	v
o	o
l	ll

__BEGIN__	__EPS__
s	s
o	oh
n	n

__BEGIN__	__EPS__
i	i
c	c
h	h

__BEGIN__	__EPS__
p	p
y	i
l	l
a	a
t	t
u	u
s	s

__BEGIN__	__EPS__
d	d
e	e
r	r

__BEGIN__	e
v	u
i	ch

__BEGIN__	__EPS__
s	s
p	p
r	r
a	a
c	c
h	h

__BEGIN__	__EPS__
v	ü
i	__EPS__
b	b
e	e
r	r
g	g
o	o
s	s
z	s

__BEGIN__	__EPS__
d	d
o	a

__BEGIN__	__EPS__
d	d
e	e
r	r

__BEGIN__	__EPS__
s	s
p	p
r	r
a	a
c	c
h	h

__BEGIN__	__EPS__
h	h
e	ä
t	t
t	t
e	e

__BEGIN__	__EPS__
w	w
a	ah
r	r
h	h
e	e
i	i
t	t

__BEGIN__	__EPS__
d	d
i	i
e	e

__BEGIN__	__EPS__
i	j
a	a
v	m
m	m
e	e
r	r

__BEGIN__	__EPS__
v	v
o	o
n	n

__BEGIN__	__EPS__
v	f
i	i
e	e
l	l

__BEGIN__	__EPS__
d	d
e	e
n	n

__BEGIN__	__EPS__
d	d
o	a

__BEGIN__	__EPS__
s	s
t	t
u	a
n	n
d	d
e	e
n	n

__BEGIN__	__EPS__
w	w
a	a
s	r

__BEGIN__	__EPS__
g	g
e	e
n	n

__BEGIN__	__EPS__
d	d
i	i
e	e

__BEGIN__	__EPS__
b	b
e	e
h	h
a	a
l	l
t	t
e	e
n	n

__BEGIN__	__EPS__
i	ih
r	r

__BEGIN__	__EPS__
c	k
l	l
a	a
g	g
e	e

__BEGIN__	__EPS__
m	m
e	e
n	n
s	s
c	c
h	h
e	e
n	n

__BEGIN__	__EPS__
w	wu
r	r
d	d
e	e
n	n

__BEGIN__	__EPS__
d	d
a	a
s	s

__BEGIN__	__EPS__
c	__EPS__
z	z
u	u

__BEGIN__	__EPS__
v	u
n	n
d	d

__BEGIN__	__EPS__
a	a
n	n

__BEGIN__	__EPS__
d	d
a	a
s	ss

__BEGIN__	__EPS__
m	m
i	i
t	t

__BEGIN__	__EPS__
v	u
n	n
d	d

__BEGIN__	__EPS__
s	s
e	e
i	i
n	n

__BEGIN__	__EPS__
v	u
n	n
g	g
e	e
z	z
o	o
g	g
e	e
n	n
l	__EPS__
e	__EPS__
i	__EPS__
c	__EPS__
h	__EPS__

__BEGIN__	__EPS__
w	w
a	a
s	r

__BEGIN__	__EPS__
b	b
e	e
w	w
e	e
i	i
z	__EPS__
s	s
e	__EPS__
t	t
e	__EPS__

__BEGIN__	__EPS__
d	d
i	i
e	e

__BEGIN__	__EPS__
a	a
l	l
s	s
o	o

__BEGIN__	__EPS__
a	a
n	n

__BEGIN__	__EPS__
s	s
o	o

__BEGIN__	__EPS__
d	d
o	a

__BEGIN__	__EPS__
u	u
n	n
d	d

__BEGIN__	__EPS__
m	m
e	e
i	i
n	n

__BEGIN__	__EPS__
v	u
n	n
d	d

__BEGIN__	__EPS__
v	f
e	e
l	l
s	s

__BEGIN__	__EPS__
m	m
a	a
n	n

__BEGIN__	__EPS__
a	a
l	l
l	__EPS__
s	s
o	o

__BEGIN__	__EPS__
d	d
o	a

__BEGIN__	__EPS__
i	ih
n	n

__BEGIN__	__EPS__
d	d
i	i
e	e

__BEGIN__	__EPS__
i	j
u	ü
e	__EPS__
n	n
g	g
s	s
t	t
e	e
n	n

__BEGIN__	__EPS__
e	e
r	r

__BEGIN__	__EPS__
c	k
r	r
ü	e
t	u
z	z

__BEGIN__	__EPS__
v	v
o	o
n	n

__BEGIN__	__EPS__
g	g
a	a
n	n
c	__EPS__
z	z

__BEGIN__	__EPS__
d	d
i	i
c	c
h	h

__BEGIN__	__EPS__
i	i
c	ch

__BEGIN__	__EPS__
a	a
n	n
s	s
a	a
c	__EPS__
h	h

__BEGIN__	__EPS__
w	w
o	oh
l	l

__BEGIN__	__EPS__
p	p
y	i
l	l
a	a
t	t
u	u
n	s

__BEGIN__	__EPS__
f	f
r	re
ü	u
n	n
d	d

__BEGIN__	__EPS__
a	a
l	l
s	s
o	o

__BEGIN__	__EPS__
w	w
u	u
r	r
e	__EPS__
d	d
e	e

__BEGIN__	__EPS__
d	d
e	e
n	nn

__BEGIN__	__EPS__
w	w
i	i
e	e

__BEGIN__	__EPS__
d	d
o	a

__BEGIN__	__EPS__
d	d
i	i
e	e

__BEGIN__	__EPS__
d	d
w	u

__BEGIN__	__EPS__
e	e
r	r

__BEGIN__	__EPS__
s	s
p	p
r	r
i	i
c	c
h	h
s	s
t	t

__BEGIN__	__EPS__
l	l
i	i
e	e
b	b
e	e
n	n

__BEGIN__	__EPS__
g	g
r	r
a	a
b	b
e	__EPS__

__BEGIN__	__EPS__
h	h
e	am
m	m
e	e
r	r
s	sch
l	l
e	ä
g	ge

__BEGIN__	__EPS__
s	se
y	i

__BEGIN__	__EPS__
d	d
a	a
r	__EPS__
n	n
a	a
c	c
h	h

__BEGIN__	__EPS__
d	d
a	as
z	s

__BEGIN__	__EPS__
m	me
y	i
n	n

__BEGIN__	__EPS__
d	d
i	i
c	c
h	h

__BEGIN__	__EPS__
k	k
i	i
n	n
t	d

__BEGIN__	__EPS__
a	a
n	n

__BEGIN__	__EPS__
d	d
e	e
m	m

__BEGIN__	__EPS__
t	t
o	o
d	t

__BEGIN__	__EPS__
s	se
y	i
n	n

__BEGIN__	__EPS__
d	d
o	a

__BEGIN__	__EPS__
d	d
o	a

__BEGIN__	__EPS__
g	__EPS__
e	__EPS__
s	s
p	p
r	r
e	e
c	c
h	h
e	e
n	n

__BEGIN__	__EPS__
r	r
o	ä
u	u
b	b
i	e
r	r

__BEGIN__	__EPS__
m	m
e	e
i	i
n	n

__BEGIN__	__EPS__
s	s
t	t
a	ä
t	tte

__BEGIN__	__EPS__
d	d
e	e
r	r

__BEGIN__	__EPS__
l	l
e	e
g	g
t	t
e	e
n	n

__BEGIN__	__EPS__
c	k
r	r
u	e
u	u
s	z
t	t

__BEGIN__	__EPS__
s	sch
w	w
e	e
i	i
c	g
h	e

__BEGIN__	__EPS__
d	d
o	o
c	c
h	h

__BEGIN__	__EPS__
v	u
n	n
d	d

__BEGIN__	__EPS__
s	s
o	o

__BEGIN__	__EPS__
a	e
i	i
n	nz
i	i
g	g
e	e
r	r

__BEGIN__	__EPS__
e	e
r	r

__BEGIN__	__EPS__
s	s
c	c
h	h
a	a
r	r
p	__EPS__
f	f
f	__EPS__

__BEGIN__	__EPS__
v	u
n	n
d	d

__BEGIN__	__EPS__
f	f
a	a
l	l
s	s
c	c
h	h

__BEGIN__	__EPS__
v	u
n	n
d	d

__BEGIN__	__EPS__
m	m
i	i
t	t

__BEGIN__	__EPS__
e	e
r	r
l	l
o	ö
e	__EPS__
s	s
t	t

__BEGIN__	__EPS__
w	w
e	eh
t	t
u	u
e	__EPS__
t	t

__BEGIN__	__EPS__
h	h
e	e
r	r
o	o
d	d
e	e
s	s

__BEGIN__	__EPS__
o	f
u	ü
e	__EPS__
r	r
w	w
a	a
e	h
r	r

__BEGIN__	__EPS__
a	e
i	i
n	n
e	e
n	n

__BEGIN__	__EPS__
d	d
e	e
r	r

__BEGIN__	__EPS__
h	h
i	i
m	mm
e	e
l	l
s	s

__BEGIN__	__EPS__
m	m
a	a
r	r
i	i
a	a

__BEGIN__	__EPS__
d	d
a	a

__BEGIN__	__EPS__
a	a
n	n
s	se
h	l
-	m

__BEGIN__	__EPS__
d	d
o	a

__BEGIN__	__EPS__
v	u
n	n
d	d

__BEGIN__	__EPS__
a	a
l	ll

__BEGIN__	__EPS__
d	d
a	a

__BEGIN__	__EPS__
s	s
e	ä
u	u
e	__EPS__
l	le

__BEGIN__	__EPS__
m	m
e	e
i	i
n	n

__BEGIN__	__EPS__
d	d
a	a
z	s

__BEGIN__	__EPS__
d	d
o	a

__BEGIN__	__EPS__
r	r
e	ä
c	c
h	h
e	e
n	n

__BEGIN__	__EPS__
q	k
u	__EPS__
a	a
m	m

__BEGIN__	__EPS__
d	d
i	i
n	n
u	u
m	m
e	e
r	r
a	a
u	u
e	e
r	r
u	u
n	n
t	t

__BEGIN__	__EPS__
a	a
n	n
s	s
h	__EPS__
e	e
l	l
m	m

__BEGIN__	__EPS__
u	u
n	n
d	d

__BEGIN__	__EPS__
p	p
y	i
l	l
a	a
t	t
u	u
s	s

__BEGIN__	__EPS__
t	t
e	a
t	t
e	e
n	n

__BEGIN__	__EPS__
s	s
t	t
u	a
n	n
d	d

__BEGIN__	__EPS__
m	m
a	a
l	l

__BEGIN__	__EPS__
e	e
r	r
p	b
a	a
r	r
m	m
u	e
n	n
g	__EPS__

__BEGIN__	__EPS__
t	t
r	r
u	ü
e	__EPS__
g	g
s	s
t	t

__BEGIN__	__EPS__
d	d
i	i
e	e

__BEGIN__	__EPS__
d	d
u	u
r	r
c	c
h	h

__BEGIN__	__EPS__
i	i
s	s
t	t

__BEGIN__	__EPS__
s	s
c	c
h	h
i	ie
r	r

__BEGIN__	__EPS__
d	d
o	a

__BEGIN__	__EPS__
w	w
o	a
r	r
d	d

__BEGIN__	__EPS__
s	sch
b	w
e	e
r	r
t	t

__BEGIN__	__EPS__
w	w
e	e
r	r
d	d
e	e
n	n

__BEGIN__	__EPS__
e	e
n	m
p	p
h	f
i	i
e	__EPS__
n	n
g	gs
t	t

__BEGIN__	__EPS__
h	h
e	a
ü	u
b	p
t	t
e	__EPS__

__BEGIN__	__EPS__
m	m
i	i
t	t

__BEGIN__	__EPS__
e	e
r	r

__BEGIN__	__EPS__
w	w
a	a
r	r
t	d

__BEGIN__	__EPS__
h	h
e	e
i	i
l	l
i	i
g	g
i	__EPS__
s	s
t	t
e	e
n	n

__BEGIN__	__EPS__
d	d
r	re
i	i
s	s
s	s
i	i
g	g

__BEGIN__	__EPS__
t	t
r	r
a	a
n	n
k	k

__BEGIN__	__EPS__
m	me
y	i
n	n

__BEGIN__	__EPS__
v	u
n	n
d	d

__BEGIN__	__EPS__
m	m
i	i
c	c
h	h

__BEGIN__	__EPS__
g	g
e	e
s	s
c	c
h	h
a	a
c	__EPS__
h	h

__BEGIN__	__EPS__
v	u
n	n
g	g
e	e
m	m
a	a
c	c
h	h

__BEGIN__	__EPS__
d	d
a	a
s	ss

__BEGIN__	__EPS__
s	s
t	t
a	eh
i	e
n	n

__BEGIN__	__EPS__
i	ih
n	n

__BEGIN__	__EPS__
e	e
s	s
s	s
e	__EPS__
y	i
c	__EPS__
h	g

__BEGIN__	__EPS__
d	d
o	a

__BEGIN__	__EPS__
d	d
a	a

__BEGIN__	__EPS__
g	g
o	o
t	tte
z	s

__BEGIN__	__EPS__
i	i
n	n

__BEGIN__	__EPS__
a	a
n	n
d	d
e	e
r	r
s	s

__BEGIN__	__EPS__
g	g
a	a
l	l
i	i
l	l
e	e
a	a

__BEGIN__	__EPS__
a	a
n	n

__BEGIN__	__EPS__
d	d
e	e
r	r

__BEGIN__	__EPS__
e	e
i	i
n	n

__BEGIN__	__EPS__
d	d
a	a
z	ss

__BEGIN__	__EPS__
g	g
e	e
l	l
a	e
i	g
t	t

__BEGIN__	__EPS__
b	b
e	e
g	g
r	r
o	__EPS__
i	i
f	f
f	f

__BEGIN__	__EPS__
e	e
r	r
t	d
e	__EPS__
r	re
i	i
c	c
h	h
e	e

__BEGIN__	__EPS__
d	d
i	i
e	e

__BEGIN__	__EPS__
v	v
i	i
d	d
e	e

__BEGIN__	__EPS__
v	u
n	n
d	d

__BEGIN__	__EPS__
k	k
i	i
n	n
d	d

__BEGIN__	__EPS__
h	h
e	e
r	rr

__BEGIN__	__EPS__
a	a
l	l
l	l

__BEGIN__	__EPS__
l	le
i	i
c	c
h	h
n	n
a	a
m	m

__BEGIN__	__EPS__
e	e
i	i
n	n

__BEGIN__	__EPS__
f	f
r	r
a	a
u	u

__BEGIN__	__EPS__
m	m
i	i
t	t

__BEGIN__	sc
h	hm
e	e
r	r
t	__EPS__
z	z
e	__EPS__
n	__EPS__
l	__EPS__
a	__EPS__
i	__EPS__
d	__EPS__

__BEGIN__	__EPS__
n	n
i	i
e	e

__BEGIN__	__EPS__
v	v
i	i
l	e
l	l

__BEGIN__	__EPS__
h	h
i	i
n	n
g	g

__BEGIN__	__EPS__
d	d
a	a
r	__EPS__
n	n
a	a
c	c
h	h

__BEGIN__	__EPS__
c	k
a	a
y	i
p	p
h	h
a	a
s	s

__BEGIN__	__EPS__
s	s
a	a
c	__EPS__
h	h

__BEGIN__	__EPS__
f	f
u	ü
r	r

__BEGIN__	__EPS__
m	v
a	__EPS__
n	__EPS__
i	i
g	__EPS__
e	e
n	le

__BEGIN__	__EPS__
v	v
e	e
r	r
g	g
y	i
f	b
f	__EPS__

__BEGIN__	__EPS__
d	d
o	a
e	__EPS__

__BEGIN__	__EPS__
s	s
o	o
u	ll
d	t
e	e

__BEGIN__	__EPS__
h	h
a	a
b	b
e	e
n	n

__BEGIN__	__EPS__
v	u
n	n
d	d

__BEGIN__	__EPS__
a	a
l	l
l	l

__BEGIN__	__EPS__
l	l
e	e
w	u
t	te

__BEGIN__	__EPS__
n	n
i	ich
t	t

__BEGIN__	__EPS__
v	v
e	e
r	r
w	w
u	u
n	nde
t	te
s	s

__BEGIN__	__EPS__
d	d
e	e
m	m

__BEGIN__	__EPS__
m	m
e	eh
r	r

__BEGIN__	__EPS__
m	m
v	ü
t	tt
e	e
r	r
l	l
i	i
c	c
h	h
e	e
n	n

__BEGIN__	__EPS__
n	n
v	un

__BEGIN__	__EPS__
i	ih
m	m

__BEGIN__	__EPS__
m	m
i	i
t	t

__BEGIN__	__EPS__
v	u
n	n
d	d

__BEGIN__	__EPS__
a	a
n	n
d	d
e	e
r	r
e	e

__BEGIN__	__EPS__
e	e
n	m
p	p
h	f
i	i
e	__EPS__
n	n
g	g

__BEGIN__	__EPS__
d	d
a	a
n	n
n	n

__BEGIN__	__EPS__
m	m
e	e
n	n
s	s
h	c
e	h

__BEGIN__	n
e	ich
n	t

__BEGIN__	__EPS__
g	g
u	ü
e	__EPS__
t	t
l	l
i	i
c	c
h	h

__BEGIN__	__EPS__
f	v
i	i
e	e
r	r

__BEGIN__	__EPS__
l	l
a	a
i	__EPS__
s	s
s	s
e	e
n	n

__BEGIN__	__EPS__
l	l
e	e
w	u
t	te

__BEGIN__	__EPS__
g	g
e	e
w	w
a	a
n	n
t	d

__BEGIN__	__EPS__
m	m
o	o
c	c
h	h
t	te

__BEGIN__	__EPS__
d	d
a	a
s	ss

__BEGIN__	__EPS__
d	d
i	i
e	e

__BEGIN__	__EPS__
p	b
l	l
u	u
e	__EPS__
t	t

__BEGIN__	__EPS__
d	d
a	a
s	ss

__BEGIN__	__EPS__
m	m
i	i
t	t

__BEGIN__	__EPS__
w	w
a	a
s	r

__BEGIN__	__EPS__
d	d
i	i
e	e

__BEGIN__	__EPS__
g	g
o	o
t	tt

__BEGIN__	__EPS__
d	d
y	ie

__BEGIN__	__EPS__
k	k
o	ö
n	n
i	i
g	g

__BEGIN__	__EPS__
d	d
o	a

__BEGIN__	__EPS__
a	a
n	n

__BEGIN__	__EPS__
d	d
i	i
e	e

__BEGIN__	__EPS__
k	k
u	ö
e	n
n	i
k	g

__BEGIN__	__EPS__
t	t
e	e
m	m
p	p
e	e
l	l

__BEGIN__	d
ü	u

__BEGIN__	__EPS__
i	i
c	c
h	h

__BEGIN__	__EPS__
i	i
c	c
h	h

__BEGIN__	__EPS__
d	d
e	e
r	r

__BEGIN__	__EPS__
i	i
s	st

__BEGIN__	__EPS__
d	d
i	i
e	e

__BEGIN__	__EPS__
d	d
a	a
s	ss

__BEGIN__	__EPS__
b	b
e	e
i	i
n	n

__BEGIN__	i
e	h
n	n

__BEGIN__	__EPS__
i	i
c	c
h	h

__BEGIN__	__EPS__
i	j
h	__EPS__
e	e
s	s
u	u
n	s

__BEGIN__	__EPS__
w	w
o	oh
l	l

__BEGIN__	__EPS__
k	k
i	i
n	n
t	d

__BEGIN__	__EPS__
a	a
l	l
s	s
o	o

__BEGIN__	__EPS__
s	s
e	ee
l	l
e	e

__BEGIN__	__EPS__
s	s
p	p
r	r
a	a
c	c
h	h

__BEGIN__	__EPS__
s	s
o	o

__BEGIN__	__EPS__
s	s
e	e
r	h
e	r

__BEGIN__	__EPS__
g	g
e	e
t	t
h	__EPS__
u	__EPS__
o	a
n	n

__BEGIN__	__EPS__
w	wi
e	e
d	d
e	e
r	r

__BEGIN__	__EPS__
d	d
a	a

__BEGIN__	__EPS__
a	e
i	i
n	n
e	e
n	n

__BEGIN__	__EPS__
d	d
e	e
n	n
n	n

__BEGIN__	__EPS__
h	h
e	a
t	t

__BEGIN__	__EPS__
p	p
y	i
l	l
a	a
t	t
u	u
s	s

__BEGIN__	__EPS__
e	e
m	m
p	p
f	f
i	i
e	__EPS__
n	n
g	g

__BEGIN__	__EPS__
w	w
a	a
r	r
d	d

__BEGIN__	__EPS__
s	s
i	ie

__BEGIN__	__EPS__
v	u
n	n
d	d

__BEGIN__	__EPS__
d	d
a	as
z	s

__BEGIN__	__EPS__
h	h
e	e
r	r
r	r
e	__EPS__

__BEGIN__	__EPS__
v	v
o	o
n	n

__BEGIN__	__EPS__
d	d
o	o
c	c
h	h

__BEGIN__	__EPS__
r	r
e	e
c	c
h	h
t	t
e	e
n	n

__BEGIN__	__EPS__
a	oh
n	n
e	e

__BEGIN__	__EPS__
p	p
i	i
l	l
a	a
t	t
u	u
s	s

__BEGIN__	__EPS__
m	m
e	e
i	i
n	n

__BEGIN__	__EPS__
s	s
e	e
i	i
n	n

__BEGIN__	__EPS__
g	g
r	r
o	o
s	s
z	s
e	e
n	n

__BEGIN__	__EPS__
s	s
e	e
l	l
b	b
v	e
n	r

__BEGIN__	__EPS__
s	s
t	t
u	a
n	n
d	d
e	e
n	n

__BEGIN__	__EPS__
e	e
r	r

__BEGIN__	__EPS__
g	g
a	a
r	r

__BEGIN__	__EPS__
n	n
u	un

__BEGIN__	__EPS__
i	i
s	s
t	t

__BEGIN__	__EPS__
a	a
n	n
s	s
h	__EPS__
e	e
l	l
m	m
e	__EPS__

__BEGIN__	__EPS__
n	n
a	ah
m	m

__BEGIN__	__EPS__
b	b
i	i
s	s
t	t

__BEGIN__	__EPS__
m	m
i	i
t	t
t	t
e	e
n	n

__BEGIN__	__EPS__
v	u
n	n
d	d

__BEGIN__	__EPS__
c	k
r	r
e	e
u	u
c	__EPS__
z	z

__BEGIN__	__EPS__
d	d
o	a

__BEGIN__	__EPS__
d	d
e	e
m	m

__BEGIN__	__EPS__
a	a
n	n
s	s
h	__EPS__
e	e
l	l
e	__EPS__
m	m

__BEGIN__	__EPS__
s	s
a	a
g	ge

__BEGIN__	__EPS__
s	s
e	e
i	i
n	n

__BEGIN__	__EPS__
m	m
o	o
c	c
h	h
t	te

__BEGIN__	__EPS__
n	n
i	i
e	ch
t	t

__BEGIN__	__EPS__
s	s
e	e
i	i
n	n

__BEGIN__	__EPS__
v	u
n	n
d	d

__BEGIN__	__EPS__
m	m
i	i
e	__EPS__
r	r

__BEGIN__	__EPS__
w	w
e	e
r	r
d	d
e	e
n	n

__BEGIN__	__EPS__
n	n
a	ah
m	m

__BEGIN__	__EPS__
n	n
o	o
i	__EPS__
t	t

__BEGIN__	__EPS__
d	d
o	a

__BEGIN__	__EPS__
e	e
r	r

__BEGIN__	__EPS__
i	i
c	c
h	h

__BEGIN__	__EPS__
m	m
e	e
i	i
n	n

__BEGIN__	__EPS__
d	d
e	e
r	r

__BEGIN__	__EPS__
h	h
e	ä
n	n
d	d
e	e
n	n

__BEGIN__	__EPS__
d	d
e	e
r	r

__BEGIN__	__EPS__
b	b
y	i
s	s
z	t

__BEGIN__	__EPS__
o	o
w	w
e	eh

__BEGIN__	__EPS__
i	u
n	n
d	d

__BEGIN__	__EPS__
p	pf
l	l
a	e
c	gt
h	e

__BEGIN__	__EPS__
d	d
a	as
z	s

__BEGIN__	__EPS__
i	j
a	a
m	mm
e	e
r	r

__BEGIN__	__EPS__
h	h
e	ä
n	n
d	d
e	e
n	n

__BEGIN__	__EPS__
v	u
n	n
d	d

__BEGIN__	__EPS__
n	n
o	a
c	c
h	h

__BEGIN__	__EPS__
m	m
i	i
t	t

__BEGIN__	__EPS__
m	m
o	o
c	c
h	h
t	t
e	e

__BEGIN__	__EPS__
w	w
e	e
y	i
s	s
z	s

__BEGIN__	__EPS__
v	u
n	n
d	d

__BEGIN__	__EPS__
v	u
n	n
d	d

__BEGIN__	__EPS__
d	d
e	e
r	r

__BEGIN__	__EPS__
d	d
e	e
n	n

__BEGIN__	__EPS__
i	i
c	c
h	h

__BEGIN__	__EPS__
v	u
n	n
d	d

__BEGIN__	__EPS__
w	w
o	o
u	l
l	l
t	t

__BEGIN__	__EPS__
i	ih
n	n

__BEGIN__	__EPS__
a	a
l	l
l	l
e	e

__BEGIN__	a
v	u
p	f
e	e
r	r
s	s
t	t
a	eh
i	e
n	n

__BEGIN__	__EPS__
v	u
n	n
d	d

__BEGIN__	__EPS__
m	me
y	i
n	n
e	e
r	r

__BEGIN__	__EPS__
t	t
o	o
d	t

__BEGIN__	__EPS__
d	d
o	a

__BEGIN__	__EPS__
a	a
n	n
t	t
w	w
u	o
r	r
t	t
e	e
n	n

__BEGIN__	__EPS__
v	v
o	o
n	n

__BEGIN__	__EPS__
s	s
i	ie

__BEGIN__	__EPS__
a	a
l	l
s	s

__BEGIN__	__EPS__
z	z
w	u

__BEGIN__	__EPS__
d	d
e	e
n	n

__BEGIN__	__EPS__
w	w
a	a
z	r

__BEGIN__	__EPS__
r	r
a	ä
c	c
h	h
e	e
n	n

__BEGIN__	__EPS__
s	s
p	p
r	r
a	a
c	c
h	h
e	e
n	n

__BEGIN__	__EPS__
d	d
e	e
r	r

__BEGIN__	__EPS__
d	d
i	i
c	c
h	h

__BEGIN__	__EPS__
d	d
e	e
r	r

__BEGIN__	__EPS__
d	d
a	a
s	s

__BEGIN__	__EPS__
v	v
o	o
n	n

__BEGIN__	__EPS__
d	t
o	o
i	__EPS__
t	d

__BEGIN__	__EPS__
i	i
c	c
h	h

__BEGIN__	__EPS__
s	s
e	e
i	i
n	ne

__BEGIN__	__EPS__
d	d
e	e
r	r

__BEGIN__	__EPS__
t	t
u	u
g	g
e	e
n	n
t	t
h	h
a	a
f	f
i	__EPS__
t	t
g	__EPS__
e	e
s	s
t	te

__BEGIN__	__EPS__
d	d
e	e
r	r

__BEGIN__	__EPS__
d	t
e	ä
d	t
e	e

__BEGIN__	__EPS__
u	u
n	n
d	d

__BEGIN__	__EPS__
m	m
e	e
y	i
n	n
e	e
s	s

__BEGIN__	__EPS__
b	b
e	e
s	s
c	ch
r	re
i	i
u	b
e	__EPS__
t	t

__BEGIN__	__EPS__
a	a
n	n

__BEGIN__	__EPS__
s	s
p	p
r	r
a	a
c	c
h	h

__BEGIN__	__EPS__
h	h
a	a
n	be

__BEGIN__	__EPS__
i	i
c	c
h	h

__BEGIN__	__EPS__
s	se
y	i

__BEGIN__	__EPS__
t	t
r	r
o	o
s	s
t	t

__BEGIN__	__EPS__
g	g
e	ege
n	n

__BEGIN__	__EPS__
w	w
a	a
r	r

__BEGIN__	__EPS__
v	u
n	n
d	d

__BEGIN__	__EPS__
a	a
l	l
l	l
e	e
r	r

__BEGIN__	__EPS__
i	ih
m	m

__BEGIN__	__EPS__
v	u
n	n
d	d

__BEGIN__	__EPS__
w	w
o	o
u	l
l	l
t	t

__BEGIN__	__EPS__
e	e
s	s

__BEGIN__	__EPS__
h	h
a	am
m	m
e	e
r	r
s	s
c	c
h	h
l	l
e	ä
g	ge

__BEGIN__	__EPS__
e	e
r	r
t	t
o	öt
e	e
d	__EPS__
t	t

__BEGIN__	__EPS__
a	a
l	l
l	l
e	e

__BEGIN__	__EPS__
l	l
y	ie
b	b
e	e
s	s

__BEGIN__	__EPS__
n	n
o	o
i	__EPS__
t	t

__BEGIN__	__EPS__
e	e
u	u
w	__EPS__
e	e
r	r

__BEGIN__	__EPS__
s	s
e	e
i	i
n	n

__BEGIN__	__EPS__
s	s
t	t
a	a
r	r
c	__EPS__
k	k
e	e

__BEGIN__	__EPS__
m	me
i	i
n	n
e	e
n	n

__BEGIN__	__EPS__
w	w
e	e
r	r
d	d
e	e
n	n

__BEGIN__	__EPS__
g	g
e	e
w	w
a	a
n	n
t	d

__BEGIN__	__EPS__
d	d
y	i
e	e

__BEGIN__	__EPS__
s	s
y	ie

__BEGIN__	__EPS__
d	d
a	a
s	s

__BEGIN__	__EPS__
r	r
e	e
d	d
e	e

__BEGIN__	__EPS__
a	a
l	l
l	l
e	e

__BEGIN__	__EPS__
d	d
o	a

__BEGIN__	__EPS__
d	d
i	i
e	e

__BEGIN__	__EPS__
d	d
a	a

__BEGIN__	__EPS__
r	r
i	i
z	s
s	s
e	e
n	n

__BEGIN__	__EPS__
i	ih
n	n

__BEGIN__	__EPS__
i	i
n	n

__BEGIN__	__EPS__
d	d
i	i
e	e

__BEGIN__	e
i	i
n	n
a	a
n	n
d	d
e	e
r	r

__BEGIN__	__EPS__
i	i
c	c
h	h

__BEGIN__	__EPS__
e	e
r	r

__BEGIN__	__EPS__
m	m
o	o
i	__EPS__
c	c
h	h
t	t
e	e

__BEGIN__	__EPS__
m	m
e	e
i	i
n	n

__BEGIN__	__EPS__
d	d
a	a
s	ss

__BEGIN__	__EPS__
s	s
o	o

__BEGIN__	__EPS__
h	h
e	a
t	tte

__BEGIN__	__EPS__
v	v
o	o
n	n

__BEGIN__	__EPS__
d	d
i	i
e	e

__BEGIN__	__EPS__
m	m
i	i
r	r

__BEGIN__	__EPS__
g	g
e	e
f	f
l	l
o	o
i	__EPS__
s	s
z	s
e	e
n	n

__BEGIN__	__EPS__
g	g
e	e
s	s
c	c
h	h
e	e
h	h
e	e
n	n

__BEGIN__	__EPS__
o	ih
n	n

__BEGIN__	__EPS__
g	ge
s	s
c	c
h	h
l	l
a	e
c	c
h	h
t	t

__BEGIN__	__EPS__
a	a
l	l
l	l
e	e

__BEGIN__	__EPS__
i	i
c	c
h	h

__BEGIN__	__EPS__
i	i
n	n

__BEGIN__	__EPS__
d	d
u	ü
n	n
c	k
h	__EPS__
e	__EPS__
t	t

__BEGIN__	__EPS__
k	k
i	i
n	n
d	d

__BEGIN__	__EPS__
i	i
s	s
t	t

__BEGIN__	__EPS__
e	e
y	i
n	n
e	e
n	n

__BEGIN__	__EPS__
s	se
y	i
n	n
r	e
e	r

__BEGIN__	__EPS__
w	w
e	o
l	ll
t	t

__BEGIN__	__EPS__
d	d
a	a
z	s

__BEGIN__	__EPS__
t	__EPS__
z	z
a	ä
r	r
t	t
l	l
i	i
c	c
h	h

__BEGIN__	__EPS__
w	w
u	u
r	r
d	d
e	e

__BEGIN__	__EPS__
d	d
a	a
t	s

__BEGIN__	__EPS__
v	u
n	n
d	d

__BEGIN__	__EPS__
w	w
e	e
y	i
n	n
e	e
n	n
d	d
e	e

__BEGIN__	__EPS__
d	d
e	e
m	m

__BEGIN__	__EPS__
d	d
o	a
r	r
a	a
n	n

__BEGIN__	__EPS__
w	w
z	ar

__BEGIN__	__EPS__
g	__EPS__
e	__EPS__
z	z
e	e
w	u
g	g
e	e
n	n

__BEGIN__	__EPS__
h	h
e	e
r	r
t	__EPS__
z	z
e	en
l	l
i	i
e	e
u	b
e	e

__BEGIN__	__EPS__
d	d
e	e
i	i
n	n
e	e
n	n

__BEGIN__	__EPS__
m	m
i	i
r	r

__BEGIN__	__EPS__
m	m
i	i
t	t

__BEGIN__	__EPS__
a	a
l	l
s	s
o	o

__BEGIN__	__EPS__
w	w
y	i
r	r

__BEGIN__	__EPS__
v	u
n	n
d	d

__BEGIN__	__EPS__
d	d
y	ie

__BEGIN__	__EPS__
a	a
l	l
s	s
o	o

__BEGIN__	__EPS__
n	n
a	a
z	z
a	a
r	r
e	e
n	__EPS__
u	t
s	h

__BEGIN__	__EPS__
h	h
e	e
y	i
l	li
g	g
e	e
n	n

__BEGIN__	__EPS__
l	l
e	e
i	i
d	d
e	e
n	n

__BEGIN__	__EPS__
a	a
l	l
l	l
e	e

__BEGIN__	__EPS__
v	u
n	n
d	d

__BEGIN__	__EPS__
r	r
e	e
c	c
h	h
t	t

__BEGIN__	__EPS__
g	g
e	e
w	w
a	a
n	n
t	d

__BEGIN__	__EPS__
d	d
i	i
e	e

__BEGIN__	__EPS__
k	k
i	i
n	n
d	d
e	__EPS__

__BEGIN__	__EPS__
v	u
n	n
d	d

__BEGIN__	__EPS__
v	u
n	n
s	s
e	e
r	re
m	m

__BEGIN__	__EPS__
e	e
r	r

__BEGIN__	__EPS__
a	__EPS__
u	o
w	w
e	eh

__BEGIN__	__EPS__
n	n
i	i
c	c
h	h
t	t
s	s

__BEGIN__	__EPS__
v	u
n	n
d	d

__BEGIN__	__EPS__
s	s
v	i
i	e

__BEGIN__	__EPS__
i	j
u	u
d	d
i	e
n	n

__BEGIN__	__EPS__
k	k
i	i
n	n
d	d

__BEGIN__	__EPS__
d	d
e	e
r	r

__BEGIN__	__EPS__
s	s
t	t
u	a
r	r
b	b
e	e
n	n

__BEGIN__	__EPS__
g	g
i	i
n	n
c	__EPS__
k	g

__BEGIN__	__EPS__
m	m
i	i
t	t

__BEGIN__	__EPS__
s	s
y	ie

__BEGIN__	__EPS__
u	ü
b	b
e	e
r	r

__BEGIN__	__EPS__
v	v
i	ie
l	l

__BEGIN__	__EPS__
d	d
e	e
n	n

__BEGIN__	__EPS__
s	s
c	c
h	h
r	r
e	e
i	i
b	b

__BEGIN__	__EPS__
s	s
i	i
n	n
d	d

__BEGIN__	__EPS__
l	l
e	eh
r	r
e	e

__BEGIN__	__EPS__
d	d
a	a
z	s

__BEGIN__	__EPS__
k	k
y	i
n	n
d	d
e	__EPS__

__BEGIN__	__EPS__
i	ih
m	m

__BEGIN__	__EPS__
p	b
y	i
n	n

__BEGIN__	__EPS__
i	i
s	s
t	t

__BEGIN__	__EPS__
k	k
o	ö
n	n
i	i
n	__EPS__
g	g
e	e

__BEGIN__	__EPS__
s	s
y	ie

__BEGIN__	__EPS__
i	j
a	a
c	c
o	o
b	bus

__BEGIN__	__EPS__
s	s
p	p
r	r
a	a
c	c
h	h

__BEGIN__	__EPS__
s	s
a	a
c	c
h	h
e	e
n	n

__BEGIN__	__EPS__
m	m
i	i
c	c
h	h

