__BEGIN__	__EPS__
o	au
p	f

__BEGIN__	__EPS__
v	b
n	i
c	__EPS__
z	s

__BEGIN__	__EPS__
d	d
i	i
e	e

__BEGIN__	__EPS__
s	s
i	i
c	c
h	h

__BEGIN__	__EPS__
a	a
n	n

__BEGIN__	__EPS__
v	v
o	o
n	n

__BEGIN__	__EPS__
e	e
r	r

__BEGIN__	__EPS__
t	t
r	r
o	o
s	s
t	t

__BEGIN__	__EPS__
r	r
e	e
i	i
c	c
h	h
e	e

__BEGIN__	__EPS__
c	ch
r	r
i	i
s	s
t	t
u	u
i	__EPS__
m	s

__BEGIN__	__EPS__
n	n
a	a
h	h
e	e
n	__EPS__
t	__EPS__

__BEGIN__	__EPS__
s	s
o	oh
n	n

__BEGIN__	__EPS__
h	h
e	ä
t	t
t	t
e	e

__BEGIN__	__EPS__
r	r
e	ec
h	h
t	t
e	__EPS__

__BEGIN__	__EPS__
y	ih
m	m

__BEGIN__	__EPS__
n	n
a	a
z	z
a	a
r	r
e	e
t	t
h	h

__BEGIN__	__EPS__
b	b
o	o
i	__EPS__
t	t

__BEGIN__	__EPS__
w	w
a	a
t	s

__BEGIN__	__EPS__
f	v
a	a
t	__EPS__
t	t
e	e
r	r

__BEGIN__	a
v	u
p	f

__BEGIN__	__EPS__
v	f
o	ü
r	r
w	w
a	ah
r	r

__BEGIN__	__EPS__
w	w
a	a
s	r
z	__EPS__

__BEGIN__	__EPS__
d	d
o	a
e	__EPS__

__BEGIN__	__EPS__
v	u
n	n
d	d

__BEGIN__	__EPS__
o	o
s	s
t	t
e	e
r	r
t	t
a	a
g	g

__BEGIN__	__EPS__
n	n
a	a
c	c
h	h

__BEGIN__	__EPS__
d	d
y	ie

__BEGIN__	__EPS__
d	d
y	ie

__BEGIN__	__EPS__
d	d
e	e
r	r

__BEGIN__	__EPS__
s	s
c	c
h	h
e	e
i	i
n	n

__BEGIN__	__EPS__
m	m
i	i
e	__EPS__
r	r

__BEGIN__	__EPS__
s	s
i	i
b	b
i	i

__BEGIN__	__EPS__
a	a
l	l
t	t

__BEGIN__	__EPS__
g	g
a	a
b	b

__BEGIN__	__EPS__
w	w
u	u
n	n
d	d
e	e
n	n

__BEGIN__	__EPS__
a	a
m	m

__BEGIN__	__EPS__
d	d
a	a
s	s

__BEGIN__	__EPS__
a	a
n	n
t	t
l	l
v	__EPS__
i	i
t	t
e	z

__BEGIN__	__EPS__
g	g
v	ö
n	n
n	n
e	e
n	n

__BEGIN__	__EPS__
v	u
n	n
d	d

__BEGIN__	__EPS__
d	d
e	e
m	m

__BEGIN__	__EPS__
m	me
y	i
n	n

__BEGIN__	__EPS__
m	me
i	i
n	n

__BEGIN__	__EPS__
g	g
o	o
t	tt

__BEGIN__	__EPS__
m	m
i	i
t	t

__BEGIN__	__EPS__
m	m
e	e
r	r
k	k
e	e

__BEGIN__	__EPS__
w	w
y	i
r	r

__BEGIN__	__EPS__
a	a
l	l
s	s

__BEGIN__	__EPS__
h	h
a	a
t	t

__BEGIN__	__EPS__
w	w
u	u
r	r
e	__EPS__
d	d
e	e

__BEGIN__	__EPS__
d	d
e	e
n	n

__BEGIN__	__EPS__
a	a
n	n
s	s
e	e
l	l
m	m
i	s

__BEGIN__	__EPS__
i	ih
m	m

__BEGIN__	__EPS__
a	a
l	l
l	l
e	e
i	i
n	n
e	__EPS__

__BEGIN__	__EPS__
n	n
a	a
c	c
h	h

__BEGIN__	__EPS__
v	v
e	e
r	r
r	r
a	a
t	t
e	e
n	n

__BEGIN__	__EPS__
d	d
a	a

__BEGIN__	__EPS__
e	e
r	r

__BEGIN__	__EPS__
h	h
e	a
t	t
t	t
i	e
s	s
t	t

__BEGIN__	__EPS__
r	r
o	o
t	t

__BEGIN__	__EPS__
d	d
o	a

__BEGIN__	__EPS__
v	u
n	n
d	d

__BEGIN__	__EPS__
g	__EPS__
e	__EPS__
s	sch
l	l
u	u
g	g
e	e
n	n

__BEGIN__	__EPS__
t	t
h	h
r	r
o	o
i	__EPS__
n	n

__BEGIN__	__EPS__
e	e
i	i
n	n
a	a
n	n
d	d
e	e
r	r
e	__EPS__
n	__EPS__

__BEGIN__	__EPS__
v	v
o	o
r	r

__BEGIN__	__EPS__
g	g
a	a
r	r

__BEGIN__	__EPS__
s	s
c	c
h	h
u	u
h	h

__BEGIN__	__EPS__
a	a
n	n

__BEGIN__	__EPS__
p	p
y	i
l	l
a	a
t	t
u	u
s	s

__BEGIN__	__EPS__
n	n
i	i
c	c
h	h
t	t

__BEGIN__	__EPS__
t	t
a	a
g	g

__BEGIN__	__EPS__
m	m
e	e
i	i
n	n

__BEGIN__	__EPS__
d	d
o	a

__BEGIN__	__EPS__
n	n
y	i
c	c
h	h
c	t
z	s

__BEGIN__	__EPS__
c	k
h	__EPS__
i	i
n	n
d	d

__BEGIN__	__EPS__
c	k
h	__EPS__
i	i
n	n
d	d

__BEGIN__	__EPS__
g	g
e	e
s	s
e	e
t	t
z	z
t	__EPS__

__BEGIN__	__EPS__
s	se
i	i
n	n
e	e
m	m

__BEGIN__	__EPS__
d	d
a	a
t	s

__BEGIN__	__EPS__
a	a
n	n
s	s
h	__EPS__
e	e
l	l
m	m
u	__EPS__
s	__EPS__

__BEGIN__	__EPS__
s	s
c	ch
e	ä
d	d
e	e
l	l

__BEGIN__	__EPS__
w	w
a	a
n	n
n	n
e	__EPS__

__BEGIN__	__EPS__
i	j
v	u
d	d
e	e
n	n

__BEGIN__	__EPS__
d	d
o	a

__BEGIN__	__EPS__
g	__EPS__
e	__EPS__
s	s
t	t
i	i
l	l
l	l
e	e
n	n

__BEGIN__	__EPS__
d	d
y	ie

__BEGIN__	__EPS__
d	d
i	i
e	e

__BEGIN__	__EPS__
m	m
a	a
n	n

__BEGIN__	__EPS__
d	d
o	a

__BEGIN__	__EPS__
h	h
e	e
r	r
o	o
d	d
e	e
s	s

__BEGIN__	__EPS__
w	w
a	a
r	r
d	d

__BEGIN__	__EPS__
s	s
p	pe
i	i
s	s
t	t
e	e
s	s
t	t

__BEGIN__	__EPS__
i	u
n	n
d	d

__BEGIN__	__EPS__
a	a
n	n

__BEGIN__	__EPS__
v	v
o	o
n	n

__BEGIN__	__EPS__
m	me
y	i
n	n
e	e
s	s

__BEGIN__	__EPS__
g	g
i	i
e	__EPS__
n	n
g	g

__BEGIN__	__EPS__
e	eh
e	e

__BEGIN__	__EPS__
m	m
e	ehr

__BEGIN__	__EPS__
v	u
n	n
d	d

__BEGIN__	__EPS__
m	m
o	u
i	__EPS__
t	t

__BEGIN__	__EPS__
h	h
a	a
d	t
d	t
e	e

__BEGIN__	__EPS__
d	d
a	as
z	s

__BEGIN__	__EPS__
v	u
n	n
d	d

__BEGIN__	__EPS__
v	u
n	n
d	d
e	__EPS__

__BEGIN__	__EPS__
e	e
r	r

__BEGIN__	__EPS__
a	a
v	u
f	f

__BEGIN__	__EPS__
e	a
l	l
l	l
v	__EPS__
i	e

__BEGIN__	__EPS__
v	u
n	n
d	d

__BEGIN__	__EPS__
c	__EPS__
z	ze
u	r
s	sch
n	n
e	e
y	i
d	d
e	e
n	n

__BEGIN__	__EPS__
e	e
i	i
n	n

__BEGIN__	__EPS__
s	s
c	c
h	h
o	ö
n	n
e	e
r	r

__BEGIN__	__EPS__
p	b
e	e
r	r
g	g
e	e
n	n

__BEGIN__	__EPS__
a	a
l	l
l	l
e	e
s	s

__BEGIN__	__EPS__
d	d
a	a
z	s

__BEGIN__	__EPS__
d	t
e	ä
d	t
e	e

__BEGIN__	__EPS__
e	e
r	r
u	b
e	e

__BEGIN__	__EPS__
z	ze
i	i
t	t
t	__EPS__

__BEGIN__	__EPS__
m	m
e	e
n	n
s	s
c	c
h	h
e	__EPS__

__BEGIN__	__EPS__
s	sch
w	w
e	e
r	r
t	t

__BEGIN__	__EPS__
d	d
e	e
n	n

__BEGIN__	__EPS__
e	__EPS__
r	__EPS__
n	n
a	e
i	i
g	g
t	te

__BEGIN__	__EPS__
p	b
l	l
u	u
t	t

__BEGIN__	__EPS__
g	g
e	eh
d	t

__BEGIN__	__EPS__
a	a
n	n

__BEGIN__	__EPS__
w	w
e	ä
r	r
e	e

__BEGIN__	__EPS__
s	s
i	ie

__BEGIN__	__EPS__
h	h
e	ä
t	tte

__BEGIN__	__EPS__
w	w
a	a
s	r

__BEGIN__	__EPS__
d	d
e	e
s	s

__BEGIN__	__EPS__
i	i
u	u
d	d
e	e
o	o
r	r
u	u
m	m

__BEGIN__	__EPS__
m	m
y	i
r	r

__BEGIN__	__EPS__
t	z
z	e
o	r
s	s
t	t
o	o
i	__EPS__
s	s
s	s
e	e
n	n

__BEGIN__	__EPS__
e	e
r	r
t	__EPS__
z	z
o	o
g	g
e	e
n	n

__BEGIN__	__EPS__
h	ha
u	u
s	s

__BEGIN__	__EPS__
a	a
u	u
c	c
h	h

__BEGIN__	__EPS__
w	w
a	a
r	r
t	d

__BEGIN__	__EPS__
m	m
a	o
c	c
h	h
t	t

__BEGIN__	__EPS__
b	b
i	i
s	s
t	t

__BEGIN__	__EPS__
d	d
o	a

__BEGIN__	__EPS__
v	u
n	n
d	d

__BEGIN__	__EPS__
d	d
e	e
n	n

__BEGIN__	__EPS__
w	w
a	a
s	r

__BEGIN__	__EPS__
v	v
o	o
n	n

__BEGIN__	__EPS__
v	u
n	n
d	d
e	__EPS__

__BEGIN__	__EPS__
a	a
n	n

__BEGIN__	__EPS__
t	t
a	a
g	g

__BEGIN__	__EPS__
p	b
a	a
l	l
d	d

__BEGIN__	__EPS__
a	a
n	n
s	s
h	__EPS__
e	e
l	l
m	m
e	__EPS__

__BEGIN__	__EPS__
d	d
i	ie
s	s
e	e
n	n

__BEGIN__	__EPS__
v	u
n	n
d	d

__BEGIN__	__EPS__
i	ih
n	n

__BEGIN__	__EPS__
a	a
n	n

__BEGIN__	__EPS__
v	u
n	n
d	d

__BEGIN__	__EPS__
v	v
u	o
r	r

__BEGIN__	__EPS__
a	a
u	u
d	d
i	i

__BEGIN__	__EPS__
m	m
e	e
i	i
n	n

__BEGIN__	__EPS__
i	i
c	c
h	h

__BEGIN__	__EPS__
v	v
a	o
n	n

__BEGIN__	__EPS__
c	__EPS__
h	k
r	r
e	e
u	u
c	__EPS__
z	z

__BEGIN__	__EPS__
v	u
n	n
d	d

__BEGIN__	__EPS__
s	s
p	p
r	r
a	a
c	c
h	h

__BEGIN__	__EPS__
d	da
z	s

__BEGIN__	__EPS__
v	v
e	e
r	r
l	l
o	o
r	re
n	n

__BEGIN__	__EPS__
s	s
i	i
e	e

__BEGIN__	__EPS__
d	d
u	u

__BEGIN__	__EPS__
w	w
i	i
e	e

__BEGIN__	__EPS__
k	k
r	r
u	e
i	u
c	z
z	i
g	g
o	__EPS__
t	t
t	__EPS__
e	e
n	n

__BEGIN__	__EPS__
v	u
n	n
s	s

__BEGIN__	__EPS__
h	h
e	e
r	r
t	__EPS__
z	z

__BEGIN__	__EPS__
z	z
u	u

__BEGIN__	__EPS__
d	d
e	e
r	r

__BEGIN__	__EPS__
i	j
o	u
d	d
e	e
n	n

__BEGIN__	__EPS__
w	w
a	a
n	nn

__BEGIN__	__EPS__
w	w
a	ah
r	r

__BEGIN__	__EPS__
d	d
o	a

__BEGIN__	__EPS__
m	m
u	u
t	tt
e	e
r	r

__BEGIN__	__EPS__
a	a
l	l
l	l
e	e
r	r

__BEGIN__	__EPS__
l	l
i	i
e	e
b	b

__BEGIN__	__EPS__
s	s
c	c
h	h
e	ä
g	ch
e	e
r	r

__BEGIN__	__EPS__
d	d
i	ie

__BEGIN__	__EPS__
v	v
o	o
n	n

__BEGIN__	__EPS__
k	g
ü	esc
n	h
n	l
e	echt

__BEGIN__	__EPS__
n	n
e	eh
m	m
e	e

__BEGIN__	__EPS__
m	m
i	i
r	r

__BEGIN__	__EPS__
w	w
o	o
n	n
n	n
e	i
c	g
l	l
i	i
c	c
h	h
e	e
r	r

__BEGIN__	__EPS__
d	d
i	i
r	r

__BEGIN__	__EPS__
m	me
y	i
n	ne
s	s

__BEGIN__	__EPS__
d	d
e	e
n	n

__BEGIN__	__EPS__
d	d
e	e
m	m

__BEGIN__	__EPS__
d	d
e	e
n	n

__BEGIN__	__EPS__
s	s
c	c
h	h
u	u
l	l
t	d

__BEGIN__	__EPS__
p	p
e	e
y	i
n	n
s	z
t	t

__BEGIN__	__EPS__
v	u
n	n
d	d

__BEGIN__	__EPS__
v	u
n	n
d	d

__BEGIN__	__EPS__
d	d
e	e
m	m

__BEGIN__	p
s	s
a	a
l	l
t	__EPS__
e	__EPS__
r	m

__BEGIN__	__EPS__
g	g
e	e
f	f
l	l
o	o
g	h
e	e
n	n

__BEGIN__	__EPS__
h	h
a	e
i	i
z	s
z	s
e	__EPS__
t	t

__BEGIN__	__EPS__
g	g
y	i
n	n
k	g

__BEGIN__	__EPS__
d	d
e	e
r	r

__BEGIN__	__EPS__
d	d
e	e
m	m

__BEGIN__	__EPS__
s	s
c	c
h	h
m	m
a	a
c	c
h	h

__BEGIN__	__EPS__
d	d
o	a

__BEGIN__	__EPS__
v	u
n	n
d	d

__BEGIN__	__EPS__
p	b
e	r
n	e
c	c
h	h
e	e
n	n

__BEGIN__	__EPS__
h	h
a	a
s	s
t	t

__BEGIN__	__EPS__
m	m
i	i
t	t

__BEGIN__	__EPS__
a	a
n	n
t	t
w	w
u	o
r	r
t	tete

__BEGIN__	__EPS__
v	u
n	n
s	s
c	c
h	h
u	u
l	l
d	d
i	i
g	g

__BEGIN__	__EPS__
a	a
l	l
d	d
u	u
s	s

__BEGIN__	__EPS__
d	d
a	a
s	ss

__BEGIN__	__EPS__
w	w
e	e
g	g

__BEGIN__	__EPS__
m	m
i	i
t	t

__BEGIN__	__EPS__
v	u
n	n
d	d

__BEGIN__	__EPS__
i	j
h	__EPS__
e	e
r	r
u	u
s	s
a	a
l	l
e	e
m	m

__BEGIN__	__EPS__
a	a
r	r
m	m
e	e
n	n

__BEGIN__	__EPS__
s	sch
w	w
e	e
r	re
n	n

__BEGIN__	__EPS__
i	ih
n	n

__BEGIN__	__EPS__
m	m
e	e
n	n
s	s
c	c
h	h
e	e
n	n

__BEGIN__	__EPS__
p	p
e	e
t	t
e	r
r	us

__BEGIN__	__EPS__
d	d
o	a

__BEGIN__	__EPS__
v	u
n	n
d	d

__BEGIN__	__EPS__
k	k
i	i
n	n
d	d
t	__EPS__

__BEGIN__	__EPS__
s	s
y	ie

__BEGIN__	__EPS__
w	w
i	i
r	r

__BEGIN__	__EPS__
e	e
i	i
n	n

__BEGIN__	__EPS__
s	s
u	o
n	n
d	d
e	e
r	rn

__BEGIN__	__EPS__
d	d
o	a

__BEGIN__	__EPS__
w	w
e	e
m	m

__BEGIN__	__EPS__
d	da
z	ss

__BEGIN__	__EPS__
s	s
e	e
l	l
b	b
i	__EPS__
g	__EPS__
e	e
n	n

__BEGIN__	__EPS__
d	d
i	i
e	e

__BEGIN__	__EPS__
a	a
b	b
z	z
i	ie
h	h
e	e
n	n

__BEGIN__	__EPS__
g	g
e	e
l	l
e	e
i	g
t	t

__BEGIN__	__EPS__
i	ih
n	n

__BEGIN__	__EPS__
r	r
a	e
i	i
n	n
e	e
n	n

__BEGIN__	__EPS__
w	w
i	ie
d	d
e	e
r	r

__BEGIN__	__EPS__
a	a
ü	u
f	f

__BEGIN__	__EPS__
e	e
r	r

__BEGIN__	__EPS__
i	i
c	c
h	h

__BEGIN__	__EPS__
i	j
e	ä
m	m
m	m
e	e
r	r
l	l
i	i
c	c
h	h
e	e
n	s

__BEGIN__	__EPS__
s	s
c	c
h	h
w	w
a	a
m	mm

__BEGIN__	__EPS__
d	d
o	a

__BEGIN__	__EPS__
v	v
o	o
r	r

__BEGIN__	__EPS__
k	k
u	ö
n	n
i	i
g	g

__BEGIN__	__EPS__
s	sch
w	w
a	e
r	r
e	e

__BEGIN__	__EPS__
d	d
e	e
s	s

__BEGIN__	__EPS__
f	f
r	r
e	e
v	u
d	de

__BEGIN__	__EPS__
e	e
r	r
l	l
i	i
t	tt
e	e
n	n

__BEGIN__	__EPS__
w	wi
e	e
d	d
e	e
r	r

__BEGIN__	__EPS__
v	u
n	n
d	d

__BEGIN__	__EPS__
k	k

__BEGIN__	__EPS__
e	e
r	r

__BEGIN__	__EPS__
s	s
c	c
h	h
a	ä
c	c
h	h
e	e
r	r
n	n

__BEGIN__	__EPS__
g	g
e	e
w	w
a	a
l	l
t	t

__BEGIN__	__EPS__
i	i
u	u
d	d
e	e
n	n

__BEGIN__	__EPS__
a	a
n	n

__BEGIN__	__EPS__
e	e
s	s
t	t

__BEGIN__	__EPS__
l	l
i	ie
b	b
e	e

__BEGIN__	__EPS__
d	d
u	u

__BEGIN__	__EPS__
w	w
a	e
i	i
n	n
u	e
n	n
d	d

__BEGIN__	__EPS__
m	me
i	i
n	n
e	e
m	m

__BEGIN__	__EPS__
g	ü
e	b
a	e
n	r
t	g
w	e
u	b
r	e
t	n

__BEGIN__	__EPS__
d	d
e	e
n	n

__BEGIN__	__EPS__
h	__EPS__
e	e
r	r

__BEGIN__	__EPS__
s	s
t	t
v	u
i	__EPS__
n	n
d	d

__BEGIN__	__EPS__
m	m
o	o
c	c
h	h
t	te

__BEGIN__	__EPS__
g	g
e	e
s	s
c	c
h	h
e	e
h	h
e	e
n	n

__BEGIN__	__EPS__
a	a
l	l
l	l
e	e
s	s

__BEGIN__	__EPS__
v	u
n	n
n	d

__BEGIN__	__EPS__
v	u
n	n
d	d

__BEGIN__	__EPS__
s	s
e	e
r	h
e	r

__BEGIN__	__EPS__
w	w
e	e
n	nn

__BEGIN__	__EPS__
v	v
e	e
r	r
s	sch
m	m
e	ä
c	__EPS__
h	h
t	te
n	n

__BEGIN__	__EPS__
b	b
e	e
d	d
e	e
c	c
k	k
e	__EPS__
t	t
e	e

__BEGIN__	__EPS__
m	m
a	a
r	r
i	i
a	a

__BEGIN__	__EPS__
d	d
a	a
r	r
u	u
n	m
b	__EPS__

__BEGIN__	__EPS__
v	u
n	n
d	d

__BEGIN__	__EPS__
z	z
e	u

__BEGIN__	__EPS__
d	d
o	a

__BEGIN__	__EPS__
v	u
n	n
d	d

__BEGIN__	__EPS__
d	d
o	a

__BEGIN__	__EPS__
h	h
u	a
s	u
z	s
e	__EPS__

__BEGIN__	__EPS__
d	d
a	a
r	__EPS__
n	n
a	a
c	c
h	h

__BEGIN__	__EPS__
v	u
n	n
d	d

__BEGIN__	__EPS__
y	ih
m	m

__BEGIN__	__EPS__
s	s
c	c
h	h
r	r
e	e
y	i
g	__EPS__
i	e
n	n

__BEGIN__	__EPS__
s	s
p	p
r	r
a	a
c	c
h	h

__BEGIN__	__EPS__
p	p
y	i
l	l
a	a
t	t
u	u
s	s

__BEGIN__	__EPS__
i	ih
n	n

__BEGIN__	__EPS__
w	w
a	a
r	r
e	e
n	n

__BEGIN__	__EPS__
e	e
r	r

__BEGIN__	__EPS__
m	m
e	eh
r	r

__BEGIN__	i
e	h
n	n

__BEGIN__	__EPS__
g	g
y	i
n	n
g	g
e	e
n	n

__BEGIN__	__EPS__
g	g
e	e
f	f
a	a
n	n
g	g
e	e
n	n

__BEGIN__	__EPS__
m	m
e	e
i	i
n	n

__BEGIN__	__EPS__
v	u
n	n
d	d

__BEGIN__	__EPS__
f	f
u	ü
e	h
r	r
e	e
n	n

__BEGIN__	__EPS__
d	da
z	s

__BEGIN__	__EPS__
v	u
n	n
d	d

__BEGIN__	__EPS__
h	h
e	e
r	rr

__BEGIN__	__EPS__
r	r
a	o
t	t
e	e
s	s

__BEGIN__	__EPS__
v	u
n	n
d	d

__BEGIN__	__EPS__
a	a
n	n
d	d
e	e
r	r
s	s

__BEGIN__	__EPS__
v	u
n	n
d	d

__BEGIN__	__EPS__
h	e
e	r

__BEGIN__	__EPS__
l	l
e	e
i	i
b	b

__BEGIN__	__EPS__
v	v
o	o
n	n

__BEGIN__	__EPS__
z	z
v	u
o	__EPS__

__BEGIN__	__EPS__
m	m
e	e
i	i
n	n

__BEGIN__	__EPS__
m	me
i	i
n	n

__BEGIN__	__EPS__
d	d
a	a
s	s

__BEGIN__	__EPS__
d	da
z	s

__BEGIN__	__EPS__
v	v
a	o
n	n

__BEGIN__	__EPS__
g	g
e	e
s	s
a	a
g	g
t	t

__BEGIN__	__EPS__
h	h
e	a
r	r
t	t
e	__EPS__
n	__EPS__
k	__EPS__
l	__EPS__
i	__EPS__
c	__EPS__
h	__EPS__

__BEGIN__	__EPS__
c	k
h	__EPS__
o	a
m	m

__BEGIN__	__EPS__
d	d
e	e
r	r

__BEGIN__	__EPS__
a	a
u	u
c	c
h	h

__BEGIN__	__EPS__
v	u
n	n
d	d

__BEGIN__	__EPS__
k	k
e	e
i	i
n	ne
r	r
e	__EPS__

__BEGIN__	__EPS__
s	s
c	__EPS__
h	o
o	l
l	l
t	t

__BEGIN__	__EPS__
s	s
c	c
h	h
w	w
e	e
r	r
e	e

__BEGIN__	__EPS__
l	li
e	e
i	g
t	t

__BEGIN__	__EPS__
s	s
c	c
h	h
o	ö
e	__EPS__
n	n
s	s
t	t
e	e

__BEGIN__	__EPS__
d	d
o	a

__BEGIN__	__EPS__
d	d
a	a
s	s

__BEGIN__	__EPS__
d	d
a	a
t	ss

__BEGIN__	__EPS__
h	h
ü	o
p	b

__BEGIN__	__EPS__
w	w
e	e
i	i
s	ss
t	t

__BEGIN__	__EPS__
a	a
l	l
l	l
e	e
n	n

__BEGIN__	__EPS__
z	z
u	u
o	__EPS__

__BEGIN__	__EPS__
g	g
a	eh
e	e
n	n

__BEGIN__	__EPS__
s	s
i	ie

__BEGIN__	__EPS__
m	m
e	e
i	i
n	n

__BEGIN__	__EPS__
i	i
n	n

__BEGIN__	__EPS__
v	v
e	e
r	rur
t	t
a	e
i	i
l	l
e	e
n	n

__BEGIN__	__EPS__
k	k
u	ö
i	n
n	i
g	g
r	re
i	i
c	c
h	h

__BEGIN__	__EPS__
m	m
a	a
g	g
t	d

__BEGIN__	__EPS__
v	u
m	m
e	__EPS__
c	__EPS__
z	z
u	u
c	c
k	k
e	e
n	n

__BEGIN__	__EPS__
v	u
n	n
n	d

__BEGIN__	__EPS__
k	k
i	i
n	n
d	d
t	__EPS__

__BEGIN__	__EPS__
d	d
o	a

__BEGIN__	__EPS__
i	j
a	a
m	mm
e	e
r	r

__BEGIN__	__EPS__
d	d
o	a

__BEGIN__	__EPS__
i	ih
n	n

__BEGIN__	__EPS__
o	o
w	w
e	eh

__BEGIN__	__EPS__
f	f
ü	ü
l	ll
t	t
e	e

__BEGIN__	__EPS__
m	m
a	a
r	r
t	t
e	e
r	r

__BEGIN__	a
v	uft
r	r
l	__EPS__
a	a
u	g
b	__EPS__

__BEGIN__	__EPS__
t	t
r	r
u	u
o	__EPS__
g	g
e	e
n	n
t	__EPS__

__BEGIN__	__EPS__
d	d
o	a

__BEGIN__	__EPS__
c	k
l	l
a	a
g	g
e	e

__BEGIN__	__EPS__
h	h
i	i
e	es
z	s

__BEGIN__	__EPS__
s	s
t	t
u	a
n	n
t	d

__BEGIN__	__EPS__
h	h
a	a
t	t

__BEGIN__	__EPS__
s	s
e	e
r	h
e	r

__BEGIN__	__EPS__
l	l
i	i
e	e
s	s
s	s
e	e
n	n

__BEGIN__	__EPS__
w	w
a	a
r	r
h	h
a	e
i	i
d	__EPS__
t	t

__BEGIN__	__EPS__
w	w
e	ä
r	r
e	e

__BEGIN__	__EPS__
d	d
o	a

__BEGIN__	__EPS__
a	o
b	b
e	__EPS__

__BEGIN__	__EPS__
a	a
n	n

__BEGIN__	__EPS__
m	m
i	i
c	c
h	h

__BEGIN__	__EPS__
l	l
e	e
u	b
e	e
n	n

__BEGIN__	__EPS__
g	g
e	e
n	n
a	a
s	s
z	__EPS__

__BEGIN__	__EPS__
w	w
e	e
i	i
n	n
t	t
e	e
n	n

__BEGIN__	__EPS__
d	d
e	e
m	m

__BEGIN__	__EPS__
n	n
y	i
e	e

__BEGIN__	__EPS__
v	u
n	n
d	d

__BEGIN__	__EPS__
a	a
n	n

__BEGIN__	__EPS__
m	l
i	i
n	e
n	b
i	e
c	__EPS__
l	v
i	o
c	l
h	l
e	e

__BEGIN__	__EPS__
d	d
o	a

__BEGIN__	__EPS__
a	a
n	n
t	t
l	l
u	i
e	__EPS__
c	t
z	z

__BEGIN__	__EPS__
v	u
n	n
d	d

__BEGIN__	__EPS__
p	p
y	i
l	l
a	a
t	t
u	u
s	s

__BEGIN__	__EPS__
k	k
l	l
a	ä
e	__EPS__
g	g
l	l
i	i
c	c
h	h

__BEGIN__	s
g	ch
r	r
i	e
m	c
i	__EPS__
c	k
l	l
i	i
c	c
h	h
e	__EPS__
n	__EPS__

__BEGIN__	__EPS__
w	w
i	ie
d	d
e	e
r	r

__BEGIN__	__EPS__
m	me
i	i
n	n

__BEGIN__	__EPS__
e	e
r	r
d	de

__BEGIN__	__EPS__
y	ih
n	n

__BEGIN__	__EPS__
a	a
u	u
c	c
h	h

__BEGIN__	__EPS__
t	t
o	o
d	d
e	__EPS__

__BEGIN__	__EPS__
w	w
i	i
e	e

__BEGIN__	__EPS__
d	d
i	i
e	e

__BEGIN__	__EPS__
v	u
n	n
d	d

__BEGIN__	__EPS__
e	e
r	r

__BEGIN__	__EPS__
k	k
a	a
u	u
m	m

__BEGIN__	d
u	u

__BEGIN__	__EPS__
s	s
a	o
l	ll
t	t

__BEGIN__	__EPS__
d	d
e	e
s	s

__BEGIN__	__EPS__
d	d
a	a
z	ss

__BEGIN__	__EPS__
d	d
i	i
e	e

__BEGIN__	__EPS__
e	e
r	r
b	b
a	a
r	r
m	m
t	t

__BEGIN__	__EPS__
h	h
e	a
t	t

__BEGIN__	__EPS__
i	ih
n	n

__BEGIN__	__EPS__
e	e
s	s

__BEGIN__	__EPS__
v	u
n	n
d	d

__BEGIN__	__EPS__
d	d
e	e
r	r

__BEGIN__	__EPS__
d	d
e	e
r	r

__BEGIN__	__EPS__
z	z
a	e
i	i
c	c
h	h
e	e
n	n

__BEGIN__	__EPS__
w	w
a	a
s	r

__BEGIN__	__EPS__
g	g
e	e
m	m
a	ac
h	h
t	t

__BEGIN__	__EPS__
d	d
a	a

__BEGIN__	__EPS__
v	u
n	n
s	s
e	e
r	r

__BEGIN__	__EPS__
i	i
c	c
h	h

__BEGIN__	__EPS__
a	a
u	u
f	f
f	__EPS__
g	g
e	e
t	t
a	a
n	n

__BEGIN__	__EPS__
s	s
u	oh
n	n

__BEGIN__	__EPS__
v	u
n	n
d	d

__BEGIN__	__EPS__
m	me
y	i
n	n
e	e

__BEGIN__	__EPS__
s	s
e	e
c	__EPS__
h	h
t	t

__BEGIN__	__EPS__
i	i
c	c
h	h

__BEGIN__	__EPS__
v	u
i	__EPS__
n	n
s	s
e	e
r	re
m	m

__BEGIN__	__EPS__
v	u
n	n
d	d

__BEGIN__	__EPS__
s	s
e	e
l	l
b	b
e	e
r	r

__BEGIN__	__EPS__
a	o
w	w
e	eh

__BEGIN__	__EPS__
v	u
n	n
d	d

__BEGIN__	__EPS__
s	s
i	i
c	c
h	h

__BEGIN__	__EPS__
y	j
a	a

__BEGIN__	__EPS__
l	l
i	i
e	e
s	s
s	s
e	e
n	n

__BEGIN__	__EPS__
c	__EPS__
z	z
a	a
r	r
t	t
e	e
s	s

__BEGIN__	__EPS__
s	s
o	o

__BEGIN__	__EPS__
m	m
i	i
t	t

__BEGIN__	__EPS__
k	k
u	om
m	me

__BEGIN__	__EPS__
w	w
o	o
r	r
t	t

__BEGIN__	__EPS__
v	u
n	n
d	d

__BEGIN__	__EPS__
s	s
e	e
y	i

__BEGIN__	__EPS__
h	h
e	e
r	r
t	__EPS__
z	z
e	e
n	n

__BEGIN__	__EPS__
g	s
r	c
i	h
m	r
e	ec
k	k
l	l
i	i
c	c
h	h

__BEGIN__	d
ü	u

__BEGIN__	__EPS__
n	n
a	a
g	ge
l	l
o	__EPS__
t	t
e	e
n	n

__BEGIN__	__EPS__
d	de
y	i
n	n

__BEGIN__	__EPS__
c	k
h	__EPS__
r	r
e	e
u	u
t	__EPS__
z	z

__BEGIN__	__EPS__
s	s
p	p
r	r
a	a
c	c
h	h

__BEGIN__	__EPS__
d	d
e	e
n	n

__BEGIN__	__EPS__
v	v
o	o
r	r

__BEGIN__	__EPS__
t	t
e	a
t	t

__BEGIN__	__EPS__
i	ih
n	n

__BEGIN__	__EPS__
g	g
e	e
r	r
e	e
c	c
h	h
t	t

__BEGIN__	__EPS__
i	i
n	n

__BEGIN__	__EPS__
v	v
o	o
l	l
c	__EPS__
k	k

__BEGIN__	__EPS__
v	v
e	e
r	r
s	s
c	c
h	h
m	m
a	ä
c	__EPS__
h	h
t	t

__BEGIN__	__EPS__
d	t
e	ä
d	t
e	e

__BEGIN__	__EPS__
h	h
e	a
t	t

__BEGIN__	__EPS__
d	d
a	a

__BEGIN__	__EPS__
g	g
e	e
n	n

__BEGIN__	__EPS__
y	ih
m	m

__BEGIN__	__EPS__
m	m
u	u
t	tt
e	e
r	r

__BEGIN__	__EPS__
w	w
e	ä
r	r
e	e

__BEGIN__	__EPS__
d	d
i	i
e	e

__BEGIN__	__EPS__
i	i
c	ch

__BEGIN__	__EPS__
e	e
r	r

__BEGIN__	__EPS__
b	b
l	l
e	e
i	i
f	b
f	__EPS__

__BEGIN__	a
v	u
f	f

__BEGIN__	__EPS__
v	u
n	n
d	d

__BEGIN__	__EPS__
r	r
a	e
i	i
n	n
e	e

__BEGIN__	__EPS__
g	g
e	e
r	r
n	n

__BEGIN__	__EPS__
n	n
i	i
c	c
h	h
t	t

__BEGIN__	__EPS__
d	d
o	a

__BEGIN__	__EPS__
p	b
e	e
i	i

__BEGIN__	__EPS__
s	s
a	a
n	nk
t	t

__BEGIN__	__EPS__
b	b
i	i
s	s

__BEGIN__	__EPS__
v	v
e	e
r	r
k	k
r	e
e	h
r	r
t	t

__BEGIN__	__EPS__
v	u
n	n
g	g
e	e
t	t
r	r
o	ö
s	s
t	t
e	e
t	t

__BEGIN__	__EPS__
d	d
o	a

__BEGIN__	__EPS__
i	j
u	u
d	d
e	e
n	n

__BEGIN__	__EPS__
s	s
c	c
h	h
r	r
i	i
f	f
t	t

__BEGIN__	__EPS__
m	m
e	eh
r	r
e	e
n	n

__BEGIN__	__EPS__
a	a
n	n
d	d
e	e
r	re

__BEGIN__	__EPS__
z	z
u	u

__BEGIN__	__EPS__
a	a
n	n
s	s
a	a
c	__EPS__
h	h

__BEGIN__	__EPS__
h	h
a	a
s	s
t	t

__BEGIN__	__EPS__
d	d
e	e
n	n

__BEGIN__	__EPS__
i	j
e	ä
m	mm
e	e
r	r
l	l
i	i
c	c
h	h
e	e
n	n

__BEGIN__	__EPS__
i	j
h	__EPS__
e	e
r	r
e	e
m	m
i	i
a	a
s	__EPS__

__BEGIN__	__EPS__
i	i
c	c
h	h

__BEGIN__	__EPS__
r	r
a	an
n	n

__BEGIN__	a
v	u
p	f

__BEGIN__	__EPS__
h	__EPS__
e	e
r	r

__BEGIN__	__EPS__
d	d
i	i
e	e

__BEGIN__	__EPS__
s	s
o	o

__BEGIN__	__EPS__
i	ih
n	n

__BEGIN__	__EPS__
v	u
n	n
d	d

__BEGIN__	__EPS__
i	j
o	o
h	h
a	a
n	n
n	n
e	e
s	s

__BEGIN__	__EPS__
d	de
u	u
c	c
h	h
t	t
e	e

__BEGIN__	__EPS__
p	p
i	i
l	l
a	a
t	t
u	u
s	s

__BEGIN__	__EPS__
d	d
a	a

__BEGIN__	__EPS__
f	f
r	r
a	a
ü	u
w	__EPS__
e	__EPS__

__BEGIN__	__EPS__
a	a
r	r
m	m
e	e
n	n

__BEGIN__	__EPS__
h	h
a	a
n	be

__BEGIN__	__EPS__
v	v
a	o
n	n

__BEGIN__	__EPS__
g	g
a	a
l	l
y	i
l	l
e	e
a	a

__BEGIN__	__EPS__
g	g
a	a
l	l
l	__EPS__
i	i
l	l
e	ä
a	a

__BEGIN__	__EPS__
v	u
n	n
d	d

__BEGIN__	__EPS__
d	d
i	ie
s	s
e	e
u	__EPS__

__BEGIN__	__EPS__
e	e
i	i
n	n
e	e
r	r

__BEGIN__	__EPS__
y	ih
n	n

__BEGIN__	__EPS__
b	b
l	l
e	ei
u	b
e	e
n	n

__BEGIN__	__EPS__
g	g
e	e
s	s
e	e
g	g
e	__EPS__
n	ne
t	t

__BEGIN__	__EPS__
a	e
i	i
g	g
e	e
m	n

__BEGIN__	__EPS__
k	k
r	r
a	o
n	ne

__BEGIN__	__EPS__
g	g
r	r
o	o
z	ss
v	e
n	n

__BEGIN__	__EPS__
s	s
y	i
m	m
e	e
o	o
n	n
i	__EPS__
s	s

__BEGIN__	__EPS__
w	w
a	a
n	n
n	n
e	__EPS__

__BEGIN__	__EPS__
h	h
e	e
r	r
o	a
u	u
z	s

__BEGIN__	__EPS__
d	d
e	e
m	m

__BEGIN__	__EPS__
d	d
i	i
n	n
g	g
h	__EPS__
e	e
n	n

__BEGIN__	__EPS__
i	i
c	c
h	h

__BEGIN__	__EPS__
w	w
i	i
e	e

__BEGIN__	__EPS__
s	sch
l	l
a	a
h	g
e	e
n	n

__BEGIN__	__EPS__
w	w
u	u
n	n
d	d
e	e
n	n

__BEGIN__	__EPS__
s	s
p	p
r	r
i	i
c	c
h	h
t	t

__BEGIN__	__EPS__
w	w
u	u
r	r
d	d
e	e
n	n

__BEGIN__	__EPS__
l	l
i	i
e	e
f	f
f	__EPS__

__BEGIN__	__EPS__
c	__EPS__
z	z
u	u

__BEGIN__	__EPS__
g	g
e	e
t	t
a	a
n	n

__BEGIN__	__EPS__
m	m
a	a
n	n

__BEGIN__	__EPS__
i	i
n	n

__BEGIN__	__EPS__
i	i
c	c
h	h

__BEGIN__	__EPS__
m	m
a	a
n	n

__BEGIN__	__EPS__
d	d
a	a

__BEGIN__	__EPS__
a	a
l	l
l	l
e	e

__BEGIN__	__EPS__
d	d
u	ü
r	r
s	s
t	t
e	e
t	t

__BEGIN__	__EPS__
k	k
o	o
n	nn
t	te

__BEGIN__	__EPS__
c	__EPS__
z	z
u	u
m	m

__BEGIN__	__EPS__
s	s
e	e
i	i
n	n
e	e

__BEGIN__	__EPS__
w	w
i	i
r	r

__BEGIN__	__EPS__
s	s
v	oh
n	n
e	__EPS__

__BEGIN__	__EPS__
h	he
r	r
o	o
d	d
e	e
s	s

__BEGIN__	__EPS__
n	n
u	i
i	ch
t	t

__BEGIN__	__EPS__
r	r
a	e
y	i
n	n
e	__EPS__

__BEGIN__	__EPS__
k	k
i	i
n	n
t	d

__BEGIN__	__EPS__
m	m
e	e
i	i
n	n
e	e
n	m

__BEGIN__	__EPS__
i	j
v	u
d	d
e	e
n	n

__BEGIN__	__EPS__
m	me
y	i
n	n

__BEGIN__	__EPS__
k	k
i	i
n	n
t	d

__BEGIN__	__EPS__
a	a
l	l
l	l
e	e
s	s

__BEGIN__	__EPS__
s	s
e	a
y	g
t	te

__BEGIN__	__EPS__
i	i
c	c
h	h

__BEGIN__	__EPS__
n	n
i	i
c	c
h	h
t	t

__BEGIN__	__EPS__
f	f
u	üh
r	r
t	te

__BEGIN__	__EPS__
d	d
i	i
e	__EPS__
r	r

__BEGIN__	__EPS__
w	w
a	a
s	s

__BEGIN__	__EPS__
d	d
i	i
e	e

__BEGIN__	__EPS__
h	h
e	e
r	r
g	g
e	e
g	g
a	a
n	n
g	g
e	e
n	n

__BEGIN__	__EPS__
r	r
a	a
n	nn

__BEGIN__	__EPS__
h	h
a	a
t	t

__BEGIN__	__EPS__
w	w
i	i
s	s
s	s
e	e
n	n
t	__EPS__

__BEGIN__	__EPS__
a	a
u	u
f	f
f	__EPS__

__BEGIN__	__EPS__
j	j
u	u
d	d
e	e
n	n

__BEGIN__	__EPS__
d	d
a	a

__BEGIN__	__EPS__
s	s
p	p
i	i
e	e
l	l
e	e
n	n

__BEGIN__	__EPS__
m	m
e	e
i	i
n	n
e	e
r	r

__BEGIN__	__EPS__
e	e
r	r

__BEGIN__	__EPS__
m	m
i	i
c	c
h	h

__BEGIN__	__EPS__
h	h
e	a
u	u
b	p
e	__EPS__
t	t

__BEGIN__	__EPS__
e	ei
n	n
e	e
n	n

__BEGIN__	__EPS__
g	g
a	a
r	r

__BEGIN__	__EPS__
d	d
r	r
i	i
t	t
t	t
e	e
n	n

__BEGIN__	__EPS__
p	p
i	i
l	l
a	a
t	t
u	u
s	s

__BEGIN__	__EPS__
m	m
e	e
i	i
n	n

__BEGIN__	__EPS__
v	f
r	r
a	a
e	__EPS__
g	g
e	e
n	n

__BEGIN__	__EPS__
g	g
r	r
o	o
s	s
s	s
e	e
m	m

__BEGIN__	__EPS__
e	e
r	r

__BEGIN__	__EPS__
e	u
n	nd

__BEGIN__	__EPS__
w	w
o	a
r	r
h	h
a	e
i	i
t	t

__BEGIN__	__EPS__
m	m
e	e
n	n
s	s
c	c
h	h
e	e
n	n

__BEGIN__	__EPS__
g	g
e	e
w	w
a	a
l	l
t	t

__BEGIN__	__EPS__
s	s
a	a
c	__EPS__
h	h

__BEGIN__	__EPS__
m	me
i	i
n	n

__BEGIN__	__EPS__
d	d
a	a
n	nn

__BEGIN__	__EPS__
s	s
i	ie

__BEGIN__	__EPS__
b	b
e	__EPS__
l	l
a	e
i	i
b	b

__BEGIN__	__EPS__
s	s
c	c
h	h
r	r
u	__EPS__
w	i
e	e
n	n
d	__EPS__

__BEGIN__	__EPS__
n	n
i	i
c	c
h	h
t	t

__BEGIN__	__EPS__
w	w
a	a
s	r

__BEGIN__	__EPS__
t	t
o	ö
e	__EPS__
t	te
t	t

__BEGIN__	__EPS__
g	g
r	r
o	o
i	__EPS__
s	s
s	s
e	e
r	r

__BEGIN__	__EPS__
b	b
e	e
d	d
e	e
u	u
t	t
e	e
t	t

__BEGIN__	__EPS__
m	m
a	a
l	l
e	__EPS__

__BEGIN__	__EPS__
l	l
e	e
b	be

__BEGIN__	__EPS__
a	e
i	i
n	n

__BEGIN__	__EPS__
i	i
c	c
h	h

__BEGIN__	__EPS__
w	w
u	u
r	r
d	d
e	e
n	n

__BEGIN__	__EPS__
i	j
u	u
d	d
e	e
n	n

__BEGIN__	__EPS__
h	h
a	a
s	s
t	t

__BEGIN__	__EPS__
s	s
y	ie

__BEGIN__	__EPS__
m	m
a	a
r	r
t	t
e	e
r	r

__BEGIN__	__EPS__
g	g
e	e
w	w
a	a
n	n
t	d

__BEGIN__	__EPS__
d	d
a	a
z	ss

__BEGIN__	__EPS__
d	d
o	a
h	h
y	i
n	n

__BEGIN__	__EPS__
n	n
i	i
c	c
h	h
t	t

__BEGIN__	__EPS__
g	g
l	l
e	a
ü	u
b	b
e	e
n	n

__BEGIN__	__EPS__
i	j
o	o
h	h
a	a
n	nn
e	e
s	s

__BEGIN__	__EPS__
d	d
e	e
s	s

__BEGIN__	__EPS__
v	u
n	n
d	d

__BEGIN__	__EPS__
m	m
i	i
r	r

__BEGIN__	__EPS__
i	j
e	äm
m	m
e	e
r	r
l	l
i	i
c	c
h	h
e	e

__BEGIN__	__EPS__
i	i
c	c
h	h

__BEGIN__	__EPS__
d	d
o	a

__BEGIN__	__EPS__
m	m
e	e
n	n
s	s
c	c
h	h

__BEGIN__	__EPS__
n	n
u	un

__BEGIN__	__EPS__
m	m
e	i
d	t
e	__EPS__

__BEGIN__	__EPS__
r	r
i	i
c	c
h	h
t	t
e	e
n	n

__BEGIN__	__EPS__
y	i
m	m

__BEGIN__	__EPS__
v	u
n	n
d	d

__BEGIN__	__EPS__
d	d
y	ie

__BEGIN__	__EPS__
v	v
o	o
n	n

__BEGIN__	__EPS__
h	h
e	e
r	r
n	ni
e	e
d	d
e	e
r	r

__BEGIN__	__EPS__
g	g
e	e
s	s
c	c
h	h
e	e
h	h
e	e
n	n

__BEGIN__	__EPS__
n	n
u	un

__BEGIN__	__EPS__
s	s
e	e
i	i
n	n
e	e

__BEGIN__	__EPS__
p	p
e	e
t	t
r	r
u	u
s	s

__BEGIN__	__EPS__
s	s
e	e
i	i
n	n

__BEGIN__	__EPS__
v	v
e	e
r	r
l	l
o	e
g	u
e	g
n	ne
t	t

__BEGIN__	__EPS__
l	l
i	i
e	e
f	b
f	__EPS__

__BEGIN__	__EPS__
i	ih
n	n

__BEGIN__	__EPS__
i	ih
r	r

__BEGIN__	__EPS__
g	g
e	e
s	s
c	c
h	h
a	a
c	__EPS__
h	h

__BEGIN__	__EPS__
m	m
e	ö
e	c
h	h
t	te

__BEGIN__	__EPS__
l	l
e	e
i	g
t	t
o	e
n	n

__BEGIN__	__EPS__
s	s
o	o

__BEGIN__	__EPS__
d	d
e	e
m	m

__BEGIN__	__EPS__
w	w
a	a
t	s

__BEGIN__	__EPS__
d	d
a	a
r	ra
v	u
z	s

__BEGIN__	__EPS__
d	d
a	a

__BEGIN__	__EPS__
a	a
l	l
s	s
o	o

__BEGIN__	__EPS__
d	d
a	as
s	s

__BEGIN__	__EPS__
s	se
y	i
n	n

__BEGIN__	__EPS__
p	b
e	e
y	i

__BEGIN__	__EPS__
d	d
o	a

__BEGIN__	__EPS__
b	b
l	l
v	u
t	t
e	__EPS__
s	s
t	t
r	r
o	o
p	p
h	f
e	en

__BEGIN__	__EPS__
d	d
o	a

__BEGIN__	__EPS__
w	w
i	i
e	e

__BEGIN__	__EPS__
e	e
w	v
a	a
n	n
g	g
e	e
l	l
i	i
s	s
t	t

__BEGIN__	__EPS__
y	ih
n	n

__BEGIN__	__EPS__
a	a
n	n
d	d
e	e
r	re
n	n

__BEGIN__	__EPS__
d	d
a	a

__BEGIN__	__EPS__
m	m
i	i
c	c
h	h

__BEGIN__	__EPS__
l	l
i	i
e	e
b	b
e	e

__BEGIN__	__EPS__
s	s
i	i
c	c
h	h

__BEGIN__	__EPS__
w	w
o	o
l	ll
t	t

__BEGIN__	__EPS__
d	d
u	u

__BEGIN__	__EPS__
s	s
a	a
c	__EPS__
h	h

__BEGIN__	__EPS__
i	ih
n	n

__BEGIN__	__EPS__
s	s
p	p
r	r
a	a
c	c
h	h

__BEGIN__	__EPS__
d	d
e	e
r	r

__BEGIN__	__EPS__
d	d
o	a

__BEGIN__	__EPS__
a	a
n	n

__BEGIN__	__EPS__
w	w
i	i
l	l
l	l
e	e
n	n

__BEGIN__	__EPS__
t	t
u	u
o	__EPS__
n	n
d	__EPS__

__BEGIN__	__EPS__
d	d
e	e
m	m

__BEGIN__	__EPS__
a	e
i	i
n	n
e	e
n	n

__BEGIN__	__EPS__
h	h
i	i
e	e
z	ss

__BEGIN__	__EPS__
m	m
u	u
t	tt
e	e
r	r

__BEGIN__	__EPS__
d	d
e	e
m	m

__BEGIN__	__EPS__
g	g
e	e
d	d
e	e
n	n
k	ke

__BEGIN__	__EPS__
g	g
i	i
b	b

__BEGIN__	__EPS__
s	s
p	p
r	r
a	a
c	c
h	h

__BEGIN__	__EPS__
v	v
a	a
t	t
e	e
r	r

__BEGIN__	__EPS__
v	u
n	n
d	d

__BEGIN__	__EPS__
k	k
a	a
m	m

__BEGIN__	__EPS__
h	h
a	a
i	b
n	e
t	n

__BEGIN__	__EPS__
w	w
a	a
r	r
d	d
e	__EPS__
n	__EPS__

__BEGIN__	__EPS__
h	h
o	ö
e	__EPS__
r	re

__BEGIN__	__EPS__
p	p
h	ur
e	p
l	ur
l	f
o	ar
l	b
e	en
i	e
n	m

__BEGIN__	__EPS__
v	u
n	n
d	d

__BEGIN__	__EPS__
g	g
r	r
o	o
s	s
z	s

__BEGIN__	__EPS__
s	s
t	t
i	i
e	e
s	ss

__BEGIN__	__EPS__
d	d
e	e
r	r

__BEGIN__	__EPS__
d	d
u	u

__BEGIN__	__EPS__
g	g
e	e
n	n
o	o
m	mm
e	e
n	n

__BEGIN__	__EPS__
s	s
o	o

__BEGIN__	__EPS__
r	r
i	i
c	c
h	h
t	t
e	e
r	r
s	s

__BEGIN__	__EPS__
s	s
o	o

__BEGIN__	__EPS__
m	m
e	e
i	i
n	n

__BEGIN__	__EPS__
d	d
e	e
m	m

__BEGIN__	__EPS__
d	d
a	a

__BEGIN__	__EPS__
m	m
i	i
r	r

__BEGIN__	__EPS__
e	e
i	i
n	n

__BEGIN__	__EPS__
i	ih
m	m

__BEGIN__	__EPS__
g	g
e	e
f	f
u	üh
r	r
t	t

__BEGIN__	__EPS__
r	r
o	oh
r	r

__BEGIN__	__EPS__
d	di
e	e
s	s
e	e
m	m

__BEGIN__	__EPS__
e	u
n	nd

__BEGIN__	__EPS__
i	i
s	st

__BEGIN__	__EPS__
m	m
i	i
c	c
h	h

__BEGIN__	__EPS__
d	d
u	u
r	r
c	c
h	h

__BEGIN__	__EPS__
d	d
i	i
e	e

__BEGIN__	__EPS__
s	s
a	a
c	g
h	e

__BEGIN__	__EPS__
w	w
a	a
t	s

__BEGIN__	__EPS__
a	oh
n	ne

__BEGIN__	__EPS__
d	d
o	a

__BEGIN__	__EPS__
g	g
e	e
h	h
a	a
n	n
g	g
i	e
n	n

__BEGIN__	__EPS__
h	h
e	ät
t	te

__BEGIN__	__EPS__
s	s
c	c
h	h
r	re
i	i
b	b
e	e
n	n

__BEGIN__	__EPS__
c	k
l	l
a	a
g	g
e	__EPS__
t	t

__BEGIN__	__EPS__
w	w
a	a
s	r

__BEGIN__	__EPS__
e	e
r	r
s	s
c	c
h	h
e	__EPS__
i	ie
n	n

__BEGIN__	__EPS__
c	k
r	r
e	e
u	u
c	__EPS__
z	z

__BEGIN__	__EPS__
b	b
e	e
g	g
u	a
n	n
d	n
e	__EPS__

__BEGIN__	__EPS__
s	s
t	t
a	a
i	h
l	l

__BEGIN__	__EPS__
o	o
w	w
e	eh

__BEGIN__	__EPS__
e	e
s	s

__BEGIN__	__EPS__
d	d
a	a
r	r
u	u
m	m
b	__EPS__

__BEGIN__	__EPS__
p	b
u	u
e	__EPS__
c	c
h	h

__BEGIN__	__EPS__
g	g
e	e
n	n
y	i
e	e
s	s
s	s
e	e
n	n

__BEGIN__	__EPS__
d	d
e	e
r	r

__BEGIN__	__EPS__
y	ih
n	n

__BEGIN__	__EPS__
m	m
e	e
i	i
n	n
e	e
r	r

__BEGIN__	__EPS__
a	a
n	n
n	__EPS__

__BEGIN__	__EPS__
s	se
i	i
n	n
e	e
n	n

__BEGIN__	__EPS__
s	s
a	a
g	g
e	e
n	n

__BEGIN__	__EPS__
v	v
o	o
n	n

__BEGIN__	__EPS__
d	t
a	a
g	g
h	__EPS__
e	e
n	n

__BEGIN__	__EPS__
d	d
a	a

__BEGIN__	__EPS__
o	ö
f	f
f	f
e	__EPS__
n	n
e	e
n	n

__BEGIN__	__EPS__
n	n
i	i
c	c
h	h
t	t

__BEGIN__	__EPS__
d	d
o	a

__BEGIN__	__EPS__
m	m
a	a
i	__EPS__
c	c
h	h
t	t
e	e

__BEGIN__	__EPS__
w	w
a	a
s	r

__BEGIN__	__EPS__
v	u
n	n
d	d

__BEGIN__	__EPS__
g	g
e	e
s	s
c	c
h	h
r	r
i	i
e	e
b	b
e	e
n	n

__BEGIN__	__EPS__
d	d
i	i
e	e

__BEGIN__	__EPS__
k	k
i	i
n	n
t	d

__BEGIN__	__EPS__
s	s
i	ich

__BEGIN__	__EPS__
d	d
e	eh
n	n
t	t
e	e
n	n

__BEGIN__	__EPS__
s	s
i	e
e	i
n	n

__BEGIN__	__EPS__
w	w
e	e
r	r
f	__EPS__
f	f
e	e
n	n

__BEGIN__	__EPS__
v	v
o	o
l	l
c	__EPS__
k	k
s	s

__BEGIN__	__EPS__
d	d
e	e
r	r

__BEGIN__	__EPS__
s	sankt

__BEGIN__	__EPS__
s	s
i	i
t	t
z	z
e	e
n	n

__BEGIN__	__EPS__
s	s
p	p
r	r
a	a
c	c
h	h

__BEGIN__	__EPS__
i	j
a	a
m	mm
e	e
r	r

__BEGIN__	__EPS__
y	ih
m	m

__BEGIN__	__EPS__
d	d
v	i
i	e

__BEGIN__	__EPS__
b	b
l	l
u	u
e	__EPS__
t	t
i	i
g	g
e	e
n	n

__BEGIN__	__EPS__
t	__EPS__
z	z
e	ä
n	h
d	n
e	e

__BEGIN__	__EPS__
s	s
e	e
i	i
n	n
e	e
m	m

__BEGIN__	d
u	u

__BEGIN__	__EPS__
e	e
r	r

__BEGIN__	__EPS__
a	a
w	u
s	s

__BEGIN__	__EPS__
p	b
i	i
t	t
t	t
e	e
r	r

__BEGIN__	__EPS__
d	d
e	e
n	n

__BEGIN__	__EPS__
v	v
i	ie
l	l

__BEGIN__	__EPS__
t	t
e	e
m	m
p	p
e	e
l	l

__BEGIN__	__EPS__
s	s
o	o
e	__EPS__

__BEGIN__	__EPS__
s	sch
w	w
e	e
s	s
t	t
e	e
r	r

__BEGIN__	__EPS__
i	i
s	st

__BEGIN__	__EPS__
s	s
e	e
l	l
b	ber

__BEGIN__	__EPS__
s	s
i	e
e	i
n	n
e	e

__BEGIN__	__EPS__
g	g
e	e
m	m
e	e
i	i
n	n
e	e
n	n

__BEGIN__	__EPS__
m	m
i	i
t	t

__BEGIN__	__EPS__
w	w
o	ol
l	l
d	t
e	e

__BEGIN__	__EPS__
e	e
s	s

__BEGIN__	__EPS__
m	m
e	e
i	i
n	n

__BEGIN__	__EPS__
l	l
e	ä
s	s
t	t
e	e
r	r
l	l
i	i
c	c
h	h
e	e
n	n

__BEGIN__	__EPS__
d	d
e	e
s	s

__BEGIN__	__EPS__
m	m
a	a
n	n

__BEGIN__	__EPS__
d	d
a	a

__BEGIN__	__EPS__
s	s
o	o

__BEGIN__	__EPS__
g	g
h	__EPS__
e	e
n	n
a	a
g	g
h	__EPS__
e	e
l	l
t	t

__BEGIN__	__EPS__
v	v
e	e
r	r
d	t
r	r
o	u
i	__EPS__
c	__EPS__
h	g

__BEGIN__	__EPS__
m	m
a	a
l	l
e	__EPS__

__BEGIN__	__EPS__
d	d
o	a
e	__EPS__

__BEGIN__	__EPS__
b	b
i	i
n	n

__BEGIN__	__EPS__
j	i
n	n

__BEGIN__	__EPS__
s	s
a	e
c	t
z	z
t	t
e	e
n	n

__BEGIN__	__EPS__
a	a
n	n

__BEGIN__	__EPS__
d	d
a	a
r	r
a	a
u	u
s	s

__BEGIN__	__EPS__
v	v
e	e
r	r
d	d
e	e
r	r
b	b
e	e
n	n

__BEGIN__	__EPS__
e	e
l	l
e	e
m	m
e	e
n	n
t	t
e	e
n	n

__BEGIN__	__EPS__
n	n
a	a
c	c
h	h
t	t

__BEGIN__	__EPS__
e	e
r	r

__BEGIN__	__EPS__
p	p
y	i
l	l
a	a
t	t
u	u
n	s

__BEGIN__	__EPS__
s	s
a	a
g	g

__BEGIN__	__EPS__
g	g
e	e
s	s
c	c
h	h
r	ri
e	e
b	b
e	e
n	n

__BEGIN__	__EPS__
g	g
e	e
u	b
e	e
n	n

__BEGIN__	__EPS__
d	d
e	e
s	s

__BEGIN__	__EPS__
d	d
i	i
r	r

__BEGIN__	__EPS__
i	i
c	c
h	h

__BEGIN__	__EPS__
g	__EPS__
e	__EPS__
t	t
r	r
o	ö
s	s
t	t
e	e
n	n

__BEGIN__	__EPS__
s	s
c	c
h	h
w	w
e	e
r	r
t	t

__BEGIN__	__EPS__
d	d
i	i
e	e

__BEGIN__	__EPS__
v	u
n	n
d	d
e	__EPS__

__BEGIN__	__EPS__
b	b
l	l
u	u
o	__EPS__
t	t

__BEGIN__	__EPS__
b	b
e	e
r	r
i	i
c	c
h	h
t	tet

__BEGIN__	__EPS__
v	v
o	o
n	n

__BEGIN__	__EPS__
l	l
a	a
n	n
g	g

__BEGIN__	__EPS__
i	j
h	e
-	s
u	u

__BEGIN__	__EPS__
m	m
a	a
n	n

__BEGIN__	__EPS__
g	g
r	rä
u	u
l	l
i	i
c	c
h	h
i	e
n	n

__BEGIN__	__EPS__
w	w
e	eh

__BEGIN__	__EPS__
s	s
o	o

__BEGIN__	__EPS__
d	d
e	e
n	n

__BEGIN__	__EPS__
d	d
u	u

__BEGIN__	__EPS__
c	k
r	r
u	e
y	u
t	__EPS__
z	z
e	e

__BEGIN__	__EPS__
b	be
i	i

__BEGIN__	__EPS__
u	f
i	i
n	n
d	de

__BEGIN__	__EPS__
m	m
e	e
n	n
s	s
c	c
h	h
e	__EPS__

__BEGIN__	__EPS__
w	w
o	oh
l	l

__BEGIN__	__EPS__
t	tat
e	e
s	s
t	t

__BEGIN__	__EPS__
i	j
o	o
h	h
a	a
n	n
n	n
e	e
s	s

__BEGIN__	__EPS__
w	w
a	e
i	i
n	n
t	t

__BEGIN__	__EPS__
m	m
i	i
r	r

__BEGIN__	__EPS__
h	h
o	ö
r	r
t	t
e	e

__BEGIN__	__EPS__
s	s
a	a
s	ss

__BEGIN__	__EPS__
h	h
a	a
n	n
d	d
l	l
u	u
n	n
g	g

__BEGIN__	__EPS__
d	d
y	i
e	e

__BEGIN__	__EPS__
s	s
t	t
u	ü
r	r
b	be

__BEGIN__	__EPS__
d	d
o	a

__BEGIN__	__EPS__
c	__EPS__
z	z
u	u

__BEGIN__	__EPS__
b	b
e	e
d	d
o	u
r	r
f	f
t	t
e	e

__BEGIN__	__EPS__
m	m
e	e
i	i
n	n

__BEGIN__	__EPS__
y	i
m	h
e	m

__BEGIN__	__EPS__
e	nich
n	t

__BEGIN__	__EPS__
s	s
t	t
a	a
t	d
t	t

__BEGIN__	__EPS__
d	d
e	e
h	h
a	e
i	i
n	n

__BEGIN__	__EPS__
g	g
e	e
b	b
e	e

__BEGIN__	__EPS__
v	u
n	n
d	d
e	__EPS__

__BEGIN__	__EPS__
d	d
e	e
m	m

__BEGIN__	__EPS__
t	__EPS__
z	z
o	u
v	v
o	o
r	r
e	__EPS__
n	__EPS__
s	__EPS__

__BEGIN__	__EPS__
v	v
e	e
r	r
d	d
i	i
r	r
b	b
t	t

__BEGIN__	__EPS__
d	d
a	a
s	s

__BEGIN__	__EPS__
f	f
r	r
e	e
v	u
n	n
t	d

__BEGIN__	__EPS__
g	g
e	e
w	w
o	oh
n	n
h	h
a	e
i	i
t	t

__BEGIN__	__EPS__
d	d
e	e
s	s

__BEGIN__	__EPS__
d	d
e	e
i	i
n	n

__BEGIN__	__EPS__
d	d
u	u

__BEGIN__	__EPS__
d	t
r	r
a	ä
h	n
e	e
n	n

__BEGIN__	__EPS__
c	k
r	r
a	a
f	f
t	t

__BEGIN__	__EPS__
d	t
o	ö
e	__EPS__
d	t
e	e
n	n

__BEGIN__	__EPS__
a	a
u	u
c	c
h	h

__BEGIN__	__EPS__
w	w
a	a
n	nn

__BEGIN__	__EPS__
d	d
i	ie
t	s

__BEGIN__	__EPS__
t	t
o	ö
t	d
l	l
i	i
c	c
h	h
e	e
n	n

__BEGIN__	__EPS__
m	me
y	i
n	n
e	e
s	s

__BEGIN__	__EPS__
i	u
n	n
d	d

__BEGIN__	__EPS__
v	v
e	e
r	r
d	d
i	i
r	r
b	b
e	__EPS__
t	t

__BEGIN__	__EPS__
d	d
a	as
s	s

__BEGIN__	__EPS__
v	u
n	n
s	s
e	e
r	r

__BEGIN__	__EPS__
f	f
i	i
n	n
d	de

__BEGIN__	__EPS__
s	sch
w	w
e	e
r	r
t	t

__BEGIN__	__EPS__
s	s
c	c
h	h
r	r
e	e
i	i
b	b
t	t

__BEGIN__	__EPS__
w	w
a	a
z	r

__BEGIN__	__EPS__
z	z
ü	u

__BEGIN__	__EPS__
s	s
p	p
r	r
a	a
c	c
h	h

__BEGIN__	__EPS__
s	s
a	a
l	l
o	o
m	m
o	o
n	n
i	__EPS__
s	s
z	__EPS__

__BEGIN__	__EPS__
n	mi
o	tt
e	a
n	g
c	s
z	z
e	e
y	i
t	t

__BEGIN__	__EPS__
g	g
e	e
i	i
s	s
t	t

__BEGIN__	__EPS__
d	d
y	i
e	e

__BEGIN__	__EPS__
h	h
a	a
b	b
e	e

__BEGIN__	__EPS__
d	d
a	a
s	s

__BEGIN__	__EPS__
m	me
i	i
n	n
e	e
s	s

__BEGIN__	__EPS__
d	d
e	e
n	n

__BEGIN__	__EPS__
i	j
a	a
i	h
r	r

__BEGIN__	__EPS__
b	b
e	e
w	w
e	e
i	i
n	n
e	__EPS__
t	t

__BEGIN__	__EPS__
s	s
p	p
r	r
a	a
c	c
h	h

__BEGIN__	__EPS__
s	s
e	e
x	c
t	h
z	s
e	t
i	e
t	n

__BEGIN__	__EPS__
s	s
p	p
r	r
a	a
c	c
h	h

__BEGIN__	__EPS__
h	__EPS__
e	e
r	r

__BEGIN__	__EPS__
d	d
u	u
r	r
c	c
h	h
s	s
t	t
o	o
c	c
h	h
e	e
n	n

__BEGIN__	__EPS__
s	se
i	i
n	n
e	e
m	m

__BEGIN__	__EPS__
d	d
u	u

__BEGIN__	__EPS__
y	ih
n	n

__BEGIN__	__EPS__
s	s
a	a
c	c
h	h
e	e

__BEGIN__	__EPS__
b	b
e	e
s	s
t	t
a	a
d	tt
e	e
n	n

__BEGIN__	__EPS__
h	h
a	a
i	b
n	e
t	n

__BEGIN__	__EPS__
w	w
a	a
s	r

__BEGIN__	__EPS__
v	v
o	o
r	r

__BEGIN__	__EPS__
t	t
r	r
i	i
n	n
c	__EPS__
k	k
e	e
n	n

__BEGIN__	__EPS__
w	w
a	a
s	s

__BEGIN__	__EPS__
i	i
c	c
h	h

__BEGIN__	__EPS__
i	ih
n	n

__BEGIN__	__EPS__
t	t
a	a
f	f
e	e
l	l

__BEGIN__	__EPS__
m	me
i	i
n	n
e	e
m	m

__BEGIN__	__EPS__
e	e
s	s
z	__EPS__

__BEGIN__	__EPS__
m	m
u	u
n	n
d	d
e	__EPS__

__BEGIN__	__EPS__
d	d
o	a

__BEGIN__	__EPS__
m	m
i	i
t	t

__BEGIN__	__EPS__
w	w
o	o
r	r
t	t

__BEGIN__	__EPS__
m	m
a	a
r	r
i	i
a	a

__BEGIN__	__EPS__
l	la
u	u
t	t

__BEGIN__	__EPS__
a	a
l	l
l	l
e	e
n	n

__BEGIN__	__EPS__
s	s
u	ol
l	l
t	t
e	e

__BEGIN__	__EPS__
i	i
c	c
h	h

__BEGIN__	__EPS__
d	d
e	e
m	m

__BEGIN__	__EPS__
k	k
o	ö
n	n
i	i
g	g

__BEGIN__	__EPS__
p	p
f	f
e	en
n	n
i	i
g	g

__BEGIN__	__EPS__
d	d
a	a

__BEGIN__	__EPS__
l	l
e	e
y	i
p	b

__BEGIN__	__EPS__
d	d
o	a

__BEGIN__	__EPS__
c	k
r	r
u	__EPS__
i	e
t	u
z	z
e	e

__BEGIN__	__EPS__
i	i
c	c
h	h

__BEGIN__	__EPS__
i	i
c	c
h	h

__BEGIN__	__EPS__
s	s
e	eh
r	r

__BEGIN__	__EPS__
i	i
c	c
h	h

__BEGIN__	__EPS__
d	d
e	e
m	m

__BEGIN__	__EPS__
a	a
l	l
s	s
o	o

__BEGIN__	__EPS__
t	t
o	o
d	de
s	s

__BEGIN__	__EPS__
w	w
e	e
r	r
d	d
e	e
n	n
t	__EPS__

__BEGIN__	__EPS__
w	w
a	a
s	r

__BEGIN__	__EPS__
d	d
o	a

__BEGIN__	__EPS__
j	u
e	n
n	d

__BEGIN__	__EPS__
h	h
a	a
d	t
d	t
e	e
n	n

__BEGIN__	__EPS__
h	h
a	a
i	be
n	n

__BEGIN__	__EPS__
v	u
n	n
d	d

__BEGIN__	__EPS__
w	w
e	ä
r	re

__BEGIN__	__EPS__
a	a
l	l
d	d
e	e

__BEGIN__	__EPS__
w	w
o	oh
l	l

__BEGIN__	__EPS__
e	e
s	s

__BEGIN__	__EPS__
n	n
u	un

__BEGIN__	__EPS__
d	d
a	a

__BEGIN__	__EPS__
w	w
e	e
i	i
n	n
t	t

__BEGIN__	__EPS__
l	l
a	e
i	i
t	d

__BEGIN__	__EPS__
v	u
n	n
d	d
e	__EPS__

__BEGIN__	__EPS__
v	f
r	r
a	a
w	u
e	e
n	n

__BEGIN__	__EPS__
m	m
e	e
i	i
n	n
e	e
s	s

__BEGIN__	__EPS__
a	a
l	l
s	s
z	__EPS__

__BEGIN__	__EPS__
m	m
i	i
c	c
h	h

__BEGIN__	__EPS__
h	h
e	ä
d	t
d	t
e	e

__BEGIN__	__EPS__
d	d
o	a

__BEGIN__	__EPS__
m	m
e	e
i	i
n	n

__BEGIN__	__EPS__
v	u
n	n
d	d

__BEGIN__	__EPS__
b	be
i	i

__BEGIN__	__EPS__
d	d
e	e
r	r

__BEGIN__	__EPS__
s	s
p	p
o	o
t	t
t	t
e	e
t	t
e	e
n	n

__BEGIN__	__EPS__
t	t
o	o
t	t

__BEGIN__	__EPS__
d	d
i	i
u	e

__BEGIN__	__EPS__
b	b
l	l
u	u
t	t
e	__EPS__

__BEGIN__	__EPS__
d	de
i	i
n	n
e	e
m	m

__BEGIN__	__EPS__
d	d
i	i
r	r

__BEGIN__	__EPS__
d	d
e	e
r	r

__BEGIN__	__EPS__
i	j
a	a
m	mm
e	e
r	r

__BEGIN__	__EPS__
d	d
e	e
i	i
n	n

__BEGIN__	__EPS__
d	t
a	a
c	__EPS__
h	g

__BEGIN__	__EPS__
e	e
i	i
n	n
e	e
n	n

__BEGIN__	__EPS__
m	m
e	e
i	i
n	n

__BEGIN__	__EPS__
o	ü
b	b
b	__EPS__
e	e
r	r

__BEGIN__	__EPS__
a	a
n	n
x	g
s	s
t	t
e	__EPS__
s	__EPS__

__BEGIN__	__EPS__
a	a
l	l
s	s

__BEGIN__	__EPS__
v	v
e	e
r	r
s	s
t	t
a	eh
i	e
n	n

__BEGIN__	__EPS__
f	f
r	r
a	a
g	g
t	t

__BEGIN__	__EPS__
v	u
n	n
d	d

__BEGIN__	__EPS__
o	a
v	u
g	g
e	e
n	n

__BEGIN__	__EPS__
s	s
i	i
m	m
e	e
o	o
n	n
i	__EPS__
s	s
z	__EPS__

__BEGIN__	__EPS__
d	d
u	u

__BEGIN__	__EPS__
f	f
l	l
e	e
y	i
s	s
s	s
i	i
c	__EPS__
h	g

__BEGIN__	__EPS__
k	k
e	e
i	i
n	n

__BEGIN__	__EPS__
s	s
a	a
n	n
d	kt

__BEGIN__	__EPS__
g	z
e	e
z	__EPS__
v	u
i	__EPS__
g	ge

__BEGIN__	__EPS__
v	u
n	n
v	v
e	e
r	r
s	s
e	eh
r	r
t	t
e	e
s	s

__BEGIN__	__EPS__
n	n
i	i
c	c
h	h
t	t

__BEGIN__	__EPS__
d	d
o	a

__BEGIN__	__EPS__
i	ih
m	m

__BEGIN__	__EPS__
f	f
r	r
ö	öh
l	l
i	i
c	c
h	h

__BEGIN__	__EPS__
g	g
a	a
r	r

__BEGIN__	__EPS__
g	g
e	e
d	d
r	r
e	ä
n	n
g	ge

__BEGIN__	__EPS__
n	n
o	o
t	t

__BEGIN__	__EPS__
e	e
r	r

__BEGIN__	__EPS__
w	w
a	a
s	r

__BEGIN__	__EPS__
s	s
v	ü
n	n
d	d
e	e
n	n

__BEGIN__	__EPS__
m	m
e	e
n	n
s	s
c	c
h	h
h	h
a	e
i	i
t	t

__BEGIN__	__EPS__
m	m
a	a
n	nn

__BEGIN__	__EPS__
h	h
a	abe
n	n

__BEGIN__	__EPS__
l	l
a	ä
u	u
f	f
e	__EPS__
s	s
t	t

__BEGIN__	__EPS__
d	d
a	a
s	s

__BEGIN__	__EPS__
s	s
p	p
r	r
a	a
c	c
h	h

__BEGIN__	__EPS__
v	u
n	n
d	d

__BEGIN__	__EPS__
i	i
s	s
t	t

__BEGIN__	__EPS__
s	s
a	a
c	__EPS__
h	h

__BEGIN__	__EPS__
d	d
e	e
n	n

__BEGIN__	__EPS__
v	u
m	m
b	__EPS__

__BEGIN__	__EPS__
m	m
o	a
l	l

__BEGIN__	__EPS__
h	e
e	r

__BEGIN__	__EPS__
s	w
a	i
m	e

__BEGIN__	__EPS__
m	m
i	i
t	t

__BEGIN__	__EPS__
g	g
e	e
g	g
e	e
b	b
e	e
n	n

__BEGIN__	__EPS__
w	w
e	eh

__BEGIN__	__EPS__
t	t
e	e
m	m
p	pe
l	l

__BEGIN__	__EPS__
v	u
r	r
s	s
a	a
c	c
h	he

__BEGIN__	__EPS__
v	v
e	o
r	r
s	s
p	p
r	r
e	i
c	c
h	h
t	t

__BEGIN__	__EPS__
w	w
i	i
e	e

__BEGIN__	__EPS__
h	h
i	ä
e	t
t	t
e	e
n	n

__BEGIN__	__EPS__
p	b
l	l
u	u
t	t

__BEGIN__	__EPS__
i	e
z	s

__BEGIN__	__EPS__
s	s
p	p
r	r
a	a
c	c
h	h

__BEGIN__	__EPS__
d	d
e	e
r	r

__BEGIN__	__EPS__
t	t
o	o
d	d

__BEGIN__	__EPS__
w	w
e	e
n	n
n	n

__BEGIN__	__EPS__
y	ih
m	m

__BEGIN__	__EPS__
h	h
e	e
r	r
z	zg
e	e
l	l
i	i
e	e
b	bt
e	e

__BEGIN__	__EPS__
s	s
c	c
h	h
w	w
e	e
i	i
g	g

__BEGIN__	__EPS__
y	ih
m	m

__BEGIN__	__EPS__
s	se
y	i
n	n
e	e
n	m

