__BEGIN__	__EPS__
d	d
r	r
a	__EPS__
u	o
w	h
e	__EPS__
t	t
e	e
n	n

__BEGIN__	__EPS__
a	a
n	n
s	s
h	__EPS__
e	e
l	l
m	m
e	__EPS__

__BEGIN__	__EPS__
d	d
e	e
n	n

__BEGIN__	__EPS__
d	d
o	a

__BEGIN__	__EPS__
m	me
y	i
m	n
e	em

__BEGIN__	__EPS__
f	f
r	r
o	a
g	g
t	t

__BEGIN__	__EPS__
d	d
i	i
e	e

__BEGIN__	__EPS__
d	d
a	a
z	s

__BEGIN__	__EPS__
s	s
p	p
r	r
a	a
c	c
h	h

__BEGIN__	__EPS__
d	d
o	a

__BEGIN__	__EPS__
e	e
r	r

__BEGIN__	__EPS__
t	t
a	a
g	g

__BEGIN__	__EPS__
m	m
y	i
t	t

__BEGIN__	__EPS__
s	s
i	ie

__BEGIN__	__EPS__
k	k
i	i
n	n
d	d
e	__EPS__

__BEGIN__	__EPS__
d	d
u	u

__BEGIN__	__EPS__
d	d
a	a

__BEGIN__	__EPS__
e	e
r	r

__BEGIN__	__EPS__
n	n
a	a
t	t
u	u
r	r

__BEGIN__	__EPS__
h	h
a	a
n	be

__BEGIN__	__EPS__
w	w
o	o
e	__EPS__
l	h
l	l

__BEGIN__	__EPS__
v	u
n	n
d	d

__BEGIN__	__EPS__
i	i
c	c
h	h

__BEGIN__	__EPS__
p	p
e	e
t	t
r	r
u	u
s	s

__BEGIN__	__EPS__
h	h
o	o
e	e

__BEGIN__	__EPS__
i	ih
m	m

__BEGIN__	__EPS__
d	d
e	e
m	m

__BEGIN__	__EPS__
d	d
e	e
r	r

__BEGIN__	__EPS__
s	s
o	o

__BEGIN__	__EPS__
d	d
i	i
e	e

__BEGIN__	__EPS__
c	k
r	r
e	e
u	u
c	__EPS__
z	z

__BEGIN__	__EPS__
w	wi
e	e
d	d
e	e
r	r

__BEGIN__	__EPS__
s	s
e	e
l	l
b	b
e	e
r	r

__BEGIN__	__EPS__
v	v
a	o
n	n

__BEGIN__	__EPS__
m	m
a	a
g	g
d	d
a	a
l	l
e	e
n	n
a	a

__BEGIN__	__EPS__
e	e
i	i
n	n

__BEGIN__	__EPS__
v	u
n	n
d	d

__BEGIN__	__EPS__
k	k
i	i
n	n
t	d

__BEGIN__	__EPS__
g	g
h	__EPS__
e	e
u	b
e	e
n	n

__BEGIN__	__EPS__
l	l
e	e
i	i
b	b

__BEGIN__	__EPS__
m	m
e	e
i	i
n	n

__BEGIN__	__EPS__
k	k
a	e
i	i
n	n

__BEGIN__	__EPS__
k	k
y	i
n	n
d	d
e	__EPS__

__BEGIN__	__EPS__
m	m
i	i
c	c
h	h

__BEGIN__	__EPS__
f	f
l	l
e	e
i	i
s	s
c	c
h	h

__BEGIN__	__EPS__
a	a
n	n
t	t
l	l
u	__EPS__
i	i
c	t
z	z

__BEGIN__	__EPS__
s	s
c	c
h	h
m	m
a	ä
c	__EPS__
h	h
l	l
i	i
c	c
h	h

__BEGIN__	__EPS__
m	me
i	i
n	n

__BEGIN__	__EPS__
d	d
i	i
e	e

__BEGIN__	__EPS__
s	sch
n	n
i	e
e	i
d	d
e	e
n	nd
s	e
z	s

__BEGIN__	__EPS__
k	k
i	i
n	n
d	d
e	__EPS__

__BEGIN__	__EPS__
s	s
e	e
i	i
n	n

__BEGIN__	__EPS__
t	t
o	o
d	d
e	e

__BEGIN__	__EPS__
c	__EPS__
z	z
w	w
e	e
n	i

__BEGIN__	__EPS__
d	d
a	a
s	ss

__BEGIN__	__EPS__
z	z
w	u

__BEGIN__	__EPS__
s	s
y	ie

__BEGIN__	__EPS__
w	w
a	a
s	r

__BEGIN__	__EPS__
d	d
r	r
y	e
n	i

__BEGIN__	__EPS__
p	b
e	e
g	g
e	eh
r	r
t	t

__BEGIN__	__EPS__
d	d
a	as
z	s

__BEGIN__	__EPS__
d	d
y	i
e	e

__BEGIN__	__EPS__
w	we
i	i
s	s
s	s
e	e

__BEGIN__	__EPS__
f	f
r	re
u	u
n	n
t	d

__BEGIN__	__EPS__
m	me
y	i
n	n

__BEGIN__	__EPS__
s	s
i	i
e	e

__BEGIN__	__EPS__
s	s
o	o

__BEGIN__	__EPS__
b	b
e	e
g	g
r	r
a	a
u	b
e	e
n	n

__BEGIN__	__EPS__
f	f
r	r
a	a
u	u
w	__EPS__
e	__EPS__

__BEGIN__	__EPS__
l	l
i	i
e	e
b	b
s	s
t	t
e	e
w	__EPS__

__BEGIN__	__EPS__
h	h
e	e
r	r
a	a
b	b

__BEGIN__	__EPS__
s	s
p	p
r	r
a	a
i	__EPS__
c	c
h	h
e	e
n	n

__BEGIN__	__EPS__
i	i
s	s
t	t

__BEGIN__	__EPS__
o	ü
u	b
e	e
r	r

__BEGIN__	__EPS__
a	e
i	i
n	n
e	e
m	m

__BEGIN__	__EPS__
s	s
e	e
i	i
n	n
e	e
r	r

__BEGIN__	__EPS__
s	s
e	eh
r	r
e	__EPS__

__BEGIN__	__EPS__
v	a
y	u
s	__EPS__
s	s

__BEGIN__	__EPS__
d	d
i	ie
s	s
e	e
m	m

__BEGIN__	__EPS__
h	h
e	e
r	r
t	__EPS__
z	z

__BEGIN__	__EPS__
i	i
c	c
h	h

__BEGIN__	__EPS__
e	n
n	icht

__BEGIN__	__EPS__
h	e
e	r

__BEGIN__	__EPS__
g	g
e	e
s	s
c	c
h	h
a	a
c	__EPS__
h	h

__BEGIN__	__EPS__
s	s
t	t
e	e
r	r
b	be

__BEGIN__	__EPS__
g	g
e	e
s	sc
h	h
a	a
c	__EPS__
h	h

__BEGIN__	__EPS__
a	a
n	n

__BEGIN__	__EPS__
s	s
p	p
r	r
a	a
c	c
h	h

__BEGIN__	__EPS__
i	ih
r	r

__BEGIN__	__EPS__
p	b
i	i
t	t
t	t
e	e
r	r
l	l
i	i
c	c
h	h
e	__EPS__
n	__EPS__

__BEGIN__	__EPS__
a	a
n	n
g	g
e	e
s	s
i	i
c	c
h	h
t	t

__BEGIN__	__EPS__
i	ih
m	m

__BEGIN__	__EPS__
o	a
u	u
g	g
i	e
n	n

__BEGIN__	__EPS__
d	d
r	r
e	e
i	i
n	__EPS__

__BEGIN__	__EPS__
v	u
n	n
d	d

__BEGIN__	__EPS__
k	k
o	o
m	mm
e	e

__BEGIN__	__EPS__
p	p
y	i
l	l
a	a
t	tu
o	s

__BEGIN__	__EPS__
w	w
a	a
r	r
d	d

__BEGIN__	__EPS__
d	d
a	a

__BEGIN__	__EPS__
a	a
u	u
s	s

__BEGIN__	__EPS__
v	u
n	n
d	d

__BEGIN__	__EPS__
w	w
e	e
i	i
b	b

__BEGIN__	__EPS__
h	h
e	a
t	t
t	t
e	e
n	n

__BEGIN__	__EPS__
v	f
i	i
n	n
g	g

__BEGIN__	__EPS__
d	d
e	e
r	r

__BEGIN__	__EPS__
k	k
i	i
n	n
t	d

__BEGIN__	__EPS__
a	a
n	n

__BEGIN__	__EPS__
i	i
n	n

__BEGIN__	__EPS__
d	d
o	a

__BEGIN__	__EPS__
s	s
o	o

__BEGIN__	__EPS__
a	a
n	n
d	d
e	e
r	re
n	n

__BEGIN__	__EPS__
n	n
i	i
c	c
h	h
t	t

__BEGIN__	__EPS__
g	g
r	r
o	o
s	s
z	s
e	e
n	n

__BEGIN__	__EPS__
w	w
a	a
s	r

__BEGIN__	__EPS__
m	m
i	i
c	c
h	h

__BEGIN__	__EPS__
s	se
y	i
m	n
e	e

__BEGIN__	__EPS__
s	s
a	a
n	nk
t	t

__BEGIN__	__EPS__
d	da
z	ss

__BEGIN__	__EPS__
m	m
i	i
r	r

__BEGIN__	__EPS__
m	m
y	e
r	r
c	__EPS__
k	k
e	e
n	n

__BEGIN__	__EPS__
d	da
z	s

__BEGIN__	__EPS__
d	d
e	e
m	m

__BEGIN__	__EPS__
a	a
l	l
s	s

__BEGIN__	__EPS__
b	b
r	r
v	u
n	n
n	n
e	e
n	n

__BEGIN__	__EPS__
d	d
o	a

__BEGIN__	__EPS__
m	m
a	a
r	r
i	i
a	a

__BEGIN__	__EPS__
m	m
a	a
g	g
d	d
a	a
l	l
e	e
n	n
a	a

__BEGIN__	__EPS__
c	k
l	l
e	e
i	i
t	d

__BEGIN__	__EPS__
d	d
a	a
t	s

__BEGIN__	__EPS__
w	w
a	a
s	r

__BEGIN__	__EPS__
d	d
o	a

__BEGIN__	__EPS__
m	m
a	a
c	c
h	h
e	e

__BEGIN__	__EPS__
d	d
u	u

__BEGIN__	__EPS__
ü	ü
b	b
e	e
r	r

__BEGIN__	__EPS__
w	w
a	a
r	r
h	h
a	e
i	i
t	t

__BEGIN__	__EPS__
k	k
i	i
n	n
d	d
e	e
s	s
z	__EPS__

__BEGIN__	__EPS__
w	w
i	i
e	e

__BEGIN__	__EPS__
n	n
i	i
c	c
h	h
t	t

__BEGIN__	__EPS__
m	m
e	e
i	i
n	n

__BEGIN__	__EPS__
d	d
a	a
r	r

__BEGIN__	__EPS__
s	s
o	o

__BEGIN__	__EPS__
l	l
a	a
s	s
s	s
e	e
n	n

__BEGIN__	__EPS__
h	h
e	ö
l	l
l	l
e	e

__BEGIN__	__EPS__
g	g
a	a
n	n
c	g
h	__EPS__

__BEGIN__	__EPS__
t	__EPS__
z	z
o	u
v	v
o	o
r	r
e	__EPS__
n	__EPS__
s	__EPS__

__BEGIN__	__EPS__
d	d
v	u

__BEGIN__	__EPS__
t	t
e	a
t	t
e	e
n	n

__BEGIN__	__EPS__
m	m
e	e
n	n
s	s
c	c
h	h
e	e
n	n

__BEGIN__	__EPS__
g	g
e	e
t	t
r	r
a	a
g	g
e	e
n	n

__BEGIN__	__EPS__
s	s
p	p
r	r
a	a
c	c
h	h

__BEGIN__	__EPS__
e	e
r	r

__BEGIN__	__EPS__
s	s
c	c
h	h
u	u
l	l
d	d
e	e
n	n

__BEGIN__	__EPS__
i	j
e	ä
m	mm
e	e
r	r
l	l
i	i
c	c
h	h
e	e
n	n

__BEGIN__	__EPS__
d	d
a	a
m	m
i	i
t	t

__BEGIN__	__EPS__
v	u
n	n
d	d
e	__EPS__

__BEGIN__	__EPS__
d	d
e	e
m	m

__BEGIN__	__EPS__
t	t
r	r
u	e
w	u
e	e
n	__EPS__

__BEGIN__	__EPS__
a	a
n	n
s	s
h	__EPS__
e	e
l	l
m	m
e	__EPS__

__BEGIN__	__EPS__
d	d
a	a
z	s

__BEGIN__	__EPS__
d	d
a	as
s	s

__BEGIN__	__EPS__
d	t
o	o
r	r
e	__EPS__

__BEGIN__	__EPS__
w	wu
n	n
d	d
a	e
n	n

__BEGIN__	__EPS__
z	z
w	w
e	e
n	i

__BEGIN__	__EPS__
n	n
w	u
e	n

__BEGIN__	__EPS__
i	i
c	c
h	h

__BEGIN__	__EPS__
a	a
l	ll

__BEGIN__	__EPS__
b	b
a	a
d	t
e	e
n	n

__BEGIN__	__EPS__
c	__EPS__
z	z
u	u

__BEGIN__	__EPS__
z	z
a	a
r	r
t	t
e	e
s	s

__BEGIN__	__EPS__
d	d
y	i
r	r

__BEGIN__	a
v	u
p	f

__BEGIN__	__EPS__
e	e
r	r
g	g
i	i
e	__EPS__
n	n
g	g

__BEGIN__	__EPS__
e	e
r	r

__BEGIN__	__EPS__
c	k
r	r
u	e
c	u
e	z

__BEGIN__	__EPS__
d	d
e	e
s	s

__BEGIN__	__EPS__
l	l
a	a
m	m
b	m
e	__EPS__

__BEGIN__	__EPS__
v	u
n	n
d	d

__BEGIN__	__EPS__
d	d
a	a

__BEGIN__	__EPS__
m	m
o	o
c	c
h	h
t	te

__BEGIN__	__EPS__
w	w
e	e
r	r
d	d
e	e
n	n

__BEGIN__	__EPS__
m	m
i	i
r	r

__BEGIN__	__EPS__
v	u
n	n
d	d

__BEGIN__	__EPS__
s	s
t	t
a	ä
t	t
t	te

__BEGIN__	__EPS__
d	d
o	a

__BEGIN__	__EPS__
r	r
i	i
c	c
h	h
t	t
e	e
r	r

__BEGIN__	__EPS__
s	s
o	o

__BEGIN__	__EPS__
m	m
i	i
c	c
h	h

__BEGIN__	__EPS__
g	g
r	r
o	o
s	s
s	s
e	e
e	m
t	__EPS__

__BEGIN__	__EPS__
v	v
e	e
r	r
l	l
o	e
g	u
e	g
n	ne
t	t

__BEGIN__	__EPS__
t	z
z	e
o	r
r	r
i	i
s	s
s	s
e	e
n	n

__BEGIN__	__EPS__
m	m
a	a
c	c
h	h
t	t
e	e

__BEGIN__	__EPS__
s	s
t	t
e	e
i	i
n	n
e	e

__BEGIN__	__EPS__
r	r
e	e
i	i
c	c
h	h

__BEGIN__	__EPS__
w	w
e	e
r	r

__BEGIN__	__EPS__
s	s
c	c
h	h
u	u
l	l
d	d
i	i
g	g

__BEGIN__	__EPS__
d	d
a	ahi
r	n

__BEGIN__	__EPS__
e	e
r	r

__BEGIN__	__EPS__
z	z
u	u
o	__EPS__

__BEGIN__	__EPS__
d	d
e	e
r	r

__BEGIN__	__EPS__
t	t
a	a
t	t
e	e
n	n

__BEGIN__	__EPS__
a	a
l	l
l	l
e	e
n	n

__BEGIN__	__EPS__
v	u
n	n
n	d

__BEGIN__	__EPS__
w	w
a	e
i	i
n	n
e	e
n	n
d	d
e	e
n	n

__BEGIN__	__EPS__
f	f
i	i
e	e
l	l

__BEGIN__	__EPS__
g	g
a	i
n	n
g	g

__BEGIN__	__EPS__
g	g
e	e
w	w
a	a
n	n
t	d

__BEGIN__	__EPS__
d	d
a	a
s	s

__BEGIN__	__EPS__
h	h
a	a
s	s
t	t

__BEGIN__	__EPS__
m	m
u	u
s	s
z	s

__BEGIN__	__EPS__
s	se
y	i
m	n
e	em

__BEGIN__	__EPS__
d	d
a	as
z	s

__BEGIN__	__EPS__
g	t
e	a
t	t
e	es
t	t
e	__EPS__

__BEGIN__	__EPS__
d	d
a	a
s	s

__BEGIN__	__EPS__
w	w
e	e
l	l
i	__EPS__
c	c
h	h

__BEGIN__	__EPS__
s	s
y	i
m	m
e	e
o	o
n	n
i	__EPS__
s	s

__BEGIN__	__EPS__
h	h
e	e
r	rr
e	e
n	n

__BEGIN__	__EPS__
i	ih
r	r

__BEGIN__	__EPS__
d	d
o	a

__BEGIN__	__EPS__
a	a
n	n
d	d
e	e
r	r
e	e
n	n

__BEGIN__	__EPS__
a	a
l	l
s	s

__BEGIN__	__EPS__
v	u
n	n
d	d

__BEGIN__	__EPS__
r	r
e	ec
h	h
t	t
e	e
n	n

__BEGIN__	__EPS__
m	m
i	i
t	t
t	__EPS__

__BEGIN__	__EPS__
w	w
e	a
s	s

__BEGIN__	__EPS__
w	w
a	a
r	r
t	d

__BEGIN__	__EPS__
d	d
e	e
m	m

__BEGIN__	__EPS__
d	t
r	r
i	i
n	n
c	__EPS__
k	k
e	e
n	n

__BEGIN__	__EPS__
d	d
a	a
s	ss

__BEGIN__	__EPS__
a	a
n	n
s	s
h	__EPS__
e	e
l	l
m	m
e	__EPS__

__BEGIN__	__EPS__
t	t
r	r
u	u
o	__EPS__
g	g

__BEGIN__	__EPS__
w	w
a	o
i	h
l	l

__BEGIN__	__EPS__
s	s
v	i
i	e

__BEGIN__	__EPS__
h	__EPS__
e	e
r	r

__BEGIN__	__EPS__
z	s
e	__EPS__
r	p
c	__EPS__
h	a
l	lt
u	e
b	t
e	e
n	n

__BEGIN__	__EPS__
s	s
o	oh
n	n

__BEGIN__	__EPS__
r	r
e	e
i	i
c	c
h	h

__BEGIN__	__EPS__
a	a
n	n
s	s
e	e
l	l
m	m
e	__EPS__

__BEGIN__	__EPS__
d	d
e	e
n	n

__BEGIN__	__EPS__
s	s
t	t
e	e
i	i
n	n
e	e

__BEGIN__	__EPS__
v	u
n	n
d	d

__BEGIN__	__EPS__
g	g
e	e
s	s
t	t
o	o
r	r
u	b
e	e
n	n

__BEGIN__	__EPS__
s	s
a	o
l	ll

__BEGIN__	__EPS__
i	i
n	n

__BEGIN__	__EPS__
e	e
r	r

__BEGIN__	__EPS__
a	a
b	b
e	e
r	r

__BEGIN__	__EPS__
w	w
e	ah
r	r
l	l
i	i
c	c
h	h

__BEGIN__	__EPS__
s	s
a	o
l	ll
t	t

__BEGIN__	__EPS__
s	se
y	i
d	t
e	e

__BEGIN__	__EPS__
c	__EPS__
z	z
u	u

__BEGIN__	__EPS__
h	h
e	e
r	r
z	z
e	e
l	l
e	e
i	i
t	d

__BEGIN__	__EPS__
d	d
o	a
r	__EPS__
n	n
a	a
c	c
h	h

__BEGIN__	__EPS__
i	ih
m	m

__BEGIN__	d
u	u

__BEGIN__	__EPS__
v	v
e	e
r	r
n	n
o	o
m	mm
e	e
n	n

__BEGIN__	__EPS__
w	w
e	e
m	m

__BEGIN__	__EPS__
n	n
i	ic
h	h
t	t

__BEGIN__	__EPS__
o	ü
b	b
b	__EPS__
e	e
r	r

__BEGIN__	__EPS__
d	d
a	a

__BEGIN__	__EPS__
d	d
a	as
z	s

__BEGIN__	__EPS__
l	l
i	ie
b	b
e	e
r	r

__BEGIN__	__EPS__
s	se
y	i
n	n
e	e
n	n

__BEGIN__	__EPS__
g	g
a	i
n	n
g	g

__BEGIN__	__EPS__
a	a
m	m
e	e
n	n

__BEGIN__	__EPS__
b	b
e	e
k	k
a	an
n	n
t	t

__BEGIN__	__EPS__
g	g
e	e
w	w
a	a
n	n
t	d
h	__EPS__

__BEGIN__	__EPS__
m	m
e	e
i	i
n	n
e	e
s	s

__BEGIN__	__EPS__
d	d
a	a
i	__EPS__
r	__EPS__
v	f
u	ü
r	r

__BEGIN__	__EPS__
p	b
i	i
n	n

__BEGIN__	__EPS__
g	g
r	r
o	o
s	s
s	s
e	e
n	n

__BEGIN__	__EPS__
f	f
r	r
o	ö
e	h
l	l
e	__EPS__
i	i
c	c
h	h

__BEGIN__	__EPS__
w	w
e	e
n	n

__BEGIN__	__EPS__
b	b
e	e
d	t
r	r
o	ü
e	__EPS__
f	b
f	__EPS__
d	t
e	e
n	n

__BEGIN__	__EPS__
v	v
i	ie
l	l

__BEGIN__	__EPS__
e	e
r	r

__BEGIN__	__EPS__
d	d
e	e
n	n

__BEGIN__	__EPS__
d	d
a	a
r	r
v	u
m	m
b	__EPS__

__BEGIN__	__EPS__
t	t
e	e
i	i
l	l

__BEGIN__	__EPS__
s	se
i	i
n	n

__BEGIN__	__EPS__
s	s
t	t
i	i
e	e
z	ss

__BEGIN__	__EPS__
i	ih
m	m

__BEGIN__	__EPS__
g	g
e	e
w	w
e	e
s	s
e	e
n	n

__BEGIN__	__EPS__
n	n
i	i
c	c
h	h
t	t

__BEGIN__	__EPS__
m	m
i	i
c	c
h	h
i	i

__BEGIN__	__EPS__
i	i
s	s
t	t

__BEGIN__	__EPS__
s	s
i	i
j	e

__BEGIN__	__EPS__
p	b
a	a
t	t

__BEGIN__	__EPS__
n	n
i	ich
t	t

__BEGIN__	__EPS__
b	b
i	i
s	s

__BEGIN__	__EPS__
s	s
w	ch
a	w
i	e
r	r
e	e

__BEGIN__	__EPS__
m	m
i	i
c	c
h	h

__BEGIN__	__EPS__
n	n
o	o
c	c
h	h

__BEGIN__	__EPS__
d	d
i	i
e	e

__BEGIN__	__EPS__
e	e
r	r

__BEGIN__	__EPS__
g	g
r	r
o	o
s	s
s	s
e	e
m	m

__BEGIN__	__EPS__
w	w
i	i
z	s
z	s
e	__EPS__
t	t

__BEGIN__	d
u	u

__BEGIN__	__EPS__
k	k
r	r
a	a
f	f
f	__EPS__
t	t

__BEGIN__	__EPS__
d	d
e	e
r	r

__BEGIN__	__EPS__
e	e
r	r

__BEGIN__	__EPS__
d	d
a	a
s	s

__BEGIN__	__EPS__
m	m
i	i
c	c
h	h

__BEGIN__	__EPS__
h	h
a	a
n	n
t	d

__BEGIN__	__EPS__
i	ih
r	r

__BEGIN__	__EPS__
d	d
o	a

__BEGIN__	__EPS__
j	jesu
s	s

__BEGIN__	__EPS__
s	s
c	c
h	h
o	ö
n	n
e	e

__BEGIN__	__EPS__
b	b
e	e
r	r
i	i
c	c
h	h
t	t
e	e

__BEGIN__	__EPS__
r	r
e	e
c	c
h	h
t	t
e	e
r	r

__BEGIN__	__EPS__
b	b
e	e
r	r
i	i
c	c
h	h
t	t
e	e

__BEGIN__	__EPS__
s	s
o	oh
n	n
e	__EPS__

__BEGIN__	__EPS__
v	v
o	o
r	r

__BEGIN__	__EPS__
i	i
c	c
h	h

__BEGIN__	__EPS__
d	d
a	a
z	s

__BEGIN__	__EPS__
d	d
e	e
s	s

__BEGIN__	a
v	u
f	f
s	s
a	e
t	t
t	z
e	e
n	n
t	__EPS__

__BEGIN__	__EPS__
f	f
u	ü
e	h
r	r
t	t

__BEGIN__	__EPS__
s	sch
l	l
e	e
i	i
f	f
f	__EPS__
t	t

__BEGIN__	__EPS__
a	a
l	l
l	l
e	e
s	s

__BEGIN__	__EPS__
n	n
e	eh
m	m
t	t

__BEGIN__	__EPS__
e	e
t	t

__BEGIN__	__EPS__
v	v
o	o
n	n

__BEGIN__	__EPS__
m	m
o	u
e	s
t	s

__BEGIN__	__EPS__
v	u
n	n
d	d

__BEGIN__	__EPS__
g	g
e	e
s	s
e	eh
y	e
n	n

__BEGIN__	__EPS__
d	d
e	e
n	n

__BEGIN__	__EPS__
a	a
l	l
l	l
e	e

__BEGIN__	__EPS__
e	i
m	h
e	m

__BEGIN__	__EPS__
l	l
u	i
c	n
h	k
t	__EPS__
e	e
r	r

__BEGIN__	__EPS__
n	n
a	ah
m	m
e	e
n	n

__BEGIN__	n
i	i
c	c
h	h
t	t

__BEGIN__	__EPS__
d	d
a	a

__BEGIN__	__EPS__
p	b
u	a
n	n
d	d
e	e
n	n

__BEGIN__	__EPS__
d	d
e	e
z	shalb

__BEGIN__	__EPS__
n	ni
e	e
d	d
e	e
r	r

__BEGIN__	__EPS__
w	w
a	a
r	re
n	n

__BEGIN__	__EPS__
i	i
c	c
h	h

__BEGIN__	__EPS__
d	d
o	a

__BEGIN__	__EPS__
w	w
i	i
e	e

__BEGIN__	__EPS__
v	u
n	n
d	d

__BEGIN__	__EPS__
d	d
o	a

__BEGIN__	__EPS__
d	d
a	a
r	r

__BEGIN__	__EPS__
s	sch
w	w
e	e
r	r
t	t

__BEGIN__	__EPS__
l	l
i	i
e	e
s	s
s	s
e	e
n	n

__BEGIN__	__EPS__
k	k
i	i
n	n
d	de
s	s

__BEGIN__	__EPS__
d	d
i	i
r	r

__BEGIN__	__EPS__
m	m
i	i
t	t

__BEGIN__	__EPS__
a	a
b	b
e	__EPS__

__BEGIN__	__EPS__
d	d
a	a
s	s

__BEGIN__	__EPS__
d	d
a	a
e	r
a	a
f	b
f	__EPS__

__BEGIN__	__EPS__
e	e
n	n
d	de

__BEGIN__	__EPS__
s	s
v	i
i	e

__BEGIN__	__EPS__
h	h
a	ä
n	n
d	d
e	e
n	n

__BEGIN__	__EPS__
i	ih
n	n

__BEGIN__	__EPS__
u	u
n	n
d	d

__BEGIN__	__EPS__
s	s
a	a
n	n
c	k
t	t
e	__EPS__

__BEGIN__	__EPS__
e	e
i	i
n	n

__BEGIN__	__EPS__
d	d
i	i
e	e

__BEGIN__	__EPS__
v	v
o	e
r	r
d	d
e	e
l	c
g	k
e	e
n	n

__BEGIN__	__EPS__
d	d
e	e
i	i
n	n
e	e

__BEGIN__	__EPS__
i	i
n	n
n	n
e	e

__BEGIN__	__EPS__
d	d
e	e
i	i
n	n
e	e
n	m

__BEGIN__	__EPS__
d	d
a	a
n	n
e	n

__BEGIN__	__EPS__
s	s
p	p
r	r
e	e
c	c
h	h
e	e
n	n

__BEGIN__	__EPS__
s	s
i	i
c	c
h	h

__BEGIN__	__EPS__
h	h
a	a
w	u
s	s

__BEGIN__	__EPS__
n	n
i	i
c	c
h	h
t	t

__BEGIN__	__EPS__
i	ih
n	n

__BEGIN__	__EPS__
y	ih
n	n

__BEGIN__	__EPS__
d	d
y	ie

__BEGIN__	__EPS__
w	w
a	a
n	n
t	de

__BEGIN__	__EPS__
h	h
i	i
e	e
s	ss

__BEGIN__	__EPS__
m	m
e	e
i	i
n	n

__BEGIN__	__EPS__
g	g
r	r
o	o
s	ss
e	e
r	r

__BEGIN__	__EPS__
d	d
e	e
n	n

__BEGIN__	__EPS__
d	d
e	i
w	e

__BEGIN__	__EPS__
d	d
a	a

__BEGIN__	__EPS__
a	a
u	u
f	f
f	__EPS__

__BEGIN__	__EPS__
d	d
i	i
e	e

__BEGIN__	__EPS__
s	s
a	a
g	g
t	t
e	e
n	n

__BEGIN__	__EPS__
t	t
u	u
n	n

__BEGIN__	__EPS__
c	k
h	__EPS__
i	i
n	n
d	d

__BEGIN__	__EPS__
l	l
a	a
v	s
s	s

__BEGIN__	__EPS__
a	e
i	i
n	n

__BEGIN__	__EPS__
y	ih
r	r
e	e

__BEGIN__	__EPS__
w	w
e	e
r	r
d	d
e	e
n	n
t	__EPS__

__BEGIN__	__EPS__
s	s
o	o
l	ll
t	t

__BEGIN__	__EPS__
v	u
n	n
d	d

__BEGIN__	__EPS__
s	s
p	p
r	r
i	i
c	c
h	h
s	s
t	t

__BEGIN__	__EPS__
b	b
i	i
z	s

__BEGIN__	__EPS__
d	d
a	a
t	ss

__BEGIN__	__EPS__
d	d
o	a

__BEGIN__	__EPS__
h	h
e	ä
t	tte

__BEGIN__	__EPS__
s	s
u	o
l	l
l	l
e	__EPS__
t	t

__BEGIN__	__EPS__
d	d
a	a
s	s

__BEGIN__	__EPS__
k	k
i	i
n	n
t	d

__BEGIN__	__EPS__
d	d
i	i
r	r

__BEGIN__	__EPS__
d	d
a	a
r	__EPS__
n	n
a	a
c	c
h	h

__BEGIN__	__EPS__
t	t
r	r
e	ä
h	n
e	e
n	n

__BEGIN__	__EPS__
d	d
a	a
s	s

__BEGIN__	__EPS__
v	a
f	u
f	f

__BEGIN__	__EPS__
v	u
n	n
d	d

__BEGIN__	__EPS__
g	g
i	i
e	__EPS__
n	n
g	g

__BEGIN__	__EPS__
s	s
c	c
h	h
a	a
f	f
f	f
e	e
n	n

__BEGIN__	__EPS__
w	w
u	u
r	r
d	de

__BEGIN__	__EPS__
e	e
r	r

__BEGIN__	__EPS__
m	m
y	e
n	n
s	s
c	c
h	h
e	e
n	n

__BEGIN__	__EPS__
m	m
i	i
r	r

__BEGIN__	__EPS__
w	w
e	e
h	h

__BEGIN__	__EPS__
w	w
a	a
n	nn

__BEGIN__	__EPS__
z	z
a	ä
r	r
t	t
l	l
i	i
c	c
h	h

__BEGIN__	__EPS__
m	m
a	a
r	r
t	t
e	e
r	r

__BEGIN__	__EPS__
i	i
c	c
h	h

__BEGIN__	__EPS__
w	w
a	a
r	r
d	d

__BEGIN__	__EPS__
a	a
n	n
n	n
a	a
s	s

__BEGIN__	__EPS__
g	g
e	e
n	n
a	a
g	g
e	e
l	l
t	t

__BEGIN__	__EPS__
i	j
o	u
e	__EPS__
d	d
e	e
n	n

__BEGIN__	__EPS__
l	l
i	i
e	e
b	b
e	e
n	n

__BEGIN__	__EPS__
s	s
p	p
r	r
i	i
c	c
h	h
s	st

__BEGIN__	__EPS__
s	s
i	i
e	e

__BEGIN__	__EPS__
g	__EPS__
e	__EPS__
t	t
r	r
o	ö
s	s
t	t
e	e
n	n

__BEGIN__	__EPS__
w	w
u	u
n	n
d	d
e	e
n	n

__BEGIN__	__EPS__
v	v
o	o
l	l
k	k

__BEGIN__	__EPS__
d	d
y	ie

__BEGIN__	__EPS__
s	s
p	p
r	r
a	a
c	c
h	h

__BEGIN__	__EPS__
s	s
a	a
g	g
t	t

__BEGIN__	__EPS__
n	n
u	un

__BEGIN__	__EPS__
e	e
r	r

__BEGIN__	__EPS__
w	w
a	a
n	n
g	ge

__BEGIN__	__EPS__
d	d
v	u
r	rch

__BEGIN__	__EPS__
t	t
o	ö
t	t
e	e
n	n

__BEGIN__	__EPS__
m	m
i	i
t	t

__BEGIN__	__EPS__
w	w
a	a
r	r
d	d
e	__EPS__

__BEGIN__	__EPS__
d	d
a	a
s	ss

__BEGIN__	__EPS__
v	u
n	n
d	d

__BEGIN__	__EPS__
w	w
e	e
i	i
s	s
s	s
a	a
g	g
u	u
n	n
g	g
e	__EPS__

__BEGIN__	__EPS__
d	d
a	as
z	s

__BEGIN__	__EPS__
k	k
i	i
n	n
d	d
e	e
s	s

__BEGIN__	__EPS__
d	d
e	e
n	n

__BEGIN__	__EPS__
e	e
r	r
b	b
a	a
r	r
m	m
e	e

__BEGIN__	__EPS__
t	t
a	a
g	g
e	e
n	n

__BEGIN__	__EPS__
d	d
y	ie

__BEGIN__	__EPS__
i	ih
m	m

__BEGIN__	__EPS__
a	a
n	n

__BEGIN__	__EPS__
l	l
o	o
e	h
n	n

__BEGIN__	__EPS__
k	k
a	a
m	m

__BEGIN__	__EPS__
a	a
l	l
l	l
e	e
s	s

__BEGIN__	__EPS__
k	k
e	e
i	i
n	n

__BEGIN__	__EPS__
v	u
n	n
d	d

__BEGIN__	__EPS__
i	i
c	c
h	h

__BEGIN__	__EPS__
q	k
u	o
o	m
m	m
e	e
n	n

__BEGIN__	__EPS__
f	f
r	r
o	a
w	u
e	e
n	n

__BEGIN__	__EPS__
h	h
e	a
t	t

__BEGIN__	__EPS__
k	k
e	e
i	i
n	n

__BEGIN__	__EPS__
z	z
u	u

__BEGIN__	__EPS__
g	g
a	a
r	r

__BEGIN__	__EPS__
e	e
r	r

__BEGIN__	__EPS__
s	s
t	t
i	i
m	m
m	m
e	e

__BEGIN__	__EPS__
w	w
e	ä
r	r
e	e

__BEGIN__	__EPS__
s	s
e	e
i	i
n	n
e	e
n	m

__BEGIN__	__EPS__
c	k
l	l
e	e
y	i
d	d
e	e
r	r

__BEGIN__	__EPS__
d	t
r	r
o	a
e	u
u	r
i	i
c	g
h	__EPS__

__BEGIN__	__EPS__
m	m
e	e
i	i
n	n
e	e
n	m

__BEGIN__	__EPS__
s	s
e	e
y	i
n	n
e	e
n	n

__BEGIN__	__EPS__
i	i
s	st

__BEGIN__	__EPS__
s	s
e	e
l	l
b	ber

__BEGIN__	__EPS__
m	m
i	i
c	c
h	h

__BEGIN__	__EPS__
i	u
n	n
d	d

__BEGIN__	__EPS__
g	g
e	e
r	r
i	i
c	c
h	h
t	t

__BEGIN__	__EPS__
d	d
a	a
i	__EPS__
r	__EPS__

__BEGIN__	__EPS__
d	d
y	ie

__BEGIN__	__EPS__
v	v
e	e
r	r
l	l
e	e
n	ih
e	e

__BEGIN__	__EPS__
d	d
a	a

__BEGIN__	__EPS__
g	g
e	e
s	s
c	c
h	heh
e	e
n	n

__BEGIN__	__EPS__
v	v
o	o
n	n

__BEGIN__	__EPS__
z	z
o	u

__BEGIN__	__EPS__
g	g
e	e
r	w
v	ä
c	h
h	r
t	t
e	e

__BEGIN__	__EPS__
i	i
c	c
h	h

__BEGIN__	__EPS__
n	n
o	ah
m	m
e	e
n	n

__BEGIN__	__EPS__
d	d
y	ie

__BEGIN__	__EPS__
e	u
n	nd

__BEGIN__	__EPS__
l	l
e	i
i	e
s	s
s	s
e	e
n	n
t	__EPS__

__BEGIN__	__EPS__
s	sch
l	l
a	a
f	f

__BEGIN__	__EPS__
s	s
p	p
r	r
a	a
c	c
h	h

__BEGIN__	__EPS__
i	i
c	c
h	h

__BEGIN__	__EPS__
a	a
l	l
s	s
o	o

__BEGIN__	__EPS__
d	d
o	a

__BEGIN__	__EPS__
v	u
n	n
d	d

__BEGIN__	__EPS__
d	d
e	e
m	m

__BEGIN__	__EPS__
i	ih
n	n

__BEGIN__	__EPS__
m	m
i	i
c	c
h	h

__BEGIN__	__EPS__
m	m
e	e
i	i
n	n

__BEGIN__	__EPS__
l	l
e	e
i	i
b	b

__BEGIN__	__EPS__
h	h
e	a
n	n
n	__EPS__
d	d

__BEGIN__	__EPS__
d	d
a	a

__BEGIN__	__EPS__
h	h
e	e
r	r
c	__EPS__
z	z
e	g
n	e
l	l
i	i
e	e
b	bt
e	e
r	r

__BEGIN__	__EPS__
s	sch
w	w
e	e
r	r
t	t

__BEGIN__	__EPS__
a	a
u	u
f	f

__BEGIN__	__EPS__
a	a
l	l
l	l
e	e
r	r
s	s
c	c
h	h
ö	ö
n	n
s	s
t	te

__BEGIN__	__EPS__
d	d
a	a
s	ss

__BEGIN__	__EPS__
d	t
r	r
a	a
g	g
e	e
n	n

__BEGIN__	__EPS__
a	a
u	u
f	f

__BEGIN__	__EPS__
d	d
e	e
i	i
n	n
e	e

__BEGIN__	__EPS__
d	d
a	a
s	s

__BEGIN__	__EPS__
s	s
i	e
e	i

__BEGIN__	__EPS__
v	b
n	i
t	__EPS__
z	s

__BEGIN__	__EPS__
v	u
n	n
d	d

__BEGIN__	__EPS__
g	g
e	e
u	f
a	a
n	n
g	g
e	e
n	n

__BEGIN__	__EPS__
g	__EPS__
e	__EPS__
t	t
r	r
u	a
w	u
e	__EPS__
t	t
e	e

__BEGIN__	__EPS__
w	w
o	o
r	r
d	d
e	e
n	n

__BEGIN__	__EPS__
d	d
a	a

__BEGIN__	__EPS__
g	g
e	e
w	w
a	a
l	l
t	t

__BEGIN__	__EPS__
a	a
l	l
s	s
o	o

__BEGIN__	__EPS__
d	d
a	a
z	s

__BEGIN__	__EPS__
k	k
y	i
n	n
d	d
e	e
r	r
e	__EPS__

__BEGIN__	__EPS__
a	a
n	n

__BEGIN__	__EPS__
s	s
p	p
r	r
a	a
c	c
h	h

__BEGIN__	__EPS__
v	f
i	i
n	n
d	de

__BEGIN__	__EPS__
m	m
u	u
s	ss
t	t
e	e
n	n

__BEGIN__	__EPS__
l	l
y	ie
s	s
z	s

__BEGIN__	__EPS__
s	s
c	c
h	h
r	r
v	__EPS__
i	i
w	__EPS__
e	e
n	n

__BEGIN__	__EPS__
e	u
n	nd

__BEGIN__	__EPS__
d	d
a	a
s	s
z	s

__BEGIN__	__EPS__
d	d
a	a
s	s

__BEGIN__	__EPS__
s	s
i	i
c	c
h	h

__BEGIN__	__EPS__
e	e
r	r
l	l
e	e
d	d
g	i
e	g
t	t

__BEGIN__	__EPS__
i	i
c	c
h	h

__BEGIN__	__EPS__
i	ih
m	m

__BEGIN__	__EPS__
l	le
i	i
b	b

__BEGIN__	__EPS__
l	l
o	o
b	b
e	__EPS__
t	t

__BEGIN__	__EPS__
s	s
p	p
r	r
a	a
c	c
h	h

__BEGIN__	__EPS__
n	n
y	i
e	e

__BEGIN__	__EPS__
d	d
a	as
z	s

__BEGIN__	__EPS__
s	s
i	e
j	i
n	n
r	e
e	r

__BEGIN__	__EPS__
a	o
b	b

__BEGIN__	__EPS__
d	d
r	r
i	e
n	i

__BEGIN__	__EPS__
e	e
r	r

__BEGIN__	__EPS__
e	e
r	r
d	d
e	e
n	n

__BEGIN__	__EPS__
g	g
e	e
m	m
e	e
i	i
n	n
e	e

__BEGIN__	__EPS__
v	ü
b	b
e	e
r	r

__BEGIN__	__EPS__
w	w
a	a
r	r
t	d

__BEGIN__	__EPS__
i	i
c	c
h	h

__BEGIN__	__EPS__
d	d
a	a

__BEGIN__	__EPS__
g	g
e	e
s	s
a	a
g	g
t	t

__BEGIN__	a
v	u
f	f

__BEGIN__	__EPS__
d	d
i	i
e	e
s	s

__BEGIN__	__EPS__
v	v
a	o
n	n

__BEGIN__	__EPS__
h	h
a	a
i	be
n	n

__BEGIN__	__EPS__
d	d
a	a
r	r
u	u
m	m
b	__EPS__

__BEGIN__	__EPS__
i	i
c	c
h	h

__BEGIN__	__EPS__
w	w
i	i
r	r

__BEGIN__	__EPS__
o	o
w	w
e	eh

__BEGIN__	__EPS__
y	ih
n	n

__BEGIN__	__EPS__
h	h
a	än
i	ge
n	n

__BEGIN__	__EPS__
n	n
a	a
c	c
h	h
g	g
i	i
e	n
g	g
e	e
n	n

__BEGIN__	__EPS__
s	s
a	a
g	g
i	__EPS__
t	t

__BEGIN__	__EPS__
m	m
i	i
c	c
h	h

__BEGIN__	__EPS__
e	e
z	s

__BEGIN__	__EPS__
i	i
s	s
t	t

__BEGIN__	__EPS__
k	k
a	a
y	i
s	s
e	e
r	r

__BEGIN__	__EPS__
d	d
a	a
t	ss

__BEGIN__	__EPS__
m	m
a	a
r	r
i	i
a	a

__BEGIN__	__EPS__
z	z
u	u

__BEGIN__	__EPS__
s	s
o	o
u	l
l	l
d	t
e	e

__BEGIN__	__EPS__
n	n
i	ich
t	t

__BEGIN__	__EPS__
v	u
n	n
d	t
e	e
r	r

__BEGIN__	__EPS__
s	s
t	t
a	ad
t	t

__BEGIN__	__EPS__
m	m
y	ir

__BEGIN__	__EPS__
d	d
a	as
z	s

__BEGIN__	__EPS__
d	d
a	a
s	ss

__BEGIN__	__EPS__
d	d
e	e
n	n

__BEGIN__	__EPS__
d	d
i	i
e	e

__BEGIN__	__EPS__
a	a
l	l
s	s
o	o

__BEGIN__	__EPS__
v	u
n	n
d	d

__BEGIN__	__EPS__
i	i
c	c
h	h

__BEGIN__	__EPS__
a	a
i	i
-	n
a	a
e	e
t	t

__BEGIN__	__EPS__
i	ih
r	r
e	e
n	n

__BEGIN__	__EPS__
h	h
i	i
n	n

__BEGIN__	__EPS__
w	w
a	a
z	r

__BEGIN__	__EPS__
s	s
p	p
r	r
a	a
c	c
h	h

__BEGIN__	__EPS__
y	ih
n	n

__BEGIN__	__EPS__
w	w
a	a
r	r
d	d

__BEGIN__	__EPS__
d	d
a	a
s	s

__BEGIN__	__EPS__
z	z
u	u
o	__EPS__

__BEGIN__	__EPS__
e	e
r	r

__BEGIN__	__EPS__
v	u
n	n
d	d

__BEGIN__	__EPS__
s	s
e	eh
r	r
e	__EPS__

__BEGIN__	__EPS__
g	g
a	eh
i	e
n	n

__BEGIN__	__EPS__
h	h
e	a
t	tte

__BEGIN__	__EPS__
t	t
o	o
e	__EPS__
d	d

__BEGIN__	__EPS__
v	u
n	n
d	d

__BEGIN__	__EPS__
w	w
e	e
r	__EPS__
l	l
d	t
e	__EPS__

__BEGIN__	__EPS__
v	u
n	n
d	d

__BEGIN__	__EPS__
w	w
a	a
r	r

__BEGIN__	__EPS__
d	d
u	u

__BEGIN__	__EPS__
w	w
e	e
r	r
d	de

__BEGIN__	__EPS__
e	e
r	r

__BEGIN__	__EPS__
k	k
o	ö
n	n
y	i
n	__EPS__
g	g

__BEGIN__	__EPS__
v	u
n	n
d	d

__BEGIN__	__EPS__
s	s
p	p
r	r
a	a
c	c
h	h
e	e
n	n
e	__EPS__
n	__EPS__

__BEGIN__	__EPS__
m	m
e	e
i	i
n	n
e	e
n	m

__BEGIN__	__EPS__
s	s
e	e
i	i
n	n

__BEGIN__	__EPS__
i	i
s	s
t	t

__BEGIN__	n
e	ich
n	t

__BEGIN__	__EPS__
t	t
e	a
t	t
e	e
n	n

__BEGIN__	__EPS__
p	b
l	l
u	u
t	t

__BEGIN__	__EPS__
p	b
e	e
y	i

__BEGIN__	__EPS__
s	sch
w	w
e	e
i	i
g	ge

__BEGIN__	__EPS__
k	k
i	i
n	n
t	d

__BEGIN__	__EPS__
d	d
o	a
r	r
a	a
u	u
s	s
z	__EPS__

__BEGIN__	__EPS__
m	m
a	a
r	r
i	i
a	a

__BEGIN__	__EPS__
g	g
e	e
h	h
e	e
y	i
s	s
c	__EPS__
h	s
e	e
n	n

__BEGIN__	__EPS__
w	w
e	e
r	r
d	d
e	e
n	n

__BEGIN__	__EPS__
v	u
n	n
d	d

__BEGIN__	__EPS__
a	a
l	l
s	s

__BEGIN__	__EPS__
r	r
i	i
t	t
t	t
e	e
r	r
n	n

__BEGIN__	__EPS__
t	t
r	r
o	o
s	s
t	t

__BEGIN__	__EPS__
v	a
i	u
s	s
z	__EPS__
g	g
e	e
t	__EPS__
z	z
o	o
g	g
e	e
n	n

__BEGIN__	__EPS__
d	d
e	e
m	m

__BEGIN__	__EPS__
n	n
o	o
c	c
h	h

__BEGIN__	__EPS__
d	d
e	e
r	r

__BEGIN__	__EPS__
d	d
e	e
n	n

__BEGIN__	__EPS__
w	w
a	e
i	i
s	ss
t	t

__BEGIN__	__EPS__
m	m
e	e
i	i
n	n

__BEGIN__	__EPS__
d	d
a	as
s	s

__BEGIN__	__EPS__
y	ih
n	n

__BEGIN__	__EPS__
d	d
a	a
r	r
n	n
y	ie
d	d
e	e
r	r

__BEGIN__	__EPS__
d	d
a	as
s	s

__BEGIN__	__EPS__
w	w
u	u
r	r
d	d
e	e
n	n

__BEGIN__	__EPS__
s	s
c	c
h	h
w	w
o	__EPS__
e	e
s	s
t	t
e	e
r	r
e	__EPS__
n	n

__BEGIN__	__EPS__
t	t
u	u
a	a
m	m

__BEGIN__	__EPS__
n	n
a	a
c	c
h	h
t	t

__BEGIN__	__EPS__
o	o
w	w
e	eh

__BEGIN__	__EPS__
s	s
p	p
r	r
a	a
c	c
h	h

__BEGIN__	d
u	u

__BEGIN__	__EPS__
v	u
n	n
d	d

__BEGIN__	__EPS__
s	s
u	u
e	__EPS__
c	c
h	h
t	t
e	e

__BEGIN__	__EPS__
d	di
e	e
s	s
e	e

__BEGIN__	__EPS__
s	s
a	__EPS__
e	e
c	__EPS__
h	h
e	e
n	__EPS__
t	t

__BEGIN__	__EPS__
h	h
o	ö
r	r
t	t

__BEGIN__	__EPS__
v	v
i	ie
l	l

__BEGIN__	__EPS__
d	d
e	e
r	r

__BEGIN__	__EPS__
s	s
c	c
h	h
o	ä
c	c
h	h
e	e
r	r
e	__EPS__
n	n

__BEGIN__	d
u	u

__BEGIN__	__EPS__
s	s
c	c
h	h
r	r
i	i
r	__EPS__
e	e
n	n

__BEGIN__	__EPS__
a	a
l	l
l	l

__BEGIN__	__EPS__
n	n
i	ich
t	t

__BEGIN__	__EPS__
d	d
a	a
s	s

__BEGIN__	__EPS__
c	__EPS__
z	ze
u	r
s	sch
n	n
y	i
t	tt
e	e
n	n

__BEGIN__	__EPS__
l	l
a	a
n	n
k	g
c	__EPS__
h	__EPS__

__BEGIN__	__EPS__
v	v
o	o
n	n

__BEGIN__	__EPS__
d	d
o	a

__BEGIN__	__EPS__
b	b
r	r
u	ü
i	__EPS__
s	s
t	t
e	e
n	n

__BEGIN__	__EPS__
c	__EPS__
z	z
u	u

__BEGIN__	__EPS__
v	u
n	n
d	d

__BEGIN__	__EPS__
z	z
e	u

__BEGIN__	__EPS__
p	b
u	a
n	n
d	d
e	e
n	n

__BEGIN__	__EPS__
i	i
c	c
h	h

__BEGIN__	__EPS__
i	e
d	__EPS__
t	s

__BEGIN__	__EPS__
d	d
e	e
r	r

__BEGIN__	__EPS__
y	i
m	h
e	m

__BEGIN__	__EPS__
l	l
e	e
i	i
b	b

__BEGIN__	__EPS__
v	v
o	o
r	r

__BEGIN__	__EPS__
s	s
c	c
h	h
u	u
l	l
d	d
i	i
c	__EPS__
h	g

__BEGIN__	__EPS__
v	v
o	o
n	n

__BEGIN__	__EPS__
e	e
r	r

__BEGIN__	__EPS__
s	s
p	p
r	r
a	a
c	c
h	h

__BEGIN__	__EPS__
m	m
e	e
i	i
n	n
e	e
n	n

__BEGIN__	__EPS__
d	d
o	a

__BEGIN__	__EPS__
w	w
a	a
n	nn

__BEGIN__	__EPS__
g	g
e	e
c	k
r	r
e	ä
g	h
e	__EPS__
t	t

__BEGIN__	__EPS__
h	h
o	o
l	l
t	__EPS__
z	z

__BEGIN__	__EPS__
v	v
i	ie
l	l

__BEGIN__	__EPS__
v	ü
b	b
e	e
r	r

__BEGIN__	__EPS__
g	g
i	in
e	g

__BEGIN__	__EPS__
v	v
o	o
l	l
k	k
e	e
s	s

__BEGIN__	__EPS__
d	d
a	a
z	ss

__BEGIN__	__EPS__
d	d
e	e
n	n

__BEGIN__	__EPS__
r	r
u	ü
g	g
t	t

__BEGIN__	__EPS__
m	m
i	i
r	r

__BEGIN__	__EPS__
v	u
n	n
d	d

__BEGIN__	__EPS__
o	oh

__BEGIN__	__EPS__
a	a
l	l
l	l
e	e
i	i
n	n

__BEGIN__	__EPS__
d	d
i	i
e	e

__BEGIN__	__EPS__
n	n
e	i
m	m
p	ms
t	t

__BEGIN__	__EPS__
i	j
e	ä
m	mm
e	e
r	r
l	l
i	i
c	c
h	h

__BEGIN__	__EPS__
g	g
r	r
o	o
s	s
s	s
e	e

__BEGIN__	__EPS__
i	ih
m	m

__BEGIN__	__EPS__
a	a
l	l
s	s
o	o

__BEGIN__	__EPS__
a	a
l	l
l	l
e	e
r	r

__BEGIN__	__EPS__
t	t
e	e
m	m
p	p
i	e
l	l

__BEGIN__	__EPS__
d	d
u	u

__BEGIN__	__EPS__
d	d
a	a
z	s

__BEGIN__	__EPS__
i	ih
n	n

__BEGIN__	__EPS__
d	d
i	i
s	e
s	s
e	e

__BEGIN__	__EPS__
d	d
a	a
z	s

__BEGIN__	__EPS__
e	e
w	v
a	a
n	n
g	g
e	e
l	l
i	i
s	s
t	t

__BEGIN__	__EPS__
b	b
e	e
n	n
o	o
m	mmen

__BEGIN__	__EPS__
i	j
o	o
h	h
a	a
n	n
n	n
e	e
s	s

__BEGIN__	__EPS__
w	w
a	a
s	s

__BEGIN__	__EPS__
v	v
a	a
t	t
t	__EPS__
e	e
r	r

__BEGIN__	__EPS__
h	h
a	a
i	be
n	n

__BEGIN__	__EPS__
s	s
t	t
a	eh
i	e
n	n

__BEGIN__	__EPS__
m	m
e	e
i	i
n	n

__BEGIN__	__EPS__
l	l
i	i
e	e
b	be
s	s

__BEGIN__	__EPS__
f	f
u	ü
e	h
r	r
t	t

__BEGIN__	__EPS__
v	v
o	o
n	n

__BEGIN__	__EPS__
d	d
o	a

__BEGIN__	__EPS__
d	d
i	i
e	e

__BEGIN__	__EPS__
m	m
e	e
i	i
n	n

__BEGIN__	__EPS__
h	h
o	ö
e	__EPS__
r	re

__BEGIN__	__EPS__
p	p
y	i
l	l
a	a
t	t
u	u
s	s

__BEGIN__	__EPS__
p	pf
e	e
n	n
n	n
i	i
n	__EPS__
g	g
h	__EPS__
e	e
n	n

__BEGIN__	__EPS__
v	u
n	n
d	d

__BEGIN__	__EPS__
h	h
e	e
r	r
t	__EPS__
z	z
e	en
l	l
i	i
e	e
u	b
e	e

__BEGIN__	__EPS__
p	b
l	l
u	u
e	__EPS__
t	t

__BEGIN__	__EPS__
s	s
t	t
u	u
c	t
z	z
t	te

__BEGIN__	__EPS__
d	d
u	u
r	r
c	c
h	h

__BEGIN__	__EPS__
l	l
e	e
b	b
e	e
n	n
t	d
i	i
g	g
e	e
n	n

__BEGIN__	__EPS__
l	l
i	i
e	e
b	b

__BEGIN__	__EPS__
s	s
c	c
h	h
w	w
e	e
s	s
t	t
e	e
r	r

__BEGIN__	__EPS__
m	m
e	e
y	i
n	n
e	e
n	n

__BEGIN__	__EPS__
w	w
o	o
l	l
d	lt
e	e

__BEGIN__	__EPS__
m	m
i	i
c	c
h	h

__BEGIN__	__EPS__
s	s
p	p
r	r
a	a
c	c
h	h

__BEGIN__	__EPS__
a	a
l	l
t	t

__BEGIN__	__EPS__
d	d
a	as
z	s

__BEGIN__	__EPS__
m	m
a	a
r	r
i	i
a	a

__BEGIN__	__EPS__
v	u
n	n
s	s

__BEGIN__	__EPS__
w	w
o	o
r	r
d	d
e	e
n	n

__BEGIN__	__EPS__
s	s
a	a
c	__EPS__
h	h

__BEGIN__	__EPS__
e	e
r	r
g	g
i	i
n	n
g	g

__BEGIN__	__EPS__
w	w
o	o
l	ll
t	t

__BEGIN__	__EPS__
s	s
i	i
c	e
h	h

__BEGIN__	__EPS__
s	s
p	p
r	r
a	a
c	c
h	h

__BEGIN__	__EPS__
e	ehe

__BEGIN__	__EPS__
d	d
e	e
r	r

__BEGIN__	__EPS__
o	ih
m	m

__BEGIN__	__EPS__
w	w
y	ie

__BEGIN__	__EPS__
p	p
y	i
l	l
a	a
t	tu
o	s

__BEGIN__	__EPS__
s	s
t	t
a	ad
t	t

__BEGIN__	__EPS__
o	a
u	u
c	c
h	h

__BEGIN__	__EPS__
v	ü
b	b
e	e
r	r

__BEGIN__	__EPS__
w	w
a	a
s	__EPS__
z	r

__BEGIN__	__EPS__
a	a
n	n
s	s
h	__EPS__
e	e
l	l
m	m
u	__EPS__
s	__EPS__

__BEGIN__	__EPS__
s	s
t	t
ü	ü
r	r
b	b
e	e
n	n

__BEGIN__	__EPS__
c	c
r	r
u	u
c	c
i	i
f	f
i	i
g	g
e	e

__BEGIN__	__EPS__
i	j
o	o
h	h
a	a
n	nn
e	e
s	s

__BEGIN__	__EPS__
d	d
a	a
s	ss

__BEGIN__	__EPS__
s	s
i	i
c	c
h	h

__BEGIN__	__EPS__
d	d
a	a
s	ss

__BEGIN__	__EPS__
d	d
o	a

__BEGIN__	__EPS__
m	m
i	i
t	t

__BEGIN__	__EPS__
k	k
r	r
o	o
n	ne

__BEGIN__	__EPS__
n	n
v	un

__BEGIN__	__EPS__
a	a
n	n
s	s
h	__EPS__
e	e
l	l
m	m
e	__EPS__

__BEGIN__	__EPS__
i	i
c	c
h	h

__BEGIN__	__EPS__
v	u
n	n
d	d

__BEGIN__	__EPS__
m	m
e	e
i	i
n	n

__BEGIN__	__EPS__
d	d
e	e
r	r
s	s
e	e
l	l
b	be

__BEGIN__	__EPS__
e	e
i	i
n	n
e	e
m	m

__BEGIN__	e
t	s

__BEGIN__	__EPS__
s	s
p	p
o	o
t	t
t	t
e	e

__BEGIN__	__EPS__
g	g
e	e
s	s
a	a
u	u
g	g
t	t

__BEGIN__	__EPS__
m	m
a	a
n	n

__BEGIN__	__EPS__
i	i
c	c
h	h

__BEGIN__	__EPS__
p	p
i	i
l	l
a	a
t	t
u	u
s	s

__BEGIN__	__EPS__
d	d
i	i
e	e

__BEGIN__	__EPS__
i	e
u	u
c	c
h	h

__BEGIN__	__EPS__
n	n
u	un

__BEGIN__	__EPS__
a	a
u	u
f	f
f	__EPS__

__BEGIN__	__EPS__
i	ih
m	m

__BEGIN__	__EPS__
w	w
o	o
l	l
k	k
e	e
n	n

__BEGIN__	__EPS__
u	v
i	ie
l	l

__BEGIN__	__EPS__
e	e
y	i
a	__EPS__

__BEGIN__	__EPS__
m	m
a	a
n	n

__BEGIN__	__EPS__
w	w
o	o
u	l
l	l
t	t

__BEGIN__	__EPS__
n	n
a	a
c	c
h	h
t	t

__BEGIN__	__EPS__
n	n
i	ich
t	t

__BEGIN__	__EPS__
s	s
o	oh
n	n

__BEGIN__	__EPS__
d	d
e	e
m	m

__BEGIN__	__EPS__
d	d
a	a
s	s

__BEGIN__	__EPS__
h	h
a	a
i	__EPS__
s	s
t	t

__BEGIN__	__EPS__
z	z
u	u

__BEGIN__	__EPS__
k	k
i	i
n	n
d	d
e	__EPS__

__BEGIN__	__EPS__
e	e
r	r

__BEGIN__	__EPS__
a	a
l	l
l	l
e	e

__BEGIN__	__EPS__
h	h
e	a
b	be

__BEGIN__	__EPS__
d	d
e	e
r	r

__BEGIN__	__EPS__
m	m
e	e
i	i
n	n

__BEGIN__	__EPS__
w	w
e	ä
r	re

__BEGIN__	__EPS__
s	s
p	p
r	r
a	a
c	c
h	h

__BEGIN__	__EPS__
w	w
a	a
r	r
d	d

__BEGIN__	__EPS__
t	t
o	o
c	c
h	h
t	t
e	e
r	r

__BEGIN__	__EPS__
i	i
c	c
h	h

__BEGIN__	__EPS__
g	g
o	o
t	tte
z	s

__BEGIN__	__EPS__
d	d
e	e
r	r

__BEGIN__	__EPS__
w	w
a	a
s	r

__BEGIN__	__EPS__
z	z
v	u

__BEGIN__	__EPS__
w	w
a	ah
r	r

__BEGIN__	__EPS__
u	a
s	u
z	s
f	f
u	üh
r	r
t	t
e	e

__BEGIN__	__EPS__
m	m
i	i
t	t

__BEGIN__	__EPS__
i	ih
n	n

__BEGIN__	__EPS__
s	s
i	i
e	e

__BEGIN__	__EPS__
e	e
n	n
d	de

__BEGIN__	__EPS__
a	a
l	l
s	s

__BEGIN__	__EPS__
e	i
m	h
e	m

__BEGIN__	__EPS__
s	s
p	p
r	r
a	a
c	c
h	h

__BEGIN__	__EPS__
d	d
a	a

__BEGIN__	__EPS__
a	a
l	l
l	l
e	e
m	m

__BEGIN__	__EPS__
i	ih
r	r
e	e
m	m

__BEGIN__	__EPS__
h	h
o	ö
e	__EPS__
r	r
e	e
n	n

__BEGIN__	__EPS__
e	e
r	r

__BEGIN__	__EPS__
p	p
y	i
l	l
a	a
t	t
o	us

__BEGIN__	__EPS__
s	se
i	i
n	n

__BEGIN__	__EPS__
j	j
o	u
e	__EPS__
d	d
e	e
n	n

__BEGIN__	__EPS__
t	t
r	r
a	a
g	g
e	e
n	n
t	d

__BEGIN__	__EPS__
d	d
i	i
e	e
n	n
e	e
r	r
i	i
n	n
e	__EPS__

__BEGIN__	__EPS__
d	d
e	e
m	m

__BEGIN__	__EPS__
w	w
i	i
r	r
t	d

__BEGIN__	__EPS__
v	u
n	n
d	d

__BEGIN__	__EPS__
s	s
y	ie

__BEGIN__	__EPS__
h	h
e	e
r	r

__BEGIN__	__EPS__
d	d
u	u

__BEGIN__	__EPS__
h	h
a	a
u	u
s	s
z	__EPS__
f	f
r	r
a	a
w	u

__BEGIN__	__EPS__
e	e
r	r

__BEGIN__	__EPS__
d	d
e	e
r	r

__BEGIN__	__EPS__
w	w
a	a
s	r

__BEGIN__	__EPS__
v	v
i	ie
l	l

__BEGIN__	__EPS__
s	s
e	eh
y	e
n	n

__BEGIN__	__EPS__
s	s
o	o
e	__EPS__

__BEGIN__	__EPS__
d	d
o	a

__BEGIN__	__EPS__
e	e
r	r
b	b
a	a
e	__EPS__
r	r
m	me
d	n

__BEGIN__	__EPS__
s	s
y	ie

__BEGIN__	__EPS__
o	ü
b	b
i	e
r	r

__BEGIN__	__EPS__
i	je
r	rusa
l	l
-	e
m	m

__BEGIN__	__EPS__
t	t
u	u
e	__EPS__
n	n
t	__EPS__

__BEGIN__	__EPS__
n	n
o	o
c	c
h	h

__BEGIN__	__EPS__
s	s
a	ol
l	l

__BEGIN__	__EPS__
d	d
e	e
m	m

__BEGIN__	__EPS__
g	g
e	e
r	r
e	e
i	i
c	c
h	h
i	e
n	n

__BEGIN__	__EPS__
m	m
i	i
t	t

__BEGIN__	__EPS__
v	u
n	n
d	d

__BEGIN__	__EPS__
d	d
e	e
r	r

__BEGIN__	__EPS__
i	ih
n	n

__BEGIN__	__EPS__
p	p
l	l
o	u
m	m
p	p
e	e
n	n

__BEGIN__	__EPS__
w	w
a	a
s	r

__BEGIN__	__EPS__
i	ih
m	m

__BEGIN__	__EPS__
v	u
n	n
d	d

__BEGIN__	__EPS__
e	e
r	r

__BEGIN__	__EPS__
k	k
e	e
i	i
n	n

__BEGIN__	__EPS__
g	g
e	e
i	i
s	s
t	t

__BEGIN__	__EPS__
g	g
e	e
w	w
a	a
l	l
t	t
e	__EPS__
n	__EPS__
c	__EPS__
l	__EPS__
i	i
c	__EPS__
h	g

__BEGIN__	__EPS__
t	t
o	o
r	r

__BEGIN__	__EPS__
z	z
u	u

__BEGIN__	__EPS__
l	l
a	ass

__BEGIN__	__EPS__
i	j
u	u
d	d
e	e
n	n

__BEGIN__	__EPS__
d	d
a	a
s	__EPS__

__BEGIN__	__EPS__
w	w
a	a
s	r

__BEGIN__	__EPS__
s	s
p	p
r	r
a	a
c	c
h	h

__BEGIN__	__EPS__
i	j
u	ü
n	n
g	g
s	s
t	t
e	e
n	n

__BEGIN__	__EPS__
m	m
e	ehr

__BEGIN__	__EPS__
g	g
r	r
a	a
b	b

__BEGIN__	__EPS__
d	d
i	i
e	e

__BEGIN__	__EPS__
z	z
o	u

__BEGIN__	__EPS__
g	g
a	a
r	r

__BEGIN__	__EPS__
m	m
e	e
i	i
n	n

__BEGIN__	__EPS__
h	h
a	a
d	t
d	t
e	e
n	n

__BEGIN__	__EPS__
m	m
i	i
t	t

__BEGIN__	__EPS__
s	s
p	p
r	r
a	a
c	c
h	h

__BEGIN__	__EPS__
d	d
o	a

__BEGIN__	__EPS__
p	p
i	i
l	l
a	a
t	t
ü	u
s	s

__BEGIN__	__EPS__
s	s
p	p
e	e
i	i
s	s
e	__EPS__
s	__EPS__
t	t

__BEGIN__	__EPS__
d	d
e	e
n	nn

__BEGIN__	__EPS__
d	d
a	a
z	ss

__BEGIN__	__EPS__
v	v
o	o
r	r

__BEGIN__	__EPS__
d	d
a	a
r	r

__BEGIN__	__EPS__
d	d
o	a

__BEGIN__	__EPS__
d	d
a	a
s	s

__BEGIN__	__EPS__
g	g
i	i
e	__EPS__
n	n
g	g

__BEGIN__	__EPS__
g	g
r	r
o	o
o	s
t	s

__BEGIN__	__EPS__
d	d
e	e
r	r

__BEGIN__	__EPS__
d	d
a	a
z	ss

__BEGIN__	__EPS__
d	di
e	e
s	s
e	e
n	n

__BEGIN__	__EPS__
d	d
e	e
z	s

__BEGIN__	__EPS__
m	m
i	i
t	t

__BEGIN__	__EPS__
a	a
n	n

__BEGIN__	__EPS__
d	d
a	a
z	s

__BEGIN__	__EPS__
d	d
e	e
i	i
n	n

__BEGIN__	__EPS__
d	d
o	a

__BEGIN__	__EPS__
d	d
y	ie

__BEGIN__	__EPS__
c	__EPS__
z	s
u	o
h	gl
a	e
n	ic
d	h

__BEGIN__	__EPS__
i	i
c	c
h	h

__BEGIN__	__EPS__
m	m
e	eh
r	r

__BEGIN__	__EPS__
g	g
a	eh
y	e
n	n

__BEGIN__	__EPS__
x	c
p	h
-	r
i	istus

__BEGIN__	__EPS__
v	v
e	e
r	r
s	s
t	t
a	eh
i	e
n	n

__BEGIN__	__EPS__
m	m
i	i
r	r

__BEGIN__	__EPS__
v	v
e	e
r	r
s	s
e	eh
r	r
t	te
z	s

__BEGIN__	__EPS__
n	n
i	i
c	c
h	h
t	t

__BEGIN__	__EPS__
a	a
l	l
s	s
o	o

__BEGIN__	__EPS__
s	s
p	p
r	r
a	a
c	c
h	h

__BEGIN__	__EPS__
h	h
a	a
i	be
n	n

__BEGIN__	__EPS__
e	e
r	r

__BEGIN__	__EPS__
w	w
i	i
l	l
l	l
e	e
n	n

__BEGIN__	__EPS__
a	a
n	n
s	s
h	__EPS__
e	e
l	l
m	m
u	__EPS__
s	__EPS__

__BEGIN__	__EPS__
a	a
n	n
s	s
h	__EPS__
e	e
l	l
m	m
e	__EPS__

__BEGIN__	__EPS__
w	w
a	a
s	r

__BEGIN__	__EPS__
v	u
n	n
d	d

__BEGIN__	__EPS__
v	u
n	n
d	d

__BEGIN__	__EPS__
m	me
y	i
n	n

__BEGIN__	__EPS__
s	s
e	e
i	i
n	n

__BEGIN__	__EPS__
s	s
a	a
c	__EPS__
h	h

__BEGIN__	__EPS__
s	s
p	p
o	o
t	t
t	t
e	e
n	n

__BEGIN__	__EPS__
s	s
y	ie

__BEGIN__	__EPS__
v	u
n	n
d	d

__BEGIN__	__EPS__
d	d
e	e
m	m

__BEGIN__	__EPS__
c	k
l	l
o	a
r	r
h	h
e	e
i	i
t	t

__BEGIN__	__EPS__
z	z
u	u
o	__EPS__

__BEGIN__	__EPS__
n	n
a	ah
m	m

__BEGIN__	__EPS__
d	t
o	u
e	__EPS__
n	n

__BEGIN__	__EPS__
k	k
n	n
e	e
c	c
h	h
t	t

__BEGIN__	__EPS__
b	b
a	a
l	l
d	d
e	__EPS__

__BEGIN__	__EPS__
d	t
o	o
i	__EPS__
t	t

__BEGIN__	__EPS__
m	m
i	i
r	r

__BEGIN__	__EPS__
f	f
r	r
e	e
w	u
e	e
n	n

__BEGIN__	__EPS__
d	d
o	a

__BEGIN__	__EPS__
d	d
a	a
n	n
n	n

__BEGIN__	__EPS__
a	a
n	n
s	s
a	a
c	__EPS__
h	h

__BEGIN__	__EPS__
c	__EPS__
h	k
r	r
a	__EPS__
e	e
w	u
c	__EPS__
z	z

__BEGIN__	__EPS__
h	h
a	ä
n	n
g	g
e	e
n	n

__BEGIN__	__EPS__
d	d
e	e
r	r

__BEGIN__	__EPS__
w	a
t	u
u	s
e	e
r	r
c	k
o	o
r	r
e	e
n	n

__BEGIN__	__EPS__
n	n
i	ich
t	t

__BEGIN__	__EPS__
v	u
n	ns
t	t
o	e
t	rb
l	l
i	i
c	c
h	h
e	e

__BEGIN__	__EPS__
d	d
i	i
c	c
h	h

__BEGIN__	__EPS__
w	w
a	a
s	r
z	__EPS__

__BEGIN__	__EPS__
v	u
n	n
d	d

__BEGIN__	__EPS__
v	u
n	n
d	d

__BEGIN__	__EPS__
s	s
o	o

__BEGIN__	__EPS__
k	k
a	e
i	i
n	n

__BEGIN__	__EPS__
h	h
i	i
n	n

__BEGIN__	__EPS__
n	n
a	a
c	c
h	h
t	t

__BEGIN__	__EPS__
g	g
e	e
r	r
i	i
c	c
h	h
t	t

__BEGIN__	__EPS__
g	__EPS__
e	__EPS__
s	s
i	ie
g	g
t	t
e	e
n	n

__BEGIN__	__EPS__
h	h
i	i
n	n

__BEGIN__	__EPS__
g	g
a	a
b	b

__BEGIN__	__EPS__
i	i
c	c
h	h

__BEGIN__	__EPS__
a	a
l	l
s	s
o	o

__BEGIN__	__EPS__
l	le
i	i
b	b

__BEGIN__	__EPS__
v	u
n	n
d	d

__BEGIN__	__EPS__
w	w
a	a
s	r

__BEGIN__	__EPS__
v	u
n	n
g	g
e	__EPS__
l	le
i	i
c	c
h	h

__BEGIN__	__EPS__
h	h
e	a
t	t

__BEGIN__	__EPS__
a	a
l	l
l	l
e	e

__BEGIN__	__EPS__
b	b
u	a
n	n
d	d
e	e
n	n
t	__EPS__

__BEGIN__	__EPS__
w	w
o	oh
l	l

__BEGIN__	__EPS__
k	k
i	i
n	n
t	d

__BEGIN__	__EPS__
h	h
u	a
y	u
s	s
z	__EPS__

__BEGIN__	__EPS__
m	m
i	i
c	c
h	h

__BEGIN__	__EPS__
v	v
i	i
e	e
r	r
d	t
e	e
n	n

__BEGIN__	__EPS__
w	w
a	a
r	r
t	d

__BEGIN__	__EPS__
w	h
a	ier

__BEGIN__	__EPS__
v	u
n	n
d	d

__BEGIN__	__EPS__
d	d
e	e
m	m

__BEGIN__	__EPS__
i	i
n	n

__BEGIN__	__EPS__
f	f
r	r
a	a
w	ue
n	n

__BEGIN__	__EPS__
e	e
r	r
s	s
t	t
e	e
n	n

__BEGIN__	__EPS__
t	__EPS__
z	z
a	ä
r	r
t	t
l	l
i	i
c	c
h	h

__BEGIN__	__EPS__
m	m
u	u
e	t
t	t
e	e
r	r

__BEGIN__	__EPS__
m	m
i	i
c	c
h	h

__BEGIN__	__EPS__
d	d
o	o
c	c
h	h

__BEGIN__	__EPS__
f	v
o	o
l	l
c	__EPS__
k	k
s	s

__BEGIN__	__EPS__
g	g
e	e
a	ä
e	__EPS__
d	d
e	e
r	r

__BEGIN__	__EPS__
b	b
i	i
s	st

__BEGIN__	__EPS__
f	f
r	r
o	a
w	u

__BEGIN__	__EPS__
s	sch
w	w
e	e
r	r
t	t

__BEGIN__	__EPS__
g	g
e	e
r	r
e	ede
t	t

__BEGIN__	__EPS__
k	k
o	o
m	m
e	m
t	t

__BEGIN__	__EPS__
t	t
o	ö
e	__EPS__
d	t
e	e
n	n

__BEGIN__	__EPS__
d	d
i	e
e	i
n	n

__BEGIN__	__EPS__
v	v
a	a
t	t
t	__EPS__
e	e
r	r

__BEGIN__	__EPS__
m	m
e	e
i	i
n	n
e	e
s	s

__BEGIN__	__EPS__
v	v
o	o
n	n

__BEGIN__	__EPS__
m	m
y	i
t	t

__BEGIN__	__EPS__
t	t
o	o
e	__EPS__
d	d

__BEGIN__	__EPS__
d	d
e	e
n	n

__BEGIN__	__EPS__
g	g
e	e
w	w
a	a
l	l
t	t

__BEGIN__	__EPS__
i	i
s	s
t	t

__BEGIN__	__EPS__
n	n
i	i
c	c
h	h
c	t
z	s

__BEGIN__	__EPS__
p	b
l	l
u	u
o	__EPS__
t	t
z	s
t	t
r	r
o	o
p	p
f	fe
f	n

__BEGIN__	__EPS__
n	n
a	a
c	c
h	h
t	t

__BEGIN__	__EPS__
a	a
l	l
s	s
o	o

__BEGIN__	__EPS__
s	s
c	c
h	h
l	l
a	a
f	f
f	__EPS__

__BEGIN__	__EPS__
a	e
i	i
n	n

__BEGIN__	__EPS__
v	u
n	n
d	d

__BEGIN__	__EPS__
v	u
n	n
n	d

__BEGIN__	__EPS__
i	i
s	s
t	t

__BEGIN__	__EPS__
g	g
o	o
t	tt

__BEGIN__	__EPS__
m	me
i	i
n	n
e	e
s	s

__BEGIN__	__EPS__
g	k
h	__EPS__
e	e
e	i
n	ne
s	s

