__BEGIN__	__EPS__
m	m
i	i
r	r

__BEGIN__	__EPS__
k	k
i	i
n	n
d	d

__BEGIN__	__EPS__
l	l
i	i
e	e
b	b
s	s
t	t
e	e
s	s

__BEGIN__	__EPS__
m	m
i	i
t	t

__BEGIN__	__EPS__
i	ih
m	m

__BEGIN__	__EPS__
w	w
o	o
l	ll
d	t
e	e
n	n

__BEGIN__	__EPS__
m	m
o	o
c	c
h	h
t	te

__BEGIN__	__EPS__
m	m
e	ehr

__BEGIN__	__EPS__
s	s
o	o

__BEGIN__	__EPS__
g	g
e	e
r	r
n	n
e	e

__BEGIN__	__EPS__
h	h
y	im
m	m
e	e
l	l
s	s

__BEGIN__	__EPS__
s	__EPS__
w	w
c	as

__BEGIN__	__EPS__
w	w
e	e
r	r
d	de

__BEGIN__	__EPS__
h	h
e	ä
r	r
t	t
i	__EPS__
g	__EPS__
k	__EPS__
e	e
i	__EPS__
t	__EPS__

__BEGIN__	__EPS__
e	e
i	i
n	n

__BEGIN__	__EPS__
w	w
a	a
t	s

__BEGIN__	__EPS__
d	d
r	r
u	ü
k	__EPS__
c	c
h	k
t	t
e	e

__BEGIN__	__EPS__
y	ih
m	m

__BEGIN__	__EPS__
v	v
e	e
r	r
l	l
o	e
g	u
e	g
n	ne
t	t

__BEGIN__	__EPS__
g	g
e	__EPS__
l	l
a	a
u	u
b	be

__BEGIN__	__EPS__
d	d
e	e
s	s

__BEGIN__	__EPS__
g	g
r	r
o	o
i	__EPS__
s	s
s	s
e	e
n	n

__BEGIN__	__EPS__
d	d
e	e
m	m

__BEGIN__	__EPS__
c	k
h	__EPS__
v	ö
n	n
i	i
g	g

__BEGIN__	__EPS__
m	m
a	a
r	r
t	t
e	e
r	r

__BEGIN__	__EPS__
m	m
i	i
t	t

__BEGIN__	__EPS__
d	t
e	ä
d	t
e	e

__BEGIN__	n
e	ich
n	t

__BEGIN__	__EPS__
e	e
r	r
k	we
i	c
k	k
t	te

__BEGIN__	n
e	ich
n	t

__BEGIN__	__EPS__
a	a
n	n

__BEGIN__	__EPS__
p	p
i	i
l	l
a	a
t	t
u	u
s	s
z	__EPS__

__BEGIN__	__EPS__
a	a
n	n
s	s
h	__EPS__
e	e
l	l
m	m
e	__EPS__

__BEGIN__	__EPS__
t	t
o	o
d	t

__BEGIN__	__EPS__
v	u
n	n
d	d

__BEGIN__	__EPS__
w	w
a	a
s	r
z	__EPS__

__BEGIN__	__EPS__
l	l
e	e
i	i
b	b

__BEGIN__	__EPS__
w	w
i	ie
d	d
e	e
r	r

__BEGIN__	__EPS__
s	s
i	ie
b	b
e	e
n	n

__BEGIN__	__EPS__
h	h
a	a
m	mm
e	e
r	r
s	s
c	c
h	h
l	l
e	ä
g	ge

__BEGIN__	__EPS__
l	l
o	o
c	c
h	h

__BEGIN__	__EPS__
e	ehe

__BEGIN__	__EPS__
v	u
n	n
d	d

__BEGIN__	__EPS__
a	a
l	l
l	l
e	e
n	__EPS__
m	m

__BEGIN__	__EPS__
l	l
a	a
e	__EPS__
s	s
z	s

__BEGIN__	__EPS__
s	s
c	c
h	h
w	w
e	e
s	s
t	t
e	e
r	r

__BEGIN__	__EPS__
t	t
o	o
t	d

__BEGIN__	__EPS__
p	b
l	l
u	u
e	__EPS__
t	t
t	__EPS__
e	e
n	n

__BEGIN__	__EPS__
i	i
c	c
h	h

__BEGIN__	__EPS__
d	d
o	a

__BEGIN__	__EPS__
g	g
a	a
r	r

__BEGIN__	__EPS__
m	m
i	i
r	r

__BEGIN__	__EPS__
v	u
n	n
s	s
c	c
h	h
u	u
l	l
d	d
i	i
g	g
e	e
n	n

__BEGIN__	__EPS__
a	a
l	ll

__BEGIN__	__EPS__
i	i
s	s
t	t

__BEGIN__	__EPS__
h	h
a	e
i	i
z	ss
t	t

__BEGIN__	__EPS__
s	s
o	o

__BEGIN__	__EPS__
w	w
i	i
d	d
e	e
r	r

__BEGIN__	__EPS__
s	se
y	i

__BEGIN__	__EPS__
s	v
a	ö
m	ll
p	i
t	g

__BEGIN__	__EPS__
s	__EPS__
w	w
e	e
r	r

__BEGIN__	__EPS__
v	ü
b	b
e	e
r	r

__BEGIN__	__EPS__
k	k
r	r
o	o
n	n
e	e

__BEGIN__	__EPS__
e	e
r	r

__BEGIN__	__EPS__
d	d
o	a

__BEGIN__	__EPS__
d	d
a	a
s	s

__BEGIN__	__EPS__
i	j
u	u
d	d
e	e
n	n

__BEGIN__	__EPS__
s	s
t	t
u	a
e	__EPS__
n	n
d	d

__BEGIN__	__EPS__
v	u
n	n
d	d

__BEGIN__	__EPS__
m	m
e	e
i	i
n	n

__BEGIN__	__EPS__
d	d
a	a
m	m
y	i
t	t

__BEGIN__	__EPS__
d	d
a	a
z	s

__BEGIN__	__EPS__
e	e
y	i
n	n

__BEGIN__	__EPS__
m	m
a	a
r	r
i	i
a	a

__BEGIN__	__EPS__
i	ih
n	n

__BEGIN__	__EPS__
l	l
e	e
i	i
p	b
h	h
a	a
f	f
t	t
i	i
g	g
e	e

__BEGIN__	__EPS__
h	h
e	ä
t	tte

__BEGIN__	__EPS__
e	e
r	r
b	b
a	a
r	r
m	m
d	t

__BEGIN__	__EPS__
d	d
i	i
e	e

__BEGIN__	__EPS__
w	w
u	__EPS__
o	a
r	r
f	f
e	e
n	n

__BEGIN__	__EPS__
w	w
i	i
r	r

__BEGIN__	__EPS__
t	t
u	u
n	n
d	__EPS__

__BEGIN__	__EPS__
m	m
e	e
i	i
n	n

__BEGIN__	__EPS__
g	g
e	e
h	h
a	a
b	b
e	__EPS__
t	t

__BEGIN__	__EPS__
t	t
h	__EPS__
a	a
e	__EPS__
t	t

__BEGIN__	__EPS__
l	l
i	i
e	e
u	b
e	e

__BEGIN__	__EPS__
d	d
o	a

__BEGIN__	__EPS__
a	a
c	c
h	h

__BEGIN__	__EPS__
i	i
c	c
h	h

__BEGIN__	__EPS__
s	s
y	ie

__BEGIN__	__EPS__
b	b
l	l
u	u
e	__EPS__
t	t
e	__EPS__
s	s
t	t
r	r
o	o
p	p
f	fen

__BEGIN__	__EPS__
a	a
l	l
l	l
e	e
n	n

__BEGIN__	__EPS__
d	d
e	e
m	m
e	__EPS__

__BEGIN__	__EPS__
m	m
e	e
i	i
n	n

__BEGIN__	__EPS__
d	d
e	e
i	i
n	n
e	e
e	__EPS__
t	m

__BEGIN__	__EPS__
d	da
z	ss

__BEGIN__	__EPS__
d	d
i	i
e	e

__BEGIN__	__EPS__
m	m
i	i
r	r

__BEGIN__	__EPS__
i	ih
r	r

__BEGIN__	__EPS__
k	k
i	i
n	n
t	d

__BEGIN__	__EPS__
d	d
y	i
e	e

__BEGIN__	__EPS__
s	s
o	o

__BEGIN__	__EPS__
e	e
s	s

__BEGIN__	__EPS__
v	u
n	n
d	d

__BEGIN__	__EPS__
v	v
o	ol
l	l
p	b
r	r
a	a
c	c
h	h
t	t

__BEGIN__	__EPS__
z	z
u	o
g	g
e	e
n	n

__BEGIN__	__EPS__
m	me
y	i
m	n
e	em

__BEGIN__	__EPS__
k	k
r	r
e	e
w	u
c	__EPS__
z	z

__BEGIN__	__EPS__
n	n
a	a
z	z
a	a
r	r
e	e
n	t
u	h
s	__EPS__

__BEGIN__	__EPS__
d	d
i	e
j	i
n	n

__BEGIN__	__EPS__
w	w
u	äh
n	n
d	t
e	e
n	n

__BEGIN__	__EPS__
s	s
i	eh
e	e
n	n

__BEGIN__	__EPS__
s	s
e	ee
l	l
e	e

__BEGIN__	__EPS__
v	v
o	o
n	n

__BEGIN__	__EPS__
t	t
r	r
o	ö
e	__EPS__
s	s
t	tet

__BEGIN__	__EPS__
v	b
n	i
z	s
e	__EPS__

__BEGIN__	__EPS__
z	z
u	u

__BEGIN__	__EPS__
m	m
a	a
r	r
i	i
a	a

__BEGIN__	__EPS__
f	f
r	re
u	u
n	n
t	d

__BEGIN__	__EPS__
g	g
e	__EPS__
l	li
e	e
d	d
e	er

__BEGIN__	__EPS__
d	d
o	a

__BEGIN__	__EPS__
d	d
a	a
s	s

__BEGIN__	__EPS__
a	__EPS__
e	e
r	r
d	d
e	e

__BEGIN__	__EPS__
m	m
i	i
c	c
h	h

__BEGIN__	__EPS__
v	u
n	n
d	d

__BEGIN__	__EPS__
v	u
n	n
n	d

__BEGIN__	__EPS__
i	j
o	o
h	h
a	a
n	n
n	n
e	e
m	s

__BEGIN__	__EPS__
p	b
e	e
y	i

__BEGIN__	__EPS__
w	w
u	u
e	__EPS__
s	s
c	c
h	h

__BEGIN__	__EPS__
h	__EPS__
e	__EPS__
r	__EPS__
c	__EPS__
z	__EPS__
e	__EPS__
l	l
i	ie
b	b
e	e

__BEGIN__	__EPS__
y	i
n	n

__BEGIN__	__EPS__
h	he
u	u
l	l
t	t
e	e

__BEGIN__	__EPS__
h	h
e	a
t	t
t	t
e	e
n	n

__BEGIN__	__EPS__
g	b
e	e
t	n
a	a
c	__EPS__
h	h
t	m
e	__EPS__

__BEGIN__	__EPS__
d	d
o	o
c	c
h	h

__BEGIN__	__EPS__
l	l
a	a
s	s
s	s
e	e
n	n

__BEGIN__	__EPS__
t	t
o	a
u	u
b	b
e	e
n	n

__BEGIN__	__EPS__
m	m
v	u
o	t
t	t
e	e
r	r

__BEGIN__	__EPS__
z	z
w	w
u	a
n	n
g	g
e	e
n	n

__BEGIN__	__EPS__
h	h
e	a
t	t

__BEGIN__	__EPS__
a	a
n	n

__BEGIN__	__EPS__
h	ha
u	u
s	s

__BEGIN__	__EPS__
a	a
l	l
l	l

__BEGIN__	__EPS__
d	d
a	as
s	s

__BEGIN__	__EPS__
o	o
b	b

__BEGIN__	__EPS__
k	k
r	r
e	e
w	u
c	__EPS__
z	z

__BEGIN__	__EPS__
h	h
e	e
r	r
a	a
b	b

__BEGIN__	__EPS__
d	d
v	u
r	r
c	c
h	h

__BEGIN__	__EPS__
w	w
a	a
r	r
t	t

__BEGIN__	__EPS__
z	z
u	u

__BEGIN__	__EPS__
t	t
o	o
d	d

__BEGIN__	__EPS__
o	ü
b	b
i	e
r	r

__BEGIN__	__EPS__
t	t
r	r
o	o
s	s
t	t

__BEGIN__	__EPS__
h	h
o	o
c	c
h	h

__BEGIN__	__EPS__
m	m
e	a
n	n

__BEGIN__	d
u	u

__BEGIN__	__EPS__
s	s
i	i
c	c
h	h

__BEGIN__	__EPS__
v	v
i	ie
l	l

__BEGIN__	__EPS__
m	m
a	a
n	n

__BEGIN__	__EPS__
g	g
a	eh
t	t

__BEGIN__	__EPS__
h	h
e	ä
n	n
d	de

__BEGIN__	__EPS__
t	t
e	ä
t	te

__BEGIN__	__EPS__
e	a
n	u
p	f
h	n
a	e
h	hm
e	e
n	n

__BEGIN__	__EPS__
v	v
o	o
n	n

__BEGIN__	__EPS__
n	n
i	ich
t	t

__BEGIN__	__EPS__
d	d
i	i
c	e
z	s

__BEGIN__	__EPS__
o	o
w	w
e	eh

__BEGIN__	__EPS__
i	i
s	st

__BEGIN__	__EPS__
l	l
e	e
i	i
b	b

__BEGIN__	__EPS__
c	k
r	r
u	e
y	u
t	__EPS__
z	z
e	e

__BEGIN__	__EPS__
f	f
i	i
n	n
d	de

__BEGIN__	__EPS__
v	v
o	o
n	n

__BEGIN__	__EPS__
v	f
u	a
n	n
d	d
e	e
n	n

__BEGIN__	__EPS__
d	d
a	a
t	ss

__BEGIN__	__EPS__
d	d
a	a
z	s

__BEGIN__	__EPS__
v	u
n	n
d	d

__BEGIN__	__EPS__
z	z
e	e
r	r
b	b
r	r
e	ec
h	h
e	e
n	n

__BEGIN__	__EPS__
d	d
a	a

__BEGIN__	__EPS__
h	h
e	ä
n	n
d	d
t	e

__BEGIN__	__EPS__
g	g
i	i
e	__EPS__
n	n
g	g
e	e
n	n

__BEGIN__	__EPS__
w	w
a	a
z	r

__BEGIN__	__EPS__
i	i
c	c
h	h

__BEGIN__	__EPS__
h	e
e	r

__BEGIN__	__EPS__
i	i
n	n

__BEGIN__	__EPS__
v	u
n	n
g	g
l	l
e	e
i	i
c	c
h	h

__BEGIN__	__EPS__
v	v
o	o
r	r

__BEGIN__	__EPS__
d	d
o	a

__BEGIN__	__EPS__
w	w
a	a
z	s

__BEGIN__	__EPS__
i	j
h	__EPS__
e	e
s	s
u	u
s	s

__BEGIN__	__EPS__
v	u
n	n
n	__EPS__
d	d

__BEGIN__	__EPS__
g	g
e	e
w	w
e	e
s	se
t	n

__BEGIN__	__EPS__
i	i
c	c
h	h

__BEGIN__	__EPS__
d	d
i	i
e	e

__BEGIN__	__EPS__
e	e
s	s

__BEGIN__	__EPS__
v	f
o	o
r	r
t	t

__BEGIN__	__EPS__
g	g
e	e
p	b
o	o
r	r
e	e
n	n

__BEGIN__	__EPS__
a	a
l	l
l	l
e	e

__BEGIN__	__EPS__
e	e
r	r

__BEGIN__	__EPS__
f	f
r	r
a	a
g	g
t	t

__BEGIN__	__EPS__
m	me
y	i
n	n
i	e
s	s

__BEGIN__	__EPS__
p	p
i	i
l	l
a	a
t	t
u	u
s	s

__BEGIN__	__EPS__
d	d
e	e
n	n

__BEGIN__	__EPS__
i	ih
m	m

__BEGIN__	__EPS__
a	a
l	l
s	s

__BEGIN__	__EPS__
e	e
y	i
n	n

__BEGIN__	__EPS__
d	d
a	a
z	s

__BEGIN__	__EPS__
d	d
u	u

__BEGIN__	__EPS__
v	v
a	o
n	n

__BEGIN__	__EPS__
i	ih
m	m

__BEGIN__	__EPS__
p	p
r	r
i	i
e	e
s	s
t	t
e	e
r	r

__BEGIN__	__EPS__
d	d
i	i
c	c
h	h

__BEGIN__	__EPS__
s	s
c	c
h	h
o	ö
e	__EPS__
p	p
f	f
f	__EPS__
e	e
r	r

__BEGIN__	__EPS__
i	i
c	c
h	h

__BEGIN__	__EPS__
i	i
c	c
h	h

__BEGIN__	__EPS__
t	t
a	a
g	g
i	__EPS__
z	s

__BEGIN__	__EPS__
a	a
l	l
l	l
e	__EPS__
z	ze
y	i
d	t

__BEGIN__	__EPS__
v	u
n	n
d	d

__BEGIN__	__EPS__
s	s
p	p
o	o
t	tt
e	e
s	s

__BEGIN__	__EPS__
w	w
e	ä
r	r
e	e

__BEGIN__	__EPS__
s	s
a	a
g	g

__BEGIN__	__EPS__
w	w
o	oh
l	l

__BEGIN__	__EPS__
d	d
e	e
r	r

__BEGIN__	__EPS__
a	a
n	n
d	d
e	e
r	r
s	s

__BEGIN__	__EPS__
d	d
o	a

__BEGIN__	__EPS__
i	ih
n	n

__BEGIN__	__EPS__
s	s
e	e
h	h
e	e

__BEGIN__	__EPS__
h	h
e	e
r	r
n	ni
e	e
d	d
e	e
r	r

__BEGIN__	__EPS__
f	f
e	e
i	i
n	n
t	d
s	s
c	c
h	h
a	a
f	f
t	t

__BEGIN__	__EPS__
d	d
i	i
e	e

__BEGIN__	__EPS__
a	a
n	n

__BEGIN__	__EPS__
g	g
e	e
r	r
i	i
c	c
h	h
t	t

__BEGIN__	__EPS__
h	h
u	o
e	__EPS__
b	b
e	e
n	n

__BEGIN__	__EPS__
a	a
l	l
s	s
o	o

__BEGIN__	__EPS__
k	k
u	o
n	nn
d	t
e	e

__BEGIN__	__EPS__
v	v
o	o
n	n

__BEGIN__	__EPS__
e	e
r	r

__BEGIN__	__EPS__
o	o
w	w
e	eh

__BEGIN__	__EPS__
d	d
a	a
s	s

__BEGIN__	__EPS__
v	v
e	e
r	r
d	d
e	e
r	r
b	b
e	e
n	n

__BEGIN__	__EPS__
s	s
i	i
c	c
h	h

__BEGIN__	__EPS__
c	__EPS__
z	z
e	e
r	r
d	d
e	eh
n	n
t	t
e	e
n	n

__BEGIN__	__EPS__
s	s
y	ie

__BEGIN__	__EPS__
w	w
e	e
n	nn

__BEGIN__	__EPS__
v	u
n	n
d	d

__BEGIN__	__EPS__
v	u
n	n
d	d

__BEGIN__	__EPS__
f	f
r	r
a	a
u	u

__BEGIN__	__EPS__
d	d
e	e
s	s

__BEGIN__	__EPS__
i	ih
n	n

__BEGIN__	__EPS__
g	g
a	a
r	r

__BEGIN__	__EPS__
v	u
n	n
d	d
e	__EPS__

__BEGIN__	__EPS__
m	m
i	i
t	t
t	__EPS__

__BEGIN__	__EPS__
i	ih
m	m

__BEGIN__	__EPS__
a	e
i	i
n	n
e	e
r	r

__BEGIN__	__EPS__
s	s
c	c
h	h
e	ä
f	f
t	te

__BEGIN__	__EPS__
s	s
p	p
r	r
a	a
c	c
h	h

__BEGIN__	__EPS__
d	d
i	i
e	e

__BEGIN__	__EPS__
r	r
e	e
i	i
c	c
h	h

__BEGIN__	__EPS__
i	i
n	n

__BEGIN__	__EPS__
a	a
b	b

__BEGIN__	__EPS__
v	u
n	n
d	d

__BEGIN__	__EPS__
e	e
y	i
n	n

__BEGIN__	__EPS__
l	l
a	a
z	z
a	a
r	r
u	u
n	s

__BEGIN__	__EPS__
s	s
a	o
l	ll
t	t

__BEGIN__	__EPS__
a	a
n	n
d	d
e	e
r	re
n	n

__BEGIN__	__EPS__
m	m
i	i
t	t

__BEGIN__	__EPS__
m	m
e	e
i	i
n	n
e	e
n	n

__BEGIN__	__EPS__
n	n
i	i
e	ch
t	t

__BEGIN__	__EPS__
w	w
a	a
n	nn

__BEGIN__	__EPS__
p	b
l	l
u	u
t	t

__BEGIN__	__EPS__
m	m
i	i
r	r

__BEGIN__	__EPS__
w	w
i	e
j	i
f	b
f	__EPS__

__BEGIN__	__EPS__
e	eh
e	e

__BEGIN__	__EPS__
g	g
e	e
m	m
e	e
i	i
n	n
l	s
i	a
c	__EPS__
h	m

__BEGIN__	__EPS__
k	k
i	i
n	n
d	de
s	s

__BEGIN__	__EPS__
k	k
i	i
n	n
d	d

__BEGIN__	d
v	u

__BEGIN__	__EPS__
h	h
e	a
t	t
t	t
e	e
n	n

__BEGIN__	__EPS__
d	d
a	a
s	s

__BEGIN__	__EPS__
m	m
e	e
y	i
n	n

__BEGIN__	__EPS__
y	je
m	m
a	a
n	n
t	d

__BEGIN__	__EPS__
d	d
i	__EPS__
e	u

__BEGIN__	__EPS__
m	m
i	i
e	__EPS__
r	r

__BEGIN__	__EPS__
l	l
i	i
e	e
f	b
f	__EPS__

__BEGIN__	__EPS__
a	a
n	n

__BEGIN__	__EPS__
a	a
l	l
l	l

__BEGIN__	__EPS__
e	e
r	r

__BEGIN__	__EPS__
i	ih
m	m

__BEGIN__	__EPS__
w	s
e	__EPS__
t	c
a	h
g	m
e	er
n	z

__BEGIN__	__EPS__
y	ih
m	m

__BEGIN__	__EPS__
v	f
i	i
n	n
s	s
t	t
e	e
r	rnis

__BEGIN__	__EPS__
s	s
e	i
u	e

__BEGIN__	__EPS__
d	d
i	i
e	e

__BEGIN__	__EPS__
d	d
o	a

__BEGIN__	__EPS__
i	i
c	c
h	h

__BEGIN__	__EPS__
l	l
i	i
e	e
b	b
e	e

__BEGIN__	__EPS__
w	w
i	i
e	e

__BEGIN__	__EPS__
g	g
e	e
a	a
c	c
h	h
t	t
e	e
t	t

__BEGIN__	__EPS__
d	d
i	i
e	e

__BEGIN__	__EPS__
i	j
h	__EPS__
e	e
s	s
u	u
s	s

__BEGIN__	__EPS__
d	d
i	i
e	e

__BEGIN__	__EPS__
t	__EPS__
z	z
w	w
e	e
n	i
e	__EPS__

__BEGIN__	__EPS__
s	s
p	p
r	r
a	a
c	c
h	h

__BEGIN__	__EPS__
v	v
o	o
l	l
c	k
k	e
s	s

__BEGIN__	__EPS__
b	b
e	e
i	i
n	n

__BEGIN__	__EPS__
s	s
a	a
g	__EPS__
h	h
e	e
n	n

__BEGIN__	__EPS__
d	d
o	a

__BEGIN__	__EPS__
g	g
r	r
o	o
s	s
s	s
e	e
r	r

__BEGIN__	__EPS__
t	__EPS__
z	z
e	u

__BEGIN__	__EPS__
s	s
c	c
h	he
i	i
n	n

__BEGIN__	__EPS__
a	a
n	n
s	s
h	__EPS__
e	e
l	l
m	m

__BEGIN__	__EPS__
p	p
r	r
o	o
p	p
h	h
e	e
t	t
e	e
n	n

__BEGIN__	__EPS__
s	s
y	i
m	m
e	e
o	o
n	n
s	s

__BEGIN__	__EPS__
v	u
n	n
d	d

__BEGIN__	__EPS__
b	b
y	i
s	s
z	__EPS__

__BEGIN__	__EPS__
d	de
i	i
m	n
e	em

__BEGIN__	__EPS__
s	s
p	p
o	o
t	t
t	t
e	e
n	n

__BEGIN__	__EPS__
l	l
i	ie
b	b
e	e
w	__EPS__

__BEGIN__	__EPS__
i	ih
r	r

__BEGIN__	__EPS__
i	ih
n	n

__BEGIN__	__EPS__
d	d
i	i
e	e

__BEGIN__	__EPS__
z	z
v	u

__BEGIN__	__EPS__
i	j
a	a
m	mm
e	e
r	r

__BEGIN__	__EPS__
d	d
e	e
s	s

__BEGIN__	__EPS__
e	e
y	i
n	n

__BEGIN__	__EPS__
k	k
o	o
m	mm
e	e
n	n

__BEGIN__	__EPS__
h	h
o	o
i	r
-	u
m	m

__BEGIN__	__EPS__
w	w
a	a
s	r

__BEGIN__	__EPS__
i	ih
n	n

__BEGIN__	__EPS__
m	me
y	i
n	n

__BEGIN__	__EPS__
d	d
y	ie

__BEGIN__	__EPS__
g	g
e	e
h	h
a	a
z	s
o	s
t	t

__BEGIN__	__EPS__
b	b
e	e
g	g
r	r
a	a
b	b
e	e
n	n

__BEGIN__	__EPS__
g	g
e	e
t	t
o	ö
e	__EPS__
t	t
t	__EPS__
e	e
t	t

__BEGIN__	__EPS__
i	ih
m	m

__BEGIN__	__EPS__
s	s
o	o

__BEGIN__	__EPS__
k	k
u	ö
e	__EPS__
n	n
i	i
g	g

__BEGIN__	be
s	s
u	o
n	n
d	d
e	e
r	r
l	s
i	__EPS__
c	__EPS__
h	__EPS__

__BEGIN__	__EPS__
s	s
v	o
n	n
n	n
e	e

__BEGIN__	__EPS__
v	u
n	n
d	d

__BEGIN__	__EPS__
k	k
i	i
n	n
t	d

__BEGIN__	__EPS__
d	d
a	a
e	__EPS__
r	__EPS__
m	m
e	i
d	t
e	__EPS__

__BEGIN__	__EPS__
e	e
s	s

__BEGIN__	__EPS__
m	m
e	i
d	t
e	__EPS__

__BEGIN__	__EPS__
s	s
a	ol
l	l
t	t

__BEGIN__	__EPS__
d	d
i	i
e	e

__BEGIN__	__EPS__
s	sch
l	l
a	a
f	f
f	__EPS__
e	e
n	n

__BEGIN__	__EPS__
h	h
a	a
z	s
z	s
e	__EPS__

__BEGIN__	__EPS__
i	ih
m	m

__BEGIN__	__EPS__
t	t
o	o
c	c
h	h
t	t
e	e
r	r

__BEGIN__	__EPS__
s	s
c	c
h	h
a	ä
e	__EPS__
c	c
h	h
e	e
r	r

__BEGIN__	__EPS__
h	h
a	a
i	__EPS__
s	s
t	t

__BEGIN__	__EPS__
a	a
n	n

__BEGIN__	__EPS__
v	u
m	m
b	__EPS__

__BEGIN__	__EPS__
v	u
n	n
d	d

__BEGIN__	__EPS__
n	n
i	i
c	c
h	h
t	t
s	s

__BEGIN__	__EPS__
w	w
a	ah
r	r

__BEGIN__	__EPS__
s	s
e	e
i	i
n	n

__BEGIN__	__EPS__
g	g
e	e
d	d
a	a
c	c
h	h
t	t

__BEGIN__	__EPS__
z	z
ü	u
l	l
a	a
u	u
f	f
f	__EPS__

__BEGIN__	__EPS__
l	l
i	ie
b	b
e	e

__BEGIN__	__EPS__
v	f
i	i
n	n
s	s
t	te
r	rn
i	i
n	s

__BEGIN__	__EPS__
l	l
i	ie
b	b
e	e
r	r

__BEGIN__	__EPS__
g	g
e	e
t	t
a	a
n	n

__BEGIN__	__EPS__
v	u
n	n
d	d

__BEGIN__	__EPS__
z	z
a	ä
r	r
t	t
l	l
i	i
c	c
h	h
e	__EPS__

__BEGIN__	__EPS__
v	u
n	n
d	d

__BEGIN__	__EPS__
i	i
c	c
h	h

__BEGIN__	__EPS__
d	d
o	a

__BEGIN__	__EPS__
v	u
n	n
d	d

__BEGIN__	__EPS__
v	u
n	n
d	d

__BEGIN__	__EPS__
v	u
n	n
n	d

__BEGIN__	__EPS__
b	b
r	r
u	u
n	nn
e	e
n	n

__BEGIN__	__EPS__
w	w
a	a
s	r

__BEGIN__	__EPS__
p	b
u	u
e	__EPS__
s	s
z	se

__BEGIN__	__EPS__
y	ih
r	r

__BEGIN__	__EPS__
s	s
e	e
i	i
n	n

__BEGIN__	__EPS__
v	u
n	n
g	g
e	__EPS__
l	le
i	i
c	c
h	h

__BEGIN__	__EPS__
v	v
i	ie
l	l

__BEGIN__	__EPS__
v	fe
y	i
e	e
r	r
t	t
a	a
g	g

__BEGIN__	__EPS__
f	__EPS__
v	v
i	o
r	r
l	l
v	i
i	e
f	f
i	e
n	n

__BEGIN__	__EPS__
e	e
t	t

__BEGIN__	__EPS__
e	e
r	r
l	l
a	a
w	u
b	b
e	__EPS__
s	s
t	t

__BEGIN__	__EPS__
s	s
u	oh
n	n

__BEGIN__	__EPS__
i	j
e	ä
m	mm
e	e
r	r
l	l
i	i
c	c
h	h
e	e
n	n

__BEGIN__	__EPS__
d	d
a	a

__BEGIN__	__EPS__
d	d
a	a
z	ss

__BEGIN__	a
v	u
f	f

__BEGIN__	__EPS__
h	h
i	i
e	er

__BEGIN__	__EPS__
d	w
o	ü
b	r
b	f
e	e
l	l
d	t
e	e
n	n

__BEGIN__	__EPS__
s	s
e	eh
r	r
e	__EPS__

__BEGIN__	__EPS__
d	d
o	a

__BEGIN__	__EPS__
s	s
e	e
i	i
n	n

__BEGIN__	__EPS__
a	a
n	n

__BEGIN__	__EPS__
f	f
a	a
l	l
l	l
i	__EPS__
t	t

__BEGIN__	__EPS__
g	g
e	e
b	b
e	e
y	i
n	n
e	e

__BEGIN__	__EPS__
s	s
c	c
h	h
o	a
w	u
e	e
n	n

__BEGIN__	__EPS__
l	l
y	ie
b	b
e	e
s	s

__BEGIN__	__EPS__
v	u
n	n
d	d

__BEGIN__	__EPS__
e	e
n	n
d	de

__BEGIN__	__EPS__
h	h
e	ä
t	t
t	t
e	e

__BEGIN__	__EPS__
i	i
c	c
h	h

__BEGIN__	__EPS__
a	a
n	n
g	__EPS__
e	__EPS__
s	s
a	a
c	__EPS__
h	h

__BEGIN__	__EPS__
d	d
i	ie
t	s

__BEGIN__	__EPS__
m	m
a	a
r	r
i	i
a	a

__BEGIN__	__EPS__
s	s
i	e
e	i
n	n
e	e
s	s
z	__EPS__

__BEGIN__	__EPS__
m	m
i	i
t	t

__BEGIN__	__EPS__
e	e
s	s
z	__EPS__

__BEGIN__	__EPS__
k	k
l	l
a	a
g	g
t	t

__BEGIN__	__EPS__
t	t
r	r
o	o
s	s
t	t

__BEGIN__	__EPS__
w	w
a	a
r	r
e	e
n	n

__BEGIN__	__EPS__
m	m
i	i
e	__EPS__
r	r

__BEGIN__	__EPS__
v	u
n	n
s	s
e	er

__BEGIN__	__EPS__
v	v
o	o
r	r

__BEGIN__	__EPS__
d	d
o	a

__BEGIN__	__EPS__
m	m
e	e
i	i
n	n
e	e
n	m

__BEGIN__	__EPS__
a	a
l	l
l	l
e	e
n	n

__BEGIN__	__EPS__
g	g
o	o
t	t
t	t
e	e
s	s

__BEGIN__	__EPS__
t	__EPS__
z	z
e	u

__BEGIN__	__EPS__
d	d
e	e
m	m

__BEGIN__	__EPS__
g	g
e	e
w	w
a	a
l	l
t	t

__BEGIN__	__EPS__
d	f
a	o
n	r
e	__EPS__
n	t

__BEGIN__	__EPS__
s	s
i	ie

__BEGIN__	__EPS__
s	s
e	e
i	i
t	t
t	__EPS__
e	e
n	n

__BEGIN__	__EPS__
a	a
l	l
s	s
o	o

__BEGIN__	__EPS__
d	d
a	a
s	s

__BEGIN__	__EPS__
d	d
a	a
s	ss

__BEGIN__	__EPS__
s	s
i	ie

__BEGIN__	__EPS__
i	i
c	c
h	h

__BEGIN__	__EPS__
d	d
i	i
e	e

__BEGIN__	__EPS__
d	d
e	e
n	n

__BEGIN__	__EPS__
v	u
n	n
d	d

__BEGIN__	__EPS__
s	se
i	i
n	n
e	e
s	s

__BEGIN__	__EPS__
a	a
l	l
s	s
o	o

__BEGIN__	__EPS__
s	s
c	c
h	h
o	ö
e	__EPS__
n	n
e	__EPS__
s	s
t	te

__BEGIN__	__EPS__
s	s
e	e
c	__EPS__
h	h
t	t

__BEGIN__	__EPS__
d	d
a	a
t	s

__BEGIN__	__EPS__
e	e
r	r
d	d
e	e
n	n
c	__EPS__
k	k
e	e
n	n

__BEGIN__	__EPS__
d	d
e	e
r	r

__BEGIN__	__EPS__
n	n
y	ie
d	d
e	e
r	r

__BEGIN__	__EPS__
g	g
o	ot
t	t
e	e
s	s

__BEGIN__	__EPS__
o	a
u	u
c	c
h	h

__BEGIN__	__EPS__
w	w
i	i
d	e
d	d
e	e
r	rge
b	b
r	r
a	a
c	c
h	h
t	t

__BEGIN__	__EPS__
v	u
n	n
d	d

__BEGIN__	__EPS__
m	m
i	e
j	i
n	n
r	e
e	r

__BEGIN__	__EPS__
h	h
e	e
i	i
l	l
i	i
g	g
e	e
r	r

__BEGIN__	__EPS__
s	s
e	e
i	i
n	n

__BEGIN__	__EPS__
d	d
i	i
e	e

__BEGIN__	__EPS__
w	w
a	a
s	r

__BEGIN__	__EPS__
d	d
a	a
s	ss

__BEGIN__	__EPS__
d	d
a	a
s	ss

__BEGIN__	__EPS__
d	d
a	a
s	s

__BEGIN__	__EPS__
k	g
e	e
g	g
i	e
n	n

__BEGIN__	__EPS__
d	d
e	e
n	n

__BEGIN__	__EPS__
s	se
y	i
d	t
e	e
n	n

__BEGIN__	__EPS__
d	d
a	as
s	s

__BEGIN__	__EPS__
s	s
c	c
h	h
r	r
i	i
j	e
f	b
f	__EPS__

__BEGIN__	__EPS__
c	__EPS__
z	z
e	e
r	r
b	b
r	r
i	i
c	c
h	h
t	t

__BEGIN__	__EPS__
v	v
o	o
n	n

__BEGIN__	__EPS__
s	s
c	c
h	h
r	r
e	e
y	i
g	e

__BEGIN__	__EPS__
m	m
a	a
c	c
h	h
e	e
n	n

__BEGIN__	__EPS__
d	d
e	e
n	n

__BEGIN__	__EPS__
h	h
e	e
r	r
t	__EPS__
z	z

__BEGIN__	__EPS__
g	g
e	e
t	t
a	e
i	i
l	l
t	t

__BEGIN__	__EPS__
e	e
i	i
n	n

__BEGIN__	__EPS__
s	s
o	o

__BEGIN__	__EPS__
d	d
i	i
r	r

__BEGIN__	__EPS__
d	d
e	e
r	r
s	s
e	e
l	l
b	b
e	e
n	n

__BEGIN__	__EPS__
v	u
n	n
d	d

__BEGIN__	__EPS__
s	s
p	p
r	r
a	a
c	c
h	h

__BEGIN__	__EPS__
i	ih
n	n

__BEGIN__	__EPS__
d	d
a	a
s	s
z	s

__BEGIN__	__EPS__
w	w
i	i
e	e

__BEGIN__	__EPS__
v	u
n	n
d	d

__BEGIN__	__EPS__
d	d
a	a
r	__EPS__
n	n
a	a
c	c
h	h

__BEGIN__	__EPS__
e	nich
n	t

__BEGIN__	__EPS__
s	s
i	i
e	e

__BEGIN__	__EPS__
k	k
o	o
t	t

__BEGIN__	__EPS__
v	u
n	n
g	g
e	__EPS__
l	l
e	e
i	i
c	c
h	h

__BEGIN__	__EPS__
v	u
n	n
g	g
e	__EPS__
l	l
e	e
i	i
c	c
h	h

__BEGIN__	__EPS__
d	d
e	e
r	r

__BEGIN__	__EPS__
m	m
e	ehr

__BEGIN__	__EPS__
t	t
o	o
d	d

__BEGIN__	__EPS__
s	s
e	a
i	g
d	t
e	e

__BEGIN__	__EPS__
y	ih
n	n

__BEGIN__	__EPS__
d	d
i	i
e	e

__BEGIN__	__EPS__
i	ih
n	n

__BEGIN__	__EPS__
l	l
i	i
e	e
u	b
e	e

__BEGIN__	__EPS__
d	d
e	e
m	m

__BEGIN__	d
u	u

__BEGIN__	__EPS__
c	__EPS__
z	z
a	e
y	i
c	c
h	h
e	e
n	n

__BEGIN__	__EPS__
s	s
i	ie

__BEGIN__	__EPS__
m	m
a	a
g	g
d	d
a	a
l	l
e	e
n	n
a	a

__BEGIN__	__EPS__
l	l
i	i
e	e
b	b
i	e
u	__EPS__

__BEGIN__	__EPS__
m	m
i	i
t	t

__BEGIN__	__EPS__
s	s
t	t
i	i
l	l
l	l
e	e

__BEGIN__	__EPS__
d	d
o	a

__BEGIN__	__EPS__
s	s
t	t
y	i
m	mme

__BEGIN__	__EPS__
t	__EPS__
z	z
i	e
j	i
t	t

__BEGIN__	__EPS__
e	e
n	nt
z	z
w	w
a	e
i	i

__BEGIN__	__EPS__
g	g
e	e
s	sch
l	l
a	a
g	g
e	e
n	n

__BEGIN__	__EPS__
a	a
n	n

__BEGIN__	__EPS__
m	m
e	e
n	n
s	s
c	c
h	h
e	e
m	n

__BEGIN__	__EPS__
s	s
y	ie

__BEGIN__	__EPS__
d	d
o	a

__BEGIN__	__EPS__
e	u
n	nd

__BEGIN__	__EPS__
h	h
a	a
i	be
n	n

__BEGIN__	__EPS__
i	i
n	n

__BEGIN__	__EPS__
d	de
y	i
m	n
e	em

__BEGIN__	__EPS__
s	s
a	a
g	g

__BEGIN__	__EPS__
a	o
w	w
e	eh

__BEGIN__	__EPS__
n	n
i	ich
t	t

__BEGIN__	__EPS__
s	s
p	p
r	r
a	a
c	c
h	h

__BEGIN__	__EPS__
d	d
e	e
m	m

__BEGIN__	__EPS__
s	s
i	i
e	e
c	c
h	h
e	e
n	n

__BEGIN__	__EPS__
c	k
r	re
u	u
c	z
e	e
n	n

__BEGIN__	__EPS__
i	i
c	ch

__BEGIN__	__EPS__
c	k
r	r
u	__EPS__
i	e
t	u
z	z
e	e

__BEGIN__	__EPS__
m	m
e	e
i	i
n	n

__BEGIN__	__EPS__
v	v
o	o
n	n

__BEGIN__	__EPS__
o	ih
n	n

__BEGIN__	__EPS__
d	d
e	e
r	r

__BEGIN__	__EPS__
o	o
w	w
e	eh

__BEGIN__	__EPS__
w	w
i	i
r	r

__BEGIN__	__EPS__
d	d
e	e
s	s

__BEGIN__	__EPS__
l	l
a	a
m	m
a	a
z	z
a	a
b	b
a	a
t	t
a	a
n	n
i	i

__BEGIN__	__EPS__
n	n
i	i
e	m
m	m
e	e
r	r

__BEGIN__	__EPS__
i	ih
n	n

__BEGIN__	__EPS__
s	s
a	a
g	ge

__BEGIN__	n
e	ich
n	t

__BEGIN__	__EPS__
m	m
i	i
c	c
h	h

__BEGIN__	__EPS__
v	u
r	r
t	t
a	e
i	i
l	l

__BEGIN__	__EPS__
s	s
p	p
i	__EPS__
e	a
l	l
t	tete

__BEGIN__	__EPS__
h	h
e	a
t	tte

__BEGIN__	__EPS__
s	s
p	p
r	r
a	a
c	c
h	h

__BEGIN__	__EPS__
s	s
p	p
r	r
a	a
c	c
h	h

__BEGIN__	__EPS__
s	s
p	p
r	r
a	a
c	c
h	h

__BEGIN__	__EPS__
i	j
o	o
h	h
a	a
n	n
n	n
e	e
s	s

__BEGIN__	__EPS__
w	w
i	ie
d	d
e	e
r	r

__BEGIN__	__EPS__
v	v
e	e
r	r
k	k
a	a
u	u
f	f
t	t

__BEGIN__	__EPS__
w	w
a	a
n	nn

__BEGIN__	__EPS__
t	t
h	__EPS__
u	u
n	n

__BEGIN__	__EPS__
g	g
e	e
s	s
c	c
h	h
r	r
a	e
y	i

__BEGIN__	__EPS__
w	w
i	i
r	r
t	d

__BEGIN__	__EPS__
s	s
c	c
h	h
a	e
y	i
d	d
e	e
n	n

__BEGIN__	__EPS__
s	s
v	o
n	n
n	n
e	e

__BEGIN__	__EPS__
o	au
c	c
h	h

__BEGIN__	__EPS__
v	f
i	i
n	n
d	d
e	e
n	n

__BEGIN__	__EPS__
h	h
e	ä
t	tte

__BEGIN__	__EPS__
d	d
o	a

__BEGIN__	__EPS__
f	f
u	ü
e	__EPS__
n	n
f	f
f	__EPS__
c	__EPS__
z	z
e	e
h	h
e	__EPS__
n	n

__BEGIN__	__EPS__
w	w
a	a
r	r
e	e
n	n

__BEGIN__	__EPS__
m	m
e	e
n	n
s	s
c	c
h	h
l	l
i	i
c	c
h	h

__BEGIN__	__EPS__
y	ih
m	m

__BEGIN__	__EPS__
k	k
i	i
n	n
t	d

__BEGIN__	__EPS__
f	m
r	__EPS__
v	o
i	r
g	g
e	en

__BEGIN__	__EPS__
s	s
i	i
n	n
d	d

__BEGIN__	__EPS__
e	e
r	r
f	f
u	ü
i	l
l	l
e	__EPS__
t	t

__BEGIN__	__EPS__
k	k
i	i
n	n
d	de
s	s

__BEGIN__	__EPS__
k	k
o	o
m	mm
e	e
n	n

__BEGIN__	__EPS__
h	__EPS__
e	e
r	r

__BEGIN__	__EPS__
e	e
i	i
n	n
e	e
s	s

__BEGIN__	__EPS__
p	p
a	a
r	r
a	a
d	d
i	ie
s	s
e	e

__BEGIN__	__EPS__
d	d
a	a

__BEGIN__	__EPS__
v	u
n	n
d	d

__BEGIN__	__EPS__
p	b
r	r
u	u
s	s
t	t

__BEGIN__	__EPS__
s	s
p	p
r	r
a	a
c	c
h	h

__BEGIN__	__EPS__
h	h
a	a
d	t
d	t
e	e
n	n

__BEGIN__	__EPS__
e	e
i	i
n	n
e	e
r	r

__BEGIN__	__EPS__
v	u
n	n
d	d

__BEGIN__	__EPS__
c	__EPS__
z	z
u	u

__BEGIN__	__EPS__
g	g
e	e
l	l
o	a
u	u
f	f
f	__EPS__
e	e
n	n

__BEGIN__	__EPS__
i	ih
n	n

__BEGIN__	__EPS__
h	h
e	e
r	r
t	__EPS__
z	z
e	__EPS__

__BEGIN__	__EPS__
w	w
a	a
s	r
z	__EPS__

__BEGIN__	__EPS__
m	m
a	a
n	nn

__BEGIN__	__EPS__
z	z
e	u

__BEGIN__	__EPS__
g	g
e	e
n	n
o	o
m	mm
e	e
n	n

__BEGIN__	__EPS__
v	v
a	a
d	t
e	e
r	r

__BEGIN__	__EPS__
v	u
n	n
d	d

__BEGIN__	__EPS__
p	b
e	e
y	i

__BEGIN__	__EPS__
i	ih
m	m

__BEGIN__	__EPS__
w	w
e	e
e	i
n	n
d	t
e	e

__BEGIN__	__EPS__
s	s
a	a
c	__EPS__
h	h

__BEGIN__	__EPS__
c	k
h	__EPS__
i	i
n	n
t	d

__BEGIN__	__EPS__
i	i
c	c
h	h

__BEGIN__	__EPS__
p	b
l	l
i	i
n	n
t	d
t	__EPS__
e	e
n	n

__BEGIN__	__EPS__
d	d
e	e
r	r

__BEGIN__	__EPS__
o	a
u	u
c	c
h	h

__BEGIN__	__EPS__
s	s
t	t
a	ad
t	t

__BEGIN__	__EPS__
g	g
o	ö
e	t
t	t
l	l
i	i
c	c
h	h
e	e
n	n

__BEGIN__	__EPS__
n	n
a	a
m	m
e	e
n	n

__BEGIN__	__EPS__
c	k
h	__EPS__
i	i
n	n
d	d

__BEGIN__	__EPS__
d	d
a	as
s	s

__BEGIN__	__EPS__
m	m
i	i
c	c
h	h

__BEGIN__	__EPS__
v	f
o	o
r	r
t	t

__BEGIN__	__EPS__
s	s
i	i
e	e

__BEGIN__	__EPS__
k	k
e	e
i	i
n	n

__BEGIN__	__EPS__
e	e
r	r
f	f
r	r
e	e
u	u
d	t

__BEGIN__	__EPS__
i	i
c	c
h	h

__BEGIN__	__EPS__
s	s
e	eh
r	r

__BEGIN__	__EPS__
a	a
l	l
s	s
o	o

__BEGIN__	__EPS__
i	ih
m	m

__BEGIN__	__EPS__
d	der

__BEGIN__	__EPS__
k	k
v	ö
n	ni
c	g

__BEGIN__	__EPS__
l	j
u	u
d	d
e	e
n	n

__BEGIN__	__EPS__
s	s
y	ie

__BEGIN__	__EPS__
e	e
s	s

__BEGIN__	__EPS__
t	t
e	e
y	i
l	l
e	e
n	n

__BEGIN__	__EPS__
v	u
n	n
d	d

__BEGIN__	__EPS__
o	o
b	be
r	r
i	__EPS__
s	s
t	t
e	e
n	n

__BEGIN__	__EPS__
g	g
e	e
p	b
e	e
t	t
t	__EPS__

__BEGIN__	__EPS__
a	a
n	n

__BEGIN__	__EPS__
w	de
o	n
n	n

__BEGIN__	__EPS__
s	s
c	__EPS__
h	te
i	r
d	b
u	e
n	n
g	s

__BEGIN__	__EPS__
w	w
o	u
n	n
d	d
e	e

__BEGIN__	__EPS__
e	e
r	r
z	z
o	e
e	i
g	g
t	t

__BEGIN__	__EPS__
d	d
e	e
r	r

__BEGIN__	__EPS__
c	k
r	re
u	u
c	z
e	i
g	g
e	e
n	n

__BEGIN__	__EPS__
k	k
a	a
m	m

__BEGIN__	__EPS__
d	d
e	e
m	m

__BEGIN__	__EPS__
i	i
n	n

__BEGIN__	__EPS__
g	g
r	r
o	o
s	s
s	s
e	e
m	m

__BEGIN__	__EPS__
v	u
n	n
s	s
e	e
r	r

__BEGIN__	__EPS__
m	me
y	i
n	n
e	e
n	n

__BEGIN__	__EPS__
m	m
o	o
c	c
h	h
t	te

__BEGIN__	__EPS__
g	g
e	e
r	r
n	n

__BEGIN__	__EPS__
z	z
u	u
o	__EPS__

__BEGIN__	__EPS__
v	u
n	n
d	d

__BEGIN__	__EPS__
r	r
e	e
i	i
c	c
h	h

__BEGIN__	__EPS__
w	w
i	i
l	ll

__BEGIN__	__EPS__
i	j
a	a
c	c
o	o
b	bus

__BEGIN__	__EPS__
t	z
z	e
o	r
b	b
r	r
e	e
c	c
h	h
e	e
n	n

__BEGIN__	__EPS__
k	k
y	i
n	n
t	d

__BEGIN__	__EPS__
m	me
i	i
n	n
e	e
m	m

__BEGIN__	__EPS__
n	n
a	a
l	g
e	el

__BEGIN__	__EPS__
v	u
n	n
d	d

__BEGIN__	__EPS__
i	ih
m	m

__BEGIN__	__EPS__
n	n
u	un

__BEGIN__	d
u	u

__BEGIN__	__EPS__
v	u
n	n
n	__EPS__
d	d

__BEGIN__	__EPS__
h	h
a	a
b	b
e	e
n	n
t	__EPS__

__BEGIN__	__EPS__
s	s
e	e
i	i
n	n
e	e
n	m

__BEGIN__	__EPS__
e	e
i	i
n	n
e	e
n	n

__BEGIN__	__EPS__
h	h
e	a
t	tt
e	e
n	n

__BEGIN__	__EPS__
r	r
e	e
c	c
h	h
t	t

__BEGIN__	__EPS__
i	ih
n	n

__BEGIN__	__EPS__
m	me
i	i
n	n

__BEGIN__	__EPS__
b	b
e	e
s	s
c	c
h	h
l	l
o	o
s	s
z	s

__BEGIN__	__EPS__
i	i
c	c
h	h

__BEGIN__	__EPS__
k	k
r	r
e	e
w	u
c	__EPS__
z	z

__BEGIN__	__EPS__
d	d
i	i
e	e

__BEGIN__	__EPS__
e	e
s	s
s	s
i	i
c	__EPS__
h	g

__BEGIN__	__EPS__
z	z
u	u
o	__EPS__

__BEGIN__	__EPS__
n	n
i	i
c	c
h	h
t	t

__BEGIN__	__EPS__
n	n
a	a
s	ss

__BEGIN__	__EPS__
g	b
e	et
r	r
o	ü
w	bt
e	e

__BEGIN__	__EPS__
f	f
r	r
a	a
w	u

__BEGIN__	__EPS__
n	n
o	o
c	c
h	h

__BEGIN__	__EPS__
d	d
e	e
r	r

__BEGIN__	__EPS__
a	a
b	b
e	e
r	r

__BEGIN__	__EPS__
w	w
a	a
z	s

__BEGIN__	__EPS__
m	me
i	i
n	n

__BEGIN__	__EPS__
v	u
n	n
g	g
e	__EPS__
l	le
i	i
c	c
h	h
e	e

__BEGIN__	__EPS__
s	se
y	i
n	n

__BEGIN__	__EPS__
w	w
a	a
t	s

__BEGIN__	__EPS__
p	p
y	i
l	l
a	a
t	t
u	u
s	s

__BEGIN__	__EPS__
g	g
r	r
o	o
z	ss
e	e
m	m

__BEGIN__	__EPS__
h	h
e	a
u	u
b	p
e	__EPS__
t	t

__BEGIN__	__EPS__
i	j
h	e
-	s
v	us

__BEGIN__	__EPS__
n	n
e	eh
m	m
t	t

__BEGIN__	n
e	ich
n	t

__BEGIN__	__EPS__
m	m
a	a
l	l

__BEGIN__	__EPS__
d	d
e	e
m	m

__BEGIN__	__EPS__
n	n
i	ic
h	h
t	t

__BEGIN__	__EPS__
v	v
o	o
n	n

__BEGIN__	__EPS__
c	k
r	r
e	e
u	u
t	__EPS__
z	z

__BEGIN__	__EPS__
s	s
u	o
n	nne

__BEGIN__	__EPS__
p	p
y	i
l	l
a	a
t	t
u	u
s	s

__BEGIN__	__EPS__
s	s
a	a
c	__EPS__
h	h
e	e
n	n

__BEGIN__	__EPS__
s	s
p	p
r	r
a	a
c	c
h	h

__BEGIN__	__EPS__
s	s
c	c
h	h
w	w
e	e
s	s
t	t
e	e
r	r

__BEGIN__	__EPS__
v	u
n	n
d	d

__BEGIN__	ü
p	b
e	e
f	rg
i	e
l	b
c	e
h	__EPS__

__BEGIN__	__EPS__
m	m
e	e
n	n
s	s
c	c
h	h

__BEGIN__	__EPS__
r	r
a	e
i	i
n	n
e	e
w	__EPS__

__BEGIN__	__EPS__
i	ih
m	m

__BEGIN__	__EPS__
d	d
e	e
r	r

__BEGIN__	__EPS__
m	m
e	e
i	i
n	n

__BEGIN__	__EPS__
h	h
i	im
m	m
e	e
l	l
r	r
e	e
i	i
c	c
h	h

__BEGIN__	__EPS__
d	d
i	i
e	e

__BEGIN__	__EPS__
g	g
e	e
s	s
c	c
h	h
a	a
f	f
f	f
e	e
n	n

__BEGIN__	__EPS__
c	k
r	r
o	ö
n	n
e	e
n	n

__BEGIN__	__EPS__
s	s
a	a
g	g
e	e
n	n

__BEGIN__	__EPS__
s	s
a	a
c	__EPS__
h	h

__BEGIN__	__EPS__
s	s
p	p
r	r
a	a
c	c
h	h

__BEGIN__	__EPS__
v	v
a	o
n	n

__BEGIN__	__EPS__
h	__EPS__
e	e
r	r

__BEGIN__	__EPS__
a	a
v	u
z	s
g	g
e	e
f	f
u	ü
e	h
r	r
t	t

__BEGIN__	__EPS__
m	m
a	a
n	n

__BEGIN__	__EPS__
s	se
y	i
n	n
e	e

__BEGIN__	__EPS__
e	e
r	r

__BEGIN__	__EPS__
k	k
i	i
n	n
t	d

__BEGIN__	__EPS__
j	j
a	a
m	mm
e	e
r	r

__BEGIN__	__EPS__
l	l
e	e
i	i
d	d
e	e
n	n

__BEGIN__	__EPS__
i	i
c	c
h	h

__BEGIN__	__EPS__
m	me
i	i
n	n

__BEGIN__	__EPS__
a	a
l	l
l	l
e	e
r	r
l	l
i	ie
b	b
s	s
t	t
e	e
r	r

__BEGIN__	__EPS__
d	di
e	e
s	s
e	e

__BEGIN__	__EPS__
n	n
i	ich
t	t

__BEGIN__	__EPS__
a	a
l	l
z	s

__BEGIN__	__EPS__
e	i
m	h
e	m

__BEGIN__	__EPS__
v	u
n	n
d	d

__BEGIN__	__EPS__
e	e
r	r

__BEGIN__	__EPS__
v	v
e	e
r	r
l	l
a	e
u	u
g	g
e	__EPS__
n	ne
t	t

__BEGIN__	__EPS__
d	d
ü	u

__BEGIN__	__EPS__
w	w
a	a
t	s

__BEGIN__	__EPS__
d	d
e	e
r	r

__BEGIN__	__EPS__
m	m
e	e
n	n
s	s
c	c
h	h
e	__EPS__

__BEGIN__	__EPS__
v	u
n	n
d	d

__BEGIN__	__EPS__
m	m
o	o
c	c
h	h
t	te

__BEGIN__	__EPS__
v	u
n	n
d	d

__BEGIN__	__EPS__
m	me
y	i
n	n

__BEGIN__	__EPS__
s	s
e	e
i	i
n	n
e	e
n	n

__BEGIN__	__EPS__
y	ih
n	n

__BEGIN__	__EPS__
d	d
r	r
e	e
y	i

__BEGIN__	__EPS__
d	d
i	i
c	c
h	h

__BEGIN__	__EPS__
s	s
u	o
n	n
d	d
e	e
r	r
n	n

__BEGIN__	__EPS__
y	i
s	s
r	r
a	a
h	__EPS__
e	e
l	l

__BEGIN__	__EPS__
e	e
r	r

__BEGIN__	__EPS__
k	k
e	a
i	i
s	s
e	e
r	r

__BEGIN__	__EPS__
v	v
a	o
n	n

__BEGIN__	__EPS__
e	e
r	r
b	b
e	a
r	r
m	m
e	u
d	n
e	g

__BEGIN__	__EPS__
i	j
v	u
d	d
e	e
n	n

__BEGIN__	__EPS__
t	t
r	r
o	o
s	s
t	t

__BEGIN__	__EPS__
s	se
y	i
n	n
e	e
r	r

__BEGIN__	__EPS__
v	v
o	o
n	n

__BEGIN__	__EPS__
w	w
a	a
s	r

__BEGIN__	__EPS__
m	m
i	i
r	r

__BEGIN__	__EPS__
d	d
i	i
e	e

__BEGIN__	__EPS__
e	e
r	r

__BEGIN__	__EPS__
d	d
i	i
e	e

__BEGIN__	__EPS__
k	k
i	i
n	n
d	d

__BEGIN__	__EPS__
c	k
l	l
a	a
g	g
e	e
n	n

__BEGIN__	__EPS__
i	i
c	c
h	h

__BEGIN__	__EPS__
w	w
u	u
r	r
d	d
e	e
n	n

__BEGIN__	__EPS__
i	i
n	n

__BEGIN__	__EPS__
n	n
i	ich
t	t

__BEGIN__	__EPS__
m	m
a	a
r	r
i	i
a	a

__BEGIN__	__EPS__
s	s
c	c
h	h
a	a
f	f
f	f
e	e
n	n

__BEGIN__	__EPS__
w	w
i	i
s	s
s	s
e	e
n	n

__BEGIN__	__EPS__
d	d
e	e
r	r

__BEGIN__	__EPS__
a	a
n	n

__BEGIN__	__EPS__
k	k
o	a
m	m
e	e
n	n
d	__EPS__

__BEGIN__	__EPS__
d	d
u	u

__BEGIN__	__EPS__
s	s
p	p
r	r
e	ä
c	c
h	he

__BEGIN__	__EPS__
i	i
n	n

__BEGIN__	__EPS__
l	l
e	eh
r	r
e	e

__BEGIN__	__EPS__
n	n
ü	un

__BEGIN__	__EPS__
d	t
e	ä
d	t
e	e

__BEGIN__	__EPS__
s	s
p	p
r	r
a	a
c	c
h	h

__BEGIN__	__EPS__
d	d
a	a
s	ss

__BEGIN__	__EPS__
s	s
u	o
l	ll
d	t
e	e

__BEGIN__	d
u	u

__BEGIN__	__EPS__
s	s
t	t
r	r
a	as
t	s
e	e

__BEGIN__	__EPS__
g	g
i	i
e	__EPS__
n	n
g	g

__BEGIN__	__EPS__
s	s
e	e
i	i
n	n

__BEGIN__	__EPS__
s	s
a	a
g	g
e	e
n	n

__BEGIN__	__EPS__
d	d
o	a

__BEGIN__	__EPS__
a	a
l	l
l	l

__BEGIN__	__EPS__
i	j
o	o
h	h
a	a
n	nn
e	e
s	s

__BEGIN__	__EPS__
i	ih
n	n

__BEGIN__	__EPS__
e	e
i	i
n	n

__BEGIN__	__EPS__
k	g
e	e
i	__EPS__
n	n

__BEGIN__	__EPS__
a	a
b	b
e	e
r	r

__BEGIN__	__EPS__
h	e
e	r

__BEGIN__	__EPS__
e	e
r	r
s	s
a	a
h	h
e	e
n	n

__BEGIN__	__EPS__
k	k
i	i
n	n
d	d

__BEGIN__	__EPS__
s	s
i	i
c	c
h	h

__BEGIN__	__EPS__
d	d
o	a

__BEGIN__	__EPS__
a	a
u	u
f	f

__BEGIN__	__EPS__
s	s
p	p
r	r
a	a
c	c
h	h
e	e
n	n
d	__EPS__

__BEGIN__	__EPS__
t	t
h	__EPS__
u	u
o	__EPS__
n	n
d	__EPS__

__BEGIN__	__EPS__
w	w
a	a
r	r
t	d

__BEGIN__	__EPS__
d	d
o	a

__BEGIN__	__EPS__
m	m
e	e
n	n
s	s
c	c
h	h

__BEGIN__	__EPS__
n	n
a	e
i	i
g	g
e	__EPS__
t	t

__BEGIN__	__EPS__
c	__EPS__
z	z
u	u

__BEGIN__	__EPS__
s	s
c	c
h	h
w	w
e	e
r	r
l	l
i	i
c	c
h	h
e	e
r	r

__BEGIN__	__EPS__
f	f
y	i
l	l
i	i
a	a

__BEGIN__	__EPS__
i	ih
n	n

__BEGIN__	__EPS__
a	a
r	r
m	m

__BEGIN__	__EPS__
m	me
i	i
n	n

__BEGIN__	__EPS__
a	a
l	l
l	l
e	e
s	s

__BEGIN__	__EPS__
w	w
a	a
r	r
t	d

__BEGIN__	__EPS__
s	s
c	c
h	h
r	r
u	__EPS__
i	i
e	e
n	n
t	__EPS__

__BEGIN__	__EPS__
h	h
e	e
r	r
a	a
b	b

__BEGIN__	__EPS__
d	d
e	e
n	n

__BEGIN__	__EPS__
d	d
a	a
r	__EPS__
n	n
a	a
c	c
h	h

__BEGIN__	__EPS__
i	i
c	c
h	h

__BEGIN__	__EPS__
b	b
i	i
t	t
t	t
e	e
r	re
n	n

__BEGIN__	__EPS__
g	g
y	i
n	n
g	g
e	e
n	n

__BEGIN__	__EPS__
v	u
n	n
g	g
e	__EPS__
l	l
i	i
m	m
p	p
h	f
t	l
e	i
n	ch

__BEGIN__	__EPS__
i	i
n	n

__BEGIN__	__EPS__
u	a
f	u
f	f

__BEGIN__	__EPS__
w	w
u	u
n	n
d	d
e	e
r	r
t	t

__BEGIN__	__EPS__
m	m
e	e
n	n
s	s
c	c
h	h
e	e
n	n

__BEGIN__	__EPS__
v	u
n	n
d	d

__BEGIN__	__EPS__
d	d
e	e
s	s

__BEGIN__	__EPS__
m	m
i	i
c	c
h	h

__BEGIN__	__EPS__
n	n
a	a
c	c
h	h
t	t

__BEGIN__	__EPS__
v	v
i	ie
l	l

__BEGIN__	__EPS__
c	__EPS__
z	z
w	w
e	e
n	i

__BEGIN__	__EPS__
s	s
t	t
e	e
r	r
b	b
e	e
n	n

__BEGIN__	__EPS__
j	j
a	a
c	c
o	o
b	bus

__BEGIN__	__EPS__
m	m
i	i
r	r

__BEGIN__	__EPS__
b	b
e	e
r	r
v	ü
e	h
r	r
e	e
n	n

__BEGIN__	__EPS__
m	m
e	e
i	i
n	n
e	e
m	m

__BEGIN__	__EPS__
c	k
h	__EPS__
i	i
n	n
t	d

__BEGIN__	__EPS__
l	l
i	i
e	e
s	s
s	s
e	e
n	n

__BEGIN__	__EPS__
l	l
e	e
i	i
b	b

__BEGIN__	__EPS__
v	v
o	o
n	n

__BEGIN__	__EPS__
w	w
i	i
e	e

__BEGIN__	__EPS__
e	e
u	u
c	c
h	h

__BEGIN__	__EPS__
m	m
e	eh
r	r

__BEGIN__	__EPS__
w	w
a	a
i	__EPS__
r	r
u	u
m	m
b	__EPS__

__BEGIN__	__EPS__
a	a
l	l
l	l

__BEGIN__	__EPS__
d	d
o	a

__BEGIN__	__EPS__
b	b
e	e
d	d
a	e
c	c
h	k
t	t

__BEGIN__	__EPS__
f	f
l	l
o	o
s	s
z	s

__BEGIN__	__EPS__
v	u
n	n
d	d

__BEGIN__	__EPS__
e	e
s	s

__BEGIN__	__EPS__
g	g
r	r
a	a
b	b
e	__EPS__

__BEGIN__	__EPS__
c	k
r	r
ü	e
t	u
z	zi
g	g
e	e
n	n

__BEGIN__	__EPS__
m	m
i	i
t	t

__BEGIN__	__EPS__
i	je
r	rusa
l	l
-	e
m	m

__BEGIN__	__EPS__
d	d
y	ie

__BEGIN__	__EPS__
d	d
i	i
e	e

__BEGIN__	__EPS__
w	w
e	ä
r	r
e	e

__BEGIN__	__EPS__
a	a
n	n

__BEGIN__	__EPS__
c	__EPS__
h	k
r	r
a	__EPS__
e	e
w	u
c	__EPS__
z	z

__BEGIN__	__EPS__
f	f
r	r
o	öh
l	l
i	i
c	c
h	h

__BEGIN__	__EPS__
m	m
i	i
c	c
h	h

__BEGIN__	__EPS__
s	s
p	p
r	r
a	a
c	c
h	h

__BEGIN__	__EPS__
w	w
c	as

__BEGIN__	__EPS__
k	k
r	r
u	e
i	u
c	__EPS__
z	z
i	i
g	g
e	e
n	n

__BEGIN__	__EPS__
v	u
n	n
d	d

__BEGIN__	__EPS__
g	g
e	e
l	l
a	a
u	u
f	f
f	__EPS__
e	e
n	n

__BEGIN__	__EPS__
e	e
w	v
a	a
n	n
g	g
e	e
l	l
i	i
s	s
t	t

__BEGIN__	__EPS__
i	i
c	c
h	h

__BEGIN__	__EPS__
a	a
l	l
s	s
o	o

__BEGIN__	__EPS__
v	u
n	n
d	d

__BEGIN__	__EPS__
f	f
r	r
a	a
g	ge

__BEGIN__	__EPS__
s	s
a	a
s	ss
e	e
n	n

__BEGIN__	__EPS__
s	s
p	p
r	r
a	a
c	c
h	h

__BEGIN__	__EPS__
e	e
r	r

__BEGIN__	__EPS__
g	g
i	i
n	n
g	g
e	e
n	n

__BEGIN__	__EPS__
l	l
e	e
y	i
d	d
e	e
r	r

__BEGIN__	__EPS__
h	h
a	a
m	m
m	m
e	e
r	r
s	sch
l	l
e	ä
g	g
e	e

__BEGIN__	__EPS__
p	p
y	i
l	l
a	a
t	t
u	u
s	s

__BEGIN__	__EPS__
v	f
r	r
o	oh

__BEGIN__	__EPS__
e	e
i	i
n	n
e	e
n	n

__BEGIN__	__EPS__
a	a
n	n

__BEGIN__	__EPS__
l	l
e	e
b	b
t	t

__BEGIN__	__EPS__
v	v
o	o
n	n

__BEGIN__	__EPS__
v	u
n	n
d	d

__BEGIN__	__EPS__
w	w
e	e
r	__EPS__
l	l
t	t

__BEGIN__	__EPS__
e	e
r	r
s	sc
h	h
r	r
a	a
k	k

__BEGIN__	__EPS__
d	d
o	a

__BEGIN__	__EPS__
r	r
o	o
t	t
h	__EPS__

__BEGIN__	__EPS__
d	d
u	u

__BEGIN__	__EPS__
s	s
i	i
c	c
h	h

__BEGIN__	__EPS__
n	n
a	ah
m	m
e	e
n	n
d	__EPS__

__BEGIN__	__EPS__
s	s
a	a
g	g

__BEGIN__	__EPS__
d	d
e	e
r	r

__BEGIN__	__EPS__
s	s
o	o
i	l
l	l
d	t
e	e

__BEGIN__	__EPS__
m	m
e	e
n	n
s	s
h	c
e	h

__BEGIN__	__EPS__
s	s
c	c
h	h
o	ö
e	__EPS__
n	n
s	s
t	t
e	e
n	n

__BEGIN__	__EPS__
g	ge
s	s
u	u
n	n
t	d

__BEGIN__	__EPS__
i	ih
m	m

__BEGIN__	__EPS__
i	j
u	u
d	d
e	e
n	n

__BEGIN__	__EPS__
k	k
i	i
n	n
d	d
e	er
n	n

__BEGIN__	__EPS__
h	h
i	i
e	__EPS__
n	n
g	g
e	e
n	n

__BEGIN__	__EPS__
v	u
n	n
d	d

__BEGIN__	__EPS__
t	l
e	i
n	n
c	__EPS__
h	__EPS__
k	k
e	e
n	n

__BEGIN__	__EPS__
s	s
i	i
c	c
h	h

__BEGIN__	__EPS__
i	j
v	u
d	d
e	e
n	n

__BEGIN__	__EPS__
m	m
a	a
n	n

__BEGIN__	__EPS__
g	g
e	e
b	b
e	e
n	n

__BEGIN__	__EPS__
v	f
r	r
e	e
u	u
w	e
n	n

__BEGIN__	__EPS__
k	k
i	i
n	n
t	d
h	__EPS__

__BEGIN__	__EPS__
n	n
a	a
c	c
k	k
e	__EPS__
t	t

__BEGIN__	__EPS__
c	k
r	r
u	__EPS__
e	e
t	u
z	z

__BEGIN__	__EPS__
g	g
e	e
s	s
c	c
h	h
y	eh
e	e
n	n

__BEGIN__	__EPS__
m	m
a	a
r	r
t	t
e	e
r	r

__BEGIN__	__EPS__
b	b
e	e
n	n
o	o
m	mm
e	e
n	n

__BEGIN__	__EPS__
h	h
a	a
i	__EPS__
t	t

__BEGIN__	__EPS__
d	d
a	a
s	ss

__BEGIN__	__EPS__
s	s
a	a
h	h
e	e
n	n

__BEGIN__	__EPS__
v	v
o	o
n	n

__BEGIN__	__EPS__
m	m
a	a
c	c
h	h
t	t

__BEGIN__	__EPS__
d	d
a	as
s	s

__BEGIN__	__EPS__
d	d
o	a

__BEGIN__	__EPS__
s	s
i	ie

__BEGIN__	__EPS__
v	f
i	i
n	n
d	d
e	e
t	t

__BEGIN__	__EPS__
c	z
e	e
n	n
t	t
g	g
r	r
a	a
f	f

__BEGIN__	__EPS__
v	v
i	ie
l	l

__BEGIN__	__EPS__
p	p
e	e
t	t
r	r
u	u
s	s

__BEGIN__	__EPS__
k	k
i	i
n	n
d	d
e	e
r	r

__BEGIN__	__EPS__
s	s
e	eh
r	r
e	__EPS__

__BEGIN__	__EPS__
d	d
o	a

__BEGIN__	__EPS__
d	t
e	ä
d	t
e	e

__BEGIN__	__EPS__
i	i
c	c
h	h

__BEGIN__	__EPS__
v	u
n	n
d	d

__BEGIN__	__EPS__
h	h
i	i
e	er

__BEGIN__	__EPS__
m	m
i	i
r	r

__BEGIN__	__EPS__
i	j
h	e
-	s
u	u

__BEGIN__	__EPS__
v	u
n	n
d	d

__BEGIN__	__EPS__
a	a
l	l
l	l
e	e
n	n

__BEGIN__	__EPS__
v	u
n	n
d	d

__BEGIN__	__EPS__
a	a
n	n

__BEGIN__	__EPS__
w	w
a	a
t	s

__BEGIN__	__EPS__
l	l
e	e
i	i
b	b

__BEGIN__	__EPS__
e	e
u	u
c	c
h	h

__BEGIN__	__EPS__
b	b
i	i
s	st

__BEGIN__	__EPS__
d	k
e	e
h	__EPS__
a	__EPS__
i	i
n	n

__BEGIN__	__EPS__
d	d
e	e
s	shalb

__BEGIN__	__EPS__
b	b
e	e
i	i
n	n

__BEGIN__	__EPS__
t	__EPS__
z	z
o	u

__BEGIN__	__EPS__
v	u
n	n
d	d

__BEGIN__	__EPS__
r	r
e	e
x	x

__BEGIN__	__EPS__
e	e
r	r
k	k
e	e
n	n
n	n
t	t

__BEGIN__	__EPS__
v	v
o	o
n	n

__BEGIN__	__EPS__
w	w
a	a
s	s

__BEGIN__	__EPS__
w	b
i	i
s	s

__BEGIN__	__EPS__
a	a
l	l
s	s
o	o

__BEGIN__	__EPS__
b	b
e	e
n	n
o	o
m	mm
e	e
n	n

__BEGIN__	__EPS__
s	s
e	e
i	i
n	n

__BEGIN__	__EPS__
a	a
n	n
s	s
h	__EPS__
e	e
l	l
m	m
e	__EPS__

__BEGIN__	__EPS__
g	g
e	e
s	s
c	c
h	h
a	a
h	h
e	__EPS__

__BEGIN__	__EPS__
r	r
e	e
y	i
s	sse

__BEGIN__	__EPS__
d	d
i	i
e	e

__BEGIN__	__EPS__
s	s
p	p
e	i
r	r
i	i
o	__EPS__
t	t
u	u
s	s

__BEGIN__	__EPS__
a	e
i	i
n	n

__BEGIN__	__EPS__
a	a
n	n

__BEGIN__	__EPS__
s	s
p	p
r	r
a	a
c	c
h	h

__BEGIN__	__EPS__
h	__EPS__
e	e
r	r

__BEGIN__	__EPS__
d	d
e	e
r	r

__BEGIN__	__EPS__
m	me
y	i
n	n
e	e
s	s

__BEGIN__	__EPS__
v	u
n	n
d	d

__BEGIN__	__EPS__
d	d
a	a
i	__EPS__
r	r
u	u
m	m
b	__EPS__

__BEGIN__	__EPS__
f	f
r	r
a	a
w	u
e	e
n	n

__BEGIN__	__EPS__
s	s
t	t
i	i
e	e
z	s
z	s
e	e
n	n

__BEGIN__	__EPS__
z	z
v	u

__BEGIN__	__EPS__
n	n
i	ie
d	d
e	e
r	r

__BEGIN__	__EPS__
s	s
c	c
h	h
r	r
i	i
f	f
f	__EPS__
t	t

__BEGIN__	__EPS__
d	d
i	i
e	e

__BEGIN__	__EPS__
w	w
e	e
y	i
n	n
e	e
n	n

__BEGIN__	__EPS__
s	s
o	o

__BEGIN__	__EPS__
t	__EPS__
z	z
v	u
e	__EPS__

__BEGIN__	__EPS__
s	s
o	oh
n	n

__BEGIN__	__EPS__
a	e
i	i
n	n

__BEGIN__	__EPS__
e	e
r	r
t	d
e	__EPS__
r	re
i	i
c	c
h	h

__BEGIN__	__EPS__
t	t
a	a
g	g
e	e
n	n

__BEGIN__	__EPS__
w	w
o	o
l	ll
d	t
e	e
n	n

__BEGIN__	__EPS__
g	g
e	e
b	b
o	o
r	r
e	e
n	n

__BEGIN__	__EPS__
d	d
a	a
z	ss

__BEGIN__	__EPS__
w	w
a	a
s	r

__BEGIN__	__EPS__
v	u
n	n
g	g
e	e
t	t
r	r
o	ö
e	__EPS__
s	s
t	t
e	e
t	t

__BEGIN__	__EPS__
a	e
i	i
n	n

__BEGIN__	__EPS__
m	m
e	e
i	i
n	n

__BEGIN__	__EPS__
w	w
o	o
r	r
d	d
e	e
n	n

__BEGIN__	__EPS__
s	s
e	e
i	i
n	n
e	e
r	r

__BEGIN__	__EPS__
a	a
n	n
t	t
l	l
i	i
c	t
z	z
e	e

__BEGIN__	__EPS__
g	g
r	r
o	o
s	s
z	s

__BEGIN__	__EPS__
s	s
o	o
l	ll

__BEGIN__	__EPS__
i	i
c	c
h	h

__BEGIN__	__EPS__
n	n
i	i
m	mm

__BEGIN__	__EPS__
d	d
e	e
r	r

__BEGIN__	__EPS__
a	a
n	n
d	d
e	e
r	re

__BEGIN__	__EPS__
d	d
a	a
r	r
i	i
m	n

__BEGIN__	__EPS__
d	d
e	e
r	r

__BEGIN__	__EPS__
i	u
n	n
d	d

__BEGIN__	__EPS__
g	g
o	o
t	tt

__BEGIN__	__EPS__
i	i
n	n

__BEGIN__	__EPS__
h	h
ü	a
s	u
e	s

__BEGIN__	__EPS__
v	a
s	u
z	s

__BEGIN__	__EPS__
h	h
a	a
d	t
d	t
e	e
n	n

__BEGIN__	__EPS__
d	d
o	a

__BEGIN__	__EPS__
v	u
n	n
s	s
e	er

__BEGIN__	__EPS__
s	s
u	u
c	c
h	h
t	t
e	e

__BEGIN__	__EPS__
d	d
o	a

__BEGIN__	__EPS__
i	e
r	r
s	s
c	c
h	h
r	r
e	ec
k	k
t	t
e	e

__BEGIN__	__EPS__
o	o
f	b
f	__EPS__

__BEGIN__	__EPS__
h	h
u	ü
l	l
f	f
e	e
n	n

__BEGIN__	__EPS__
d	d
c	ass

__BEGIN__	__EPS__
a	a
n	n

__BEGIN__	__EPS__
a	a
l	l
s	s
o	o

__BEGIN__	__EPS__
a	a
l	l
s	s

__BEGIN__	__EPS__
e	e
r	r
s	s
t	t
u	a
n	n
d	d

__BEGIN__	__EPS__
g	g
e	e
m	m
a	a
c	c
h	h
t	t

