__BEGIN__	__EPS__
l	l
a	a
n	n
g	g
e	e

__BEGIN__	__EPS__
k	k
v	__EPS__
i	ö
n	n
i	i
c	g
h	__EPS__

__BEGIN__	__EPS__
h	h
a	a
t	t
t	t
e	e

__BEGIN__	__EPS__
m	m
o	ö
r	r
d	d
e	e
r	r

__BEGIN__	__EPS__
e	e
r	r

__BEGIN__	__EPS__
w	w
u	u
n	n
d	d
e	e
n	__EPS__

__BEGIN__	__EPS__
w	w
a	a
n	nn

__BEGIN__	__EPS__
c	__EPS__
z	z
u	u

__BEGIN__	__EPS__
m	m
y	i
r	r

__BEGIN__	__EPS__
d	d
o	a

__BEGIN__	__EPS__
d	d
a	a
s	s

__BEGIN__	__EPS__
d	d
u	u
r	r
c	c
h	h

__BEGIN__	__EPS__
y	ih
r	r

__BEGIN__	__EPS__
w	w
o	oh
l	l

__BEGIN__	__EPS__
c	c
e	e
n	n
t	t
u	u
r	r
i	i
o	o

__BEGIN__	__EPS__
n	n
i	i
e	ch
t	t

__BEGIN__	__EPS__
g	g
a	a
r	r

__BEGIN__	__EPS__
s	s
o	o

__BEGIN__	__EPS__
a	a
n	n

__BEGIN__	__EPS__
a	a
n	n
d	de
r	r
e	e

__BEGIN__	__EPS__
i	ih
m	m

__BEGIN__	__EPS__
y	ih
m	m

__BEGIN__	__EPS__
d	d
o	a

__BEGIN__	__EPS__
m	m
e	i
d	t
e	__EPS__

__BEGIN__	__EPS__
t	t
r	r
i	i
n	n
k	k

__BEGIN__	__EPS__
a	a
n	n
s	s
a	a
c	__EPS__
h	h

__BEGIN__	__EPS__
w	we
i	i
z	s
h	h
e	e
i	i
t	t

__BEGIN__	__EPS__
t	__EPS__
z	z
o	o
i	__EPS__
g	g
e	e
n	n

__BEGIN__	__EPS__
m	m
i	i
r	r

__BEGIN__	__EPS__
l	l
i	i
e	e
p	be

__BEGIN__	__EPS__
m	m
i	i
c	c
h	h

__BEGIN__	__EPS__
f	f
r	r
a	a
ü	u
w	__EPS__
e	__EPS__

__BEGIN__	__EPS__
w	w
e	e
n	nn

__BEGIN__	__EPS__
d	d
e	e
m	m

__BEGIN__	__EPS__
v	u
n	n
d	d

__BEGIN__	__EPS__
v	v
o	o
n	n

__BEGIN__	__EPS__
m	m
e	e
i	i
n	n
e	e
m	m

__BEGIN__	__EPS__
n	n
y	ich
t	t

__BEGIN__	__EPS__
s	s
y	i
m	m
i	e
o	o
n	n
s	s

__BEGIN__	__EPS__
w	w
a	a
n	n
g	g
e	e

__BEGIN__	__EPS__
i	ih
m	m

__BEGIN__	__EPS__
l	l
a	a
m	m
a	a
z	z
a	a
b	b
a	a
t	t
h	h
a	a
n	n
i	i

__BEGIN__	__EPS__
s	s
e	e
h	h
e	e
n	n

__BEGIN__	__EPS__
m	m
i	i
c	c
h	h

__BEGIN__	__EPS__
n	n
a	a
g	g
e	e
l	l

__BEGIN__	__EPS__
d	d
o	a
e	__EPS__

__BEGIN__	__EPS__
d	d
a	a
s	ss

__BEGIN__	__EPS__
s	s
e	e
i	i
n	n
e	e
m	m

__BEGIN__	__EPS__
w	w
o	o

__BEGIN__	__EPS__
w	w
e	e
i	i
p	b

__BEGIN__	__EPS__
v	u
n	n
d	d

__BEGIN__	__EPS__
s	s
p	p
r	r
a	a
c	c
h	h

__BEGIN__	__EPS__
w	w
a	a
s	r

__BEGIN__	__EPS__
a	a
l	l
l	l
e	e

__BEGIN__	__EPS__
s	s
e	e
h	h
t	t

__BEGIN__	__EPS__
a	a
n	n

__BEGIN__	__EPS__
f	f
ü	üh
r	r
t	t
e	e
n	n

__BEGIN__	__EPS__
i	ih
m	m

__BEGIN__	__EPS__
m	m
o	o
c	c
h	h
t	te

__BEGIN__	__EPS__
k	k
o	om
m	m
e	e
n	n

__BEGIN__	__EPS__
s	s
p	p
y	i
e	e
n	n

__BEGIN__	be
s	s
u	o
n	n
d	d
e	e
r	re
n	n

__BEGIN__	__EPS__
w	w
i	i
s	s
s	s
e	e
n	n
t	d

__BEGIN__	__EPS__
s	s
i	e
j	i

__BEGIN__	__EPS__
v	v
e	__EPS__
r	__EPS__
v	__EPS__
i	i
e	e
r	r
l	f
i	a
c	c
h	h
e	__EPS__
n	__EPS__

__BEGIN__	__EPS__
m	m
e	e
i	i
n	n
e	e
s	s

__BEGIN__	__EPS__
i	j
u	u
d	d
e	e
n	n

__BEGIN__	__EPS__
d	d
o	a

__BEGIN__	__EPS__
d	d
a	a
u	v
i	i
d	d

__BEGIN__	__EPS__
e	e
n	m
p	p
h	f
a	an
h	g
e	e
n	n

__BEGIN__	__EPS__
v	v
o	o
r	r

__BEGIN__	__EPS__
a	a
n	n
s	s
e	e
l	l
m	m
e	__EPS__

__BEGIN__	__EPS__
i	j
o	u
d	d
e	e
n	n

__BEGIN__	__EPS__
d	__EPS__
w	w
o	u
e	s
c	c
h	h

__BEGIN__	__EPS__
m	me
y	i
n	n
e	e
n	m

__BEGIN__	__EPS__
v	u
n	n
d	d

__BEGIN__	__EPS__
s	s
i	i
c	c
h	h

__BEGIN__	__EPS__
d	d
a	a

__BEGIN__	__EPS__
m	l
i	i
n	__EPS__
e	e
k	b
l	l
i	i
c	c
h	h

__BEGIN__	__EPS__
d	d
e	e
r	r

__BEGIN__	__EPS__
a	a
u	u
c	c
h	h

__BEGIN__	__EPS__
s	s
t	t
a	ä
t	tte

__BEGIN__	__EPS__
i	i
c	c
h	h

__BEGIN__	__EPS__
s	s
i	e
j	i
n	n

__BEGIN__	__EPS__
a	a
n	n

__BEGIN__	__EPS__
s	s
y	ie

__BEGIN__	__EPS__
s	s
t	t
u	a
e	__EPS__
n	n
d	d

__BEGIN__	__EPS__
w	w
a	a
s	r

__BEGIN__	__EPS__
s	s
o	o

__BEGIN__	__EPS__
h	h
e	e
r	r
z	z
e	__EPS__
k	__EPS__
l	l
i	i
c	c
h	h

__BEGIN__	__EPS__
v	u
n	n
d	d

__BEGIN__	__EPS__
f	f
r	r
a	a
ü	u
w	__EPS__
e	__EPS__

__BEGIN__	__EPS__
e	u
n	nd

__BEGIN__	d
u	u

__BEGIN__	__EPS__
s	se
i	i
n	n

__BEGIN__	__EPS__
s	s
p	p
r	r
a	a
c	c
h	h

__BEGIN__	__EPS__
w	w
e	o
l	l
l	l
e	e

__BEGIN__	__EPS__
v	u
n	n
d	d

__BEGIN__	__EPS__
m	m
e	e
i	i
n	n

__BEGIN__	__EPS__
d	d
a	a
s	s

__BEGIN__	__EPS__
w	w
a	a
r	r
d	d
e	e
n	n

__BEGIN__	__EPS__
v	u
n	n
d	d

__BEGIN__	__EPS__
d	d
e	e
r	r

__BEGIN__	__EPS__
u	b
n	i
c	__EPS__
z	s

__BEGIN__	__EPS__
i	i
n	n

__BEGIN__	__EPS__
ü	a
s	u
z	s
e	e
y	i
n	n
a	a
n	n
d	d
e	e
r	r

__BEGIN__	__EPS__
v	u
n	n
d	d

__BEGIN__	__EPS__
i	i
s	s
t	t

__BEGIN__	__EPS__
i	i
c	c
h	h

__BEGIN__	__EPS__
d	d
e	e
n	n

__BEGIN__	__EPS__
h	h
a	a
b	b
e	e
n	n

__BEGIN__	__EPS__
v	b
n	i
c	__EPS__
z	s

__BEGIN__	__EPS__
z	z
u	u

__BEGIN__	__EPS__
w	w
i	i
r	r

__BEGIN__	__EPS__
n	n
a	ah
m	m

__BEGIN__	__EPS__
m	m
i	i
r	r

__BEGIN__	__EPS__
m	m
a	a
n	nn

__BEGIN__	__EPS__
g	g
e	e
c	k
r	r
e	e
u	u
t	__EPS__
z	z
i	i
g	g
e	__EPS__
t	t

__BEGIN__	__EPS__
d	d
a	a
z	s

__BEGIN__	__EPS__
m	m
o	oc
h	h
t	te

__BEGIN__	__EPS__
i	i
c	c
h	h

__BEGIN__	__EPS__
s	s
o	o

__BEGIN__	__EPS__
d	d
e	e
m	m

__BEGIN__	__EPS__
n	n
a	ah
m	m

__BEGIN__	__EPS__
s	se
i	i
n	n
e	e
n	n

__BEGIN__	__EPS__
d	d
a	a
s	s

__BEGIN__	__EPS__
d	d
e	e
n	m

__BEGIN__	__EPS__
i	i
c	c
h	h

__BEGIN__	__EPS__
k	k
i	i
n	n
t	d

__BEGIN__	__EPS__
l	l
e	e
i	i
t	d

__BEGIN__	__EPS__
s	s
a	a
c	__EPS__
h	h

__BEGIN__	__EPS__
s	s
p	p
r	r
a	a
c	c
h	h
e	e
n	n

__BEGIN__	__EPS__
d	d
e	e
n	n

__BEGIN__	__EPS__
i	j
u	u
d	d
e	e
n	n

__BEGIN__	__EPS__
w	w
u	ol
l	l
d	t
e	e

__BEGIN__	__EPS__
w	w
a	a
r	r
d	d

__BEGIN__	__EPS__
v	u
n	n
d	d

__BEGIN__	__EPS__
d	d
e	e
m	m

__BEGIN__	__EPS__
s	s
e	e
i	i
n	n

__BEGIN__	__EPS__
s	s
p	p
r	r
e	e
c	c
h	h
e	e
n	n

__BEGIN__	__EPS__
g	g
i	i
n	n
g	g

__BEGIN__	__EPS__
h	h
o	ö
r	r
i	e
n	n

__BEGIN__	__EPS__
h	h
a	a
n	n
d	d

__BEGIN__	__EPS__
w	w
a	a
s	r

__BEGIN__	__EPS__
h	h
e	a
t	t

__BEGIN__	__EPS__
n	n
i	ich
t	t

__BEGIN__	__EPS__
d	d
o	a

__BEGIN__	__EPS__
w	w
e	i
s	s
s	s
e	e
n	n

__BEGIN__	__EPS__
s	s
a	a
n	nk
t	t

__BEGIN__	__EPS__
m	m
e	e
i	i
n	n
e	e
s	s

__BEGIN__	__EPS__
t	z
e	e
y	i
k	ch
e	e
n	n

__BEGIN__	__EPS__
s	s
i	i
c	c
h	h

__BEGIN__	__EPS__
s	s
e	ee
l	le

__BEGIN__	__EPS__
g	g
e	e
p	b
a	e
i	i
n	ne

__BEGIN__	__EPS__
s	s
p	p
r	r
a	a
c	c
h	h

__BEGIN__	__EPS__
s	s
o	o

__BEGIN__	__EPS__
l	l
e	e
i	i
d	d
e	e
n	n

__BEGIN__	__EPS__
s	s
i	ie

__BEGIN__	__EPS__
d	d
i	i
c	c
h	h

__BEGIN__	__EPS__
s	sch
w	w
e	e
r	re

__BEGIN__	__EPS__
v	u
n	n
d	d

__BEGIN__	__EPS__
s	s
p	p
r	r
a	a
c	c
h	h

__BEGIN__	__EPS__
t	t
e	ä
t	t
t	__EPS__
e	e

__BEGIN__	__EPS__
r	r
a	e
i	i
n	n
e	e
v	__EPS__

__BEGIN__	__EPS__
y	ih
m	m

__BEGIN__	__EPS__
m	m
i	i
r	r

__BEGIN__	__EPS__
d	d
v	u
r	rch

__BEGIN__	__EPS__
d	d
a	a
z	s

__BEGIN__	__EPS__
d	d
e	e
m	m

__BEGIN__	__EPS__
l	l
i	i
e	e
b	b
e	e
n	n

__BEGIN__	__EPS__
t	t
o	o
t	te
s	s

__BEGIN__	__EPS__
d	d
o	a

__BEGIN__	__EPS__
g	g
e	e
s	s
c	c
h	h
l	l
a	__EPS__
e	e
c	c
h	h
t	t

__BEGIN__	__EPS__
s	s
p	p
r	r
a	a
c	c
h	h

__BEGIN__	__EPS__
r	r
e	e
c	c
h	h
t	t
e	__EPS__

__BEGIN__	__EPS__
d	d
i	i
r	r

__BEGIN__	__EPS__
s	s
p	p
r	r
a	a
c	c
h	h

__BEGIN__	__EPS__
s	s
e	ee
l	l
e	e

__BEGIN__	__EPS__
p	b
i	i
t	t
t	t
e	e
r	r
c	k
h	__EPS__
a	e
y	i
t	t

__BEGIN__	__EPS__
m	m
e	e
i	i
n	n

__BEGIN__	__EPS__
v	u
r	r
t	t
e	e
i	i
l	l
d	__EPS__
e	__EPS__

__BEGIN__	__EPS__
d	d
i	i
e	e

__BEGIN__	__EPS__
d	d
o	a

__BEGIN__	__EPS__
m	me
i	i
n	n
e	e
n	n

__BEGIN__	__EPS__
i	ih
n	n

__BEGIN__	__EPS__
m	m
o	u
e	s
s	s

__BEGIN__	__EPS__
b	b
e	e
g	g
a	a
n	n
g	g
e	e
n	n

__BEGIN__	__EPS__
f	f
r	r
a	a
g	g

__BEGIN__	__EPS__
g	__EPS__
e	__EPS__
f	f
u	ü
o	h
r	r
t	t
e	e
n	n

__BEGIN__	__EPS__
d	d
a	a
s	s
z	s

__BEGIN__	__EPS__
h	h
e	e
r	r
c	z
z	g
e	e
n	__EPS__
l	l
i	i
e	e
b	bt
e	e
n	n

__BEGIN__	__EPS__
s	s
p	p
r	r
a	a
c	c
h	h

__BEGIN__	__EPS__
h	he
u	u
t	t
e	e

__BEGIN__	__EPS__
w	w
a	a
s	r

__BEGIN__	__EPS__
k	k
i	i
n	n
d	d

__BEGIN__	__EPS__
v	v
o	o
r	r

__BEGIN__	__EPS__
m	m
i	i
c	c
h	h

__BEGIN__	be
g	g
e	eh
r	r
t	t

__BEGIN__	__EPS__
m	m
a	a
g	g
d	d
a	a
l	l
e	e
n	n
a	a

__BEGIN__	__EPS__
v	u
n	n
d	d

__BEGIN__	__EPS__
v	v
e	e
r	r
t	__EPS__
z	z
a	a
g	g
e	__EPS__
t	t

__BEGIN__	__EPS__
m	m
o	u
d	tt
e	e
r	r

__BEGIN__	__EPS__
m	m
i	i
c	c
h	h

__BEGIN__	__EPS__
s	s
i	i
j	e

__BEGIN__	__EPS__
l	b
a	e
s	f
s	r
e	e
n	it

__BEGIN__	__EPS__
d	d
i	i
e	e

__BEGIN__	__EPS__
m	t
a	o
n	t
s	sch
l	l
a	a
c	g
h	__EPS__
t	s

__BEGIN__	__EPS__
v	u
n	n
d	d

__BEGIN__	__EPS__
b	b
a	e
y	i
d	d
e	e

__BEGIN__	__EPS__
g	__EPS__
e	__EPS__
t	t
r	r
u	u
e	__EPS__
g	g
e	e
n	n

__BEGIN__	__EPS__
d	d
e	e
i	i
n	n

__BEGIN__	__EPS__
v	u
n	n
d	d

__BEGIN__	__EPS__
v	u
n	n
d	d

__BEGIN__	__EPS__
s	s
o	o

__BEGIN__	__EPS__
k	k
i	i
n	n
d	d

__BEGIN__	__EPS__
e	e
r	r

__BEGIN__	__EPS__
m	m
i	i
c	c
h	h

__BEGIN__	__EPS__
d	da
z	ss

__BEGIN__	__EPS__
a	a
l	l
l	l
e	e
n	n

__BEGIN__	d
u	u

__BEGIN__	__EPS__
i	i
n	n

__BEGIN__	__EPS__
c	k
o	ö
r	r
p	p
e	e
r	r

__BEGIN__	__EPS__
i	ih
m	m

__BEGIN__	__EPS__
m	me
i	i
n	n

__BEGIN__	__EPS__
b	w
a	a
i	r
t	t
e	e
t	t
t	__EPS__
e	e
n	__EPS__
d	__EPS__

__BEGIN__	__EPS__
s	s
c	c
h	h
r	r
i	i
r	__EPS__
e	e
n	n

__BEGIN__	__EPS__
p	b
e	e
g	g
i	i
e	__EPS__
n	n
g	g
e	e
n	n

__BEGIN__	__EPS__
s	s
i	e
e	i

__BEGIN__	__EPS__
i	i
c	c
h	h

__BEGIN__	__EPS__
r	r
e	e
d	d
e	e

__BEGIN__	__EPS__
d	d
i	ie
s	s
e	e
m	m

__BEGIN__	__EPS__
e	e
y	i
n	n

__BEGIN__	__EPS__
d	d
i	i
r	r

__BEGIN__	__EPS__
g	g
i	i
n	n
g	g

__BEGIN__	__EPS__
i	j
u	u
d	d
e	e
n	n

__BEGIN__	__EPS__
p	p
f	f
e	e
n	n
n	n
i	i
g	g

__BEGIN__	__EPS__
g	__EPS__
e	__EPS__
s	s
p	p
a	a
n	n
n	n
e	e
n	n

__BEGIN__	__EPS__
d	d
a	a
z	s

__BEGIN__	__EPS__
v	u
n	n
n	d

__BEGIN__	__EPS__
v	f
r	r
a	a
g	g
e	e
n	n

__BEGIN__	__EPS__
i	j
o	o
s	s
e	e
p	p
h	h

__BEGIN__	__EPS__
i	j
h	es
-	u
m	s

__BEGIN__	__EPS__
a	a
n	n
n	n
o	o

__BEGIN__	__EPS__
s	s
c	c
h	h
a	ä
c	c
h	h
e	e
r	r
n	n

__BEGIN__	__EPS__
d	d
u	u
r	r
c	c
h	h
g	g
e	eh
e	e

__BEGIN__	__EPS__
d	d
e	e
m	m

__BEGIN__	__EPS__
c	k
r	r
e	e
u	u
c	__EPS__
z	z
e	__EPS__

__BEGIN__	__EPS__
v	u
n	n
d	d

__BEGIN__	__EPS__
u	u
r	r
t	t
e	e
i	i
l	l

__BEGIN__	__EPS__
d	t
r	r
a	a
g	g
h	__EPS__
e	e
n	n

__BEGIN__	__EPS__
v	v
o	e
r	r
g	g
e	e
b	b
i	e
n	n

__BEGIN__	__EPS__
w	w
a	a
t	s

__BEGIN__	__EPS__
k	k
o	a
m	m
e	e
n	n

__BEGIN__	__EPS__
g	g
o	o
t	tt

__BEGIN__	__EPS__
h	h
a	a
m	mm
e	e
r	r

__BEGIN__	__EPS__
i	ih
n	n

__BEGIN__	__EPS__
p	b
e	e
c	__EPS__
h	k
e	eh
r	r
t	t

__BEGIN__	__EPS__
w	w
a	a
n	n
e	__EPS__
n	n

__BEGIN__	__EPS__
i	i
c	c
h	h

__BEGIN__	__EPS__
s	s
a	o
l	ll
t	t

__BEGIN__	__EPS__
s	s
u	o
n	n
d	d
e	e
r	rn

__BEGIN__	__EPS__
v	u
m	n
b	r
i	e
l	__EPS__
c	c
h	ht

__BEGIN__	__EPS__
d	d
i	i
e	e

__BEGIN__	__EPS__
w	w
o	ah
r	r

__BEGIN__	__EPS__
p	p
i	i
l	l
a	a
t	t
u	u
s	s

__BEGIN__	__EPS__
i	ih
n	n

__BEGIN__	__EPS__
m	m
e	a
n	n

__BEGIN__	__EPS__
e	e
r	r

__BEGIN__	__EPS__
d	d
i	i
e	e

__BEGIN__	__EPS__
l	l
e	eh
r	re

__BEGIN__	__EPS__
a	e
i	i
n	n

__BEGIN__	__EPS__
z	zu

__BEGIN__	__EPS__
g	g
r	r
a	a
b	b

__BEGIN__	__EPS__
d	d
a	a
t	ss

__BEGIN__	__EPS__
g	g
e	e
d	t
a	a
i	__EPS__
n	n

__BEGIN__	__EPS__
n	n
i	i
c	c
h	h
t	t

__BEGIN__	__EPS__
l	l
a	e
i	i
d	d
e	e
s	s

__BEGIN__	__EPS__
l	l
a	e
i	i
d	d
e	e
s	s

__BEGIN__	__EPS__
h	h
i	i
m	m
e	m
l	li
s	sc
h	h
e	e
n	n

__BEGIN__	__EPS__
g	g
a	a
f	b
f	__EPS__

__BEGIN__	__EPS__
h	h
e	e
r	rr

__BEGIN__	__EPS__
g	g
i	i
n	n
g	g

__BEGIN__	__EPS__
d	d
a	a
s	s

__BEGIN__	__EPS__
k	k
r	r
u	e
i	u
c	__EPS__
z	z

__BEGIN__	__EPS__
e	e
m	m
p	p
h	f
a	a
c	n
h	g

__BEGIN__	__EPS__
s	s
a	a
c	__EPS__
h	h

__BEGIN__	__EPS__
m	m
o	o
r	r
t	d

__BEGIN__	__EPS__
h	h
a	a
n	be
d	n

__BEGIN__	__EPS__
d	t
e	ä
d	t
e	e

__BEGIN__	__EPS__
e	i
m	h
e	m

__BEGIN__	__EPS__
h	h
e	e
u	u
t	te

__BEGIN__	__EPS__
a	e
i	i
g	g
e	e
n	n

__BEGIN__	__EPS__
v	b
e	e
r	k
i	__EPS__
e	a
h	n
e	__EPS__
n	nt

__BEGIN__	__EPS__
n	n
a	a
c	c
h	h

__BEGIN__	__EPS__
w	w
o	a
n	nn

__BEGIN__	__EPS__
m	me
i	i
n	n

__BEGIN__	__EPS__
v	ü
i	__EPS__
b	b
e	__EPS__
l	l
e	e
m	m

__BEGIN__	__EPS__
m	m
e	e
y	i
n	ne
s	s

__BEGIN__	__EPS__
d	d
u	u

__BEGIN__	__EPS__
v	v
o	o
r	r

__BEGIN__	__EPS__
v	u
n	n
d	d

__BEGIN__	__EPS__
w	w
o	o
r	r
t	t

__BEGIN__	__EPS__
a	a
l	l
l	l
e	e
n	n

__BEGIN__	n
e	ich
n	t

__BEGIN__	__EPS__
m	m
i	i
t	t

__BEGIN__	__EPS__
g	g
e	e
p	b
e	e
t	t

__BEGIN__	__EPS__
s	s
e	e
l	li
e	g
k	k
e	e
i	i
t	t

__BEGIN__	__EPS__
v	u
n	n
d	d

__BEGIN__	__EPS__
s	s
v	i
i	e

__BEGIN__	__EPS__
i	ih
m	m

__BEGIN__	__EPS__
n	n
u	u
n	n

__BEGIN__	__EPS__
v	u
n	n
d	d

__BEGIN__	__EPS__
a	a
n	n

__BEGIN__	__EPS__
m	m
e	e
r	h
r	r

__BEGIN__	__EPS__
k	k
i	i
n	n
d	d
e	e
s	s

__BEGIN__	__EPS__
m	m
u	u
o	t
t	t
e	e
r	r

__BEGIN__	__EPS__
w	w
i	i
e	e

__BEGIN__	__EPS__
d	d
i	i
e	e

__BEGIN__	__EPS__
s	s
o	o
r	r
g	ge

__BEGIN__	__EPS__
s	s
u	oh
n	n

__BEGIN__	__EPS__
g	g
r	r
o	o
i	__EPS__
s	s
z	s

__BEGIN__	__EPS__
s	s
o	o

__BEGIN__	__EPS__
p	p
a	a
r	r
a	a
s	s
a	c
p	e
h	v
e	e

__BEGIN__	__EPS__
d	d
e	e
r	r

__BEGIN__	__EPS__
d	d
e	e
n	m

__BEGIN__	__EPS__
i	i
c	c
h	h

__BEGIN__	__EPS__
d	d
y	i
e	e

__BEGIN__	__EPS__
w	wu
r	r
d	d
e	e
n	n

__BEGIN__	__EPS__
a	a
b	b
g	g
r	r
u	u
n	n
d	d

__BEGIN__	__EPS__
c	__EPS__
z	z
u	u

__BEGIN__	__EPS__
h	h
u	a
s	u
z	s

__BEGIN__	__EPS__
n	n
u	un

__BEGIN__	__EPS__
t	t
r	r
o	o
p	p
p	f
e	e
n	n

__BEGIN__	__EPS__
z	z
u	u
o	__EPS__

__BEGIN__	__EPS__
v	u
n	n
d	d

__BEGIN__	__EPS__
d	d
e	e
n	n

__BEGIN__	__EPS__
d	d
o	a
r	__EPS__
n	n
o	a
c	c
h	h

__BEGIN__	__EPS__
a	a
l	l
l	l
e	e

__BEGIN__	__EPS__
t	t
r	r
a	a
n	n
g	k

__BEGIN__	__EPS__
d	d
a	a
n	n
n	n
a	e
n	n

__BEGIN__	__EPS__
d	d
i	i
r	r

__BEGIN__	__EPS__
s	s
p	p
r	r
a	a
c	c
h	h
e	e
n	n

__BEGIN__	__EPS__
s	s
y	i
m	me
o	o
n	n
i	__EPS__
s	s

__BEGIN__	__EPS__
d	d
a	a
r	r
a	a
u	u
f	f

__BEGIN__	__EPS__
a	a
u	u
f	f

__BEGIN__	__EPS__
s	s
e	e
n	n
d	d
e	e
t	t
e	e

__BEGIN__	__EPS__
i	j
o	o
h	ha
-	nne
s	s

__BEGIN__	__EPS__
v	u
n	n
n	d

__BEGIN__	__EPS__
p	b
r	r
u	u
n	n
n	n
e	en

__BEGIN__	__EPS__
e	e
w	v
a	a
n	n
g	g
e	e
l	l
i	i
s	s
t	t
e	__EPS__

__BEGIN__	__EPS__
t	__EPS__
z	z
o	u

__BEGIN__	__EPS__
s	s
t	t
ü	a
n	n
d	d

__BEGIN__	__EPS__
s	s
c	c
h	h
r	r
e	e
y	i
b	b
e	e
n	n

__BEGIN__	__EPS__
d	d
i	i
e	e

__BEGIN__	__EPS__
d	d
i	i
e	e

__BEGIN__	__EPS__
i	ih
m	m

__BEGIN__	__EPS__
w	w
o	ol
l	l
t	t
e	e

__BEGIN__	__EPS__
z	z
e	u

__BEGIN__	__EPS__
s	sc
h	h
a	ä
c	c
h	h
e	e
r	r
n	n

__BEGIN__	__EPS__
z	z
u	u

__BEGIN__	__EPS__
c	__EPS__
z	z
u	u

__BEGIN__	__EPS__
d	d
o	a
e	__EPS__

__BEGIN__	__EPS__
g	g
r	r
o	o
t	ss
e	e
n	n

__BEGIN__	__EPS__
m	m
e	e
i	i
n	n
e	e
m	m

__BEGIN__	__EPS__
w	we
i	i
s	s
s	s
a	a
g	gung

__BEGIN__	__EPS__
w	w
a	a
n	n
g	ge

__BEGIN__	__EPS__
g	g
e	e
s	s
v	ü
n	ndig
t	t

__BEGIN__	__EPS__
d	d
a	a

__BEGIN__	__EPS__
v	v
a	o
n	n

__BEGIN__	__EPS__
b	b
l	l
u	u
o	__EPS__
t	t

__BEGIN__	__EPS__
i	i
n	n

__BEGIN__	__EPS__
d	d
a	a

__BEGIN__	__EPS__
g	g
a	a
b	b

__BEGIN__	__EPS__
s	s
y	ie

__BEGIN__	__EPS__
a	a
l	l
l	l
e	e
r	r

__BEGIN__	__EPS__
s	s
i	ie

__BEGIN__	__EPS__
f	f
r	r
a	a
w	u
e	e
n	n

__BEGIN__	__EPS__
s	s
c	c
h	h
o	o
e	s
s	s

__BEGIN__	__EPS__
d	d
o	a

__BEGIN__	__EPS__
v	u
n	n
d	d

__BEGIN__	__EPS__
d	d
o	a

__BEGIN__	__EPS__
h	h
i	i
m	mme
l	l

__BEGIN__	__EPS__
d	d
a	__EPS__
r	r
t	e
i	i
c	ssi
h	g

__BEGIN__	__EPS__
w	w
a	a
z	r

__BEGIN__	__EPS__
e	e
r	r

__BEGIN__	__EPS__
w	w
i	i
e	e

__BEGIN__	__EPS__
d	d
i	i
e	e

__BEGIN__	__EPS__
d	d
e	e
r	r

__BEGIN__	__EPS__
e	e
s	s

__BEGIN__	__EPS__
h	h
e	e
r	r
c	__EPS__
z	z
e	__EPS__

__BEGIN__	__EPS__
z	z
w	w
e	e
n	i

__BEGIN__	__EPS__
l	l
a	ah
m	m
e	e
n	n

__BEGIN__	__EPS__
h	h
a	a
b	b
e	e

__BEGIN__	__EPS__
m	m
i	i
c	c
h	h

__BEGIN__	__EPS__
g	g
e	__EPS__
l	l
i	ie
d	d
e	e
r	r

__BEGIN__	__EPS__
h	h
a	a
t	t
t	__EPS__

__BEGIN__	__EPS__
d	d
o	a

__BEGIN__	__EPS__
c	k
r	r
e	e
u	u
c	__EPS__
z	z

__BEGIN__	__EPS__
m	m
e	e
y	i
n	n
e	e
m	m

__BEGIN__	__EPS__
d	d
a	a
s	ss

__BEGIN__	__EPS__
i	ih
r	r

__BEGIN__	__EPS__
i	ih
m	m

__BEGIN__	__EPS__
d	de
y	i
n	n
r	e
e	r

__BEGIN__	__EPS__
t	t
r	r
i	i
n	n
k	k
e	e
n	n
e	__EPS__

__BEGIN__	__EPS__
y	ih
m	m

__BEGIN__	__EPS__
g	g
i	i
n	n
g	g

__BEGIN__	__EPS__
a	a
l	l
s	s
e	__EPS__

__BEGIN__	__EPS__
w	w
e	e
n	n
i	i
g	g

__BEGIN__	__EPS__
w	w
a	a
z	s

__BEGIN__	__EPS__
a	a
l	l
s	s

__BEGIN__	__EPS__
a	a
n	n
d	d
e	e
r	r
s	s
t	__EPS__

__BEGIN__	__EPS__
g	g
e	e
l	l
o	a
u	u
f	f
f	__EPS__
e	e
n	n

__BEGIN__	__EPS__
v	ü
b	b
e	e
r	r

__BEGIN__	__EPS__
s	s
e	e
i	i
s	s
t	t

__BEGIN__	__EPS__
w	w
i	i
d	d
e	e
r	r

__BEGIN__	__EPS__
p	b
i	i
n	n

__BEGIN__	__EPS__
w	w
u	a
r	r
f	f
f	__EPS__
e	e
n	n

__BEGIN__	__EPS__
s	s
y	ie

__BEGIN__	__EPS__
v	u
n	n
d	d

__BEGIN__	__EPS__
s	s
e	e
i	i
n	n

__BEGIN__	__EPS__
v	u
n	n
d	d

__BEGIN__	__EPS__
i	i
c	c
h	h

__BEGIN__	__EPS__
m	m
i	i
c	c
h	h

__BEGIN__	__EPS__
k	k
a	a
u	u
m	m

__BEGIN__	__EPS__
n	n
u	u
n	n

__BEGIN__	__EPS__
z	z
u	u
o	__EPS__

__BEGIN__	__EPS__
i	u
n	n
d	d

__BEGIN__	__EPS__
r	r
i	i
c	c
h	h
t	t
e	e
r	r

__BEGIN__	__EPS__
e	e
r	r

__BEGIN__	__EPS__
l	l
i	i
c	c
h	h
t	t

__BEGIN__	__EPS__
g	g
r	r
o	o
s	s
s	s
e	e
n	n

__BEGIN__	__EPS__
s	s
p	p
r	r
a	a
c	c
h	h

__BEGIN__	__EPS__
d	d
e	e
m	m

__BEGIN__	__EPS__
w	w
u	u
n	n
d	d
e	e
n	n

__BEGIN__	__EPS__
i	i
s	s
t	t

__BEGIN__	__EPS__
h	e
i	r

__BEGIN__	__EPS__
z	z
e	e
i	i
c	c
h	h
e	en

__BEGIN__	__EPS__
s	s
y	ie

__BEGIN__	__EPS__
g	g
i	i
e	__EPS__
n	n
g	g
e	e
n	n

__BEGIN__	__EPS__
g	g
o	o
t	t
t	t
e	e
s	s

__BEGIN__	__EPS__
g	g
r	r
o	o
s	s
z	s

__BEGIN__	__EPS__
v	v
e	e
r	r
p	b
o	o
t	t
e	e
n	n

__BEGIN__	__EPS__
g	__EPS__
e	__EPS__
s	s
p	p
r	r
a	a
c	c
h	h

__BEGIN__	__EPS__
h	h
i	i
e	e
s	ss

__BEGIN__	__EPS__
e	e
i	i
n	n

__BEGIN__	__EPS__
n	n
o	o
c	c
h	h

__BEGIN__	__EPS__
d	d
a	a
r	r

__BEGIN__	__EPS__
w	w
o	o
r	r
d	d
e	e
n	n

__BEGIN__	__EPS__
s	s
y	ie

__BEGIN__	__EPS__
g	g
i	i
e	__EPS__
n	n
g	g

__BEGIN__	__EPS__
d	d
e	e
r	r

__BEGIN__	__EPS__
d	d
e	e
r	r

__BEGIN__	__EPS__
i	ih
n	n

__BEGIN__	__EPS__
s	s
i	ch
n	m
e	a
c	c
h	h

__BEGIN__	__EPS__
v	u
n	n
d	d

__BEGIN__	__EPS__
f	f
r	r
o	a
w	u
e	__EPS__

__BEGIN__	__EPS__
d	d
a	a
s	s

__BEGIN__	__EPS__
g	g
o	o
t	t
t	t
e	e
s	s

__BEGIN__	__EPS__
d	d
y	i
r	r

__BEGIN__	__EPS__
m	me
y	i
n	n

__BEGIN__	__EPS__
s	s
e	e
l	l
b	ber

__BEGIN__	__EPS__
a	a
l	l
l	l
e	e
m	m

__BEGIN__	__EPS__
s	s
o	o

__BEGIN__	__EPS__
i	i
s	s
t	t

__BEGIN__	__EPS__
n	n
i	i
e	ch
t	t

__BEGIN__	__EPS__
a	a
l	l
l	l

__BEGIN__	__EPS__
d	d
u	u

__BEGIN__	__EPS__
l	l
a	a
n	n
d	d

__BEGIN__	__EPS__
s	s
y	ie

__BEGIN__	__EPS__
d	d
i	i
e	e

__BEGIN__	__EPS__
d	d
i	i
e	e

__BEGIN__	__EPS__
n	n
a	ah
m	m

__BEGIN__	__EPS__
z	z
e	e
r	r
s	s
c	c
h	h
l	l
a	a
c	__EPS__
h	g
e	e
n	n

__BEGIN__	__EPS__
s	s
a	a
c	__EPS__
h	h
e	e
n	n
d	__EPS__

__BEGIN__	__EPS__
z	z
v	u
e	__EPS__

__BEGIN__	__EPS__
v	v
o	o
n	n

__BEGIN__	__EPS__
d	d
e	e
r	r

__BEGIN__	__EPS__
g	g
i	i
e	__EPS__
n	n
c	g

__BEGIN__	__EPS__
g	g
o	ö
e	t
t	t
l	l
i	i
c	c
h	h

__BEGIN__	__EPS__
a	a
n	n

__BEGIN__	__EPS__
g	g
e	e
v	f
u	ü
e	h
r	r
e	__EPS__
t	t

__BEGIN__	__EPS__
d	d
u	u
r	r
c	c
h	h
s	s
t	t
e	e
c	c
h	h
e	e
n	n

__BEGIN__	__EPS__
d	d
e	e
n	n

__BEGIN__	__EPS__
d	d
a	a

__BEGIN__	__EPS__
i	j
u	u
d	d
e	e
n	n

__BEGIN__	__EPS__
g	g
e	e
l	l
e	e
e	__EPS__
f	b
f	__EPS__
d	t
e	e

__BEGIN__	__EPS__
h	h
e	e
r	r
t	__EPS__
z	z
e	__EPS__

__BEGIN__	__EPS__
k	k
y	i
n	n
t	d

__BEGIN__	__EPS__
n	n
i	i
t	ch
t	t

__BEGIN__	__EPS__
s	s
i	i
e	e

__BEGIN__	__EPS__
v	v
e	e
r	r
t	__EPS__
z	z
a	a
i	__EPS__
c	__EPS__
h	g
t	t

__BEGIN__	__EPS__
e	e
i	i
n	n
e	e
n	m

__BEGIN__	__EPS__
s	s
a	a
l	lo
m	m
o	o
n	n

__BEGIN__	__EPS__
p	b
e	e
g	g
r	r
u	ü
e	__EPS__
b	b
e	e

__BEGIN__	__EPS__
v	u
n	n
d	d

__BEGIN__	__EPS__
w	w
a	a
s	r

__BEGIN__	__EPS__
e	e
r	r
t	t
o	ö
t	t
e	e
n	n

__BEGIN__	__EPS__
e	e
n	n
t	t
g	g
a	eh
i	e
n	n

__BEGIN__	__EPS__
g	g
a	a
f	b
f	__EPS__

__BEGIN__	__EPS__
w	w
e	e
r	r

__BEGIN__	__EPS__
e	e
r	r

__BEGIN__	__EPS__
v	u
n	n
d	d

__BEGIN__	__EPS__
l	l
y	ie
b	b
e	e
s	s

__BEGIN__	__EPS__
d	d
i	i
e	e

__BEGIN__	__EPS__
s	s
p	p
r	r
a	a
c	c
h	h

__BEGIN__	__EPS__
c	__EPS__
z	z
ü	u

__BEGIN__	__EPS__
g	g
r	r
o	o
z	s
z	s
e	e
n	m

__BEGIN__	__EPS__
m	m
a	a
r	r
i	i
a	a

__BEGIN__	__EPS__
w	w
e	e
n	nn

__BEGIN__	__EPS__
s	s
c	c
h	h
e	ä
c	c
h	h
e	e
r	r

__BEGIN__	__EPS__
m	m
e	e
i	i
n	n

__BEGIN__	__EPS__
w	w
i	i
l	l
l	l
e	e
n	n

__BEGIN__	__EPS__
s	s
p	p
r	r
a	a
c	c
h	h

__BEGIN__	__EPS__
h	h
i	i
e	e
s	s
s	s
e	e

__BEGIN__	__EPS__
d	d
u	u
r	r
c	c
h	h

__BEGIN__	__EPS__
i	i
c	c
h	h

__BEGIN__	__EPS__
m	m
i	i
c	c
h	h

__BEGIN__	__EPS__
s	s
i	i
j	e

__BEGIN__	__EPS__
w	w
o	ol
l	l
t	te

__BEGIN__	__EPS__
k	k
o	a
m	m
e	e
n	n

__BEGIN__	__EPS__
w	wi
e	e
g	g
t	t
e	e
n	n

__BEGIN__	__EPS__
a	a
n	n

__BEGIN__	__EPS__
v	u
n	n
d	d

__BEGIN__	__EPS__
s	s
p	p
r	r
a	a
c	c
h	h

__BEGIN__	__EPS__
v	v
o	o
n	n

__BEGIN__	d
u	u

__BEGIN__	__EPS__
v	u
n	n
d	d

__BEGIN__	__EPS__
i	j
u	u
d	d
e	e
n	n

__BEGIN__	__EPS__
s	s
a	a
c	__EPS__
h	h
e	e
n	n

__BEGIN__	__EPS__
r	r
i	e
j	i
c	c
h	h

__BEGIN__	__EPS__
k	k
a	a
i	i
s	s
e	e
r	r

__BEGIN__	__EPS__
p	p
y	i
l	l
a	a
t	t
u	u
s	s

__BEGIN__	__EPS__
c	k
h	__EPS__
e	eh
r	r
t	t
e	e

__BEGIN__	__EPS__
i	ih
n	n

__BEGIN__	__EPS__
v	u
n	n
d	d

__BEGIN__	__EPS__
f	f
o	ü
i	r
c	c
h	h
t	t
e	e
s	s
t	t

__BEGIN__	__EPS__
y	ih
n	n

__BEGIN__	__EPS__
e	e
r	r

__BEGIN__	__EPS__
d	d
i	i
e	e

__BEGIN__	__EPS__
s	se
y	i
n	n
i	e
r	r

__BEGIN__	__EPS__
s	s
e	a
n	nd
t	t
e	e

__BEGIN__	__EPS__
v	u
n	n
d	d

__BEGIN__	__EPS__
m	m
i	i
t	t

__BEGIN__	__EPS__
m	me
i	i
n	n
e	e
n	m

__BEGIN__	__EPS__
m	m
e	e
i	i
n	n

__BEGIN__	__EPS__
v	v
o	o
n	n

__BEGIN__	__EPS__
i	e
s	s

__BEGIN__	__EPS__
w	w
a	a
s	s

__BEGIN__	__EPS__
e	e
r	r
s	s
c	c
h	h
r	r
a	a
k	k
t	__EPS__

__BEGIN__	__EPS__
l	l
o	ö
s	s
t	t
e	e

__BEGIN__	__EPS__
m	m
i	i
t	t

__BEGIN__	__EPS__
m	m
i	i
r	r

__BEGIN__	__EPS__
m	me
i	i
n	n
e	e
m	m

__BEGIN__	__EPS__
s	s
e	e
l	l
i	i
c	g
h	__EPS__

__BEGIN__	__EPS__
t	t
u	u
e	__EPS__

__BEGIN__	__EPS__
w	w
e	e
l	l
t	t

__BEGIN__	__EPS__
k	k
o	a
m	m

__BEGIN__	__EPS__
w	p
e	r
i	o
s	p
s	h
a	e
g	t

__BEGIN__	__EPS__
v	v
a	a
t	t
e	e
r	r

__BEGIN__	__EPS__
d	d
u	u

__BEGIN__	__EPS__
s	s
a	a
c	__EPS__
h	h
e	e
n	n

__BEGIN__	__EPS__
n	n
a	a
t	t
u	u
r	r

__BEGIN__	__EPS__
a	a
l	ll

__BEGIN__	__EPS__
s	s
e	i
u	e

__BEGIN__	__EPS__
k	k
u	ö
n	n
i	i
g	g

__BEGIN__	__EPS__
v	v
o	o
n	n

__BEGIN__	__EPS__
d	d
u	u
r	r
c	c
h	h

__BEGIN__	__EPS__
a	e
i	i
n	n

__BEGIN__	__EPS__
m	m
i	i
t	t

__BEGIN__	__EPS__
w	w
i	i
e	e

__BEGIN__	__EPS__
w	w
o	ol
l	l
d	t
e	e
n	n

__BEGIN__	__EPS__
z	z
u	u

__BEGIN__	__EPS__
y	ih
r	r

__BEGIN__	__EPS__
d	d
a	a

__BEGIN__	__EPS__
e	e
n	n
g	g
e	e
l	l
e	__EPS__

__BEGIN__	__EPS__
w	w
a	a
n	nn

__BEGIN__	__EPS__
m	m
i	i
r	r

__BEGIN__	__EPS__
v	u
n	n
d	d

__BEGIN__	__EPS__
v	f
u	ü
r	r

__BEGIN__	__EPS__
v	f
a	a
d	d
e	e
m	n

__BEGIN__	__EPS__
f	f
r	r
e	e
u	u
d	d
e	e

__BEGIN__	__EPS__
s	s
y	ie

__BEGIN__	__EPS__
h	h
e	e
l	l
f	f
f	e

__BEGIN__	__EPS__
s	s
i	i
e	e

__BEGIN__	__EPS__
y	i
m	h
e	m

__BEGIN__	__EPS__
i	i
u	u
d	d
e	e
o	o
r	r
u	u
m	m

__BEGIN__	__EPS__
u	u
m	m

__BEGIN__	__EPS__
m	m
i	i
t	t

__BEGIN__	__EPS__
m	m
a	a
n	n
i	i
c	g
h	__EPS__
v	f
e	a
l	l
t	tigkeit

__BEGIN__	__EPS__
e	e
r	r

__BEGIN__	__EPS__
b	__EPS__
o	ü
u	b
e	e
n	r

__BEGIN__	__EPS__
m	me
i	i
n	n

__BEGIN__	__EPS__
m	me
i	i
n	n
e	e
n	n

__BEGIN__	__EPS__
d	d
a	a
z	s

__BEGIN__	__EPS__
w	w
y	i
r	r

__BEGIN__	__EPS__
v	u
n	n
d	d

__BEGIN__	__EPS__
k	k
e	e
y	i
n	n

__BEGIN__	__EPS__
s	se
i	i
n	n

__BEGIN__	__EPS__
g	g
e	e
s	s
p	p
r	r
o	o
c	c
h	h
e	e
n	n
e	__EPS__
n	__EPS__

__BEGIN__	__EPS__
d	d
o	a

__BEGIN__	__EPS__
w	w
a	a
s	s
z	s
e	e
r	r

__BEGIN__	__EPS__
z	z
o	u

__BEGIN__	__EPS__
m	m
i	i
r	r

__BEGIN__	__EPS__
s	s
c	c
h	h
a	a
r	r
f	f
f	__EPS__
e	e
n	n

__BEGIN__	__EPS__
d	d
e	e
m	m

__BEGIN__	__EPS__
d	d
o	a

__BEGIN__	__EPS__
m	m
e	e
i	i
n	n

__BEGIN__	__EPS__
p	b
l	l
u	u
e	__EPS__
t	t

__BEGIN__	__EPS__
d	d
e	e
i	i
n	n
e	e
m	m

__BEGIN__	__EPS__
e	e
r	r
k	q
u	ui
c	c
k	k
t	t

__BEGIN__	__EPS__
m	m
i	i
c	c
h	h

__BEGIN__	__EPS__
a	a
l	l
z	s

__BEGIN__	__EPS__
c	k
h	__EPS__
r	r
e	e
u	u
c	__EPS__
z	z

__BEGIN__	__EPS__
i	j
h	__EPS__
e	e
r	r
u	u
s	s
a	a
l	l
e	e
m	m

__BEGIN__	__EPS__
w	w
i	ie
d	d
e	e
r	r

__BEGIN__	__EPS__
h	h
e	ä
t	t
t	t
e	e

__BEGIN__	__EPS__
d	d
v	u

__BEGIN__	__EPS__
d	d
i	i
e	e

__BEGIN__	__EPS__
a	a
n	n

__BEGIN__	__EPS__
e	e
i	i
n	n

__BEGIN__	__EPS__
d	d
a	a

__BEGIN__	__EPS__
s	s
i	i
c	c
h	h

__BEGIN__	__EPS__
s	s
u	oh
n	n

__BEGIN__	__EPS__
e	e
s	ss
i	i
c	__EPS__
h	g

__BEGIN__	__EPS__
h	h
a	a
i	be
n	n

__BEGIN__	__EPS__
i	ih
n	n

__BEGIN__	__EPS__
i	ih
n	n

__BEGIN__	__EPS__
h	h
o	ö
r	r
t	t
e	e

__BEGIN__	__EPS__
w	w
a	a
r	r
t	t
e	e
t	t

__BEGIN__	__EPS__
d	t
e	ä
d	t
e	e

__BEGIN__	__EPS__
h	e
i	r

__BEGIN__	__EPS__
i	ih
m	m

__BEGIN__	__EPS__
d	d
e	e
r	r

__BEGIN__	__EPS__
a	e
i	i
n	n

__BEGIN__	__EPS__
v	u
n	n
n	d

__BEGIN__	__EPS__
d	d
u	u

__BEGIN__	__EPS__
t	t
o	o
d	t

__BEGIN__	__EPS__
b	b
e	e
t	z
w	w
ü	u
n	n
g	g
e	e
n	n

__BEGIN__	__EPS__
l	v
i	ers
b	ch
e	o
r	nt

__BEGIN__	__EPS__
h	h
e	a
t	t

__BEGIN__	__EPS__
j	ih
n	n

__BEGIN__	__EPS__
e	e
n	n
d	d
e	e
s	s

__BEGIN__	__EPS__
s	s
i	i
c	c
h	h

__BEGIN__	__EPS__
d	d
i	i
e	e

__BEGIN__	__EPS__
v	u
n	n
d	d

__BEGIN__	__EPS__
l	l
a	e
i	i
t	d

__BEGIN__	__EPS__
f	f
a	a
s	s
z	s

__BEGIN__	__EPS__
a	a
n	n

__BEGIN__	__EPS__
s	sch
l	l
a	e
i	ie
r	r

__BEGIN__	__EPS__
s	s
e	e
l	l
b	b
e	e
r	r

__BEGIN__	__EPS__
v	u
n	n
d	t
e	e
r	r
a	e
i	i
n	n
a	a
n	n
d	d
e	e
r	r

__BEGIN__	__EPS__
d	d
i	i
e	e

__BEGIN__	__EPS__
c	t
z	r
e	ä
h	n
e	e
r	n

__BEGIN__	__EPS__
b	b
l	l
u	u
o	__EPS__
t	t

__BEGIN__	__EPS__
w	w
i	i
s	s
s	s
e	e

__BEGIN__	__EPS__
v	u
n	n
d	d

__BEGIN__	__EPS__
g	g
r	r
o	o
s	s
z	s
e	e
s	s
z	__EPS__

__BEGIN__	__EPS__
w	wi
e	e
g	g
t	t
e	e
n	n

__BEGIN__	__EPS__
a	a
u	u
f	f

__BEGIN__	__EPS__
i	ih
m	m

__BEGIN__	__EPS__
h	h
i	i
n	n

__BEGIN__	__EPS__
w	w
a	a
s	r

__BEGIN__	__EPS__
d	d
e	e
r	r

__BEGIN__	__EPS__
p	p
e	e
t	t
e	r
r	us

__BEGIN__	__EPS__
i	ih
m	m

__BEGIN__	__EPS__
v	v
e	e
r	r
s	sch
m	m
e	ä
h	h
t	t

__BEGIN__	__EPS__
s	s
i	i
c	e
h	h

__BEGIN__	__EPS__
k	k
o	o
m	mmen

__BEGIN__	__EPS__
d	d
a	as
z	s

__BEGIN__	__EPS__
g	g
e	e
n	n
a	a
s	s
z	__EPS__

__BEGIN__	__EPS__
s	s
t	t
o	ö
e	__EPS__
s	s
s	s
e	e
n	n

__BEGIN__	__EPS__
p	p
r	r
o	o

__BEGIN__	a
v	u
f	f

__BEGIN__	__EPS__
d	d
o	a

__BEGIN__	__EPS__
d	d
e	e
r	r

__BEGIN__	__EPS__
g	__EPS__
e	__EPS__
s	s
e	e
i	i
n	n

__BEGIN__	__EPS__
g	g
e	e
t	t
o	ö
e	__EPS__
t	t
e	e
t	t

__BEGIN__	__EPS__
t	zu

__BEGIN__	__EPS__
i	u
n	n
d	d

__BEGIN__	__EPS__
h	h
a	a
t	t

__BEGIN__	__EPS__
v	f
r	r
o	a
u	u
w	__EPS__
e	e
n	n

__BEGIN__	__EPS__
s	se
y	i
n	n
r	e
e	r

__BEGIN__	__EPS__
v	v
i	ie
l	l

__BEGIN__	__EPS__
d	d
a	a
s	ss

__BEGIN__	__EPS__
e	e
r	r

__BEGIN__	__EPS__
m	m
i	i
r	r

__BEGIN__	__EPS__
v	u
n	n
d	d

__BEGIN__	__EPS__
t	t
r	r
e	ä
h	n
e	e
n	n

__BEGIN__	__EPS__
w	w
i	i
e	e

__BEGIN__	__EPS__
e	e
r	r
s	s
c	c
h	h
a	i
i	e
n	n
e	e
n	n

__BEGIN__	__EPS__
h	h
a	a
s	s
t	t

__BEGIN__	__EPS__
s	s
p	p
r	r
a	a
e	__EPS__
c	c
h	h
e	e
n	n

__BEGIN__	__EPS__
m	m
e	e
i	i
n	n
e	e
s	s

__BEGIN__	__EPS__
v	u
n	n
d	d

__BEGIN__	__EPS__
b	b
e	e
t	t
r	r
u	ü
e	__EPS__
b	b
t	te
s	s

__BEGIN__	__EPS__
d	d
a	a

__BEGIN__	__EPS__
n	n
i	ich
t	t

__BEGIN__	__EPS__
d	d
e	e
r	r

__BEGIN__	__EPS__
a	a
l	l
s	s
o	o

__BEGIN__	__EPS__
a	a
n	n

__BEGIN__	__EPS__
d	d
a	a

__BEGIN__	__EPS__
d	d
i	ie

__BEGIN__	__EPS__
y	i
n	n

__BEGIN__	__EPS__
w	w
a	a
r	r
e	e
n	n

__BEGIN__	__EPS__
f	f
v	ü
i	__EPS__
r	r

__BEGIN__	__EPS__
t	t
o	o
l	l
l	l
i	i
t	t
e	e

__BEGIN__	__EPS__
s	s
o	o
l	ll
d	t
e	e

__BEGIN__	__EPS__
i	ih
n	n

__BEGIN__	__EPS__
p	p
i	i
l	l
a	a
t	t
o	us

__BEGIN__	__EPS__
d	t
o	o
c	c
h	h
t	t
e	e
r	r

__BEGIN__	__EPS__
e	ei
n	n
e	e
n	n

__BEGIN__	__EPS__
i	u
n	n
d	d

__BEGIN__	__EPS__
d	d
a	as
s	s

__BEGIN__	__EPS__
v	v
e	e
r	r
o	u
i	__EPS__
r	r
d	t
e	ei
l	l
d	t
e	e
n	n

__BEGIN__	__EPS__
s	sch
l	l
a	ä
g	g
e	e

__BEGIN__	__EPS__
d	d
i	i
e	e
s	s
s	__EPS__
e	e
r	r

__BEGIN__	__EPS__
s	s
i	ie

__BEGIN__	__EPS__
i	j
h	__EPS__
e	e
r	r
u	u
s	s
a	a
l	l
e	e
m	m

__BEGIN__	__EPS__
d	d
e	e
n	n

__BEGIN__	__EPS__
i	ih
r	r
a	e

__BEGIN__	__EPS__
m	m
i	i
c	c
h	h

__BEGIN__	__EPS__
k	k
i	i
n	n
t	d

__BEGIN__	__EPS__
h	h
e	ä
n	n
d	d
e	e

__BEGIN__	__EPS__
a	a
l	l
s	s

__BEGIN__	__EPS__
k	k
i	i
n	n
t	d

__BEGIN__	__EPS__
h	h
e	ä
n	n
d	de

__BEGIN__	__EPS__
d	d
o	a

__BEGIN__	__EPS__
n	n
a	a
c	c
h	h
t	t

__BEGIN__	__EPS__
i	j
u	u
d	d
i	e
n	n

__BEGIN__	__EPS__
s	s
i	ie

__BEGIN__	__EPS__
m	m
i	i
r	r

__BEGIN__	__EPS__
v	v
o	o
n	n

__BEGIN__	__EPS__
k	k
o	a
v	u
f	__EPS__
f	f

__BEGIN__	__EPS__
b	b
y	i
n	n

__BEGIN__	__EPS__
a	a
b	b
e	e
r	r

__BEGIN__	__EPS__
u	u
m	m
b	__EPS__

__BEGIN__	__EPS__
g	g
r	r
o	o
i	__EPS__
s	s
s	s
e	e

__BEGIN__	__EPS__
h	e
e	r

__BEGIN__	__EPS__
w	w
e	e
g	g

__BEGIN__	__EPS__
w	w
a	a
r	r
e	e
n	n

__BEGIN__	__EPS__
d	d
i	i
e	e

__BEGIN__	__EPS__
s	s
t	t
a	ad
t	t

__BEGIN__	__EPS__
c	k
r	r
e	e
u	u
c	__EPS__
z	z

__BEGIN__	__EPS__
s	s
a	ol
l	l
t	t

__BEGIN__	__EPS__
h	h
e	er
r	r
e	e
n	n

__BEGIN__	__EPS__
e	e
i	i
n	n

__BEGIN__	__EPS__
d	d
u	u

__BEGIN__	__EPS__
z	z
ü	u

__BEGIN__	__EPS__
a	a
l	l
l	l
e	e
m	m

__BEGIN__	__EPS__
s	s
c	c
h	h
r	r
i	i
r	__EPS__
e	e
n	n

__BEGIN__	__EPS__
p	p
y	i
l	l
a	a
t	t
u	u
s	s

__BEGIN__	__EPS__
a	a
l	l
l	l

__BEGIN__	__EPS__
y	je

__BEGIN__	__EPS__
a	a
l	l
l	l
e	e
n	n

__BEGIN__	__EPS__
d	d
a	a
s	ss

__BEGIN__	__EPS__
t	t
o	o
d	d
t	__EPS__

__BEGIN__	__EPS__
d	da
z	s

__BEGIN__	__EPS__
d	d
e	e
m	m

__BEGIN__	__EPS__
s	s
u	oh
n	n

__BEGIN__	__EPS__
s	sch
w	w
e	e
r	r
t	t

__BEGIN__	__EPS__
m	m
i	e
j	i
n	n

__BEGIN__	__EPS__
s	s
a	a
n	nd
t	te

__BEGIN__	__EPS__
g	g
e	e
s	s
c	c
h	h
u	i
y	eh
t	t

__BEGIN__	__EPS__
b	b
e	e
w	w
e	e
g	g
t	t

__BEGIN__	__EPS__
d	d
y	ie
t	s

__BEGIN__	__EPS__
g	g
a	a
r	r

__BEGIN__	__EPS__
c	k
r	r
u	__EPS__
e	e
t	u
z	z

__BEGIN__	__EPS__
t	t
o	ö
t	t
e	e
n	n

__BEGIN__	__EPS__
w	w
i	il
l	l

__BEGIN__	__EPS__
l	l
e	eh
r	re

__BEGIN__	__EPS__
s	ve
c	r
h	w
a	a
f	l
f	t
e	e
r	r

__BEGIN__	__EPS__
m	m
e	e
i	i
n	n
e	e
s	s

__BEGIN__	__EPS__
k	k
a	e
i	i
n	n
e	e
r	r

__BEGIN__	__EPS__
z	zu

__BEGIN__	__EPS__
s	s
c	c
h	h
e	e
l	l
m	m
e	e
n	n

__BEGIN__	__EPS__
w	w
a	a
s	r

__BEGIN__	__EPS__
d	d
e	e
r	r

__BEGIN__	__EPS__
d	d
i	i
e	e

__BEGIN__	__EPS__
a	a
l	l
s	s

__BEGIN__	__EPS__
d	d
a	a
t	s

__BEGIN__	__EPS__
d	d
o	a

__BEGIN__	__EPS__
c	k
l	l
e	e
y	i
t	d

__BEGIN__	__EPS__
d	d
i	ie

__BEGIN__	__EPS__
d	d
a	a
z	s

__BEGIN__	__EPS__
d	da
z	s

__BEGIN__	__EPS__
a	a
n	n

__BEGIN__	__EPS__
g	g
e	e
b	b
r	r
e	e
c	c
h	h
l	l
i	i
c	c
h	h
e	e

__BEGIN__	__EPS__
s	s
y	ie

__BEGIN__	__EPS__
s	s
p	p
r	r
a	a
c	c
h	h

__BEGIN__	__EPS__
s	s
i	i
c	e
h	h

__BEGIN__	__EPS__
w	w
a	a
r	r
t	d

__BEGIN__	__EPS__
w	p
i	r
s	o
s	ph
a	e
g	t

__BEGIN__	__EPS__
s	s
p	p
r	r
a	a
c	c
h	h

__BEGIN__	__EPS__
m	m
o	o
c	c
h	h
t	te

__BEGIN__	__EPS__
n	n
i	ich
t	t

__BEGIN__	__EPS__
v	u
n	n
d	d

__BEGIN__	__EPS__
e	e
r	r

__BEGIN__	__EPS__
a	a
l	l
s	s
o	o

__BEGIN__	__EPS__
a	a
l	l
l	l
e	e
r	r

__BEGIN__	__EPS__
n	n
i	i
c	c
h	h
t	t
z	s

__BEGIN__	__EPS__
f	f
r	r
a	a
u	u
w	__EPS__
e	e
n	n

__BEGIN__	__EPS__
b	b
e	e
r	r
u	ü
o	h
r	r
e	e
n	n
t	d

__BEGIN__	__EPS__
b	b
e	e
y	i

__BEGIN__	__EPS__
i	j
h	e
-	s
u	u
s	s

__BEGIN__	__EPS__
i	j
u	u
d	d
e	e
n	n

__BEGIN__	__EPS__
h	h
o	o
c	c
h	h
t	__EPS__
z	z
e	e
i	i
t	t

__BEGIN__	__EPS__
y	ih
n	n

__BEGIN__	__EPS__
i	i
s	s
t	t

__BEGIN__	__EPS__
z	ze
i	i
t	t
e	e
n	n

__BEGIN__	__EPS__
v	u
n	n
d	d

__BEGIN__	__EPS__
e	e
r	r

__BEGIN__	__EPS__
d	d
a	a
n	n
c	__EPS__
k	k

__BEGIN__	__EPS__
s	s
c	c
h	h
a	e
i	i
d	d
e	e
n	n

__BEGIN__	__EPS__
f	f
r	r
a	a
u	u

__BEGIN__	__EPS__
d	d
e	e
i	i
n	n

__BEGIN__	__EPS__
i	ih
n	n

__BEGIN__	__EPS__
k	k
l	l
a	a
g	g
e	e

__BEGIN__	__EPS__
i	j
o	o
h	h
a	a
n	n
i	ne
s	s

__BEGIN__	__EPS__
u	u
n	n
d	d

__BEGIN__	__EPS__
v	v
i	ie
l	l

__BEGIN__	__EPS__
v	v
o	o
n	n

__BEGIN__	__EPS__
i	ih
m	m

__BEGIN__	__EPS__
a	a
l	l
l	l
e	e

__BEGIN__	__EPS__
w	w
o	a
e	h
r	r
l	h
e	a
i	f
c	ti
h	g

__BEGIN__	__EPS__
m	m
i	i
c	c
h	h

__BEGIN__	__EPS__
n	n
o	ah
m	m
e	e
n	n

__BEGIN__	__EPS__
d	d
i	i
c	c
h	h

__BEGIN__	__EPS__
g	g
e	e
r	r
e	__EPS__
n	n

__BEGIN__	__EPS__
w	w
i	i
l	l
l	l
e	e
n	n

__BEGIN__	__EPS__
l	l
a	ass

__BEGIN__	__EPS__
c	__EPS__
z	z
u	u

__BEGIN__	__EPS__
a	a
l	l
s	s
o	o

__BEGIN__	__EPS__
v	u
n	n
d	d

__BEGIN__	__EPS__
s	se
y	i
n	n
e	e

__BEGIN__	__EPS__
a	a
n	n

__BEGIN__	__EPS__
e	e
r	r

__BEGIN__	__EPS__
p	p
y	i
l	l
a	a
t	t
u	u
s	s

__BEGIN__	__EPS__
h	h
e	e
r	r
a	a
u	u
s	s
z	__EPS__

__BEGIN__	__EPS__
s	s
i	i
e	e

__BEGIN__	__EPS__
m	m
i	i
t	t

__BEGIN__	__EPS__
w	w
a	a
s	r

__BEGIN__	__EPS__
d	d
a	a
s	s

__BEGIN__	__EPS__
a	a
l	l
l	l
e	e
n	n

__BEGIN__	__EPS__
s	s
p	p
r	r
i	i
c	c
h	h
e	__EPS__
t	t

__BEGIN__	__EPS__
l	l
a	a
i	s
s	s

__BEGIN__	__EPS__
i	i
n	n

__BEGIN__	__EPS__
v	u
n	n
d	d

__BEGIN__	__EPS__
d	d
o	a
e	__EPS__

__BEGIN__	__EPS__
m	m
i	i
e	__EPS__
r	r

__BEGIN__	__EPS__
i	i
c	c
h	h

__BEGIN__	__EPS__
o	a
u	u
g	g
e	e
n	n

__BEGIN__	__EPS__
s	sch
w	w
e	e
s	s
t	t
e	e
r	r

__BEGIN__	__EPS__
w	w
i	ie
d	d
e	e
r	r

__BEGIN__	__EPS__
m	me
y	i
n	n
e	e
n	n

__BEGIN__	__EPS__
h	h
e	a
t	t
t	t
e	e

__BEGIN__	__EPS__
m	m
e	e
i	i
n	n
e	e
r	r

__BEGIN__	__EPS__
u	u
n	n
d	d

__BEGIN__	__EPS__
s	se
i	i
n	n

__BEGIN__	__EPS__
k	k
a	e
i	i
n	n

__BEGIN__	__EPS__
w	w
e	e
r	r

__BEGIN__	__EPS__
d	d
e	e
r	r

__BEGIN__	__EPS__
e	i
m	h
e	m

__BEGIN__	__EPS__
d	d
e	e
r	r

__BEGIN__	__EPS__
d	d
e	e
m	m

__BEGIN__	__EPS__
v	u
n	n
d	d

__BEGIN__	__EPS__
s	s
o	o

__BEGIN__	__EPS__
d	d
a	as
s	s

__BEGIN__	__EPS__
m	m
a	a
i	__EPS__
l	l

__BEGIN__	__EPS__
g	g
e	e
s	s
t	t
a	a
l	l
t	tet

__BEGIN__	__EPS__
s	s
c	c
h	h
o	ö
n	n

__BEGIN__	__EPS__
b	b
e	e
g	g
r	r
e	e
i	i
f	f
f	__EPS__
e	e
n	n

__BEGIN__	__EPS__
k	k
o	o
m	mm
e	e
n	n

__BEGIN__	__EPS__
m	m
i	i
t	t

__BEGIN__	__EPS__
b	b
e	e
g	g
u	a
n	n
d	n
e	__EPS__

__BEGIN__	__EPS__
c	k
h	__EPS__
r	r
e	ä
f	f
t	t
e	e
n	n

__BEGIN__	__EPS__
z	z
u	u
o	__EPS__

__BEGIN__	__EPS__
v	v
o	o
n	n

__BEGIN__	__EPS__
a	a
n	n
s	s
e	e
l	l
m	m
u	__EPS__
s	__EPS__

__BEGIN__	__EPS__
h	h
e	ä
n	n
d	d
e	e

__BEGIN__	__EPS__
v	u
n	n
d	d

__BEGIN__	__EPS__
z	z
u	u

__BEGIN__	__EPS__
v	u
n	n
d	d

__BEGIN__	__EPS__
c	k
l	l
a	a
g	g
e	e
n	n

__BEGIN__	__EPS__
m	m
i	i
r	r

__BEGIN__	__EPS__
d	d
e	e
s	s

__BEGIN__	__EPS__
s	s
a	a
h	h
e	e
n	n

__BEGIN__	__EPS__
k	k
i	i
n	n
d	de
s	s

__BEGIN__	__EPS__
d	d
e	e
n	n

__BEGIN__	__EPS__
i	ih
r	r
e	e
n	n

__BEGIN__	__EPS__
p	b
u	r
r	u
n	n
n	n
e	e
n	n

__BEGIN__	__EPS__
a	a
n	n
s	se
h	lm

__BEGIN__	__EPS__
w	w
a	a
s	s
s	s
e	e
r	r

__BEGIN__	__EPS__
v	u
n	n
d	d

__BEGIN__	__EPS__
s	se
i	i
n	n
e	e
m	m

__BEGIN__	__EPS__
d	d
o	a

__BEGIN__	__EPS__
i	i
c	c
h	h

__BEGIN__	__EPS__
g	g
e	e
t	t
h	__EPS__
a	a
n	n

__BEGIN__	__EPS__
v	u
n	n
s	s

__BEGIN__	__EPS__
o	a
u	u
c	c
h	h

__BEGIN__	__EPS__
z	z
w	w
e	e
n	i

__BEGIN__	__EPS__
s	s
i	i
e	e

__BEGIN__	__EPS__
h	h
e	e
r	rr
e	e
n	n

__BEGIN__	__EPS__
d	d
e	e
m	m

__BEGIN__	__EPS__
d	d
e	e
r	r

__BEGIN__	__EPS__
s	s
u	oh
n	n

__BEGIN__	__EPS__
t	t
o	öc
t	h
t	t
e	e
r	r

__BEGIN__	__EPS__
g	g
a	a
r	r

__BEGIN__	__EPS__
i	i
c	c
h	h

__BEGIN__	__EPS__
i	ih
n	n

__BEGIN__	__EPS__
b	b
l	l
u	u
o	__EPS__
t	t
z	s
t	t
r	r
o	o
p	p
f	fen

__BEGIN__	__EPS__
s	s
p	p
r	r
i	i
c	c
h	h
t	t

__BEGIN__	__EPS__
d	d
e	e
n	n

__BEGIN__	__EPS__
a	a
n	n
s	s
e	e
l	l
m	m
e	__EPS__

__BEGIN__	__EPS__
i	ih
n	n

__BEGIN__	__EPS__
k	k
i	i
n	n
t	d

__BEGIN__	__EPS__
m	m
e	e
i	i
n	n

__BEGIN__	__EPS__
v	u
n	n
n	d

__BEGIN__	__EPS__
v	u
n	n
d	d

__BEGIN__	__EPS__
m	m
i	ich

__BEGIN__	__EPS__
y	j
e	e
m	m
a	a
n	n
d	d

__BEGIN__	__EPS__
d	d
o	o
c	c
h	h

__BEGIN__	__EPS__
g	g
e	e
s	s
e	a
i	g
t	t

__BEGIN__	__EPS__
n	n
i	ic
e	h
t	t

__BEGIN__	__EPS__
w	w
e	e
e	h

__BEGIN__	__EPS__
o	o
w	w
e	eh

__BEGIN__	__EPS__
u	u
n	n
d	d

__BEGIN__	__EPS__
a	a
n	n

__BEGIN__	__EPS__
a	ausse
n	r

__BEGIN__	__EPS__
o	a
u	u
c	c
h	h

__BEGIN__	__EPS__
d	d
o	a

__BEGIN__	__EPS__
h	h
a	a
t	t
t	__EPS__

__BEGIN__	__EPS__
a	a
l	l
l	l
e	e

__BEGIN__	__EPS__
d	d
a	a
z	ss

__BEGIN__	__EPS__
d	d
a	a
s	s

__BEGIN__	__EPS__
v	v
o	o
n	n

__BEGIN__	__EPS__
i	e
z	s

__BEGIN__	__EPS__
i	i
c	c
h	h

__BEGIN__	__EPS__
v	u
n	n
d	d

__BEGIN__	__EPS__
d	d
e	e
r	r

__BEGIN__	__EPS__
s	s
o	o

__BEGIN__	__EPS__
m	m
o	u
n	n
t	d

__BEGIN__	__EPS__
p	p
e	e
t	t
r	r
e	us

__BEGIN__	__EPS__
k	k
e	e
i	i
n	n

__BEGIN__	__EPS__
v	u
n	n
d	d

__BEGIN__	__EPS__
d	d
u	u
r	r
c	c
h	h

__BEGIN__	__EPS__
l	l
e	e
y	g
t	t

__BEGIN__	__EPS__
l	l
a	__EPS__
u	__EPS__
l	__EPS__
a	a
u	u
t	t
e	e
r	r

__BEGIN__	__EPS__
e	e
y	i
n	n
e	e

__BEGIN__	__EPS__
e	e
n	n
d	de
s	s

__BEGIN__	__EPS__
d	d
o	a

__BEGIN__	__EPS__
s	s
p	p
r	r
a	a
c	c
h	h

__BEGIN__	__EPS__
w	w
a	a
s	r

__BEGIN__	__EPS__
e	e
r	r
s	s
c	c
h	h
e	i
i	e
n	n

__BEGIN__	__EPS__
m	m
e	e
i	i
n	n

__BEGIN__	__EPS__
d	d
r	r
i	i
t	t
t	t
e	e
n	n

__BEGIN__	__EPS__
f	f
ü	ü
r	r
c	c
h	h
t	t
e	e
s	s
t	t

__BEGIN__	__EPS__
y	i
m	h
e	m

__BEGIN__	__EPS__
y	j
e	e

__BEGIN__	__EPS__
a	e
y	i
n	n
e	e
r	r

__BEGIN__	__EPS__
g	g
e	e
r	r
i	i
c	c
h	h
t	t
e	e
s	s

__BEGIN__	__EPS__
h	h
e	ee
r	r
e	e
s	s

__BEGIN__	__EPS__
e	e
n	n
t	t
h	h
e	a
ü	u
b	pt
e	e
t	t
e	e

__BEGIN__	__EPS__
g	g
e	e
m	m
e	e
y	i
n	n
e	e

__BEGIN__	__EPS__
d	d
y	ie

__BEGIN__	__EPS__
s	s
p	p
r	r
a	a
c	c
h	h
e	e
n	n

__BEGIN__	__EPS__
e	e
r	r
f	f
ü	ü
l	ll
t	t

__BEGIN__	__EPS__
ü	ü
b	b
e	e
r	r

__BEGIN__	__EPS__
p	p
e	e
t	t
e	r
r	us

__BEGIN__	__EPS__
m	m
i	i
t	t
e	e
i	i
n	n
a	a
n	n
d	d
e	e
r	r

__BEGIN__	__EPS__
v	v
e	e
r	r
n	n
a	ah
m	m
e	e
n	n

__BEGIN__	__EPS__
v	u
n	n
d	d
e	__EPS__

__BEGIN__	__EPS__
m	m
e	e
i	i
n	n
e	e
s	s

__BEGIN__	__EPS__
s	s
a	a
g	g
e	e
n	n

__BEGIN__	__EPS__
d	t
o	u
e	e
g	__EPS__
e	__EPS__

__BEGIN__	__EPS__
d	d
e	e
m	m

__BEGIN__	__EPS__
m	m
i	i
t	t

__BEGIN__	__EPS__
v	u
n	n
s	s
e	e
r	re
s	s

__BEGIN__	__EPS__
g	g
r	r
o	o
s	ss
e	e
m	m

__BEGIN__	__EPS__
v	v
e	e
r	r
n	n
a	ah
m	m
e	e
n	n

__BEGIN__	__EPS__
s	s
a	a
m	m

__BEGIN__	__EPS__
m	m
e	e
n	n
s	s
c	c
h	h
e	e
n	n

__BEGIN__	__EPS__
m	m
i	i
r	r

__BEGIN__	__EPS__
p	b
l	l
e	e
i	i
b	b
e	e
n	n

__BEGIN__	__EPS__
v	v
e	e
r	r
s	sch
p	m
v	ä
i	h
n	t

__BEGIN__	__EPS__
a	a
n	n

__BEGIN__	__EPS__
s	s
e	e
i	i
n	n

__BEGIN__	__EPS__
c	k
h	__EPS__
i	i
n	n
t	d

__BEGIN__	__EPS__
d	d
e	e
n	n

__BEGIN__	__EPS__
m	m
i	i
c	c
h	h

__BEGIN__	__EPS__
c	k
h	__EPS__
i	i
n	n
d	d

__BEGIN__	__EPS__
s	sch
l	l
u	u
g	g
e	e
n	n

__BEGIN__	__EPS__
g	g
i	in
e	g

__BEGIN__	__EPS__
d	d
e	e
r	r

__BEGIN__	__EPS__
s	s
p	p
r	r
a	a
c	c
h	h

__BEGIN__	__EPS__
a	a
n	n

__BEGIN__	__EPS__
a	a
l	l
s	s
o	o

__BEGIN__	__EPS__
e	p
w	r
a	ie
r	s
t	t
e	e
n	r

__BEGIN__	__EPS__
s	s
e	e
i	i
n	n

__BEGIN__	__EPS__
v	u
n	n
d	d

__BEGIN__	__EPS__
w	w
u	a
r	r
f	__EPS__
f	f
e	e
n	n

